EESchema Schematic File Version 4
EELAYER 30 0
EELAYER END
$Descr A4 11693 8268
encoding utf-8
Sheet 1 1
Title "SoftSwitch 5volts"
Date "2021-02-27"
Rev "1.0"
Comp ""
Comment1 ""
Comment2 ""
Comment3 ""
Comment4 ""
$EndDescr
$Comp
L SoftSwitch:AP5230GY U1
U 1 1 603A451B
P 4850 3350
F 0 "U1" H 4750 3600 50  0000 C CNN
F 1 "AP5230GY" H 4850 3000 50  0000 C CNN
F 2 "Housings_SSOP:TSOP-6_1.65x3.05mm_Pitch0.95mm" H 4700 3200 50  0001 C CNN
F 3 "" H 4700 3200 50  0001 C CNN
	1    4850 3350
	1    0    0    -1  
$EndComp
$Comp
L Device:R_Small R2
U 1 1 603A51C0
P 4150 3000
F 0 "R2" H 3950 3050 50  0000 L CNN
F 1 "100K" H 3900 2950 50  0000 L CNN
F 2 "Resistors_SMD:R_0805" H 4150 3000 50  0001 C CNN
F 3 "~" H 4150 3000 50  0001 C CNN
	1    4150 3000
	1    0    0    -1  
$EndComp
$Comp
L power:GND #PWR0101
U 1 1 603A5C4F
P 4050 2800
F 0 "#PWR0101" H 4050 2550 50  0001 C CNN
F 1 "GND" V 4055 2672 50  0000 R CNN
F 2 "" H 4050 2800 50  0001 C CNN
F 3 "" H 4050 2800 50  0001 C CNN
	1    4050 2800
	0    1    1    0   
$EndComp
$Comp
L Diode:1N4001 D1
U 1 1 603A6BFA
P 4200 3350
F 0 "D1" H 4200 3450 50  0000 C CNN
F 1 "MBRA140" H 4200 3550 50  0000 C CNN
F 2 "Diodes_SMD:D_SMA" H 4200 3175 50  0001 C CNN
F 3 "http://www.vishay.com/docs/88503/1n4001.pdf" H 4200 3350 50  0001 C CNN
	1    4200 3350
	-1   0    0    1   
$EndComp
Wire Wire Line
	4350 3350 4500 3350
Wire Wire Line
	3750 3350 4050 3350
$Comp
L power:GND #PWR0102
U 1 1 603A9AA9
P 3850 3550
F 0 "#PWR0102" H 3850 3300 50  0001 C CNN
F 1 "GND" H 3855 3377 50  0000 C CNN
F 2 "" H 3850 3550 50  0001 C CNN
F 3 "" H 3850 3550 50  0001 C CNN
	1    3850 3550
	1    0    0    -1  
$EndComp
Wire Wire Line
	3750 3500 3850 3500
Wire Wire Line
	3850 3500 3850 3550
Wire Wire Line
	4050 2800 4150 2800
Wire Wire Line
	4150 2800 4150 2900
$Comp
L Diode:1N4001 D2
U 1 1 603AB060
P 5450 3200
F 0 "D2" H 5450 3100 50  0000 C CNN
F 1 "1n4148" H 5450 3000 50  0000 C CNN
F 2 "Diodes_SMD:D_0805" H 5450 3025 50  0001 C CNN
F 3 "http://www.vishay.com/docs/88503/1n4001.pdf" H 5450 3200 50  0001 C CNN
	1    5450 3200
	-1   0    0    1   
$EndComp
$Comp
L Diode:1N4001 D3
U 1 1 603AC83B
P 5850 3200
F 0 "D3" H 5850 3300 50  0000 C CNN
F 1 "1n4148" H 5850 3400 50  0000 C CNN
F 2 "Diodes_SMD:D_0805" H 5850 3025 50  0001 C CNN
F 3 "http://www.vishay.com/docs/88503/1n4001.pdf" H 5850 3200 50  0001 C CNN
	1    5850 3200
	1    0    0    -1  
$EndComp
Wire Wire Line
	5200 3200 5300 3200
Wire Wire Line
	5600 3200 5650 3200
$Comp
L Switch:SW_SPST SW1
U 1 1 603AF6E9
P 5650 3550
F 0 "SW1" V 5604 3648 50  0000 L CNN
F 1 "SW_SPST" V 5695 3648 50  0000 L CNN
F 2 "SoftSwitch:SPST" H 5650 3550 50  0001 C CNN
F 3 "~" H 5650 3550 50  0001 C CNN
	1    5650 3550
	0    1    1    0   
$EndComp
Wire Wire Line
	5650 3200 5650 3350
Connection ~ 5650 3200
Wire Wire Line
	5650 3200 5700 3200
$Comp
L power:GND #PWR0103
U 1 1 603B052F
P 5650 3800
F 0 "#PWR0103" H 5650 3550 50  0001 C CNN
F 1 "GND" H 5655 3627 50  0000 C CNN
F 2 "" H 5650 3800 50  0001 C CNN
F 3 "" H 5650 3800 50  0001 C CNN
	1    5650 3800
	1    0    0    -1  
$EndComp
Wire Wire Line
	5650 3750 5650 3800
Wire Wire Line
	6000 3200 6250 3200
$Comp
L Regulator_Linear:KA78M05_TO252 U2
U 1 1 603B373C
P 6200 4650
F 0 "U2" H 6200 4892 50  0000 C CNN
F 1 "KA78M05_TO252" H 6200 4801 50  0000 C CNN
F 2 "SoftSwitch:78m05" H 6200 4875 50  0001 C CIN
F 3 "https://www.onsemi.com/pub/Collateral/MC78M00-D.PDF" H 6200 4600 50  0001 C CNN
	1    6200 4650
	1    0    0    -1  
$EndComp
Wire Wire Line
	5200 3500 5250 3500
Wire Wire Line
	5250 3500 5250 4650
Wire Wire Line
	5250 4650 5650 4650
$Comp
L power:GND #PWR0104
U 1 1 603B6DEC
P 6200 5000
F 0 "#PWR0104" H 6200 4750 50  0001 C CNN
F 1 "GND" H 6205 4827 50  0000 C CNN
F 2 "" H 6200 5000 50  0001 C CNN
F 3 "" H 6200 5000 50  0001 C CNN
	1    6200 5000
	1    0    0    -1  
$EndComp
Wire Wire Line
	6200 4950 6200 5000
Wire Wire Line
	6500 4650 6600 4650
$Comp
L Device:C_Small C1
U 1 1 603B7F35
P 5250 4850
F 0 "C1" H 5342 4896 50  0000 L CNN
F 1 "1uF" H 5342 4805 50  0000 L CNN
F 2 "Capacitors_SMD:C_0805" H 5250 4850 50  0001 C CNN
F 3 "~" H 5250 4850 50  0001 C CNN
	1    5250 4850
	1    0    0    -1  
$EndComp
Wire Wire Line
	5250 4650 5250 4750
Connection ~ 5250 4650
$Comp
L power:GND #PWR0105
U 1 1 603B8FD1
P 5250 5000
F 0 "#PWR0105" H 5250 4750 50  0001 C CNN
F 1 "GND" H 5255 4827 50  0000 C CNN
F 2 "" H 5250 5000 50  0001 C CNN
F 3 "" H 5250 5000 50  0001 C CNN
	1    5250 5000
	1    0    0    -1  
$EndComp
Wire Wire Line
	5250 4950 5250 5000
$Comp
L Device:C_Small C2
U 1 1 603BB65B
P 5650 4850
F 0 "C2" H 5742 4896 50  0000 L CNN
F 1 "100uF" H 5742 4805 50  0000 L CNN
F 2 "Capacitors_SMD:CP_Elec_6.3x7.7" H 5650 4850 50  0001 C CNN
F 3 "~" H 5650 4850 50  0001 C CNN
	1    5650 4850
	1    0    0    -1  
$EndComp
$Comp
L power:GND #PWR0106
U 1 1 603BBC04
P 5650 5000
F 0 "#PWR0106" H 5650 4750 50  0001 C CNN
F 1 "GND" H 5655 4827 50  0000 C CNN
F 2 "" H 5650 5000 50  0001 C CNN
F 3 "" H 5650 5000 50  0001 C CNN
	1    5650 5000
	1    0    0    -1  
$EndComp
Wire Wire Line
	5650 4750 5650 4650
Connection ~ 5650 4650
Wire Wire Line
	5650 4650 5900 4650
Wire Wire Line
	5650 5000 5650 4950
$Comp
L Device:C_Small C4
U 1 1 603BDD1E
P 6950 4850
F 0 "C4" H 7042 4896 50  0000 L CNN
F 1 "1uF" H 7042 4805 50  0000 L CNN
F 2 "Capacitors_SMD:C_0805" H 6950 4850 50  0001 C CNN
F 3 "~" H 6950 4850 50  0001 C CNN
	1    6950 4850
	1    0    0    -1  
$EndComp
$Comp
L Device:C_Small C3
U 1 1 603BE488
P 6600 4850
F 0 "C3" H 6692 4896 50  0000 L CNN
F 1 "100uF" H 6692 4805 50  0000 L CNN
F 2 "Capacitors_SMD:CP_Elec_6.3x7.7" H 6600 4850 50  0001 C CNN
F 3 "~" H 6600 4850 50  0001 C CNN
	1    6600 4850
	1    0    0    -1  
$EndComp
$Comp
L power:GND #PWR0107
U 1 1 603BEB11
P 6600 5000
F 0 "#PWR0107" H 6600 4750 50  0001 C CNN
F 1 "GND" H 6605 4827 50  0000 C CNN
F 2 "" H 6600 5000 50  0001 C CNN
F 3 "" H 6600 5000 50  0001 C CNN
	1    6600 5000
	1    0    0    -1  
$EndComp
$Comp
L power:GND #PWR0108
U 1 1 603BEE8D
P 6950 5000
F 0 "#PWR0108" H 6950 4750 50  0001 C CNN
F 1 "GND" H 6955 4827 50  0000 C CNN
F 2 "" H 6950 5000 50  0001 C CNN
F 3 "" H 6950 5000 50  0001 C CNN
	1    6950 5000
	1    0    0    -1  
$EndComp
Wire Wire Line
	6600 5000 6600 4950
Wire Wire Line
	6600 4750 6600 4650
Connection ~ 6600 4650
Wire Wire Line
	6600 4650 6950 4650
Wire Wire Line
	6950 4750 6950 4650
Connection ~ 6950 4650
Wire Wire Line
	6950 4650 7050 4650
Wire Wire Line
	6950 5000 6950 4950
$Comp
L power:GND #PWR0109
U 1 1 603C04F3
P 5300 3350
F 0 "#PWR0109" H 5300 3100 50  0001 C CNN
F 1 "GND" V 5305 3222 50  0000 R CNN
F 2 "" H 5300 3350 50  0001 C CNN
F 3 "" H 5300 3350 50  0001 C CNN
	1    5300 3350
	0    -1   -1   0   
$EndComp
Wire Wire Line
	5200 3350 5300 3350
$Comp
L Device:R_Small R1
U 1 1 603C23A8
P 4850 2950
F 0 "R1" H 4650 3000 50  0000 L CNN
F 1 "100K" H 4600 2900 50  0000 L CNN
F 2 "Resistors_SMD:R_0805" H 4850 2950 50  0001 C CNN
F 3 "~" H 4850 2950 50  0001 C CNN
	1    4850 2950
	0    1    1    0   
$EndComp
Wire Wire Line
	4750 2950 4500 2950
Wire Wire Line
	4950 2950 5200 2950
Wire Wire Line
	5200 2950 5200 3200
Connection ~ 5200 3200
Connection ~ 4500 3350
Wire Wire Line
	4500 2950 4500 3350
Wire Wire Line
	3750 3200 4150 3200
Wire Wire Line
	4500 3500 4400 3500
Wire Wire Line
	4400 3500 4400 2600
Wire Wire Line
	4400 2600 5200 2600
Wire Wire Line
	5200 2600 5200 2950
Connection ~ 5200 2950
Wire Wire Line
	4150 3100 4150 3200
Connection ~ 4150 3200
Wire Wire Line
	4150 3200 4500 3200
$Comp
L SoftSwitch:PAD J3
U 1 1 603E2797
P 3500 3200
F 0 "J3" H 3400 3200 50  0000 C CNN
F 1 "HOLD" H 3250 3200 50  0000 C CNN
F 2 "SoftSwitch:Pad" H 3450 3150 50  0001 C CNN
F 3 "" H 3450 3150 50  0001 C CNN
	1    3500 3200
	1    0    0    -1  
$EndComp
$Comp
L SoftSwitch:PAD J1
U 1 1 603E39B7
P 3500 3350
F 0 "J1" H 3400 3350 50  0000 C CNN
F 1 "BATT" H 3250 3350 50  0000 C CNN
F 2 "SoftSwitch:Pad" H 3450 3300 50  0001 C CNN
F 3 "" H 3450 3300 50  0001 C CNN
	1    3500 3350
	1    0    0    -1  
$EndComp
$Comp
L SoftSwitch:PAD J2
U 1 1 603E3B2E
P 3500 3500
F 0 "J2" H 3400 3500 50  0000 C CNN
F 1 "GND" H 3250 3500 50  0000 C CNN
F 2 "SoftSwitch:Pad" H 3450 3450 50  0001 C CNN
F 3 "" H 3450 3450 50  0001 C CNN
	1    3500 3500
	1    0    0    -1  
$EndComp
$Comp
L SoftSwitch:PAD J4
U 1 1 603E6149
P 6500 3200
F 0 "J4" H 6400 3200 50  0000 C CNN
F 1 "SENSE" H 6200 3200 50  0000 C CNN
F 2 "SoftSwitch:PAD" H 6450 3150 50  0001 C CNN
F 3 "" H 6450 3150 50  0001 C CNN
	1    6500 3200
	-1   0    0    1   
$EndComp
$Comp
L SoftSwitch:PAD J5
U 1 1 603E89C5
P 7300 4650
F 0 "J5" H 7200 4650 50  0000 C CNN
F 1 "Vcc" H 7000 4650 50  0000 C CNN
F 2 "SoftSwitch:Pad" H 7250 4600 50  0001 C CNN
F 3 "" H 7250 4600 50  0001 C CNN
	1    7300 4650
	-1   0    0    1   
$EndComp
$Comp
L SoftSwitch:PAD J6
U 1 1 603EA74C
P 7300 5000
F 0 "J6" H 7200 5000 50  0000 C CNN
F 1 "GND" H 7000 5000 50  0000 C CNN
F 2 "SoftSwitch:Pad" H 7250 4950 50  0001 C CNN
F 3 "" H 7250 4950 50  0001 C CNN
	1    7300 5000
	-1   0    0    1   
$EndComp
Wire Wire Line
	7050 5000 6950 5000
Connection ~ 6950 5000
$Comp
L Mechanical:MountingHole H1
U 1 1 603EC744
P 3400 4600
F 0 "H1" H 3500 4646 50  0000 L CNN
F 1 "MountingHole" H 3500 4555 50  0000 L CNN
F 2 "Mounting_Holes:MountingHole_3.2mm_M3" H 3400 4600 50  0001 C CNN
F 3 "~" H 3400 4600 50  0001 C CNN
	1    3400 4600
	1    0    0    -1  
$EndComp
$Comp
L Mechanical:MountingHole H2
U 1 1 603ECF01
P 3400 4800
F 0 "H2" H 3500 4846 50  0000 L CNN
F 1 "MountingHole" H 3500 4755 50  0000 L CNN
F 2 "Mounting_Holes:MountingHole_3.2mm_M3" H 3400 4800 50  0001 C CNN
F 3 "~" H 3400 4800 50  0001 C CNN
	1    3400 4800
	1    0    0    -1  
$EndComp
$EndSCHEMATC
