0
SECTION
2
ENTITIES
0
LINE
8
Edge.Cuts
62
2
10
114.05
20
-408.7
11
124.05
21
-408.7
0
LINE
8
Edge.Cuts
62
2
10
124.05
20
-408.7
11
124.05
21
-411.2
0
LINE
8
Edge.Cuts
62
2
10
124.05
20
-411.2
11
114.05
21
-411.2
0
LINE
8
Edge.Cuts
62
2
10
114.05
20
-411.2
11
114.05
21
-408.7
0
LINE
8
Edge.Cuts
62
2
10
329.05
20
-443.7
11
329.05
21
-433.7
0
LINE
8
Edge.Cuts
62
2
10
386.45
20
-607.65
11
386.45
21
-609.65
0
LINE
8
Edge.Cuts
62
2
10
478.0
20
-383.85
11
478.0
21
-373.85
0
LINE
8
Edge.Cuts
62
2
10
37.05
20
-733.05
11
39.55
21
-733.05
0
LINE
8
Edge.Cuts
62
2
10
37.05
20
-803.05
11
39.55
21
-803.05
0
LINE
8
Edge.Cuts
62
2
10
36.7
20
-575.9
11
36.7
21
-565.9
0
LINE
8
Edge.Cuts
62
2
10
134.05
20
-433.7
11
136.55
21
-433.7
0
LINE
8
Edge.Cuts
62
2
10
136.55
20
-433.7
11
136.55
21
-443.7
0
LINE
8
Edge.Cuts
62
2
10
136.55
20
-443.7
11
134.05
21
-443.7
0
LINE
8
Edge.Cuts
62
2
10
134.05
20
-443.7
11
134.05
21
-433.7
0
LINE
8
Edge.Cuts
62
2
10
475.5
20
-403.85
11
478.0
21
-403.85
0
LINE
8
Edge.Cuts
62
2
10
264.2
20
-612.5
11
266.7
21
-612.5
0
LINE
8
Edge.Cuts
62
2
10
266.7
20
-612.5
11
266.7
21
-622.5
0
LINE
8
Edge.Cuts
62
2
10
266.7
20
-622.5
11
264.2
21
-622.5
0
LINE
8
Edge.Cuts
62
2
10
264.2
20
-622.5
11
264.2
21
-612.5
0
LINE
8
Edge.Cuts
62
2
10
39.05
20
-403.7
11
36.55
21
-403.7
0
LINE
8
Edge.Cuts
62
2
10
69.2
20
-572.5
11
71.7
21
-572.5
0
LINE
8
Edge.Cuts
62
2
10
71.7
20
-572.5
11
71.7
21
-582.5
0
LINE
8
Edge.Cuts
62
2
10
71.7
20
-582.5
11
69.2
21
-582.5
0
LINE
8
Edge.Cuts
62
2
10
69.2
20
-582.5
11
69.2
21
-572.5
0
LINE
8
Edge.Cuts
62
2
10
124.2
20
-510.9
11
124.2
21
-513.4
0
LINE
8
Edge.Cuts
62
2
10
39.55
20
-703.05
11
37.05
21
-703.05
0
LINE
8
Edge.Cuts
62
2
10
286.55
20
-508.7
11
309.05
21
-508.7
0
LINE
8
Edge.Cuts
62
2
10
332.05
20
-803.05
11
329.55
21
-803.05
0
LINE
8
Edge.Cuts
62
2
10
331.7
20
-545.9
11
329.2
21
-545.9
0
LINE
8
Edge.Cuts
62
2
10
39.2
20
-605.9
11
39.2
21
-595.9
0
LINE
8
Edge.Cuts
62
2
10
475.5
20
-368.85
11
475.5
21
-373.85
0
CIRCLE
8
Edge.Cuts
62
2
10
314.05
20
-427.7
40
10.0
0
LINE
8
Edge.Cuts
62
2
10
423.0
20
-508.85
11
433.0
21
-508.85
0
LINE
8
Edge.Cuts
62
2
10
179.05
20
-408.7
11
189.05
21
-408.7
0
LINE
8
Edge.Cuts
62
2
10
189.05
20
-408.7
11
189.05
21
-411.2
0
LINE
8
Edge.Cuts
62
2
10
189.05
20
-411.2
11
179.05
21
-411.2
0
LINE
8
Edge.Cuts
62
2
10
179.05
20
-411.2
11
179.05
21
-408.7
0
LINE
8
Edge.Cuts
62
2
10
329.05
20
-483.7
11
329.05
21
-473.7
0
LINE
8
Edge.Cuts
62
2
10
376.45
20
-609.65
11
376.45
21
-607.65
0
LINE
8
Edge.Cuts
62
2
10
332.05
20
-683.05
11
332.05
21
-673.05
0
LINE
8
Edge.Cuts
62
2
10
309.2
20
-510.9
11
319.2
21
-510.9
0
LINE
8
Edge.Cuts
62
2
10
39.55
20
-693.05
11
39.55
21
-683.05
0
LINE
8
Edge.Cuts
62
2
10
393.0
20
-508.85
11
393.0
21
-506.35
0
LINE
8
Edge.Cuts
62
2
10
101.7
20
-552.5
11
104.2
21
-552.5
0
LINE
8
Edge.Cuts
62
2
10
104.2
20
-552.5
11
104.2
21
-562.5
0
LINE
8
Edge.Cuts
62
2
10
104.2
20
-562.5
11
101.7
21
-562.5
0
LINE
8
Edge.Cuts
62
2
10
101.7
20
-562.5
11
101.7
21
-552.5
0
LINE
8
Edge.Cuts
62
2
10
333.0
20
-408.85
11
333.0
21
-368.85
0
LINE
8
Edge.Cuts
62
2
10
211.55
20
-506.2
11
221.55
21
-506.2
0
LINE
8
Edge.Cuts
62
2
10
36.55
20
-393.7
11
39.05
21
-393.7
0
LINE
8
Edge.Cuts
62
2
10
39.05
20
-503.7
11
36.55
21
-503.7
0
LINE
8
Edge.Cuts
62
2
10
199.05
20
-413.7
11
201.55
21
-413.7
0
LINE
8
Edge.Cuts
62
2
10
201.55
20
-413.7
11
201.55
21
-423.7
0
LINE
8
Edge.Cuts
62
2
10
201.55
20
-423.7
11
199.05
21
-423.7
0
LINE
8
Edge.Cuts
62
2
10
199.05
20
-423.7
11
199.05
21
-413.7
0
LINE
8
Edge.Cuts
62
2
10
478.0
20
-433.85
11
475.5
21
-433.85
0
LINE
8
Edge.Cuts
62
2
10
212.05
20
-660.55
11
212.05
21
-658.05
0
LINE
8
Edge.Cuts
62
2
10
189.2
20
-513.4
11
211.7
21
-513.4
0
LINE
8
Edge.Cuts
62
2
10
264.2
20
-572.5
11
266.7
21
-572.5
0
LINE
8
Edge.Cuts
62
2
10
266.7
20
-572.5
11
266.7
21
-582.5
0
LINE
8
Edge.Cuts
62
2
10
266.7
20
-582.5
11
264.2
21
-582.5
0
LINE
8
Edge.Cuts
62
2
10
264.2
20
-582.5
11
264.2
21
-572.5
0
LINE
8
Edge.Cuts
62
2
10
413.0
20
-408.85
11
423.0
21
-408.85
0
LINE
8
Edge.Cuts
62
2
10
423.0
20
-408.85
11
423.0
21
-411.35
0
LINE
8
Edge.Cuts
62
2
10
423.0
20
-411.35
11
413.0
21
-411.35
0
LINE
8
Edge.Cuts
62
2
10
413.0
20
-411.35
11
413.0
21
-408.85
0
LINE
8
Edge.Cuts
62
2
10
296.7
20
-532.5
11
299.2
21
-532.5
0
LINE
8
Edge.Cuts
62
2
10
299.2
20
-532.5
11
299.2
21
-542.5
0
LINE
8
Edge.Cuts
62
2
10
299.2
20
-542.5
11
296.7
21
-542.5
0
LINE
8
Edge.Cuts
62
2
10
296.7
20
-542.5
11
296.7
21
-532.5
0
LINE
8
Edge.Cuts
62
2
10
475.55
20
-545.15
11
475.55
21
-555.15
0
LINE
8
Edge.Cuts
62
2
10
329.05
20
-393.7
11
331.55
21
-393.7
0
LINE
8
Edge.Cuts
62
2
10
329.05
20
-423.7
11
329.05
21
-413.7
0
LINE
8
Edge.Cuts
62
2
10
134.2
20
-632.5
11
136.7
21
-632.5
0
LINE
8
Edge.Cuts
62
2
10
136.7
20
-632.5
11
136.7
21
-642.5
0
LINE
8
Edge.Cuts
62
2
10
136.7
20
-642.5
11
134.2
21
-642.5
0
LINE
8
Edge.Cuts
62
2
10
134.2
20
-642.5
11
134.2
21
-632.5
0
LINE
8
Edge.Cuts
62
2
10
166.7
20
-572.5
11
169.2
21
-572.5
0
LINE
8
Edge.Cuts
62
2
10
169.2
20
-572.5
11
169.2
21
-582.5
0
LINE
8
Edge.Cuts
62
2
10
169.2
20
-582.5
11
166.7
21
-582.5
0
LINE
8
Edge.Cuts
62
2
10
166.7
20
-582.5
11
166.7
21
-572.5
0
LINE
8
Edge.Cuts
62
2
10
114.05
20
-508.7
11
114.05
21
-506.2
0
LINE
8
Edge.Cuts
62
2
10
287.05
20
-660.55
11
309.55
21
-660.55
0
LINE
8
Edge.Cuts
62
2
10
101.55
20
-473.7
11
104.05
21
-473.7
0
LINE
8
Edge.Cuts
62
2
10
104.05
20
-473.7
11
104.05
21
-483.7
0
LINE
8
Edge.Cuts
62
2
10
104.05
20
-483.7
11
101.55
21
-483.7
0
LINE
8
Edge.Cuts
62
2
10
101.55
20
-483.7
11
101.55
21
-473.7
0
LINE
8
Edge.Cuts
62
2
10
331.7
20
-645.9
11
331.7
21
-655.9
0
LINE
8
Edge.Cuts
62
2
10
331.7
20
-605.9
11
329.2
21
-605.9
0
LINE
8
Edge.Cuts
62
2
10
211.55
20
-408.7
11
221.55
21
-408.7
0
LINE
8
Edge.Cuts
62
2
10
221.55
20
-408.7
11
221.55
21
-411.2
0
LINE
8
Edge.Cuts
62
2
10
221.55
20
-411.2
11
211.55
21
-411.2
0
LINE
8
Edge.Cuts
62
2
10
211.55
20
-411.2
11
211.55
21
-408.7
0
LINE
8
Edge.Cuts
62
2
10
211.7
20
-513.4
11
211.7
21
-510.9
0
LINE
8
Edge.Cuts
62
2
10
199.05
20
-493.7
11
201.55
21
-493.7
0
LINE
8
Edge.Cuts
62
2
10
201.55
20
-493.7
11
201.55
21
-503.7
0
LINE
8
Edge.Cuts
62
2
10
201.55
20
-503.7
11
199.05
21
-503.7
0
LINE
8
Edge.Cuts
62
2
10
199.05
20
-503.7
11
199.05
21
-493.7
0
LINE
8
Edge.Cuts
62
2
10
296.55
20
-433.7
11
299.05
21
-433.7
0
LINE
8
Edge.Cuts
62
2
10
299.05
20
-433.7
11
299.05
21
-443.7
0
LINE
8
Edge.Cuts
62
2
10
299.05
20
-443.7
11
296.55
21
-443.7
0
LINE
8
Edge.Cuts
62
2
10
296.55
20
-443.7
11
296.55
21
-433.7
0
LINE
8
Edge.Cuts
62
2
10
443.0
20
-508.85
11
453.0
21
-508.85
0
LINE
8
Edge.Cuts
62
2
10
331.55
20
-463.7
11
329.05
21
-463.7
0
LINE
8
Edge.Cuts
62
2
10
329.05
20
-453.7
11
331.55
21
-453.7
0
LINE
8
Edge.Cuts
62
2
10
49.55
20
-660.55
11
49.55
21
-658.05
0
CIRCLE
8
Edge.Cuts
62
2
10
216.55
20
-427.7
40
10.0
0
LINE
8
Edge.Cuts
62
2
10
36.55
20
-403.7
11
36.55
21
-413.7
0
LINE
8
Edge.Cuts
62
2
10
433.0
20
-408.85
11
443.0
21
-408.85
0
LINE
8
Edge.Cuts
62
2
10
443.0
20
-408.85
11
443.0
21
-411.35
0
LINE
8
Edge.Cuts
62
2
10
443.0
20
-411.35
11
433.0
21
-411.35
0
LINE
8
Edge.Cuts
62
2
10
433.0
20
-411.35
11
433.0
21
-408.85
0
LINE
8
Edge.Cuts
62
2
10
329.2
20
-565.9
11
329.2
21
-555.9
0
LINE
8
Edge.Cuts
62
2
10
36.55
20
-373.7
11
39.05
21
-373.7
0
LINE
8
Edge.Cuts
62
2
10
231.55
20
-473.7
11
234.05
21
-473.7
0
LINE
8
Edge.Cuts
62
2
10
234.05
20
-473.7
11
234.05
21
-483.7
0
LINE
8
Edge.Cuts
62
2
10
234.05
20
-483.7
11
231.55
21
-483.7
0
LINE
8
Edge.Cuts
62
2
10
231.55
20
-483.7
11
231.55
21
-473.7
0
LINE
8
Edge.Cuts
62
2
10
331.55
20
-473.7
11
331.55
21
-463.7
0
LINE
8
Edge.Cuts
62
2
10
475.5
20
-503.85
11
475.5
21
-506.35
0
LINE
8
Edge.Cuts
62
2
10
332.05
20
-763.05
11
332.05
21
-753.05
0
LINE
8
Edge.Cuts
62
2
10
287.05
20
-658.05
11
287.05
21
-660.55
0
LINE
8
Edge.Cuts
62
2
10
39.2
20
-545.9
11
39.2
21
-535.9
0
LINE
8
Edge.Cuts
62
2
10
189.05
20
-506.2
11
189.05
21
-508.7
0
LINE
8
Edge.Cuts
62
2
10
343.0
20
-506.35
11
343.0
21
-508.85
0
LINE
8
Edge.Cuts
62
2
10
134.05
20
-493.7
11
136.55
21
-493.7
0
LINE
8
Edge.Cuts
62
2
10
136.55
20
-493.7
11
136.55
21
-503.7
0
LINE
8
Edge.Cuts
62
2
10
136.55
20
-503.7
11
134.05
21
-503.7
0
LINE
8
Edge.Cuts
62
2
10
134.05
20
-503.7
11
134.05
21
-493.7
0
LINE
8
Edge.Cuts
62
2
10
212.05
20
-658.05
11
222.05
21
-658.05
0
LINE
8
Edge.Cuts
62
2
10
264.05
20
-493.7
11
266.55
21
-493.7
0
LINE
8
Edge.Cuts
62
2
10
266.55
20
-493.7
11
266.55
21
-503.7
0
LINE
8
Edge.Cuts
62
2
10
266.55
20
-503.7
11
264.05
21
-503.7
0
LINE
8
Edge.Cuts
62
2
10
264.05
20
-503.7
11
264.05
21
-493.7
0
LINE
8
Edge.Cuts
62
2
10
332.05
20
-733.05
11
329.55
21
-733.05
0
LINE
8
Edge.Cuts
62
2
10
331.55
20
-453.7
11
331.55
21
-443.7
0
LINE
8
Edge.Cuts
62
2
10
49.05
20
-508.7
11
49.05
21
-506.2
0
LINE
8
Edge.Cuts
62
2
10
39.2
20
-525.9
11
39.2
21
-513.4
0
LINE
8
Edge.Cuts
62
2
10
39.55
20
-773.05
11
37.05
21
-773.05
0
LINE
8
Edge.Cuts
62
2
10
477.55
20
-575.15
11
475.55
21
-575.15
0
LINE
8
Edge.Cuts
62
2
10
39.05
20
-433.7
11
39.05
21
-443.7
0
LINE
8
Edge.Cuts
62
2
10
478.0
20
-453.85
11
475.5
21
-453.85
0
LINE
8
Edge.Cuts
62
2
10
477.55
20
-585.15
11
477.55
21
-575.15
0
LINE
8
Edge.Cuts
62
2
10
36.7
20
-645.9
11
36.7
21
-655.9
0
LINE
8
Edge.Cuts
62
2
10
166.55
20
-453.7
11
169.05
21
-453.7
0
LINE
8
Edge.Cuts
62
2
10
169.05
20
-453.7
11
169.05
21
-463.7
0
LINE
8
Edge.Cuts
62
2
10
169.05
20
-463.7
11
166.55
21
-463.7
0
LINE
8
Edge.Cuts
62
2
10
166.55
20
-463.7
11
166.55
21
-453.7
0
LINE
8
Edge.Cuts
62
2
10
39.05
20
-453.7
11
39.05
21
-463.7
0
LINE
8
Edge.Cuts
62
2
10
475.55
20
-585.15
11
475.55
21
-595.15
0
LINE
8
Edge.Cuts
62
2
10
475.55
20
-525.15
11
477.55
21
-525.15
0
LINE
8
Edge.Cuts
62
2
10
396.45
20
-609.65
11
396.45
21
-607.65
0
LINE
8
Edge.Cuts
62
2
10
49.05
20
-506.2
11
59.05
21
-506.2
0
LINE
8
Edge.Cuts
62
2
10
475.5
20
-483.85
11
475.5
21
-493.85
0
LINE
8
Edge.Cuts
62
2
10
39.05
20
-443.7
11
36.55
21
-443.7
0
LINE
8
Edge.Cuts
62
2
10
231.55
20
-413.7
11
234.05
21
-413.7
0
LINE
8
Edge.Cuts
62
2
10
234.05
20
-413.7
11
234.05
21
-423.7
0
LINE
8
Edge.Cuts
62
2
10
234.05
20
-423.7
11
231.55
21
-423.7
0
LINE
8
Edge.Cuts
62
2
10
231.55
20
-423.7
11
231.55
21
-413.7
0
LINE
8
Edge.Cuts
62
2
10
478.0
20
-503.85
11
478.0
21
-493.85
0
LINE
8
Edge.Cuts
62
2
10
37.05
20
-803.05
11
39.55
21
-803.05
0
LINE
8
Edge.Cuts
62
2
10
329.05
20
-403.7
11
329.05
21
-393.7
0
LINE
8
Edge.Cuts
62
2
10
477.55
20
-595.15
11
475.55
21
-595.15
0
LINE
8
Edge.Cuts
62
2
10
244.05
20
-408.7
11
254.05
21
-408.7
0
LINE
8
Edge.Cuts
62
2
10
254.05
20
-408.7
11
254.05
21
-411.2
0
LINE
8
Edge.Cuts
62
2
10
254.05
20
-411.2
11
244.05
21
-411.2
0
LINE
8
Edge.Cuts
62
2
10
244.05
20
-411.2
11
244.05
21
-408.7
0
LINE
8
Edge.Cuts
62
2
10
36.7
20
-595.9
11
36.7
21
-585.9
0
LINE
8
Edge.Cuts
62
2
10
36.7
20
-635.9
11
39.2
21
-635.9
0
LINE
8
Edge.Cuts
62
2
10
81.55
20
-506.2
11
91.55
21
-506.2
0
LINE
8
Edge.Cuts
62
2
10
221.7
20
-510.9
11
221.7
21
-513.4
0
LINE
8
Edge.Cuts
62
2
10
199.2
20
-532.5
11
201.7
21
-532.5
0
LINE
8
Edge.Cuts
62
2
10
201.7
20
-532.5
11
201.7
21
-542.5
0
LINE
8
Edge.Cuts
62
2
10
201.7
20
-542.5
11
199.2
21
-542.5
0
LINE
8
Edge.Cuts
62
2
10
199.2
20
-542.5
11
199.2
21
-532.5
0
LINE
8
Edge.Cuts
62
2
10
329.55
20
-793.05
11
329.55
21
-783.05
0
LINE
8
Edge.Cuts
62
2
10
331.7
20
-555.9
11
331.7
21
-545.9
0
LINE
8
Edge.Cuts
62
2
10
92.05
20
-660.55
11
114.55
21
-660.55
0
LINE
8
Edge.Cuts
62
2
10
477.55
20
-565.15
11
477.55
21
-555.15
0
LINE
8
Edge.Cuts
62
2
10
166.7
20
-632.5
11
169.2
21
-632.5
0
LINE
8
Edge.Cuts
62
2
10
169.2
20
-632.5
11
169.2
21
-642.5
0
LINE
8
Edge.Cuts
62
2
10
169.2
20
-642.5
11
166.7
21
-642.5
0
LINE
8
Edge.Cuts
62
2
10
166.7
20
-642.5
11
166.7
21
-632.5
0
LINE
8
Edge.Cuts
62
2
10
69.05
20
-413.7
11
71.55
21
-413.7
0
LINE
8
Edge.Cuts
62
2
10
71.55
20
-413.7
11
71.55
21
-423.7
0
LINE
8
Edge.Cuts
62
2
10
71.55
20
-423.7
11
69.05
21
-423.7
0
LINE
8
Edge.Cuts
62
2
10
69.05
20
-423.7
11
69.05
21
-413.7
0
LINE
8
Edge.Cuts
62
2
10
473.05
20
-607.65
11
475.55
21
-607.65
0
LINE
8
Edge.Cuts
62
2
10
478.0
20
-443.85
11
478.0
21
-433.85
0
LINE
8
Edge.Cuts
62
2
10
36.55
20
-463.7
11
36.55
21
-473.7
0
LINE
8
Edge.Cuts
62
2
10
39.2
20
-575.9
11
36.7
21
-575.9
0
LINE
8
Edge.Cuts
62
2
10
179.55
20
-660.55
11
179.55
21
-658.05
0
LINE
8
Edge.Cuts
62
2
10
403.0
20
-508.85
11
413.0
21
-508.85
0
LINE
8
Edge.Cuts
62
2
10
309.05
20
-508.7
11
309.05
21
-506.2
0
LINE
8
Edge.Cuts
62
2
10
264.2
20
-532.5
11
266.7
21
-532.5
0
LINE
8
Edge.Cuts
62
2
10
266.7
20
-532.5
11
266.7
21
-542.5
0
LINE
8
Edge.Cuts
62
2
10
266.7
20
-542.5
11
264.2
21
-542.5
0
LINE
8
Edge.Cuts
62
2
10
264.2
20
-542.5
11
264.2
21
-532.5
0
LINE
8
Edge.Cuts
62
2
10
329.55
20
-753.05
11
329.55
21
-743.05
0
LINE
8
Edge.Cuts
62
2
10
331.7
20
-585.9
11
329.2
21
-585.9
0
LINE
8
Edge.Cuts
62
2
10
254.05
20
-506.2
11
254.05
21
-508.7
0
LINE
8
Edge.Cuts
62
2
10
36.55
20
-433.7
11
39.05
21
-433.7
0
LINE
8
Edge.Cuts
62
2
10
475.5
20
-463.85
11
478.0
21
-463.85
0
LINE
8
Edge.Cuts
62
2
10
36.7
20
-615.9
11
36.7
21
-605.9
0
LINE
8
Edge.Cuts
62
2
10
37.05
20
-713.05
11
39.55
21
-713.05
0
LINE
8
Edge.Cuts
62
2
10
296.7
20
-552.5
11
299.2
21
-552.5
0
LINE
8
Edge.Cuts
62
2
10
299.2
20
-552.5
11
299.2
21
-562.5
0
LINE
8
Edge.Cuts
62
2
10
299.2
20
-562.5
11
296.7
21
-562.5
0
LINE
8
Edge.Cuts
62
2
10
296.7
20
-562.5
11
296.7
21
-552.5
0
LINE
8
Edge.Cuts
62
2
10
59.55
20
-660.55
11
82.05
21
-660.55
0
LINE
8
Edge.Cuts
62
2
10
146.7
20
-513.4
11
146.7
21
-510.9
0
LINE
8
Edge.Cuts
62
2
10
403.0
20
-506.35
11
393.0
21
-506.35
0
LINE
8
Edge.Cuts
62
2
10
343.0
20
-506.35
11
333.0
21
-506.35
0
LINE
8
Edge.Cuts
62
2
10
36.7
20
-565.9
11
39.2
21
-565.9
0
LINE
8
Edge.Cuts
62
2
10
309.05
20
-408.7
11
319.05
21
-408.7
0
LINE
8
Edge.Cuts
62
2
10
319.05
20
-408.7
11
319.05
21
-411.2
0
LINE
8
Edge.Cuts
62
2
10
319.05
20
-411.2
11
309.05
21
-411.2
0
LINE
8
Edge.Cuts
62
2
10
309.05
20
-411.2
11
309.05
21
-408.7
0
LINE
8
Edge.Cuts
62
2
10
39.05
20
-423.7
11
36.55
21
-423.7
0
LINE
8
Edge.Cuts
62
2
10
231.55
20
-433.7
11
234.05
21
-433.7
0
LINE
8
Edge.Cuts
62
2
10
234.05
20
-433.7
11
234.05
21
-443.7
0
LINE
8
Edge.Cuts
62
2
10
234.05
20
-443.7
11
231.55
21
-443.7
0
LINE
8
Edge.Cuts
62
2
10
231.55
20
-443.7
11
231.55
21
-433.7
0
LINE
8
Edge.Cuts
62
2
10
329.05
20
-473.7
11
331.55
21
-473.7
0
LINE
8
Edge.Cuts
62
2
10
59.55
20
-658.05
11
59.55
21
-660.55
0
LINE
8
Edge.Cuts
62
2
10
36.7
20
-555.9
11
36.7
21
-545.9
0
LINE
8
Edge.Cuts
62
2
10
59.05
20
-508.7
11
81.55
21
-508.7
0
LINE
8
Edge.Cuts
62
2
10
39.55
20
-803.05
11
329.55
21
-803.05
0
LINE
8
Edge.Cuts
62
2
10
39.55
20
-763.05
11
37.05
21
-763.05
0
LINE
8
Edge.Cuts
62
2
10
329.2
20
-595.9
11
331.7
21
-595.9
0
LINE
8
Edge.Cuts
62
2
10
69.2
20
-612.5
11
71.7
21
-612.5
0
LINE
8
Edge.Cuts
62
2
10
71.7
20
-612.5
11
71.7
21
-622.5
0
LINE
8
Edge.Cuts
62
2
10
71.7
20
-622.5
11
69.2
21
-622.5
0
LINE
8
Edge.Cuts
62
2
10
69.2
20
-622.5
11
69.2
21
-612.5
0
LINE
8
Edge.Cuts
62
2
10
416.45
20
-609.65
11
416.45
21
-607.65
0
LINE
8
Edge.Cuts
62
2
10
199.2
20
-572.5
11
201.7
21
-572.5
0
LINE
8
Edge.Cuts
62
2
10
201.7
20
-572.5
11
201.7
21
-582.5
0
LINE
8
Edge.Cuts
62
2
10
201.7
20
-582.5
11
199.2
21
-582.5
0
LINE
8
Edge.Cuts
62
2
10
199.2
20
-582.5
11
199.2
21
-572.5
0
LINE
8
Edge.Cuts
62
2
10
346.45
20
-607.65
11
346.45
21
-609.65
0
LINE
8
Edge.Cuts
62
2
10
189.05
20
-508.7
11
211.55
21
-508.7
0
LINE
8
Edge.Cuts
62
2
10
244.55
20
-660.55
11
244.55
21
-658.05
0
LINE
8
Edge.Cuts
62
2
10
39.2
20
-645.9
11
36.7
21
-645.9
0
LINE
8
Edge.Cuts
62
2
10
37.05
20
-743.05
11
37.05
21
-733.05
0
LINE
8
Edge.Cuts
62
2
10
343.0
20
-408.85
11
343.0
21
-411.35
0
LINE
8
Edge.Cuts
62
2
10
101.55
20
-413.7
11
104.05
21
-413.7
0
LINE
8
Edge.Cuts
62
2
10
104.05
20
-413.7
11
104.05
21
-423.7
0
LINE
8
Edge.Cuts
62
2
10
104.05
20
-423.7
11
101.55
21
-423.7
0
LINE
8
Edge.Cuts
62
2
10
101.55
20
-423.7
11
101.55
21
-413.7
0
LINE
8
Edge.Cuts
62
2
10
423.0
20
-506.35
11
423.0
21
-508.85
0
LINE
8
Edge.Cuts
62
2
10
443.0
20
-506.35
11
433.0
21
-506.35
0
LINE
8
Edge.Cuts
62
2
10
329.05
20
-383.7
11
329.05
21
-373.7
0
LINE
8
Edge.Cuts
62
2
10
475.55
20
-525.15
11
475.55
21
-535.15
0
LINE
8
Edge.Cuts
62
2
10
475.55
20
-565.15
11
477.55
21
-565.15
0
LINE
8
Edge.Cuts
62
2
10
343.0
20
-411.35
11
333.0
21
-411.35
0
LINE
8
Edge.Cuts
62
2
10
39.2
20
-513.4
11
49.2
21
-513.4
0
LINE
8
Edge.Cuts
62
2
10
211.55
20
-508.7
11
211.55
21
-506.2
0
LINE
8
Edge.Cuts
62
2
10
264.2
20
-632.5
11
266.7
21
-632.5
0
LINE
8
Edge.Cuts
62
2
10
266.7
20
-632.5
11
266.7
21
-642.5
0
LINE
8
Edge.Cuts
62
2
10
266.7
20
-642.5
11
264.2
21
-642.5
0
LINE
8
Edge.Cuts
62
2
10
264.2
20
-642.5
11
264.2
21
-632.5
0
LINE
8
Edge.Cuts
62
2
10
343.0
20
-508.85
11
353.0
21
-508.85
0
LINE
8
Edge.Cuts
62
2
10
59.05
20
-506.2
11
59.05
21
-508.7
0
LINE
8
Edge.Cuts
62
2
10
199.2
20
-632.5
11
201.7
21
-632.5
0
LINE
8
Edge.Cuts
62
2
10
201.7
20
-632.5
11
201.7
21
-642.5
0
LINE
8
Edge.Cuts
62
2
10
201.7
20
-642.5
11
199.2
21
-642.5
0
LINE
8
Edge.Cuts
62
2
10
199.2
20
-642.5
11
199.2
21
-632.5
0
LINE
8
Edge.Cuts
62
2
10
254.2
20
-510.9
11
254.2
21
-513.4
0
LINE
8
Edge.Cuts
62
2
10
36.55
20
-483.7
11
36.55
21
-493.7
0
LINE
8
Edge.Cuts
62
2
10
426.45
20
-607.65
11
426.45
21
-609.65
0
LINE
8
Edge.Cuts
62
2
10
264.05
20
-473.7
11
266.55
21
-473.7
0
LINE
8
Edge.Cuts
62
2
10
266.55
20
-473.7
11
266.55
21
-483.7
0
LINE
8
Edge.Cuts
62
2
10
266.55
20
-483.7
11
264.05
21
-483.7
0
LINE
8
Edge.Cuts
62
2
10
264.05
20
-483.7
11
264.05
21
-473.7
0
LINE
8
Edge.Cuts
62
2
10
134.05
20
-453.7
11
136.55
21
-453.7
0
LINE
8
Edge.Cuts
62
2
10
136.55
20
-453.7
11
136.55
21
-463.7
0
LINE
8
Edge.Cuts
62
2
10
136.55
20
-463.7
11
134.05
21
-463.7
0
LINE
8
Edge.Cuts
62
2
10
134.05
20
-463.7
11
134.05
21
-453.7
0
LINE
8
Edge.Cuts
62
2
10
329.05
20
-373.7
11
331.55
21
-373.7
0
LINE
8
Edge.Cuts
62
2
10
101.55
20
-433.7
11
104.05
21
-433.7
0
LINE
8
Edge.Cuts
62
2
10
104.05
20
-433.7
11
104.05
21
-443.7
0
LINE
8
Edge.Cuts
62
2
10
104.05
20
-443.7
11
101.55
21
-443.7
0
LINE
8
Edge.Cuts
62
2
10
101.55
20
-443.7
11
101.55
21
-433.7
0
LINE
8
Edge.Cuts
62
2
10
91.55
20
-508.7
11
114.05
21
-508.7
0
LINE
8
Edge.Cuts
62
2
10
296.55
20
-453.7
11
299.05
21
-453.7
0
LINE
8
Edge.Cuts
62
2
10
299.05
20
-453.7
11
299.05
21
-463.7
0
LINE
8
Edge.Cuts
62
2
10
299.05
20
-463.7
11
296.55
21
-463.7
0
LINE
8
Edge.Cuts
62
2
10
296.55
20
-463.7
11
296.55
21
-453.7
0
LINE
8
Edge.Cuts
62
2
10
81.55
20
-408.7
11
91.55
21
-408.7
0
LINE
8
Edge.Cuts
62
2
10
91.55
20
-408.7
11
91.55
21
-411.2
0
LINE
8
Edge.Cuts
62
2
10
91.55
20
-411.2
11
81.55
21
-411.2
0
LINE
8
Edge.Cuts
62
2
10
81.55
20
-411.2
11
81.55
21
-408.7
0
LINE
8
Edge.Cuts
62
2
10
36.55
20
-368.7
11
331.55
21
-368.7
0
LINE
8
Edge.Cuts
62
2
10
39.2
20
-585.9
11
39.2
21
-575.9
0
LINE
8
Edge.Cuts
62
2
10
478.0
20
-473.85
11
475.5
21
-473.85
0
LINE
8
Edge.Cuts
62
2
10
166.55
20
-473.7
11
169.05
21
-473.7
0
LINE
8
Edge.Cuts
62
2
10
169.05
20
-473.7
11
169.05
21
-483.7
0
LINE
8
Edge.Cuts
62
2
10
169.05
20
-483.7
11
166.55
21
-483.7
0
LINE
8
Edge.Cuts
62
2
10
166.55
20
-483.7
11
166.55
21
-473.7
0
LINE
8
Edge.Cuts
62
2
10
329.55
20
-773.05
11
329.55
21
-763.05
0
LINE
8
Edge.Cuts
62
2
10
331.55
20
-403.7
11
329.05
21
-403.7
0
LINE
8
Edge.Cuts
62
2
10
82.05
20
-660.55
11
82.05
21
-658.05
0
LINE
8
Edge.Cuts
62
2
10
477.55
20
-535.15
11
475.55
21
-535.15
0
LINE
8
Edge.Cuts
62
2
10
469.6
20
-506.35
11
475.5
21
-506.35
0
LINE
8
Edge.Cuts
62
2
10
231.7
20
-552.5
11
234.2
21
-552.5
0
LINE
8
Edge.Cuts
62
2
10
234.2
20
-552.5
11
234.2
21
-562.5
0
LINE
8
Edge.Cuts
62
2
10
234.2
20
-562.5
11
231.7
21
-562.5
0
LINE
8
Edge.Cuts
62
2
10
231.7
20
-562.5
11
231.7
21
-552.5
0
LINE
8
Edge.Cuts
62
2
10
156.55
20
-506.2
11
156.55
21
-508.7
0
LINE
8
Edge.Cuts
62
2
10
231.7
20
-592.5
11
234.2
21
-592.5
0
LINE
8
Edge.Cuts
62
2
10
234.2
20
-592.5
11
234.2
21
-602.5
0
LINE
8
Edge.Cuts
62
2
10
234.2
20
-602.5
11
231.7
21
-602.5
0
LINE
8
Edge.Cuts
62
2
10
231.7
20
-602.5
11
231.7
21
-592.5
0
LINE
8
Edge.Cuts
62
2
10
406.45
20
-607.65
11
396.45
21
-607.65
0
LINE
8
Edge.Cuts
62
2
10
134.2
20
-552.5
11
136.7
21
-552.5
0
LINE
8
Edge.Cuts
62
2
10
136.7
20
-552.5
11
136.7
21
-562.5
0
LINE
8
Edge.Cuts
62
2
10
136.7
20
-562.5
11
134.2
21
-562.5
0
LINE
8
Edge.Cuts
62
2
10
134.2
20
-562.5
11
134.2
21
-552.5
0
LINE
8
Edge.Cuts
62
2
10
406.45
20
-607.65
11
406.45
21
-609.65
0
LINE
8
Edge.Cuts
62
2
10
82.05
20
-658.05
11
92.05
21
-658.05
0
LINE
8
Edge.Cuts
62
2
10
286.55
20
-506.2
11
286.55
21
-508.7
0
LINE
8
Edge.Cuts
62
2
10
39.2
20
-625.9
11
39.2
21
-615.9
0
LINE
8
Edge.Cuts
62
2
10
329.2
20
-575.9
11
331.7
21
-575.9
0
LINE
8
Edge.Cuts
62
2
10
254.55
20
-660.55
11
277.05
21
-660.55
0
LINE
8
Edge.Cuts
62
2
10
39.55
20
-713.05
11
39.55
21
-703.05
0
LINE
8
Edge.Cuts
62
2
10
333.05
20
-607.65
11
333.05
21
-512.65
0
LINE
8
Edge.Cuts
62
2
10
453.0
20
-408.85
11
463.0
21
-408.85
0
LINE
8
Edge.Cuts
62
2
10
463.0
20
-408.85
11
463.0
21
-411.35
0
LINE
8
Edge.Cuts
62
2
10
463.0
20
-411.35
11
453.0
21
-411.35
0
LINE
8
Edge.Cuts
62
2
10
453.0
20
-411.35
11
453.0
21
-408.85
0
LINE
8
Edge.Cuts
62
2
10
39.05
20
-493.7
11
39.05
21
-503.7
0
LINE
8
Edge.Cuts
62
2
10
39.55
20
-793.05
11
39.55
21
-783.05
0
LINE
8
Edge.Cuts
62
2
10
179.55
20
-658.05
11
189.55
21
-658.05
0
LINE
8
Edge.Cuts
62
2
10
134.2
20
-572.5
11
136.7
21
-572.5
0
LINE
8
Edge.Cuts
62
2
10
136.7
20
-572.5
11
136.7
21
-582.5
0
LINE
8
Edge.Cuts
62
2
10
136.7
20
-582.5
11
134.2
21
-582.5
0
LINE
8
Edge.Cuts
62
2
10
134.2
20
-582.5
11
134.2
21
-572.5
0
LINE
8
Edge.Cuts
62
2
10
478.0
20
-483.85
11
478.0
21
-473.85
0
LINE
8
Edge.Cuts
62
2
10
39.55
20
-743.05
11
37.05
21
-743.05
0
LINE
8
Edge.Cuts
62
2
10
276.55
20
-408.7
11
286.55
21
-408.7
0
LINE
8
Edge.Cuts
62
2
10
286.55
20
-408.7
11
286.55
21
-411.2
0
LINE
8
Edge.Cuts
62
2
10
286.55
20
-411.2
11
276.55
21
-411.2
0
LINE
8
Edge.Cuts
62
2
10
276.55
20
-411.2
11
276.55
21
-408.7
0
LINE
8
Edge.Cuts
62
2
10
244.05
20
-506.2
11
254.05
21
-506.2
0
LINE
8
Edge.Cuts
62
2
10
36.55
20
-413.7
11
39.05
21
-413.7
0
LINE
8
Edge.Cuts
62
2
10
331.55
20
-483.7
11
329.05
21
-483.7
0
CIRCLE
8
Edge.Cuts
62
2
10
151.55
20
-427.7
40
10.0
0
LINE
8
Edge.Cuts
62
2
10
309.55
20
-658.05
11
319.55
21
-658.05
0
LINE
8
Edge.Cuts
62
2
10
39.05
20
-413.7
11
39.05
21
-423.7
0
LINE
8
Edge.Cuts
62
2
10
264.05
20
-413.7
11
266.55
21
-413.7
0
LINE
8
Edge.Cuts
62
2
10
266.55
20
-413.7
11
266.55
21
-423.7
0
LINE
8
Edge.Cuts
62
2
10
266.55
20
-423.7
11
264.05
21
-423.7
0
LINE
8
Edge.Cuts
62
2
10
264.05
20
-423.7
11
264.05
21
-413.7
0
LINE
8
Edge.Cuts
62
2
10
329.05
20
-413.7
11
331.55
21
-413.7
0
LINE
8
Edge.Cuts
62
2
10
36.55
20
-368.7
11
36.55
21
-373.7
0
LINE
8
Edge.Cuts
62
2
10
443.0
20
-506.35
11
443.0
21
-508.85
0
LINE
8
Edge.Cuts
62
2
10
478.0
20
-493.85
11
475.5
21
-493.85
0
LINE
8
Edge.Cuts
62
2
10
426.45
20
-609.65
11
436.45
21
-609.65
0
LINE
8
Edge.Cuts
62
2
10
332.05
20
-773.05
11
332.05
21
-783.05
0
LINE
8
Edge.Cuts
62
2
10
39.05
20
-383.7
11
36.55
21
-383.7
0
LINE
8
Edge.Cuts
62
2
10
264.05
20
-453.7
11
266.55
21
-453.7
0
LINE
8
Edge.Cuts
62
2
10
266.55
20
-453.7
11
266.55
21
-463.7
0
LINE
8
Edge.Cuts
62
2
10
266.55
20
-463.7
11
264.05
21
-463.7
0
LINE
8
Edge.Cuts
62
2
10
264.05
20
-463.7
11
264.05
21
-453.7
0
LINE
8
Edge.Cuts
62
2
10
366.45
20
-607.65
11
366.45
21
-609.65
0
LINE
8
Edge.Cuts
62
2
10
363.0
20
-508.85
11
373.0
21
-508.85
0
LINE
8
Edge.Cuts
62
2
10
473.05
20
-607.65
11
456.45
21
-607.65
0
LINE
8
Edge.Cuts
62
2
10
329.55
20
-673.05
11
329.55
21
-660.55
0
LINE
8
Edge.Cuts
62
2
10
39.2
20
-565.9
11
39.2
21
-555.9
0
LINE
8
Edge.Cuts
62
2
10
331.7
20
-655.9
11
329.2
21
-655.9
0
LINE
8
Edge.Cuts
62
2
10
332.05
20
-713.05
11
329.55
21
-713.05
0
LINE
8
Edge.Cuts
62
2
10
426.45
20
-607.65
11
416.45
21
-607.65
0
LINE
8
Edge.Cuts
62
2
10
276.55
20
-508.7
11
276.55
21
-506.2
0
LINE
8
Edge.Cuts
62
2
10
101.55
20
-453.7
11
104.05
21
-453.7
0
LINE
8
Edge.Cuts
62
2
10
104.05
20
-453.7
11
104.05
21
-463.7
0
LINE
8
Edge.Cuts
62
2
10
104.05
20
-463.7
11
101.55
21
-463.7
0
LINE
8
Edge.Cuts
62
2
10
101.55
20
-463.7
11
101.55
21
-453.7
0
LINE
8
Edge.Cuts
62
2
10
353.0
20
-408.85
11
363.0
21
-408.85
0
LINE
8
Edge.Cuts
62
2
10
363.0
20
-408.85
11
363.0
21
-411.35
0
LINE
8
Edge.Cuts
62
2
10
363.0
20
-411.35
11
353.0
21
-411.35
0
LINE
8
Edge.Cuts
62
2
10
353.0
20
-411.35
11
353.0
21
-408.85
0
LINE
8
Edge.Cuts
62
2
10
231.55
20
-493.7
11
234.05
21
-493.7
0
LINE
8
Edge.Cuts
62
2
10
234.05
20
-493.7
11
234.05
21
-503.7
0
LINE
8
Edge.Cuts
62
2
10
234.05
20
-503.7
11
231.55
21
-503.7
0
LINE
8
Edge.Cuts
62
2
10
231.55
20
-503.7
11
231.55
21
-493.7
0
LINE
8
Edge.Cuts
62
2
10
36.7
20
-585.9
11
39.2
21
-585.9
0
LINE
8
Edge.Cuts
62
2
10
296.7
20
-572.5
11
299.2
21
-572.5
0
LINE
8
Edge.Cuts
62
2
10
299.2
20
-572.5
11
299.2
21
-582.5
0
LINE
8
Edge.Cuts
62
2
10
299.2
20
-582.5
11
296.7
21
-582.5
0
LINE
8
Edge.Cuts
62
2
10
296.7
20
-582.5
11
296.7
21
-572.5
0
LINE
8
Edge.Cuts
62
2
10
69.05
20
-493.7
11
71.55
21
-493.7
0
LINE
8
Edge.Cuts
62
2
10
71.55
20
-493.7
11
71.55
21
-503.7
0
LINE
8
Edge.Cuts
62
2
10
71.55
20
-503.7
11
69.05
21
-503.7
0
LINE
8
Edge.Cuts
62
2
10
69.05
20
-503.7
11
69.05
21
-493.7
0
LINE
8
Edge.Cuts
62
2
10
477.55
20
-545.15
11
477.55
21
-535.15
0
LINE
8
Edge.Cuts
62
2
10
329.05
20
-493.7
11
331.55
21
-493.7
0
LINE
8
Edge.Cuts
62
2
10
39.55
20
-660.55
11
49.55
21
-660.55
0
LINE
8
Edge.Cuts
62
2
10
331.55
20
-503.7
11
329.05
21
-503.7
0
LINE
8
Edge.Cuts
62
2
10
36.7
20
-525.9
11
39.2
21
-525.9
0
LINE
8
Edge.Cuts
62
2
10
329.2
20
-605.9
11
329.2
21
-595.9
0
LINE
8
Edge.Cuts
62
2
10
37.05
20
-763.05
11
37.05
21
-753.05
0
LINE
8
Edge.Cuts
62
2
10
36.7
20
-655.9
11
39.2
21
-655.9
0
LINE
8
Edge.Cuts
62
2
10
478.0
20
-393.85
11
475.5
21
-393.85
0
LINE
8
Edge.Cuts
62
2
10
264.05
20
-433.7
11
266.55
21
-433.7
0
LINE
8
Edge.Cuts
62
2
10
266.55
20
-433.7
11
266.55
21
-443.7
0
LINE
8
Edge.Cuts
62
2
10
266.55
20
-443.7
11
264.05
21
-443.7
0
LINE
8
Edge.Cuts
62
2
10
264.05
20
-443.7
11
264.05
21
-433.7
0
LINE
8
Edge.Cuts
62
2
10
244.2
20
-510.9
11
254.2
21
-510.9
0
LINE
8
Edge.Cuts
62
2
10
92.05
20
-658.05
11
92.05
21
-660.55
0
LINE
8
Edge.Cuts
62
2
10
329.2
20
-545.9
11
329.2
21
-535.9
0
LINE
8
Edge.Cuts
62
2
10
69.2
20
-552.5
11
71.7
21
-552.5
0
LINE
8
Edge.Cuts
62
2
10
71.7
20
-552.5
11
71.7
21
-562.5
0
LINE
8
Edge.Cuts
62
2
10
71.7
20
-562.5
11
69.2
21
-562.5
0
LINE
8
Edge.Cuts
62
2
10
69.2
20
-562.5
11
69.2
21
-552.5
0
LINE
8
Edge.Cuts
62
2
10
296.7
20
-612.5
11
299.2
21
-612.5
0
LINE
8
Edge.Cuts
62
2
10
299.2
20
-612.5
11
299.2
21
-622.5
0
LINE
8
Edge.Cuts
62
2
10
299.2
20
-622.5
11
296.7
21
-622.5
0
LINE
8
Edge.Cuts
62
2
10
296.7
20
-622.5
11
296.7
21
-612.5
0
LINE
8
Edge.Cuts
62
2
10
156.55
20
-508.7
11
179.05
21
-508.7
0
LINE
8
Edge.Cuts
62
2
10
221.55
20
-508.7
11
244.05
21
-508.7
0
LINE
8
Edge.Cuts
62
2
10
254.2
20
-513.4
11
276.7
21
-513.4
0
LINE
8
Edge.Cuts
62
2
10
346.45
20
-609.65
11
356.45
21
-609.65
0
LINE
8
Edge.Cuts
62
2
10
189.2
20
-510.9
11
189.2
21
-513.4
0
LINE
8
Edge.Cuts
62
2
10
37.05
20
-683.05
11
37.05
21
-673.05
0
LINE
8
Edge.Cuts
62
2
10
166.7
20
-612.5
11
169.2
21
-612.5
0
LINE
8
Edge.Cuts
62
2
10
169.2
20
-612.5
11
169.2
21
-622.5
0
LINE
8
Edge.Cuts
62
2
10
169.2
20
-622.5
11
166.7
21
-622.5
0
LINE
8
Edge.Cuts
62
2
10
166.7
20
-622.5
11
166.7
21
-612.5
0
LINE
8
Edge.Cuts
62
2
10
156.7
20
-510.9
11
156.7
21
-513.4
0
LINE
8
Edge.Cuts
62
2
10
37.05
20
-673.05
11
39.55
21
-673.05
0
LINE
8
Edge.Cuts
62
2
10
329.05
20
-463.7
11
329.05
21
-453.7
0
LINE
8
Edge.Cuts
62
2
10
39.05
20
-473.7
11
39.05
21
-483.7
0
LINE
8
Edge.Cuts
62
2
10
329.2
20
-645.9
11
329.2
21
-635.9
0
LINE
8
Edge.Cuts
62
2
10
319.05
20
-506.2
11
319.05
21
-508.7
0
LINE
8
Edge.Cuts
62
2
10
329.55
20
-743.05
11
332.05
21
-743.05
0
LINE
8
Edge.Cuts
62
2
10
413.0
20
-508.85
11
413.0
21
-506.35
0
LINE
8
Edge.Cuts
62
2
10
333.05
20
-512.65
11
473.05
21
-512.65
0
LINE
8
Edge.Cuts
62
2
10
383.0
20
-508.85
11
393.0
21
-508.85
0
LINE
8
Edge.Cuts
62
2
10
199.2
20
-612.5
11
201.7
21
-612.5
0
LINE
8
Edge.Cuts
62
2
10
201.7
20
-612.5
11
201.7
21
-622.5
0
LINE
8
Edge.Cuts
62
2
10
201.7
20
-622.5
11
199.2
21
-622.5
0
LINE
8
Edge.Cuts
62
2
10
199.2
20
-622.5
11
199.2
21
-612.5
0
LINE
8
Edge.Cuts
62
2
10
146.7
20
-510.9
11
156.7
21
-510.9
0
LINE
8
Edge.Cuts
62
2
10
366.45
20
-609.65
11
376.45
21
-609.65
0
LINE
8
Edge.Cuts
62
2
10
39.05
20
-373.7
11
39.05
21
-383.7
0
LINE
8
Edge.Cuts
62
2
10
477.55
20
-555.15
11
475.55
21
-555.15
0
LINE
8
Edge.Cuts
62
2
10
296.55
20
-413.7
11
299.05
21
-413.7
0
LINE
8
Edge.Cuts
62
2
10
299.05
20
-413.7
11
299.05
21
-423.7
0
LINE
8
Edge.Cuts
62
2
10
299.05
20
-423.7
11
296.55
21
-423.7
0
LINE
8
Edge.Cuts
62
2
10
296.55
20
-423.7
11
296.55
21
-413.7
0
LINE
8
Edge.Cuts
62
2
10
69.05
20
-473.7
11
71.55
21
-473.7
0
LINE
8
Edge.Cuts
62
2
10
71.55
20
-473.7
11
71.55
21
-483.7
0
LINE
8
Edge.Cuts
62
2
10
71.55
20
-483.7
11
69.05
21
-483.7
0
LINE
8
Edge.Cuts
62
2
10
69.05
20
-483.7
11
69.05
21
-473.7
0
LINE
8
Edge.Cuts
62
2
10
39.55
20
-733.05
11
39.55
21
-723.05
0
LINE
8
Edge.Cuts
62
2
10
36.7
20
-625.9
11
36.7
21
-635.9
0
LINE
8
Edge.Cuts
62
2
10
475.5
20
-443.85
11
478.0
21
-443.85
0
LINE
8
Edge.Cuts
62
2
10
36.55
20
-473.7
11
39.05
21
-473.7
0
LINE
8
Edge.Cuts
62
2
10
222.05
20
-660.55
11
244.55
21
-660.55
0
LINE
8
Edge.Cuts
62
2
10
49.05
20
-408.7
11
59.05
21
-408.7
0
LINE
8
Edge.Cuts
62
2
10
59.05
20
-408.7
11
59.05
21
-411.2
0
LINE
8
Edge.Cuts
62
2
10
59.05
20
-411.2
11
49.05
21
-411.2
0
LINE
8
Edge.Cuts
62
2
10
49.05
20
-411.2
11
49.05
21
-408.7
0
LINE
8
Edge.Cuts
62
2
10
101.7
20
-612.5
11
104.2
21
-612.5
0
LINE
8
Edge.Cuts
62
2
10
104.2
20
-612.5
11
104.2
21
-622.5
0
LINE
8
Edge.Cuts
62
2
10
104.2
20
-622.5
11
101.7
21
-622.5
0
LINE
8
Edge.Cuts
62
2
10
101.7
20
-622.5
11
101.7
21
-612.5
0
LINE
8
Edge.Cuts
62
2
10
332.05
20
-753.05
11
329.55
21
-753.05
0
LINE
8
Edge.Cuts
62
2
10
49.2
20
-513.4
11
49.2
21
-510.9
0
LINE
8
Edge.Cuts
62
2
10
146.55
20
-408.7
11
156.55
21
-408.7
0
LINE
8
Edge.Cuts
62
2
10
156.55
20
-408.7
11
156.55
21
-411.2
0
LINE
8
Edge.Cuts
62
2
10
156.55
20
-411.2
11
146.55
21
-411.2
0
LINE
8
Edge.Cuts
62
2
10
146.55
20
-411.2
11
146.55
21
-408.7
0
LINE
8
Edge.Cuts
62
2
10
329.55
20
-793.05
11
332.05
21
-793.05
0
LINE
8
Edge.Cuts
62
2
10
475.5
20
-483.85
11
478.0
21
-483.85
0
LINE
8
Edge.Cuts
62
2
10
296.55
20
-493.7
11
299.05
21
-493.7
0
LINE
8
Edge.Cuts
62
2
10
299.05
20
-493.7
11
299.05
21
-503.7
0
LINE
8
Edge.Cuts
62
2
10
299.05
20
-503.7
11
296.55
21
-503.7
0
LINE
8
Edge.Cuts
62
2
10
296.55
20
-503.7
11
296.55
21
-493.7
0
LINE
8
Edge.Cuts
62
2
10
383.0
20
-506.35
11
373.0
21
-506.35
0
LINE
8
Edge.Cuts
62
2
10
332.05
20
-803.05
11
329.55
21
-803.05
0
LINE
8
Edge.Cuts
62
2
10
36.7
20
-605.9
11
39.2
21
-605.9
0
LINE
8
Edge.Cuts
62
2
10
39.2
20
-615.9
11
36.7
21
-615.9
0
LINE
8
Edge.Cuts
62
2
10
199.05
20
-433.7
11
201.55
21
-433.7
0
LINE
8
Edge.Cuts
62
2
10
201.55
20
-433.7
11
201.55
21
-443.7
0
LINE
8
Edge.Cuts
62
2
10
201.55
20
-443.7
11
199.05
21
-443.7
0
LINE
8
Edge.Cuts
62
2
10
199.05
20
-443.7
11
199.05
21
-433.7
0
LINE
8
Edge.Cuts
62
2
10
475.55
20
-545.15
11
477.55
21
-545.15
0
LINE
8
Edge.Cuts
62
2
10
331.7
20
-625.9
11
331.7
21
-635.9
0
LINE
8
Edge.Cuts
62
2
10
124.55
20
-658.05
11
124.55
21
-660.55
0
LINE
8
Edge.Cuts
62
2
10
36.55
20
-443.7
11
36.55
21
-453.7
0
LINE
8
Edge.Cuts
62
2
10
332.05
20
-783.05
11
329.55
21
-783.05
0
CIRCLE
8
Edge.Cuts
62
2
10
119.05
20
-427.7
40
10.0
0
LINE
8
Edge.Cuts
62
2
10
166.7
20
-552.5
11
169.2
21
-552.5
0
LINE
8
Edge.Cuts
62
2
10
169.2
20
-552.5
11
169.2
21
-562.5
0
LINE
8
Edge.Cuts
62
2
10
169.2
20
-562.5
11
166.7
21
-562.5
0
LINE
8
Edge.Cuts
62
2
10
166.7
20
-562.5
11
166.7
21
-552.5
0
LINE
8
Edge.Cuts
62
2
10
37.05
20
-783.05
11
39.55
21
-783.05
0
LINE
8
Edge.Cuts
62
2
10
147.05
20
-660.55
11
147.05
21
-658.05
0
LINE
8
Edge.Cuts
62
2
10
39.2
20
-655.9
11
329.2
21
-655.9
0
LINE
8
Edge.Cuts
62
2
10
333.0
20
-368.85
11
473.0
21
-368.85
0
LINE
8
Edge.Cuts
62
2
10
39.55
20
-753.05
11
39.55
21
-743.05
0
CIRCLE
8
Edge.Cuts
62
2
10
249.05
20
-427.7
40
10.0
0
LINE
8
Edge.Cuts
62
2
10
147.05
20
-658.05
11
157.05
21
-658.05
0
LINE
8
Edge.Cuts
62
2
10
478.0
20
-413.85
11
475.5
21
-413.85
0
LINE
8
Edge.Cuts
62
2
10
296.55
20
-473.7
11
299.05
21
-473.7
0
LINE
8
Edge.Cuts
62
2
10
299.05
20
-473.7
11
299.05
21
-483.7
0
LINE
8
Edge.Cuts
62
2
10
299.05
20
-483.7
11
296.55
21
-483.7
0
LINE
8
Edge.Cuts
62
2
10
296.55
20
-483.7
11
296.55
21
-473.7
0
LINE
8
Edge.Cuts
62
2
10
475.5
20
-383.85
11
475.5
21
-393.85
0
LINE
8
Edge.Cuts
62
2
10
36.7
20
-655.9
11
39.2
21
-655.9
0
LINE
8
Edge.Cuts
62
2
10
157.05
20
-658.05
11
157.05
21
-660.55
0
LINE
8
Edge.Cuts
62
2
10
473.0
20
-368.85
11
475.5
21
-368.85
0
LINE
8
Edge.Cuts
62
2
10
478.0
20
-403.85
11
478.0
21
-393.85
0
LINE
8
Edge.Cuts
62
2
10
331.55
20
-508.7
11
331.55
21
-503.7
0
LINE
8
Edge.Cuts
62
2
10
373.0
20
-408.85
11
383.0
21
-408.85
0
LINE
8
Edge.Cuts
62
2
10
383.0
20
-408.85
11
383.0
21
-411.35
0
LINE
8
Edge.Cuts
62
2
10
383.0
20
-411.35
11
373.0
21
-411.35
0
LINE
8
Edge.Cuts
62
2
10
373.0
20
-411.35
11
373.0
21
-408.85
0
LINE
8
Edge.Cuts
62
2
10
124.55
20
-660.55
11
147.05
21
-660.55
0
LINE
8
Edge.Cuts
62
2
10
453.0
20
-508.85
11
453.0
21
-506.35
0
LINE
8
Edge.Cuts
62
2
10
221.7
20
-513.4
11
244.2
21
-513.4
0
LINE
8
Edge.Cuts
62
2
10
332.05
20
-743.05
11
332.05
21
-733.05
0
LINE
8
Edge.Cuts
62
2
10
91.7
20
-513.4
11
114.2
21
-513.4
0
LINE
8
Edge.Cuts
62
2
10
277.05
20
-660.55
11
277.05
21
-658.05
0
LINE
8
Edge.Cuts
62
2
10
286.7
20
-513.4
11
309.2
21
-513.4
0
LINE
8
Edge.Cuts
62
2
10
331.55
20
-423.7
11
329.05
21
-423.7
0
LINE
8
Edge.Cuts
62
2
10
199.2
20
-592.5
11
201.7
21
-592.5
0
LINE
8
Edge.Cuts
62
2
10
201.7
20
-592.5
11
201.7
21
-602.5
0
LINE
8
Edge.Cuts
62
2
10
201.7
20
-602.5
11
199.2
21
-602.5
0
LINE
8
Edge.Cuts
62
2
10
199.2
20
-602.5
11
199.2
21
-592.5
0
LINE
8
Edge.Cuts
62
2
10
478.0
20
-463.85
11
478.0
21
-453.85
0
LINE
8
Edge.Cuts
62
2
10
211.7
20
-510.9
11
221.7
21
-510.9
0
LINE
8
Edge.Cuts
62
2
10
36.55
20
-508.7
11
49.05
21
-508.7
0
LINE
8
Edge.Cuts
62
2
10
81.7
20
-513.4
11
81.7
21
-510.9
0
LINE
8
Edge.Cuts
62
2
10
39.2
20
-535.9
11
36.7
21
-535.9
0
LINE
8
Edge.Cuts
62
2
10
319.2
20
-510.9
11
319.2
21
-513.4
0
LINE
8
Edge.Cuts
62
2
10
189.55
20
-658.05
11
189.55
21
-660.55
0
LINE
8
Edge.Cuts
62
2
10
36.7
20
-535.9
11
36.7
21
-525.9
0
LINE
8
Edge.Cuts
62
2
10
332.05
20
-693.05
11
329.55
21
-693.05
0
LINE
8
Edge.Cuts
62
2
10
386.45
20
-607.65
11
376.45
21
-607.65
0
LINE
8
Edge.Cuts
62
2
10
331.55
20
-373.7
11
331.55
21
-368.7
0
LINE
8
Edge.Cuts
62
2
10
332.05
20
-673.05
11
329.55
21
-673.05
0
LINE
8
Edge.Cuts
62
2
10
91.7
20
-510.9
11
91.7
21
-513.4
0
LINE
8
Edge.Cuts
62
2
10
276.7
20
-510.9
11
286.7
21
-510.9
0
LINE
8
Edge.Cuts
62
2
10
366.45
20
-607.65
11
356.45
21
-607.65
0
LINE
8
Edge.Cuts
62
2
10
329.55
20
-693.05
11
329.55
21
-683.05
0
LINE
8
Edge.Cuts
62
2
10
37.05
20
-723.05
11
37.05
21
-713.05
0
LINE
8
Edge.Cuts
62
2
10
199.05
20
-473.7
11
201.55
21
-473.7
0
LINE
8
Edge.Cuts
62
2
10
201.55
20
-473.7
11
201.55
21
-483.7
0
LINE
8
Edge.Cuts
62
2
10
201.55
20
-483.7
11
199.05
21
-483.7
0
LINE
8
Edge.Cuts
62
2
10
199.05
20
-483.7
11
199.05
21
-473.7
0
CIRCLE
8
Edge.Cuts
62
2
10
86.55
20
-427.7
40
10.0
0
LINE
8
Edge.Cuts
62
2
10
37.05
20
-693.05
11
39.55
21
-693.05
0
LINE
8
Edge.Cuts
62
2
10
331.7
20
-645.9
11
331.7
21
-655.9
0
LINE
8
Edge.Cuts
62
2
10
446.45
20
-607.65
11
446.45
21
-609.65
0
LINE
8
Edge.Cuts
62
2
10
331.7
20
-535.9
11
331.7
21
-525.9
0
LINE
8
Edge.Cuts
62
2
10
329.2
20
-555.9
11
331.7
21
-555.9
0
LINE
8
Edge.Cuts
62
2
10
446.45
20
-609.65
11
456.45
21
-609.65
0
LINE
8
Edge.Cuts
62
2
10
329.2
20
-625.9
11
329.2
21
-615.9
0
LINE
8
Edge.Cuts
62
2
10
333.0
20
-408.85
11
343.0
21
-408.85
0
LINE
8
Edge.Cuts
62
2
10
231.7
20
-612.5
11
234.2
21
-612.5
0
LINE
8
Edge.Cuts
62
2
10
234.2
20
-612.5
11
234.2
21
-622.5
0
LINE
8
Edge.Cuts
62
2
10
234.2
20
-622.5
11
231.7
21
-622.5
0
LINE
8
Edge.Cuts
62
2
10
231.7
20
-622.5
11
231.7
21
-612.5
0
LINE
8
Edge.Cuts
62
2
10
39.05
20
-483.7
11
36.55
21
-483.7
0
LINE
8
Edge.Cuts
62
2
10
69.05
20
-453.7
11
71.55
21
-453.7
0
LINE
8
Edge.Cuts
62
2
10
71.55
20
-453.7
11
71.55
21
-463.7
0
LINE
8
Edge.Cuts
62
2
10
71.55
20
-463.7
11
69.05
21
-463.7
0
LINE
8
Edge.Cuts
62
2
10
69.05
20
-463.7
11
69.05
21
-453.7
0
LINE
8
Edge.Cuts
62
2
10
477.55
20
-525.15
11
477.55
21
-515.15
0
LINE
8
Edge.Cuts
62
2
10
329.55
20
-683.05
11
332.05
21
-683.05
0
LINE
8
Edge.Cuts
62
2
10
331.7
20
-635.9
11
329.2
21
-635.9
0
LINE
8
Edge.Cuts
62
2
10
363.0
20
-506.35
11
353.0
21
-506.35
0
LINE
8
Edge.Cuts
62
2
10
329.2
20
-525.9
11
329.2
21
-513.4
0
LINE
8
Edge.Cuts
62
2
10
166.7
20
-532.5
11
169.2
21
-532.5
0
LINE
8
Edge.Cuts
62
2
10
169.2
20
-532.5
11
169.2
21
-542.5
0
LINE
8
Edge.Cuts
62
2
10
169.2
20
-542.5
11
166.7
21
-542.5
0
LINE
8
Edge.Cuts
62
2
10
166.7
20
-542.5
11
166.7
21
-532.5
0
LINE
8
Edge.Cuts
62
2
10
81.55
20
-508.7
11
81.55
21
-506.2
0
LINE
8
Edge.Cuts
62
2
10
331.7
20
-595.9
11
331.7
21
-585.9
0
LINE
8
Edge.Cuts
62
2
10
254.55
20
-658.05
11
254.55
21
-660.55
0
LINE
8
Edge.Cuts
62
2
10
244.2
20
-513.4
11
244.2
21
-510.9
0
LINE
8
Edge.Cuts
62
2
10
329.2
20
-615.9
11
331.7
21
-615.9
0
LINE
8
Edge.Cuts
62
2
10
146.55
20
-508.7
11
146.55
21
-506.2
0
LINE
8
Edge.Cuts
62
2
10
383.0
20
-506.35
11
383.0
21
-508.85
0
LINE
8
Edge.Cuts
62
2
10
475.5
20
-403.85
11
475.5
21
-413.85
0
LINE
8
Edge.Cuts
62
2
10
101.7
20
-572.5
11
104.2
21
-572.5
0
LINE
8
Edge.Cuts
62
2
10
104.2
20
-572.5
11
104.2
21
-582.5
0
LINE
8
Edge.Cuts
62
2
10
104.2
20
-582.5
11
101.7
21
-582.5
0
LINE
8
Edge.Cuts
62
2
10
101.7
20
-582.5
11
101.7
21
-572.5
0
LINE
8
Edge.Cuts
62
2
10
403.0
20
-506.35
11
403.0
21
-508.85
0
LINE
8
Edge.Cuts
62
2
10
475.5
20
-463.85
11
475.5
21
-473.85
0
LINE
8
Edge.Cuts
62
2
10
231.55
20
-453.7
11
234.05
21
-453.7
0
LINE
8
Edge.Cuts
62
2
10
234.05
20
-453.7
11
234.05
21
-463.7
0
LINE
8
Edge.Cuts
62
2
10
234.05
20
-463.7
11
231.55
21
-463.7
0
LINE
8
Edge.Cuts
62
2
10
231.55
20
-463.7
11
231.55
21
-453.7
0
CIRCLE
8
Edge.Cuts
62
2
10
281.55
20
-427.7
40
10.0
0
LINE
8
Edge.Cuts
62
2
10
124.2
20
-513.4
11
146.7
21
-513.4
0
LINE
8
Edge.Cuts
62
2
10
231.7
20
-632.5
11
234.2
21
-632.5
0
LINE
8
Edge.Cuts
62
2
10
234.2
20
-632.5
11
234.2
21
-642.5
0
LINE
8
Edge.Cuts
62
2
10
234.2
20
-642.5
11
231.7
21
-642.5
0
LINE
8
Edge.Cuts
62
2
10
231.7
20
-642.5
11
231.7
21
-632.5
0
LINE
8
Edge.Cuts
62
2
10
475.5
20
-383.85
11
478.0
21
-383.85
0
LINE
8
Edge.Cuts
62
2
10
231.7
20
-572.5
11
234.2
21
-572.5
0
LINE
8
Edge.Cuts
62
2
10
234.2
20
-572.5
11
234.2
21
-582.5
0
LINE
8
Edge.Cuts
62
2
10
234.2
20
-582.5
11
231.7
21
-582.5
0
LINE
8
Edge.Cuts
62
2
10
231.7
20
-582.5
11
231.7
21
-572.5
0
LINE
8
Edge.Cuts
62
2
10
332.05
20
-793.05
11
332.05
21
-803.05
0
LINE
8
Edge.Cuts
62
2
10
276.55
20
-506.2
11
286.55
21
-506.2
0
LINE
8
Edge.Cuts
62
2
10
49.55
20
-658.05
11
59.55
21
-658.05
0
LINE
8
Edge.Cuts
62
2
10
436.45
20
-609.65
11
436.45
21
-607.65
0
LINE
8
Edge.Cuts
62
2
10
36.55
20
-383.7
11
36.55
21
-393.7
0
LINE
8
Edge.Cuts
62
2
10
478.0
20
-423.85
11
478.0
21
-413.85
0
LINE
8
Edge.Cuts
62
2
10
179.2
20
-510.9
11
189.2
21
-510.9
0
LINE
8
Edge.Cuts
62
2
10
332.05
20
-703.05
11
332.05
21
-693.05
0
LINE
8
Edge.Cuts
62
2
10
39.55
20
-793.05
11
37.05
21
-793.05
0
LINE
8
Edge.Cuts
62
2
10
37.05
20
-793.05
11
37.05
21
-803.05
0
LINE
8
Edge.Cuts
62
2
10
329.2
20
-645.9
11
331.7
21
-645.9
0
LINE
8
Edge.Cuts
62
2
10
475.5
20
-503.85
11
478.0
21
-503.85
0
LINE
8
Edge.Cuts
62
2
10
329.05
20
-503.7
11
329.05
21
-493.7
0
LINE
8
Edge.Cuts
62
2
10
101.7
20
-592.5
11
104.2
21
-592.5
0
LINE
8
Edge.Cuts
62
2
10
104.2
20
-592.5
11
104.2
21
-602.5
0
LINE
8
Edge.Cuts
62
2
10
104.2
20
-602.5
11
101.7
21
-602.5
0
LINE
8
Edge.Cuts
62
2
10
101.7
20
-602.5
11
101.7
21
-592.5
0
LINE
8
Edge.Cuts
62
2
10
244.55
20
-658.05
11
254.55
21
-658.05
0
LINE
8
Edge.Cuts
62
2
10
36.55
20
-503.7
11
36.55
21
-508.7
0
LINE
8
Edge.Cuts
62
2
10
39.05
20
-393.7
11
39.05
21
-403.7
0
LINE
8
Edge.Cuts
62
2
10
296.7
20
-632.5
11
299.2
21
-632.5
0
LINE
8
Edge.Cuts
62
2
10
299.2
20
-632.5
11
299.2
21
-642.5
0
LINE
8
Edge.Cuts
62
2
10
299.2
20
-642.5
11
296.7
21
-642.5
0
LINE
8
Edge.Cuts
62
2
10
296.7
20
-642.5
11
296.7
21
-632.5
0
LINE
8
Edge.Cuts
62
2
10
329.55
20
-763.05
11
332.05
21
-763.05
0
LINE
8
Edge.Cuts
62
2
10
39.2
20
-645.9
11
36.7
21
-645.9
0
LINE
8
Edge.Cuts
62
2
10
39.55
20
-793.05
11
37.05
21
-793.05
0
LINE
8
Edge.Cuts
62
2
10
331.55
20
-443.7
11
329.05
21
-443.7
0
LINE
8
Edge.Cuts
62
2
10
329.55
20
-723.05
11
332.05
21
-723.05
0
LINE
8
Edge.Cuts
62
2
10
446.45
20
-607.65
11
436.45
21
-607.65
0
LINE
8
Edge.Cuts
62
2
10
332.05
20
-723.05
11
332.05
21
-713.05
0
LINE
8
Edge.Cuts
62
2
10
346.45
20
-607.65
11
333.05
21
-607.65
0
LINE
8
Edge.Cuts
62
2
10
39.2
20
-555.9
11
36.7
21
-555.9
0
LINE
8
Edge.Cuts
62
2
10
473.05
20
-512.65
11
475.55
21
-512.65
0
LINE
8
Edge.Cuts
62
2
10
146.55
20
-506.2
11
156.55
21
-506.2
0
LINE
8
Edge.Cuts
62
2
10
319.05
20
-508.7
11
331.55
21
-508.7
0
LINE
8
Edge.Cuts
62
2
10
134.05
20
-473.7
11
136.55
21
-473.7
0
LINE
8
Edge.Cuts
62
2
10
136.55
20
-473.7
11
136.55
21
-483.7
0
LINE
8
Edge.Cuts
62
2
10
136.55
20
-483.7
11
134.05
21
-483.7
0
LINE
8
Edge.Cuts
62
2
10
134.05
20
-483.7
11
134.05
21
-473.7
0
LINE
8
Edge.Cuts
62
2
10
329.05
20
-433.7
11
331.55
21
-433.7
0
LINE
8
Edge.Cuts
62
2
10
101.7
20
-532.5
11
104.2
21
-532.5
0
LINE
8
Edge.Cuts
62
2
10
104.2
20
-532.5
11
104.2
21
-542.5
0
LINE
8
Edge.Cuts
62
2
10
104.2
20
-542.5
11
101.7
21
-542.5
0
LINE
8
Edge.Cuts
62
2
10
101.7
20
-542.5
11
101.7
21
-532.5
0
LINE
8
Edge.Cuts
62
2
10
319.55
20
-660.55
11
329.55
21
-660.55
0
LINE
8
Edge.Cuts
62
2
10
114.55
20
-660.55
11
114.55
21
-658.05
0
LINE
8
Edge.Cuts
62
2
10
36.7
20
-545.9
11
39.2
21
-545.9
0
LINE
8
Edge.Cuts
62
2
10
423.0
20
-506.35
11
413.0
21
-506.35
0
LINE
8
Edge.Cuts
62
2
10
296.7
20
-592.5
11
299.2
21
-592.5
0
LINE
8
Edge.Cuts
62
2
10
299.2
20
-592.5
11
299.2
21
-602.5
0
LINE
8
Edge.Cuts
62
2
10
299.2
20
-602.5
11
296.7
21
-602.5
0
LINE
8
Edge.Cuts
62
2
10
296.7
20
-602.5
11
296.7
21
-592.5
0
LINE
8
Edge.Cuts
62
2
10
199.05
20
-453.7
11
201.55
21
-453.7
0
LINE
8
Edge.Cuts
62
2
10
201.55
20
-453.7
11
201.55
21
-463.7
0
LINE
8
Edge.Cuts
62
2
10
201.55
20
-463.7
11
199.05
21
-463.7
0
LINE
8
Edge.Cuts
62
2
10
199.05
20
-463.7
11
199.05
21
-453.7
0
LINE
8
Edge.Cuts
62
2
10
331.55
20
-393.7
11
331.55
21
-383.7
0
LINE
8
Edge.Cuts
62
2
10
309.55
20
-660.55
11
309.55
21
-658.05
0
LINE
8
Edge.Cuts
62
2
10
231.7
20
-532.5
11
234.2
21
-532.5
0
LINE
8
Edge.Cuts
62
2
10
234.2
20
-532.5
11
234.2
21
-542.5
0
LINE
8
Edge.Cuts
62
2
10
234.2
20
-542.5
11
231.7
21
-542.5
0
LINE
8
Edge.Cuts
62
2
10
231.7
20
-542.5
11
231.7
21
-532.5
0
LINE
8
Edge.Cuts
62
2
10
39.55
20
-723.05
11
37.05
21
-723.05
0
LINE
8
Edge.Cuts
62
2
10
39.2
20
-595.9
11
36.7
21
-595.9
0
LINE
8
Edge.Cuts
62
2
10
37.05
20
-793.05
11
37.05
21
-803.05
0
LINE
8
Edge.Cuts
62
2
10
329.55
20
-713.05
11
329.55
21
-703.05
0
LINE
8
Edge.Cuts
62
2
10
166.7
20
-592.5
11
169.2
21
-592.5
0
LINE
8
Edge.Cuts
62
2
10
169.2
20
-592.5
11
169.2
21
-602.5
0
LINE
8
Edge.Cuts
62
2
10
169.2
20
-602.5
11
166.7
21
-602.5
0
LINE
8
Edge.Cuts
62
2
10
166.7
20
-602.5
11
166.7
21
-592.5
0
LINE
8
Edge.Cuts
62
2
10
329.2
20
-625.9
11
331.7
21
-625.9
0
LINE
8
Edge.Cuts
62
2
10
101.55
20
-493.7
11
104.05
21
-493.7
0
LINE
8
Edge.Cuts
62
2
10
104.05
20
-493.7
11
104.05
21
-503.7
0
LINE
8
Edge.Cuts
62
2
10
104.05
20
-503.7
11
101.55
21
-503.7
0
LINE
8
Edge.Cuts
62
2
10
101.55
20
-503.7
11
101.55
21
-493.7
0
LINE
8
Edge.Cuts
62
2
10
475.5
20
-443.85
11
475.5
21
-453.85
0
LINE
8
Edge.Cuts
62
2
10
329.2
20
-585.9
11
329.2
21
-575.9
0
LINE
8
Edge.Cuts
62
2
10
456.45
20
-609.65
11
456.45
21
-607.65
0
LINE
8
Edge.Cuts
62
2
10
329.2
20
-535.9
11
331.7
21
-535.9
0
LINE
8
Edge.Cuts
62
2
10
244.05
20
-508.7
11
244.05
21
-506.2
0
LINE
8
Edge.Cuts
62
2
10
264.2
20
-592.5
11
266.7
21
-592.5
0
LINE
8
Edge.Cuts
62
2
10
266.7
20
-592.5
11
266.7
21
-602.5
0
LINE
8
Edge.Cuts
62
2
10
266.7
20
-602.5
11
264.2
21
-602.5
0
LINE
8
Edge.Cuts
62
2
10
264.2
20
-602.5
11
264.2
21
-592.5
0
LINE
8
Edge.Cuts
62
2
10
254.05
20
-508.7
11
276.55
21
-508.7
0
LINE
8
Edge.Cuts
62
2
10
189.55
20
-660.55
11
212.05
21
-660.55
0
LINE
8
Edge.Cuts
62
2
10
329.55
20
-773.05
11
332.05
21
-773.05
0
LINE
8
Edge.Cuts
62
2
10
477.55
20
-515.15
11
475.55
21
-515.15
0
LINE
8
Edge.Cuts
62
2
10
124.05
20
-508.7
11
146.55
21
-508.7
0
LINE
8
Edge.Cuts
62
2
10
36.55
20
-453.7
11
39.05
21
-453.7
0
LINE
8
Edge.Cuts
62
2
10
393.0
20
-408.85
11
403.0
21
-408.85
0
LINE
8
Edge.Cuts
62
2
10
403.0
20
-408.85
11
403.0
21
-411.35
0
LINE
8
Edge.Cuts
62
2
10
403.0
20
-411.35
11
393.0
21
-411.35
0
LINE
8
Edge.Cuts
62
2
10
393.0
20
-411.35
11
393.0
21
-408.85
0
LINE
8
Edge.Cuts
62
2
10
319.2
20
-513.4
11
329.2
21
-513.4
0
LINE
8
Edge.Cuts
62
2
10
433.0
20
-508.85
11
433.0
21
-506.35
0
LINE
8
Edge.Cuts
62
2
10
166.55
20
-493.7
11
169.05
21
-493.7
0
LINE
8
Edge.Cuts
62
2
10
169.05
20
-493.7
11
169.05
21
-503.7
0
LINE
8
Edge.Cuts
62
2
10
169.05
20
-503.7
11
166.55
21
-503.7
0
LINE
8
Edge.Cuts
62
2
10
166.55
20
-503.7
11
166.55
21
-493.7
0
LINE
8
Edge.Cuts
62
2
10
179.05
20
-508.7
11
179.05
21
-506.2
0
LINE
8
Edge.Cuts
62
2
10
329.55
20
-793.05
11
332.05
21
-793.05
0
LINE
8
Edge.Cuts
62
2
10
331.7
20
-565.9
11
329.2
21
-565.9
0
LINE
8
Edge.Cuts
62
2
10
329.55
20
-733.05
11
329.55
21
-723.05
0
LINE
8
Edge.Cuts
62
2
10
179.05
20
-506.2
11
189.05
21
-506.2
0
LINE
8
Edge.Cuts
62
2
10
39.55
20
-673.05
11
39.55
21
-660.55
0
LINE
8
Edge.Cuts
62
2
10
134.2
20
-612.5
11
136.7
21
-612.5
0
LINE
8
Edge.Cuts
62
2
10
136.7
20
-612.5
11
136.7
21
-622.5
0
LINE
8
Edge.Cuts
62
2
10
136.7
20
-622.5
11
134.2
21
-622.5
0
LINE
8
Edge.Cuts
62
2
10
134.2
20
-622.5
11
134.2
21
-612.5
0
LINE
8
Edge.Cuts
62
2
10
101.7
20
-632.5
11
104.2
21
-632.5
0
LINE
8
Edge.Cuts
62
2
10
104.2
20
-632.5
11
104.2
21
-642.5
0
LINE
8
Edge.Cuts
62
2
10
104.2
20
-642.5
11
101.7
21
-642.5
0
LINE
8
Edge.Cuts
62
2
10
101.7
20
-642.5
11
101.7
21
-632.5
0
LINE
8
Edge.Cuts
62
2
10
475.55
20
-585.15
11
477.55
21
-585.15
0
LINE
8
Edge.Cuts
62
2
10
166.55
20
-433.7
11
169.05
21
-433.7
0
LINE
8
Edge.Cuts
62
2
10
169.05
20
-433.7
11
169.05
21
-443.7
0
LINE
8
Edge.Cuts
62
2
10
169.05
20
-443.7
11
166.55
21
-443.7
0
LINE
8
Edge.Cuts
62
2
10
166.55
20
-443.7
11
166.55
21
-433.7
0
LINE
8
Edge.Cuts
62
2
10
36.7
20
-645.9
11
36.7
21
-655.9
0
LINE
8
Edge.Cuts
62
2
10
59.2
20
-510.9
11
59.2
21
-513.4
0
LINE
8
Edge.Cuts
62
2
10
277.05
20
-658.05
11
287.05
21
-658.05
0
LINE
8
Edge.Cuts
62
2
10
221.55
20
-506.2
11
221.55
21
-508.7
0
LINE
8
Edge.Cuts
62
2
10
81.7
20
-510.9
11
91.7
21
-510.9
0
LINE
8
Edge.Cuts
62
2
10
477.55
20
-605.15
11
477.55
21
-595.15
0
LINE
8
Edge.Cuts
62
2
10
199.2
20
-552.5
11
201.7
21
-552.5
0
LINE
8
Edge.Cuts
62
2
10
201.7
20
-552.5
11
201.7
21
-562.5
0
LINE
8
Edge.Cuts
62
2
10
201.7
20
-562.5
11
199.2
21
-562.5
0
LINE
8
Edge.Cuts
62
2
10
199.2
20
-562.5
11
199.2
21
-552.5
0
LINE
8
Edge.Cuts
62
2
10
37.05
20
-703.05
11
37.05
21
-693.05
0
LINE
8
Edge.Cuts
62
2
10
309.05
20
-506.2
11
319.05
21
-506.2
0
LINE
8
Edge.Cuts
62
2
10
373.0
20
-508.85
11
373.0
21
-506.35
0
LINE
8
Edge.Cuts
62
2
10
114.55
20
-658.05
11
124.55
21
-658.05
0
LINE
8
Edge.Cuts
62
2
10
475.55
20
-512.65
11
475.55
21
-515.15
0
LINE
8
Edge.Cuts
62
2
10
332.05
20
-793.05
11
332.05
21
-803.05
0
LINE
8
Edge.Cuts
62
2
10
309.2
20
-513.4
11
309.2
21
-510.9
0
LINE
8
Edge.Cuts
62
2
10
39.55
20
-773.05
11
39.55
21
-763.05
0
LINE
8
Edge.Cuts
62
2
10
59.2
20
-513.4
11
81.7
21
-513.4
0
LINE
8
Edge.Cuts
62
2
10
331.7
20
-575.9
11
331.7
21
-565.9
0
LINE
8
Edge.Cuts
62
2
10
276.7
20
-513.4
11
276.7
21
-510.9
0
LINE
8
Edge.Cuts
62
2
10
39.2
20
-625.9
11
36.7
21
-625.9
0
LINE
8
Edge.Cuts
62
2
10
333.0
20
-506.35
11
333.0
21
-411.35
0
LINE
8
Edge.Cuts
62
2
10
36.55
20
-493.7
11
39.05
21
-493.7
0
LINE
8
Edge.Cuts
62
2
10
386.45
20
-609.65
11
396.45
21
-609.65
0
LINE
8
Edge.Cuts
62
2
10
286.7
20
-510.9
11
286.7
21
-513.4
0
LINE
8
Edge.Cuts
62
2
10
319.55
20
-658.05
11
319.55
21
-660.55
0
LINE
8
Edge.Cuts
62
2
10
475.5
20
-423.85
11
475.5
21
-433.85
0
LINE
8
Edge.Cuts
62
2
10
475.5
20
-423.85
11
478.0
21
-423.85
0
LINE
8
Edge.Cuts
62
2
10
39.2
20
-645.9
11
39.2
21
-635.9
0
LINE
8
Edge.Cuts
62
2
10
134.05
20
-413.7
11
136.55
21
-413.7
0
LINE
8
Edge.Cuts
62
2
10
136.55
20
-413.7
11
136.55
21
-423.7
0
LINE
8
Edge.Cuts
62
2
10
136.55
20
-423.7
11
134.05
21
-423.7
0
LINE
8
Edge.Cuts
62
2
10
134.05
20
-423.7
11
134.05
21
-413.7
0
LINE
8
Edge.Cuts
62
2
10
475.55
20
-605.15
11
477.55
21
-605.15
0
LINE
8
Edge.Cuts
62
2
10
475.55
20
-565.15
11
475.55
21
-575.15
0
LINE
8
Edge.Cuts
62
2
10
134.2
20
-532.5
11
136.7
21
-532.5
0
LINE
8
Edge.Cuts
62
2
10
136.7
20
-532.5
11
136.7
21
-542.5
0
LINE
8
Edge.Cuts
62
2
10
136.7
20
-542.5
11
134.2
21
-542.5
0
LINE
8
Edge.Cuts
62
2
10
134.2
20
-542.5
11
134.2
21
-532.5
0
LINE
8
Edge.Cuts
62
2
10
157.05
20
-660.55
11
179.55
21
-660.55
0
LINE
8
Edge.Cuts
62
2
10
363.0
20
-506.35
11
363.0
21
-508.85
0
LINE
8
Edge.Cuts
62
2
10
37.05
20
-773.05
11
37.05
21
-783.05
0
LINE
8
Edge.Cuts
62
2
10
331.55
20
-433.7
11
331.55
21
-423.7
0
LINE
8
Edge.Cuts
62
2
10
156.7
20
-513.4
11
179.2
21
-513.4
0
LINE
8
Edge.Cuts
62
2
10
475.55
20
-605.15
11
475.55
21
-607.65
0
LINE
8
Edge.Cuts
62
2
10
69.2
20
-532.5
11
71.7
21
-532.5
0
LINE
8
Edge.Cuts
62
2
10
71.7
20
-532.5
11
71.7
21
-542.5
0
LINE
8
Edge.Cuts
62
2
10
71.7
20
-542.5
11
69.2
21
-542.5
0
LINE
8
Edge.Cuts
62
2
10
69.2
20
-542.5
11
69.2
21
-532.5
0
LINE
8
Edge.Cuts
62
2
10
331.7
20
-525.9
11
329.2
21
-525.9
0
LINE
8
Edge.Cuts
62
2
10
406.45
20
-609.65
11
416.45
21
-609.65
0
LINE
8
Edge.Cuts
62
2
10
36.55
20
-423.7
11
36.55
21
-433.7
0
LINE
8
Edge.Cuts
62
2
10
331.7
20
-655.9
11
329.2
21
-655.9
0
LINE
8
Edge.Cuts
62
2
10
331.55
20
-383.7
11
329.05
21
-383.7
0
LINE
8
Edge.Cuts
62
2
10
91.55
20
-506.2
11
91.55
21
-508.7
0
LINE
8
Edge.Cuts
62
2
10
329.2
20
-645.9
11
331.7
21
-645.9
0
CIRCLE
8
Edge.Cuts
62
2
10
54.05
20
-427.7
40
10.0
0
LINE
8
Edge.Cuts
62
2
10
114.2
20
-513.4
11
114.2
21
-510.9
0
LINE
8
Edge.Cuts
62
2
10
114.05
20
-506.2
11
124.05
21
-506.2
0
LINE
8
Edge.Cuts
62
2
10
179.2
20
-513.4
11
179.2
21
-510.9
0
LINE
8
Edge.Cuts
62
2
10
469.6
20
-506.35
11
453.0
21
-506.35
0
LINE
8
Edge.Cuts
62
2
10
353.0
20
-508.85
11
353.0
21
-506.35
0
LINE
8
Edge.Cuts
62
2
10
166.55
20
-413.7
11
169.05
21
-413.7
0
LINE
8
Edge.Cuts
62
2
10
169.05
20
-413.7
11
169.05
21
-423.7
0
LINE
8
Edge.Cuts
62
2
10
169.05
20
-423.7
11
166.55
21
-423.7
0
LINE
8
Edge.Cuts
62
2
10
166.55
20
-423.7
11
166.55
21
-413.7
0
LINE
8
Edge.Cuts
62
2
10
331.55
20
-413.7
11
331.55
21
-403.7
0
LINE
8
Edge.Cuts
62
2
10
264.2
20
-552.5
11
266.7
21
-552.5
0
LINE
8
Edge.Cuts
62
2
10
266.7
20
-552.5
11
266.7
21
-562.5
0
LINE
8
Edge.Cuts
62
2
10
266.7
20
-562.5
11
264.2
21
-562.5
0
LINE
8
Edge.Cuts
62
2
10
264.2
20
-562.5
11
264.2
21
-552.5
0
LINE
8
Edge.Cuts
62
2
10
331.55
20
-493.7
11
331.55
21
-483.7
0
LINE
8
Edge.Cuts
62
2
10
114.2
20
-510.9
11
124.2
21
-510.9
0
LINE
8
Edge.Cuts
62
2
10
331.7
20
-615.9
11
331.7
21
-605.9
0
LINE
8
Edge.Cuts
62
2
10
37.05
20
-753.05
11
39.55
21
-753.05
0
LINE
8
Edge.Cuts
62
2
10
69.2
20
-592.5
11
71.7
21
-592.5
0
LINE
8
Edge.Cuts
62
2
10
71.7
20
-592.5
11
71.7
21
-602.5
0
LINE
8
Edge.Cuts
62
2
10
71.7
20
-602.5
11
69.2
21
-602.5
0
LINE
8
Edge.Cuts
62
2
10
69.2
20
-602.5
11
69.2
21
-592.5
0
LINE
8
Edge.Cuts
62
2
10
356.45
20
-609.65
11
356.45
21
-607.65
0
CIRCLE
8
Edge.Cuts
62
2
10
184.05
20
-427.7
40
10.0
0
LINE
8
Edge.Cuts
62
2
10
39.05
20
-463.7
11
36.55
21
-463.7
0
LINE
8
Edge.Cuts
62
2
10
39.55
20
-683.05
11
37.05
21
-683.05
0
LINE
8
Edge.Cuts
62
2
10
69.2
20
-632.5
11
71.7
21
-632.5
0
LINE
8
Edge.Cuts
62
2
10
71.7
20
-632.5
11
71.7
21
-642.5
0
LINE
8
Edge.Cuts
62
2
10
71.7
20
-642.5
11
69.2
21
-642.5
0
LINE
8
Edge.Cuts
62
2
10
69.2
20
-642.5
11
69.2
21
-632.5
0
LINE
8
Edge.Cuts
62
2
10
49.2
20
-510.9
11
59.2
21
-510.9
0
LINE
8
Edge.Cuts
62
2
10
124.05
20
-506.2
11
124.05
21
-508.7
0
LINE
8
Edge.Cuts
62
2
10
69.05
20
-433.7
11
71.55
21
-433.7
0
LINE
8
Edge.Cuts
62
2
10
71.55
20
-433.7
11
71.55
21
-443.7
0
LINE
8
Edge.Cuts
62
2
10
71.55
20
-443.7
11
69.05
21
-443.7
0
LINE
8
Edge.Cuts
62
2
10
69.05
20
-443.7
11
69.05
21
-433.7
0
LINE
8
Edge.Cuts
62
2
10
134.2
20
-592.5
11
136.7
21
-592.5
0
LINE
8
Edge.Cuts
62
2
10
136.7
20
-592.5
11
136.7
21
-602.5
0
LINE
8
Edge.Cuts
62
2
10
136.7
20
-602.5
11
134.2
21
-602.5
0
LINE
8
Edge.Cuts
62
2
10
134.2
20
-602.5
11
134.2
21
-592.5
0
LINE
8
Edge.Cuts
62
2
10
329.55
20
-703.05
11
332.05
21
-703.05
0
LINE
8
Edge.Cuts
62
2
10
222.05
20
-658.05
11
222.05
21
-660.55
0
LINE
8
Edge.Cuts
62
2
10
478.0
20
-373.85
11
475.5
21
-373.85
0
ENDSEC
0
EOF
