EESchema Schematic File Version 4
EELAYER 30 0
EELAYER END
$Descr A4 11693 8268
encoding utf-8
Sheet 1 1
Title "PowRef"
Date "2020-05-03"
Rev ""
Comp ""
Comment1 ""
Comment2 ""
Comment3 ""
Comment4 "https://www.changpuak.ch/electronics/RF-PowerTransferStandard.php"
$EndDescr
$Comp
L Connector:USB_A J1
U 1 1 5EAABEE1
P 1250 2650
F 0 "J1" H 1307 3117 50  0000 C CNN
F 1 "USB_A" H 1307 3026 50  0000 C CNN
F 2 "PowRef:USB_A" H 1400 2600 50  0001 C CNN
F 3 " ~" H 1400 2600 50  0001 C CNN
	1    1250 2650
	1    0    0    -1  
$EndComp
$Comp
L Oscillator:ABLNO X1
U 1 1 5EAAF5F5
P 1250 4450
F 0 "X1" H 1450 4700 50  0000 L CNN
F 1 "50MHz" H 1300 4200 50  0000 L CNN
F 2 "Oscillators:Oscillator_SMD_Abracon_ASE-4pin_3.2x2.5mm" H 1250 4100 50  0001 C CNN
F 3 "https://abracon.com/Precisiontiming/ABLNO.pdf" H 1050 4550 50  0001 C CNN
	1    1250 4450
	1    0    0    -1  
$EndComp
$Comp
L Regulator_Linear:XC6206PxxxMR U1
U 1 1 5EAAFE25
P 2800 2450
F 0 "U1" H 2800 2692 50  0000 C CNN
F 1 "XC6206PxxxMR" H 2800 2601 50  0000 C CNN
F 2 "TO_SOT_Packages_SMD:TSOT-23" H 2800 2675 50  0001 C CIN
F 3 "https://www.torexsemi.com/file/xc6206/XC6206.pdf" H 2800 2450 50  0001 C CNN
	1    2800 2450
	1    0    0    -1  
$EndComp
$Comp
L Diode:BAV99 D1
U 1 1 5EAB2ABB
P 3100 4450
F 0 "D1" V 3146 4529 50  0000 L CNN
F 1 "BAV99" V 3055 4529 50  0000 L CNN
F 2 "TO_SOT_Packages_SMD:SOT-23" H 3100 3950 50  0001 C CNN
F 3 "https://assets.nexperia.com/documents/data-sheet/BAV99_SER.pdf" H 3100 4450 50  0001 C CNN
	1    3100 4450
	0    -1   -1   0   
$EndComp
$Comp
L Device:R_Small R1
U 1 1 5EAB33E7
P 2000 2450
F 0 "R1" V 1804 2450 50  0000 C CNN
F 1 "10R" V 1895 2450 50  0000 C CNN
F 2 "Resistors_SMD:R_0805" H 2000 2450 50  0001 C CNN
F 3 "~" H 2000 2450 50  0001 C CNN
	1    2000 2450
	0    1    1    0   
$EndComp
Wire Wire Line
	1550 2450 1700 2450
$Comp
L power:+5V #PWR0101
U 1 1 5EAB4379
P 1700 2250
F 0 "#PWR0101" H 1700 2100 50  0001 C CNN
F 1 "+5V" H 1715 2423 50  0000 C CNN
F 2 "" H 1700 2250 50  0001 C CNN
F 3 "" H 1700 2250 50  0001 C CNN
	1    1700 2250
	1    0    0    -1  
$EndComp
Wire Wire Line
	1700 2250 1700 2450
Connection ~ 1700 2450
Wire Wire Line
	1700 2450 1900 2450
$Comp
L power:GND #PWR0102
U 1 1 5EAB6A01
P 1250 3150
F 0 "#PWR0102" H 1250 2900 50  0001 C CNN
F 1 "GND" H 1255 2977 50  0000 C CNN
F 2 "" H 1250 3150 50  0001 C CNN
F 3 "" H 1250 3150 50  0001 C CNN
	1    1250 3150
	1    0    0    -1  
$EndComp
NoConn ~ 1550 2650
NoConn ~ 1550 2750
$Comp
L power:GND #PWR0103
U 1 1 5EAB8864
P 2800 2950
F 0 "#PWR0103" H 2800 2700 50  0001 C CNN
F 1 "GND" H 2805 2777 50  0000 C CNN
F 2 "" H 2800 2950 50  0001 C CNN
F 3 "" H 2800 2950 50  0001 C CNN
	1    2800 2950
	1    0    0    -1  
$EndComp
$Comp
L Device:CP_Small C1
U 1 1 5EABDBFC
P 2300 2650
F 0 "C1" H 2100 2700 50  0000 L CNN
F 1 "100uF/16v" H 1800 2600 50  0000 L CNN
F 2 "Capacitors_SMD:C_0805" H 2300 2650 50  0001 C CNN
F 3 "~" H 2300 2650 50  0001 C CNN
	1    2300 2650
	1    0    0    -1  
$EndComp
$Comp
L Device:CP_Small C2
U 1 1 5EABE4F9
P 3300 2650
F 0 "C2" H 3388 2696 50  0000 L CNN
F 1 "100uF/16v" H 3388 2605 50  0000 L CNN
F 2 "Capacitors_SMD:C_0805" H 3300 2650 50  0001 C CNN
F 3 "~" H 3300 2650 50  0001 C CNN
	1    3300 2650
	1    0    0    -1  
$EndComp
Wire Wire Line
	2100 2450 2300 2450
Wire Wire Line
	2300 2550 2300 2450
Connection ~ 2300 2450
Wire Wire Line
	2300 2450 2500 2450
$Comp
L power:+3.3V #PWR0104
U 1 1 5EABF554
P 3600 2250
F 0 "#PWR0104" H 3600 2100 50  0001 C CNN
F 1 "+3.3V" H 3615 2423 50  0000 C CNN
F 2 "" H 3600 2250 50  0001 C CNN
F 3 "" H 3600 2250 50  0001 C CNN
	1    3600 2250
	1    0    0    -1  
$EndComp
Wire Wire Line
	3100 2450 3300 2450
Wire Wire Line
	3300 2450 3300 2550
Wire Wire Line
	3300 2450 3600 2450
Connection ~ 3300 2450
Wire Wire Line
	2300 2900 2800 2900
Connection ~ 2800 2900
Wire Wire Line
	2800 2900 3300 2900
Wire Wire Line
	2800 2900 2800 2950
Wire Wire Line
	2800 2750 2800 2900
Wire Wire Line
	2300 2750 2300 2900
Wire Wire Line
	3300 2750 3300 2900
Wire Wire Line
	3600 2250 3600 2450
$Comp
L power:+3.3V #PWR0105
U 1 1 5EAC2B27
P 1250 4050
F 0 "#PWR0105" H 1250 3900 50  0001 C CNN
F 1 "+3.3V" H 1265 4223 50  0000 C CNN
F 2 "" H 1250 4050 50  0001 C CNN
F 3 "" H 1250 4050 50  0001 C CNN
	1    1250 4050
	1    0    0    -1  
$EndComp
Wire Wire Line
	850  4450 800  4450
Wire Wire Line
	800  4450 800  4100
Wire Wire Line
	800  4100 1250 4100
Wire Wire Line
	1250 4100 1250 4050
Wire Wire Line
	1250 4100 1250 4150
Connection ~ 1250 4100
$Comp
L power:GND #PWR0106
U 1 1 5EAC3E31
P 1250 4850
F 0 "#PWR0106" H 1250 4600 50  0001 C CNN
F 1 "GND" H 1255 4677 50  0000 C CNN
F 2 "" H 1250 4850 50  0001 C CNN
F 3 "" H 1250 4850 50  0001 C CNN
	1    1250 4850
	1    0    0    -1  
$EndComp
Wire Wire Line
	1250 4750 1250 4850
$Comp
L Device:C_Small C3
U 1 1 5EAC4935
P 2000 4450
F 0 "C3" V 1771 4450 50  0000 C CNN
F 1 "1nF" V 1862 4450 50  0000 C CNN
F 2 "Capacitors_SMD:C_0805" H 2000 4450 50  0001 C CNN
F 3 "~" H 2000 4450 50  0001 C CNN
	1    2000 4450
	0    1    1    0   
$EndComp
$Comp
L Device:R_Small R2
U 1 1 5EAC6926
P 2350 4450
F 0 "R2" V 2154 4450 50  0000 C CNN
F 1 "100R" V 2245 4450 50  0000 C CNN
F 2 "Resistors_SMD:R_0805" H 2350 4450 50  0001 C CNN
F 3 "~" H 2350 4450 50  0001 C CNN
	1    2350 4450
	0    1    1    0   
$EndComp
$Comp
L Device:R_Small R3
U 1 1 5EAC84E5
P 3600 4450
F 0 "R3" V 3404 4450 50  0000 C CNN
F 1 "51R" V 3495 4450 50  0000 C CNN
F 2 "Resistors_SMD:R_0805" H 3600 4450 50  0001 C CNN
F 3 "~" H 3600 4450 50  0001 C CNN
	1    3600 4450
	0    1    1    0   
$EndComp
Wire Wire Line
	1650 4450 1900 4450
Wire Wire Line
	2100 4450 2250 4450
Wire Wire Line
	3300 4450 3500 4450
Connection ~ 3300 4450
$Comp
L power:GND #PWR0107
U 1 1 5EACA104
P 3150 4050
F 0 "#PWR0107" H 3150 3800 50  0001 C CNN
F 1 "GND" V 3155 3922 50  0000 R CNN
F 2 "" H 3150 4050 50  0001 C CNN
F 3 "" H 3150 4050 50  0001 C CNN
	1    3150 4050
	0    -1   -1   0   
$EndComp
Wire Wire Line
	3150 4050 3100 4050
Wire Wire Line
	3100 4050 3100 4150
$Comp
L power:GND #PWR0108
U 1 1 5EACB0C5
P 3150 4850
F 0 "#PWR0108" H 3150 4600 50  0001 C CNN
F 1 "GND" V 3155 4722 50  0000 R CNN
F 2 "" H 3150 4850 50  0001 C CNN
F 3 "" H 3150 4850 50  0001 C CNN
	1    3150 4850
	0    -1   -1   0   
$EndComp
Wire Wire Line
	3100 4750 3100 4850
Wire Wire Line
	3100 4850 3150 4850
$Comp
L Device:C_Small C4
U 1 1 5EACC868
P 4150 4650
F 0 "C4" H 4242 4696 50  0000 L CNN
F 1 "27pF" H 4242 4605 50  0000 L CNN
F 2 "Capacitors_SMD:C_0805" H 4150 4650 50  0001 C CNN
F 3 "~" H 4150 4650 50  0001 C CNN
	1    4150 4650
	1    0    0    -1  
$EndComp
$Comp
L pspice:INDUCTOR L1
U 1 1 5EAD1EE3
P 4500 4450
F 0 "L1" H 4500 4665 50  0000 C CNN
F 1 "68nH" H 4500 4574 50  0000 C CNN
F 2 "Inductors_SMD:L_0805" H 4500 4450 50  0001 C CNN
F 3 "~" H 4500 4450 50  0001 C CNN
	1    4500 4450
	1    0    0    -1  
$EndComp
$Comp
L Device:C_Small C6
U 1 1 5EAD6743
P 5550 4650
F 0 "C6" H 5642 4696 50  0000 L CNN
F 1 "56pF" H 5642 4605 50  0000 L CNN
F 2 "Capacitors_SMD:C_0805" H 5550 4650 50  0001 C CNN
F 3 "~" H 5550 4650 50  0001 C CNN
	1    5550 4650
	1    0    0    -1  
$EndComp
$Comp
L Device:C_Small C7
U 1 1 5EAD734C
P 6250 4650
F 0 "C7" H 6342 4696 50  0000 L CNN
F 1 "56pF" H 6342 4605 50  0000 L CNN
F 2 "Capacitors_SMD:C_0805" H 6250 4650 50  0001 C CNN
F 3 "~" H 6250 4650 50  0001 C CNN
	1    6250 4650
	1    0    0    -1  
$EndComp
$Comp
L pspice:INDUCTOR L3
U 1 1 5EAD7352
P 5900 4450
F 0 "L3" H 5900 4665 50  0000 C CNN
F 1 "68nH" H 5900 4574 50  0000 C CNN
F 2 "Inductors_SMD:L_0805" H 5900 4450 50  0001 C CNN
F 3 "~" H 5900 4450 50  0001 C CNN
	1    5900 4450
	1    0    0    -1  
$EndComp
$Comp
L Device:C_Small C8
U 1 1 5EAD8165
P 6950 4650
F 0 "C8" H 7042 4696 50  0000 L CNN
F 1 "27pF" H 7042 4605 50  0000 L CNN
F 2 "Capacitors_SMD:C_0805" H 6950 4650 50  0001 C CNN
F 3 "~" H 6950 4650 50  0001 C CNN
	1    6950 4650
	1    0    0    -1  
$EndComp
$Comp
L pspice:INDUCTOR L4
U 1 1 5EAD816B
P 6600 4450
F 0 "L4" H 6600 4665 50  0000 C CNN
F 1 "68nH" H 6600 4574 50  0000 C CNN
F 2 "Inductors_SMD:L_0805" H 6600 4450 50  0001 C CNN
F 3 "~" H 6600 4450 50  0001 C CNN
	1    6600 4450
	1    0    0    -1  
$EndComp
Wire Wire Line
	4750 4450 4850 4450
Wire Wire Line
	5450 4450 5550 4450
Wire Wire Line
	6150 4450 6250 4450
Wire Wire Line
	4150 4550 4150 4450
Connection ~ 4150 4450
Wire Wire Line
	4150 4450 4250 4450
Wire Wire Line
	4850 4550 4850 4450
Connection ~ 4850 4450
Wire Wire Line
	4850 4450 4950 4450
Wire Wire Line
	5550 4550 5550 4450
Connection ~ 5550 4450
Wire Wire Line
	5550 4450 5650 4450
Wire Wire Line
	6250 4550 6250 4450
Connection ~ 6250 4450
Wire Wire Line
	6250 4450 6350 4450
Wire Wire Line
	6850 4450 6950 4450
Wire Wire Line
	6950 4450 6950 4550
$Comp
L power:GND #PWR0109
U 1 1 5EADD0C4
P 4150 4850
F 0 "#PWR0109" H 4150 4600 50  0001 C CNN
F 1 "GND" H 4155 4677 50  0000 C CNN
F 2 "" H 4150 4850 50  0001 C CNN
F 3 "" H 4150 4850 50  0001 C CNN
	1    4150 4850
	1    0    0    -1  
$EndComp
$Comp
L power:GND #PWR0110
U 1 1 5EADD4A4
P 4850 4850
F 0 "#PWR0110" H 4850 4600 50  0001 C CNN
F 1 "GND" H 4855 4677 50  0000 C CNN
F 2 "" H 4850 4850 50  0001 C CNN
F 3 "" H 4850 4850 50  0001 C CNN
	1    4850 4850
	1    0    0    -1  
$EndComp
$Comp
L power:GND #PWR0111
U 1 1 5EADD873
P 5550 4850
F 0 "#PWR0111" H 5550 4600 50  0001 C CNN
F 1 "GND" H 5555 4677 50  0000 C CNN
F 2 "" H 5550 4850 50  0001 C CNN
F 3 "" H 5550 4850 50  0001 C CNN
	1    5550 4850
	1    0    0    -1  
$EndComp
$Comp
L power:GND #PWR0112
U 1 1 5EADDB32
P 6250 4850
F 0 "#PWR0112" H 6250 4600 50  0001 C CNN
F 1 "GND" H 6255 4677 50  0000 C CNN
F 2 "" H 6250 4850 50  0001 C CNN
F 3 "" H 6250 4850 50  0001 C CNN
	1    6250 4850
	1    0    0    -1  
$EndComp
$Comp
L power:GND #PWR0113
U 1 1 5EADE0EE
P 6950 4850
F 0 "#PWR0113" H 6950 4600 50  0001 C CNN
F 1 "GND" H 6955 4677 50  0000 C CNN
F 2 "" H 6950 4850 50  0001 C CNN
F 3 "" H 6950 4850 50  0001 C CNN
	1    6950 4850
	1    0    0    -1  
$EndComp
Wire Wire Line
	4150 4750 4150 4850
Wire Wire Line
	4850 4750 4850 4850
Wire Wire Line
	5550 4750 5550 4850
Wire Wire Line
	6250 4750 6250 4850
Wire Wire Line
	6950 4750 6950 4850
$Comp
L Device:R_Small R4
U 1 1 5EAF2CAF
P 8600 4450
F 0 "R4" V 8404 4450 50  0000 C CNN
F 1 "68R" V 8495 4450 50  0000 C CNN
F 2 "Resistors_SMD:R_0805" H 8600 4450 50  0001 C CNN
F 3 "~" H 8600 4450 50  0001 C CNN
	1    8600 4450
	0    1    1    0   
$EndComp
$Comp
L Device:R_Small R5
U 1 1 5EAF382E
P 8200 4650
F 0 "R5" H 8141 4604 50  0000 R CNN
F 1 "100R" H 8141 4695 50  0000 R CNN
F 2 "Resistors_SMD:R_0805" H 8200 4650 50  0001 C CNN
F 3 "~" H 8200 4650 50  0001 C CNN
	1    8200 4650
	-1   0    0    1   
$EndComp
$Comp
L Device:R_Small R6
U 1 1 5EAF408C
P 8950 4650
F 0 "R6" H 8891 4604 50  0000 R CNN
F 1 "100R" H 8891 4695 50  0000 R CNN
F 2 "Resistors_SMD:R_0805" H 8950 4650 50  0001 C CNN
F 3 "~" H 8950 4650 50  0001 C CNN
	1    8950 4650
	-1   0    0    1   
$EndComp
$Comp
L Device:C_Small C9
U 1 1 5EAF44C1
P 9550 4450
F 0 "C9" V 9321 4450 50  0000 C CNN
F 1 "1nF" V 9412 4450 50  0000 C CNN
F 2 "Capacitors_SMD:C_0805" H 9550 4450 50  0001 C CNN
F 3 "~" H 9550 4450 50  0001 C CNN
	1    9550 4450
	0    1    1    0   
$EndComp
Wire Wire Line
	8700 4450 8950 4450
Wire Wire Line
	8200 4550 8200 4450
Connection ~ 8200 4450
Wire Wire Line
	8200 4450 8500 4450
Wire Wire Line
	8950 4550 8950 4450
$Comp
L power:GND #PWR0114
U 1 1 5EAF806C
P 8200 4850
F 0 "#PWR0114" H 8200 4600 50  0001 C CNN
F 1 "GND" H 8205 4677 50  0000 C CNN
F 2 "" H 8200 4850 50  0001 C CNN
F 3 "" H 8200 4850 50  0001 C CNN
	1    8200 4850
	1    0    0    -1  
$EndComp
$Comp
L power:GND #PWR0115
U 1 1 5EAF8518
P 8950 4850
F 0 "#PWR0115" H 8950 4600 50  0001 C CNN
F 1 "GND" H 8955 4677 50  0000 C CNN
F 2 "" H 8950 4850 50  0001 C CNN
F 3 "" H 8950 4850 50  0001 C CNN
	1    8950 4850
	1    0    0    -1  
$EndComp
Wire Wire Line
	8200 4750 8200 4850
Wire Wire Line
	8950 4750 8950 4850
$Comp
L Connector:Conn_Coaxial J2
U 1 1 5EAFAA58
P 10300 4450
F 0 "J2" H 10400 4425 50  0000 L CNN
F 1 "SMA" H 10400 4334 50  0000 L CNN
F 2 "PowRef:SMA_Edge" H 10300 4450 50  0001 C CNN
F 3 " ~" H 10300 4450 50  0001 C CNN
	1    10300 4450
	1    0    0    -1  
$EndComp
$Comp
L power:GND #PWR0116
U 1 1 5EAFC149
P 10300 4850
F 0 "#PWR0116" H 10300 4600 50  0001 C CNN
F 1 "GND" H 10305 4677 50  0000 C CNN
F 2 "" H 10300 4850 50  0001 C CNN
F 3 "" H 10300 4850 50  0001 C CNN
	1    10300 4850
	1    0    0    -1  
$EndComp
Wire Wire Line
	9650 4450 9850 4450
Wire Wire Line
	10300 4650 10300 4850
Wire Wire Line
	3700 4450 4150 4450
Wire Wire Line
	8950 4450 9450 4450
Connection ~ 8950 4450
Wire Notes Line
	7950 5150 7950 4100
Wire Notes Line
	7300 4100 7300 5150
Wire Notes Line
	7300 5150 3900 5150
Wire Notes Line
	3900 5150 3900 4100
Wire Notes Line
	3900 4100 7300 4100
$Comp
L pspice:INDUCTOR L2
U 1 1 5EAD6749
P 5200 4450
F 0 "L2" H 5200 4665 50  0000 C CNN
F 1 "68nH" H 5200 4574 50  0000 C CNN
F 2 "Inductors_SMD:L_0805" H 5200 4450 50  0001 C CNN
F 3 "~" H 5200 4450 50  0001 C CNN
	1    5200 4450
	1    0    0    -1  
$EndComp
$Comp
L Device:C_Small C5
U 1 1 5EACCEB8
P 4850 4650
F 0 "C5" H 4942 4696 50  0000 L CNN
F 1 "56pF" H 4942 4605 50  0000 L CNN
F 2 "Capacitors_SMD:C_0805" H 4850 4650 50  0001 C CNN
F 3 "~" H 4850 4650 50  0001 C CNN
	1    4850 4650
	1    0    0    -1  
$EndComp
Wire Wire Line
	2450 4450 3300 4450
Text Notes 7950 5250 0    50   ~ 0
10dB pad
Text Notes 3900 5250 0    50   ~ 0
Low-pass Filter
Wire Notes Line
	900  1900 3850 1900
Wire Notes Line
	3850 1900 3850 3450
Wire Notes Line
	3850 3450 900  3450
Wire Notes Line
	900  3450 900  1900
Text Notes 900  3550 0    50   ~ 0
USB Power & 3.3v Regulator
Wire Notes Line
	650  3750 3750 3750
Wire Notes Line
	3750 3750 3750 5150
Wire Notes Line
	3750 5150 650  5150
Wire Notes Line
	650  5150 650  3750
Text Notes 650  5250 0    50   ~ 0
50MHz Oscillator and Peak Limiter
Wire Notes Line
	9250 4100 9250 5150
Wire Notes Line
	7950 4100 9250 4100
Wire Notes Line
	7950 5150 9250 5150
$Comp
L Connector:TestPoint TP1
U 1 1 5EAEDD6D
P 7600 4450
F 0 "TP1" H 7650 4600 50  0000 L CNN
F 1 "Sig" H 7550 4700 50  0000 L CNN
F 2 "Connectors_TestPoints:Test_Point_Pad_1.5x1.5mm" H 7800 4450 50  0001 C CNN
F 3 "~" H 7800 4450 50  0001 C CNN
	1    7600 4450
	1    0    0    -1  
$EndComp
Connection ~ 6950 4450
Connection ~ 7600 4450
Wire Wire Line
	7600 4450 8200 4450
Wire Wire Line
	6950 4450 7600 4450
$Comp
L Connector:TestPoint TP2
U 1 1 5EAF8754
P 7600 5100
F 0 "TP2" H 7650 5250 50  0000 L CNN
F 1 "GND" H 7500 5350 50  0000 L CNN
F 2 "Connectors_TestPoints:Test_Point_Pad_1.5x1.5mm" H 7800 5100 50  0001 C CNN
F 3 "~" H 7800 5100 50  0001 C CNN
	1    7600 5100
	1    0    0    -1  
$EndComp
$Comp
L power:GND #PWR0117
U 1 1 5EAF8E5E
P 7600 5100
F 0 "#PWR0117" H 7600 4850 50  0001 C CNN
F 1 "GND" H 7605 4927 50  0000 C CNN
F 2 "" H 7600 5100 50  0001 C CNN
F 3 "" H 7600 5100 50  0001 C CNN
	1    7600 5100
	1    0    0    -1  
$EndComp
Wire Wire Line
	1250 3050 1250 3100
$Comp
L Connector:TestPoint TP3
U 1 1 5EB2B55C
P 9850 4450
F 0 "TP3" H 9900 4600 50  0000 L CNN
F 1 "RF" H 9800 4700 50  0000 L CNN
F 2 "Connectors_TestPoints:Test_Point_Pad_1.5x1.5mm" H 10050 4450 50  0001 C CNN
F 3 "~" H 10050 4450 50  0001 C CNN
	1    9850 4450
	1    0    0    -1  
$EndComp
Connection ~ 9850 4450
Wire Wire Line
	9850 4450 10100 4450
Wire Wire Line
	1150 3050 1150 3100
Wire Wire Line
	1150 3100 1250 3100
Connection ~ 1250 3100
Wire Wire Line
	1250 3100 1250 3150
Text Notes 1350 7150 0    50   ~ 0
0dBm:\n\nR4 = 9.1ohm\nR5 = R6 = 560ohm\n\nAttenuation = 1.56dB
Text Notes 2550 7150 0    50   ~ 0
-10dBm:\n\nR4 = 91ohm\nR5 = R6 = 82ohm\n\nAttenuation = 11.97dB
$EndSCHEMATC
