EESchema Schematic File Version 4
LIBS:DigiVolt-cache
EELAYER 29 0
EELAYER END
$Descr A4 11693 8268
encoding utf-8
Sheet 1 1
Title "DigiVolt - a two channel voltage measurement device"
Date "2019-08-29"
Rev "1.0"
Comp ""
Comment1 ""
Comment2 ""
Comment3 ""
Comment4 ""
$EndDescr
Text GLabel 9400 2400 2    50   Input ~ 0
B1
Text GLabel 9400 2500 2    50   Input ~ 0
B2
Text GLabel 9400 2600 2    50   Input ~ 0
B3
Wire Wire Line
	9300 2400 9400 2400
Wire Wire Line
	9300 2500 9400 2500
Wire Wire Line
	9300 2600 9400 2600
Text GLabel 9400 2700 2    50   Input ~ 0
B4
Wire Wire Line
	9300 2700 9400 2700
Text GLabel 9400 2800 2    50   Input ~ 0
B5
Wire Wire Line
	9300 2800 9400 2800
Text GLabel 9400 2900 2    50   Input ~ 0
B6
Wire Wire Line
	9300 2900 9400 2900
Text GLabel 9400 3200 2    50   Input ~ 0
C6
Wire Wire Line
	9300 3200 9400 3200
Text GLabel 9400 3700 2    50   Input ~ 0
D2
Wire Wire Line
	9300 3700 9400 3700
Text GLabel 9400 3800 2    50   Input ~ 0
D3
Wire Wire Line
	9300 3800 9400 3800
Text GLabel 9400 4200 2    50   Input ~ 0
D7
Wire Wire Line
	9300 4200 9400 4200
Text GLabel 9400 4500 2    50   Input ~ 0
E6
Wire Wire Line
	9300 4500 9400 4500
Text GLabel 9400 4900 2    50   Input ~ 0
F4
Wire Wire Line
	9300 4900 9400 4900
Text GLabel 9400 5000 2    50   Input ~ 0
F5
Wire Wire Line
	9300 5000 9400 5000
Text GLabel 9400 5100 2    50   Input ~ 0
F6
Wire Wire Line
	9300 5100 9400 5100
Text GLabel 9400 5200 2    50   Input ~ 0
F7
Wire Wire Line
	9300 5200 9400 5200
$Comp
L Device:Crystal Y1
U 1 1 5C4D2AE8
P 7100 2600
F 0 "Y1" V 7054 2731 50  0000 L CNN
F 1 "16MHz" V 7145 2731 50  0000 L CNN
F 2 "Crystals:Crystal_SMD_0603-2pin_6.0x3.5mm" H 7100 2600 50  0001 C CNN
F 3 "~" H 7100 2600 50  0001 C CNN
	1    7100 2600
	0    1    1    0   
$EndComp
Wire Wire Line
	7850 2450 7850 2500
Wire Wire Line
	7850 2500 8100 2500
Wire Wire Line
	7850 2750 7850 2700
Wire Wire Line
	7850 2700 8100 2700
$Comp
L Device:C C10
U 1 1 5C4D4696
P 6800 2450
F 0 "C10" V 6548 2450 50  0000 C CNN
F 1 "22pF" V 6639 2450 50  0000 C CNN
F 2 "Capacitors_SMD:C_0805" H 6838 2300 50  0001 C CNN
F 3 "~" H 6800 2450 50  0001 C CNN
	1    6800 2450
	0    1    1    0   
$EndComp
$Comp
L Device:C C11
U 1 1 5C4D47BE
P 6800 2750
F 0 "C11" V 6950 2750 50  0000 C CNN
F 1 "22pF" V 7050 2750 50  0000 C CNN
F 2 "Capacitors_SMD:C_0805" H 6838 2600 50  0001 C CNN
F 3 "~" H 6800 2750 50  0001 C CNN
	1    6800 2750
	0    1    1    0   
$EndComp
Wire Wire Line
	6950 2450 7100 2450
Wire Wire Line
	6950 2750 7100 2750
$Comp
L power:GND #PWR0106
U 1 1 5C4D4B7E
P 6450 2600
F 0 "#PWR0106" H 6450 2350 50  0001 C CNN
F 1 "GND" H 6455 2427 50  0000 C CNN
F 2 "" H 6450 2600 50  0001 C CNN
F 3 "" H 6450 2600 50  0001 C CNN
	1    6450 2600
	1    0    0    -1  
$EndComp
Wire Wire Line
	6650 2450 6650 2600
Connection ~ 6650 2600
Wire Wire Line
	6650 2600 6650 2750
$Comp
L Device:C C9
U 1 1 5C4E9EFA
P 7450 3050
F 0 "C9" H 7700 3050 50  0000 R CNN
F 1 "0.1uF" H 7750 3150 50  0000 R CNN
F 2 "Capacitors_SMD:C_0805" H 7488 2900 50  0001 C CNN
F 3 "~" H 7450 3050 50  0001 C CNN
	1    7450 3050
	-1   0    0    1   
$EndComp
$Comp
L power:GND #PWR0108
U 1 1 5C4EA3DC
P 7450 3200
F 0 "#PWR0108" H 7450 2950 50  0001 C CNN
F 1 "GND" H 7455 3027 50  0000 C CNN
F 2 "" H 7450 3200 50  0001 C CNN
F 3 "" H 7450 3200 50  0001 C CNN
	1    7450 3200
	1    0    0    -1  
$EndComp
Text GLabel 8000 3100 0    50   Input ~ 0
Vcc
Wire Wire Line
	8000 3100 8100 3100
$Comp
L Device:C C8
U 1 1 5C4EF9FC
P 7450 3750
F 0 "C8" H 7335 3704 50  0000 R CNN
F 1 "1uF" H 7335 3795 50  0000 R CNN
F 2 "Capacitors_SMD:C_0805" H 7488 3600 50  0001 C CNN
F 3 "~" H 7450 3750 50  0001 C CNN
	1    7450 3750
	-1   0    0    1   
$EndComp
$Comp
L power:GND #PWR0109
U 1 1 5C4EFBA7
P 7450 3900
F 0 "#PWR0109" H 7450 3650 50  0001 C CNN
F 1 "GND" H 7455 3727 50  0000 C CNN
F 2 "" H 7450 3900 50  0001 C CNN
F 3 "" H 7450 3900 50  0001 C CNN
	1    7450 3900
	1    0    0    -1  
$EndComp
Text GLabel 8000 3300 0    50   Input ~ 0
D+
Wire Wire Line
	8000 3300 8100 3300
Text GLabel 8000 3400 0    50   Input ~ 0
D-
Wire Wire Line
	8000 3400 8100 3400
Wire Wire Line
	6450 2600 6650 2600
Connection ~ 7100 2450
Connection ~ 7100 2750
Wire Wire Line
	7100 2450 7850 2450
Wire Wire Line
	7100 2750 7850 2750
$Comp
L Device:C C2
U 1 1 5C50D37A
P 3100 1350
F 0 "C2" H 2985 1304 50  0000 R CNN
F 1 "1uF" H 2985 1395 50  0000 R CNN
F 2 "Capacitors_SMD:C_0805" H 3138 1200 50  0001 C CNN
F 3 "~" H 3100 1350 50  0001 C CNN
	1    3100 1350
	-1   0    0    1   
$EndComp
$Comp
L power:GND #PWR0111
U 1 1 5C50EE50
P 2850 2000
F 0 "#PWR0111" H 2850 1750 50  0001 C CNN
F 1 "GND" H 2855 1827 50  0000 C CNN
F 2 "" H 2850 2000 50  0001 C CNN
F 3 "" H 2850 2000 50  0001 C CNN
	1    2850 2000
	1    0    0    -1  
$EndComp
Text GLabel 2100 1450 2    50   Input ~ 0
D-
$Comp
L Device:R R2
U 1 1 5C51083A
P 1800 1450
F 0 "R2" V 1900 1450 50  0000 C CNN
F 1 "22" V 1800 1450 50  0000 C CNN
F 2 "Resistors_SMD:R_0805" V 1730 1450 50  0001 C CNN
F 3 "~" H 1800 1450 50  0001 C CNN
	1    1800 1450
	0    1    1    0   
$EndComp
Wire Wire Line
	1500 1350 1650 1350
NoConn ~ 1500 1550
$Comp
L power:GND #PWR0112
U 1 1 5C51AAE3
P 1200 1800
F 0 "#PWR0112" H 1200 1550 50  0001 C CNN
F 1 "GND" H 1205 1627 50  0000 C CNN
F 2 "" H 1200 1800 50  0001 C CNN
F 3 "" H 1200 1800 50  0001 C CNN
	1    1200 1800
	1    0    0    -1  
$EndComp
Wire Wire Line
	1200 1750 1200 1800
$Comp
L Device:R R1
U 1 1 5C51CCF0
P 1800 1350
F 0 "R1" V 1700 1350 50  0000 C CNN
F 1 "22" V 1800 1350 50  0000 C CNN
F 2 "Resistors_SMD:R_0805" V 1730 1350 50  0001 C CNN
F 3 "~" H 1800 1350 50  0001 C CNN
	1    1800 1350
	0    1    1    0   
$EndComp
Wire Wire Line
	1500 1450 1650 1450
Wire Wire Line
	1950 1450 2100 1450
Text GLabel 2100 1350 2    50   Input ~ 0
D+
Wire Wire Line
	1950 1350 2100 1350
Text GLabel 4050 1150 2    50   Input ~ 0
Vcc
$Comp
L Device:C C6
U 1 1 5C52A678
P 7200 5400
F 0 "C6" H 7350 5300 50  0000 R CNN
F 1 "0.1uF" H 7150 5500 50  0000 R CNN
F 2 "Capacitors_SMD:C_0805" H 7238 5250 50  0001 C CNN
F 3 "~" H 7200 5400 50  0001 C CNN
	1    7200 5400
	-1   0    0    1   
$EndComp
$Comp
L power:GND #PWR0110
U 1 1 5C6712A3
P 8600 5800
F 0 "#PWR0110" H 8600 5550 50  0001 C CNN
F 1 "GND" H 8605 5627 50  0000 C CNN
F 2 "" H 8600 5800 50  0001 C CNN
F 3 "" H 8600 5800 50  0001 C CNN
	1    8600 5800
	1    0    0    -1  
$EndComp
Wire Wire Line
	8700 5600 8700 5700
Wire Wire Line
	8700 5700 8600 5700
Wire Wire Line
	8600 5700 8600 5800
Wire Wire Line
	8600 5600 8600 5700
Connection ~ 8600 5700
Text GLabel 9400 3300 2    50   Input ~ 0
C7
Wire Wire Line
	9300 3300 9400 3300
Text GLabel 9400 3000 2    50   Input ~ 0
B7
Wire Wire Line
	9300 3000 9400 3000
Text GLabel 9400 4100 2    50   Input ~ 0
D6
Wire Wire Line
	9300 4100 9400 4100
Text GLabel 9400 4800 2    50   Input ~ 0
F1
Text GLabel 9400 4700 2    50   Input ~ 0
F0
Wire Wire Line
	9300 4700 9400 4700
Wire Wire Line
	9300 4800 9400 4800
Wire Notes Line
	600  2600 1400 2600
Text Notes 600  4950 0    50   ~ 0
Unused AtMega pins
$Comp
L Connector:USB_B_Mini J2
U 1 1 5C545065
P 1200 1350
F 0 "J2" H 1255 1817 50  0000 C CNN
F 1 "USB_B_Mini" H 1255 1726 50  0000 C CNN
F 2 "Connectors:USB_Mini-B" H 1350 1300 50  0001 C CNN
F 3 "~" H 1350 1300 50  0001 C CNN
	1    1200 1350
	1    0    0    -1  
$EndComp
Wire Wire Line
	1100 1750 1200 1750
Connection ~ 1200 1750
$Comp
L power:GND #PWR0122
U 1 1 5C539483
P 7850 4600
F 0 "#PWR0122" H 7850 4350 50  0001 C CNN
F 1 "GND" H 7855 4427 50  0000 C CNN
F 2 "" H 7850 4600 50  0001 C CNN
F 3 "" H 7850 4600 50  0001 C CNN
	1    7850 4600
	1    0    0    -1  
$EndComp
Wire Wire Line
	8100 4100 7850 4100
Wire Wire Line
	7850 4100 7850 4300
Connection ~ 7850 4300
Wire Wire Line
	7850 4300 8100 4300
Wire Wire Line
	8100 4500 7850 4500
Wire Wire Line
	7850 4500 7850 4300
$Comp
L Device:C C4
U 1 1 5C505836
P 9350 1450
F 0 "C4" V 9450 1650 50  0000 R CNN
F 1 "0.1uF" V 9200 1550 50  0000 R CNN
F 2 "Capacitors_SMD:C_0805" H 9388 1300 50  0001 C CNN
F 3 "~" H 9350 1450 50  0001 C CNN
	1    9350 1450
	0    1    1    0   
$EndComp
Text GLabel 8700 1050 1    50   Input ~ 0
Vcc
$Comp
L power:GND #PWR0103
U 1 1 5C581942
P 7450 5800
F 0 "#PWR0103" H 7450 5550 50  0001 C CNN
F 1 "GND" H 7455 5627 50  0000 C CNN
F 2 "" H 7450 5800 50  0001 C CNN
F 3 "" H 7450 5800 50  0001 C CNN
	1    7450 5800
	1    0    0    -1  
$EndComp
Text Notes 600  2450 0    50   ~ 0
USB Data and Power
$Comp
L Device:R R4
U 1 1 5C5B8C5E
P 7450 1250
F 0 "R4" V 7243 1250 50  0000 C CNN
F 1 "1K0" V 7334 1250 50  0000 C CNN
F 2 "Resistors_SMD:R_0805" V 7380 1250 50  0001 C CNN
F 3 "~" H 7450 1250 50  0001 C CNN
	1    7450 1250
	1    0    0    1   
$EndComp
Wire Wire Line
	7450 3600 8100 3600
Text GLabel 9400 2300 2    50   Input ~ 0
B0
Wire Wire Line
	9300 2300 9400 2300
Text GLabel 7450 5000 1    50   Input ~ 0
Vcc
Wire Wire Line
	9300 4000 9400 4000
Text GLabel 9400 4000 2    50   Input ~ 0
D5
Wire Wire Line
	9300 3900 9400 3900
Text GLabel 9400 3900 2    50   Input ~ 0
D4
Wire Wire Line
	3100 1500 3100 1550
$Comp
L Switch:SW_DIP_x01 SW1
U 1 1 5C82E04E
P 7450 1800
F 0 "SW1" V 7404 1930 50  0000 L CNN
F 1 "SW_DIP_x01" V 7495 1930 50  0000 L CNN
F 2 "Iota:Switch" H 7450 1800 50  0001 C CNN
F 3 "" H 7450 1800 50  0001 C CNN
	1    7450 1800
	0    -1   1    0   
$EndComp
$Comp
L power:GND #PWR0107
U 1 1 5C82E385
P 7450 2100
F 0 "#PWR0107" H 7450 1850 50  0001 C CNN
F 1 "GND" H 7455 1927 50  0000 C CNN
F 2 "" H 7450 2100 50  0001 C CNN
F 3 "" H 7450 2100 50  0001 C CNN
	1    7450 2100
	-1   0    0    -1  
$EndComp
$Comp
L Device:R R3
U 1 1 5CA641E7
P 3600 1750
F 0 "R3" V 3393 1750 50  0000 C CNN
F 1 "1K0" V 3484 1750 50  0000 C CNN
F 2 "Resistors_SMD:R_0805" V 3530 1750 50  0001 C CNN
F 3 "~" H 3600 1750 50  0001 C CNN
	1    3600 1750
	1    0    0    -1  
$EndComp
$Comp
L Device:LED LED1
U 1 1 5CA64ADF
P 3600 1400
F 0 "LED1" V 3638 1282 50  0000 R CNN
F 1 "red" V 3547 1282 50  0000 R CNN
F 2 "LEDs:LED_1206" H 3600 1400 50  0001 C CNN
F 3 "~" H 3600 1400 50  0001 C CNN
	1    3600 1400
	0    -1   -1   0   
$EndComp
$Comp
L power:GND #PWR0113
U 1 1 5CA6508F
P 3600 2000
F 0 "#PWR0113" H 3600 1750 50  0001 C CNN
F 1 "GND" H 3605 1827 50  0000 C CNN
F 2 "" H 3600 2000 50  0001 C CNN
F 3 "" H 3600 2000 50  0001 C CNN
	1    3600 2000
	1    0    0    -1  
$EndComp
Wire Wire Line
	3600 1250 3600 1150
Wire Wire Line
	3600 1550 3600 1600
Wire Wire Line
	3600 1900 3600 2000
$Comp
L Device:Polyfuse_Small F1
U 1 1 5D296E7F
P 2000 1150
F 0 "F1" V 1795 1150 50  0000 C CNN
F 1 "500mA" V 1886 1150 50  0000 C CNN
F 2 "Fuse_Holders_and_Fuses:Fuse_SMD1206_Wave" H 2050 950 50  0001 L CNN
F 3 "~" H 2000 1150 50  0001 C CNN
	1    2000 1150
	0    1    1    0   
$EndComp
Wire Wire Line
	1500 1150 1900 1150
Wire Notes Line
	600  550  600  2350
$Comp
L Device:CP_Small C1
U 1 1 5D73E342
P 2600 1350
F 0 "C1" H 2688 1396 50  0000 L CNN
F 1 "10uF" H 2688 1305 50  0000 L CNN
F 2 "Capacitors_SMD:C_0805" H 2600 1350 50  0001 C CNN
F 3 "~" H 2600 1350 50  0001 C CNN
	1    2600 1350
	1    0    0    -1  
$EndComp
Wire Wire Line
	2100 1150 2600 1150
Wire Wire Line
	3100 1200 3100 1150
Connection ~ 3100 1150
Wire Wire Line
	3100 1150 3600 1150
Wire Wire Line
	2600 1250 2600 1150
Connection ~ 2600 1150
Wire Wire Line
	2600 1150 3100 1150
Wire Wire Line
	2600 1450 2600 1550
Wire Notes Line
	4350 550  4350 2350
Wire Notes Line
	600  2350 4350 2350
Wire Notes Line
	600  550  4350 550 
Wire Wire Line
	2850 2000 2850 1550
Wire Wire Line
	2600 1550 2850 1550
Connection ~ 2850 1550
Wire Wire Line
	2850 1550 3100 1550
Text GLabel 7450 950  1    50   Input ~ 0
Vcc
Wire Wire Line
	7450 950  7450 1100
$Comp
L Device:C C3
U 1 1 5D7757F5
P 9350 1050
F 0 "C3" V 9450 1200 50  0000 R CNN
F 1 "0.1uF" V 9200 1150 50  0000 R CNN
F 2 "Capacitors_SMD:C_0805" H 9388 900 50  0001 C CNN
F 3 "~" H 9350 1050 50  0001 C CNN
	1    9350 1050
	0    1    1    0   
$EndComp
$Comp
L Device:C C5
U 1 1 5D77BEFA
P 9350 1850
F 0 "C5" V 9450 2000 50  0000 R CNN
F 1 "0.1uF" V 9200 1950 50  0000 R CNN
F 2 "Capacitors_SMD:C_0805" H 9388 1700 50  0001 C CNN
F 3 "~" H 9350 1850 50  0001 C CNN
	1    9350 1850
	0    1    1    0   
$EndComp
Wire Wire Line
	9200 1050 9050 1050
Wire Wire Line
	9050 1050 9050 1450
Wire Wire Line
	9050 1850 9200 1850
Wire Wire Line
	9200 1450 9050 1450
Connection ~ 9050 1450
Wire Wire Line
	9050 1450 9050 1850
Wire Wire Line
	9500 1050 9650 1050
Wire Wire Line
	9650 1050 9650 1450
Wire Wire Line
	9650 1850 9500 1850
Wire Wire Line
	9500 1450 9650 1450
Connection ~ 9650 1450
Wire Wire Line
	9650 1450 9650 1850
$Comp
L power:GND #PWR0102
U 1 1 5D78B5A3
P 10000 1550
F 0 "#PWR0102" H 10000 1300 50  0001 C CNN
F 1 "GND" H 10005 1377 50  0000 C CNN
F 2 "" H 10000 1550 50  0001 C CNN
F 3 "" H 10000 1550 50  0001 C CNN
	1    10000 1550
	1    0    0    -1  
$EndComp
Wire Wire Line
	9650 1450 10000 1450
Wire Wire Line
	10000 1450 10000 1550
$Comp
L Device:C C7
U 1 1 5D7C3667
P 7700 5400
F 0 "C7" H 7850 5300 50  0000 R CNN
F 1 "0.1uF" H 7650 5500 50  0000 R CNN
F 2 "Capacitors_SMD:C_0805" H 7738 5250 50  0001 C CNN
F 3 "~" H 7700 5400 50  0001 C CNN
	1    7700 5400
	-1   0    0    1   
$EndComp
Wire Wire Line
	7200 5250 7200 5200
Wire Wire Line
	7200 5200 7450 5200
Wire Wire Line
	7700 5200 7700 5250
Wire Wire Line
	7200 5550 7200 5600
Wire Wire Line
	7200 5600 7450 5600
Wire Wire Line
	7700 5600 7700 5550
Wire Wire Line
	7450 5800 7450 5600
Connection ~ 7450 5600
Wire Wire Line
	7450 5600 7700 5600
Connection ~ 7700 5200
Wire Wire Line
	8100 5000 8000 5000
Wire Wire Line
	8000 5000 8000 5200
Wire Wire Line
	8000 5200 8100 5200
Wire Wire Line
	7450 5000 7450 5200
Connection ~ 7450 5200
Wire Wire Line
	7450 5200 7700 5200
Wire Wire Line
	7850 4600 7850 4500
Connection ~ 7850 4500
Wire Wire Line
	7700 5200 8000 5200
Connection ~ 8000 5200
$Comp
L Device:LED LED2
U 1 1 5D87B1E3
P 9950 3750
F 0 "LED2" V 9988 3632 50  0000 R CNN
F 1 "CH1 Act" V 9897 3632 50  0000 R CNN
F 2 "LEDs:LED_1206" H 9950 3750 50  0001 C CNN
F 3 "~" H 9950 3750 50  0001 C CNN
	1    9950 3750
	0    -1   -1   0   
$EndComp
$Comp
L Device:R R5
U 1 1 5D87BF9E
P 9950 4050
F 0 "R5" V 9743 4050 50  0000 C CNN
F 1 "1K0" V 9834 4050 50  0000 C CNN
F 2 "Resistors_SMD:R_0805" V 9880 4050 50  0001 C CNN
F 3 "~" H 9950 4050 50  0001 C CNN
	1    9950 4050
	1    0    0    -1  
$EndComp
$Comp
L power:GND #PWR0104
U 1 1 5D87C8D4
P 9950 4200
F 0 "#PWR0104" H 9950 3950 50  0001 C CNN
F 1 "GND" H 9955 4027 50  0000 C CNN
F 2 "" H 9950 4200 50  0001 C CNN
F 3 "" H 9950 4200 50  0001 C CNN
	1    9950 4200
	1    0    0    -1  
$EndComp
Text GLabel 1000 3200 2    50   Input ~ 0
C6
NoConn ~ 900  3200
Wire Wire Line
	900  3200 1000 3200
Text GLabel 1000 3450 2    50   Input ~ 0
D2
Text GLabel 1000 3550 2    50   Input ~ 0
D3
Text GLabel 1000 3650 2    50   Input ~ 0
D4
NoConn ~ 900  3450
NoConn ~ 900  3550
NoConn ~ 900  3650
Wire Wire Line
	900  3450 1000 3450
Wire Wire Line
	900  3550 1000 3550
Wire Wire Line
	900  3650 1000 3650
Text GLabel 1000 3750 2    50   Input ~ 0
D5
Wire Wire Line
	900  3750 1000 3750
NoConn ~ 900  3750
Text GLabel 1000 3850 2    50   Input ~ 0
D6
NoConn ~ 900  3850
Wire Wire Line
	900  3850 1000 3850
Text GLabel 1000 4100 2    50   Input ~ 0
E2
NoConn ~ 900  4100
Wire Wire Line
	900  4100 1000 4100
Text GLabel 1000 4350 2    50   Input ~ 0
F4
NoConn ~ 900  4350
Wire Wire Line
	900  4350 1000 4350
Text GLabel 1000 4450 2    50   Input ~ 0
F5
Wire Wire Line
	900  4450 1000 4450
NoConn ~ 900  4450
Text GLabel 1000 4550 2    50   Input ~ 0
F6
Text GLabel 1000 4650 2    50   Input ~ 0
F7
NoConn ~ 900  4550
NoConn ~ 900  4650
Wire Wire Line
	900  4550 1000 4550
Wire Wire Line
	900  4650 1000 4650
$Comp
L Potentiometer_Digital:MCP42100 U2
U 1 1 5D9D2584
P 4750 4250
F 0 "U2" H 5000 4700 50  0000 C CNN
F 1 "MCP42xxx" V 4700 4250 50  0000 C CNN
F 2 "Housings_SOIC:SOIC-14W_7.5x9.0mm_Pitch1.27mm" H 4750 4350 50  0001 C CNN
F 3 "http://ww1.microchip.com/downloads/en/DeviceDoc/11195c.pdf" H 4750 4350 50  0001 C CNN
	1    4750 4250
	-1   0    0    -1  
$EndComp
Text GLabel 5400 4250 2    50   Input ~ 0
B0
Wire Wire Line
	5400 4250 5250 4250
$Comp
L power:GND #PWR0105
U 1 1 5D9E356C
P 4150 4650
F 0 "#PWR0105" H 4150 4400 50  0001 C CNN
F 1 "GND" H 4155 4477 50  0000 C CNN
F 2 "" H 4150 4650 50  0001 C CNN
F 3 "" H 4150 4650 50  0001 C CNN
	1    4150 4650
	1    0    0    -1  
$EndComp
Wire Wire Line
	4750 4750 4750 4850
Text GLabel 4750 3600 1    50   Input ~ 0
Vcc
Wire Wire Line
	4750 3600 4750 3750
Text GLabel 5400 3950 2    50   Input ~ 0
B1
Wire Wire Line
	5250 3950 5400 3950
Text GLabel 5400 4050 2    50   Input ~ 0
B2
Wire Wire Line
	5400 4050 5250 4050
Wire Wire Line
	5400 4150 5250 4150
Wire Wire Line
	4250 4550 4150 4550
Wire Wire Line
	4150 4550 4150 4650
Wire Wire Line
	4250 4150 4150 4150
Wire Wire Line
	4150 4150 4150 4550
Connection ~ 4150 4550
Text GLabel 3400 4050 0    50   Input ~ 0
F0
Text GLabel 3800 4450 0    50   Input ~ 0
F1
$Comp
L power:GND #PWR0115
U 1 1 5DA7B6EB
P 2100 3050
F 0 "#PWR0115" H 2100 2800 50  0001 C CNN
F 1 "GND" H 2105 2877 50  0000 C CNN
F 2 "" H 2100 3050 50  0001 C CNN
F 3 "" H 2100 3050 50  0001 C CNN
	1    2100 3050
	0    -1   -1   0   
$EndComp
$Comp
L Device:R R7
U 1 1 5DA848D5
P 2350 2950
F 0 "R7" V 2450 2950 50  0000 C CNN
F 1 "47K" V 2350 2950 50  0000 C CNN
F 2 "Resistors_SMD:R_0805" V 2280 2950 50  0001 C CNN
F 3 "~" H 2350 2950 50  0001 C CNN
	1    2350 2950
	0    -1   -1   0   
$EndComp
$Comp
L Device:R R8
U 1 1 5DA84DC7
P 2750 2950
F 0 "R8" V 2850 2950 50  0000 C CNN
F 1 "10K" V 2750 2950 50  0000 C CNN
F 2 "Resistors_SMD:R_0805" V 2680 2950 50  0001 C CNN
F 3 "~" H 2750 2950 50  0001 C CNN
	1    2750 2950
	0    -1   -1   0   
$EndComp
$Comp
L power:GND #PWR0116
U 1 1 5DA8F1E7
P 2950 3000
F 0 "#PWR0116" H 2950 2750 50  0001 C CNN
F 1 "GND" H 2955 2827 50  0000 C CNN
F 2 "" H 2950 3000 50  0001 C CNN
F 3 "" H 2950 3000 50  0001 C CNN
	1    2950 3000
	1    0    0    -1  
$EndComp
Wire Wire Line
	2900 2950 2950 2950
Wire Wire Line
	2950 2950 2950 3000
Wire Wire Line
	4250 3550 4250 3950
Wire Wire Line
	2500 2950 2550 2950
Connection ~ 2550 2950
Wire Wire Line
	2550 2950 2600 2950
$Comp
L power:GND #PWR0118
U 1 1 5DAEDA6C
P 2100 4150
F 0 "#PWR0118" H 2100 3900 50  0001 C CNN
F 1 "GND" H 2105 3977 50  0000 C CNN
F 2 "" H 2100 4150 50  0001 C CNN
F 3 "" H 2100 4150 50  0001 C CNN
	1    2100 4150
	0    -1   -1   0   
$EndComp
$Comp
L Device:R R9
U 1 1 5DAEDA76
P 2400 4050
F 0 "R9" V 2500 4100 50  0000 C CNN
F 1 "47K" V 2400 4050 50  0000 C CNN
F 2 "Resistors_SMD:R_0805" V 2330 4050 50  0001 C CNN
F 3 "~" H 2400 4050 50  0001 C CNN
	1    2400 4050
	0    -1   -1   0   
$EndComp
$Comp
L Device:R R10
U 1 1 5DAEDA80
P 2800 4050
F 0 "R10" V 2900 4050 50  0000 C CNN
F 1 "10K" V 2800 4050 50  0000 C CNN
F 2 "Resistors_SMD:R_0805" V 2730 4050 50  0001 C CNN
F 3 "~" H 2800 4050 50  0001 C CNN
	1    2800 4050
	0    -1   -1   0   
$EndComp
$Comp
L power:GND #PWR0119
U 1 1 5DAEDA8A
P 3000 4100
F 0 "#PWR0119" H 3000 3850 50  0001 C CNN
F 1 "GND" H 3005 3927 50  0000 C CNN
F 2 "" H 3000 4100 50  0001 C CNN
F 3 "" H 3000 4100 50  0001 C CNN
	1    3000 4100
	1    0    0    -1  
$EndComp
Wire Wire Line
	2950 4050 3000 4050
Wire Wire Line
	3000 4050 3000 4100
$Comp
L power:GND #PWR0120
U 1 1 5DB1BFA3
P 4750 4850
F 0 "#PWR0120" H 4750 4600 50  0001 C CNN
F 1 "GND" H 4755 4677 50  0000 C CNN
F 2 "" H 4750 4850 50  0001 C CNN
F 3 "" H 4750 4850 50  0001 C CNN
	1    4750 4850
	1    0    0    -1  
$EndComp
Text Notes 1650 5250 0    50   ~ 0
Dual channel voltage measurement
Wire Notes Line
	6200 6200 6200 600 
Text Notes 6200 6300 0    50   ~ 0
Microcontroller
Wire Wire Line
	3600 1150 4050 1150
Connection ~ 3600 1150
Text GLabel 9400 4400 2    50   Input ~ 0
E2
Wire Wire Line
	9400 4400 9300 4400
Text GLabel 1000 4200 2    50   Input ~ 0
E6
Wire Wire Line
	1000 4200 900  4200
NoConn ~ 900  4200
Wire Wire Line
	5250 4450 5400 4450
Wire Wire Line
	5250 4550 5400 4550
$Comp
L Device:LED LED3
U 1 1 5D896EDB
P 10500 3650
F 0 "LED3" V 10538 3532 50  0000 R CNN
F 1 "Ch0 Act" V 10447 3532 50  0000 R CNN
F 2 "LEDs:LED_1206" H 10500 3650 50  0001 C CNN
F 3 "~" H 10500 3650 50  0001 C CNN
	1    10500 3650
	0    -1   -1   0   
$EndComp
$Comp
L Device:R R6
U 1 1 5D896EE5
P 10500 3950
F 0 "R6" V 10293 3950 50  0000 C CNN
F 1 "1K0" V 10384 3950 50  0000 C CNN
F 2 "Resistors_SMD:R_0805" V 10430 3950 50  0001 C CNN
F 3 "~" H 10500 3950 50  0001 C CNN
	1    10500 3950
	1    0    0    -1  
$EndComp
$Comp
L power:GND #PWR0101
U 1 1 5D896EEF
P 10500 4100
F 0 "#PWR0101" H 10500 3850 50  0001 C CNN
F 1 "GND" H 10505 3927 50  0000 C CNN
F 2 "" H 10500 4100 50  0001 C CNN
F 3 "" H 10500 4100 50  0001 C CNN
	1    10500 4100
	1    0    0    -1  
$EndComp
Wire Wire Line
	9300 3500 10500 3500
Wire Wire Line
	9300 3600 9950 3600
Wire Notes Line
	11000 6200 11000 600 
Wire Notes Line
	6200 600  11000 600 
Wire Notes Line
	6200 6200 11000 6200
Text GLabel 1000 2750 2    50   Input ~ 0
B4
NoConn ~ 900  2750
Wire Wire Line
	900  2750 1000 2750
NoConn ~ 5400 4150
$Comp
L Device:R R11
U 1 1 5D933708
P 5550 4450
F 0 "R11" V 5650 4400 50  0000 C CNN
F 1 "1K0" V 5550 4450 50  0000 C CNN
F 2 "Resistors_SMD:R_0805" V 5480 4450 50  0001 C CNN
F 3 "~" H 5550 4450 50  0001 C CNN
	1    5550 4450
	0    -1   -1   0   
$EndComp
$Comp
L Device:R R12
U 1 1 5D934082
P 5550 4550
F 0 "R12" V 5450 4500 50  0000 C CNN
F 1 "1K0" V 5550 4550 50  0000 C CNN
F 2 "Resistors_SMD:R_0805" V 5480 4550 50  0001 C CNN
F 3 "~" H 5550 4550 50  0001 C CNN
	1    5550 4550
	0    -1   -1   0   
$EndComp
Text GLabel 5850 4300 1    50   Input ~ 0
Vcc
Wire Wire Line
	5700 4450 5850 4450
Wire Wire Line
	5850 4450 5850 4300
Wire Wire Line
	5700 4550 5850 4550
Wire Wire Line
	5850 4550 5850 4450
Connection ~ 5850 4450
Text GLabel 1000 2850 2    50   Input ~ 0
B5
NoConn ~ 900  2850
Wire Wire Line
	900  2850 1000 2850
Text GLabel 1000 2950 2    50   Input ~ 0
B6
NoConn ~ 900  2950
Wire Wire Line
	900  2950 1000 2950
Text GLabel 1000 3050 2    50   Input ~ 0
B7
NoConn ~ 900  3050
Wire Wire Line
	900  3050 1000 3050
Text GLabel 1000 3300 2    50   Input ~ 0
C7
NoConn ~ 900  3300
Wire Wire Line
	900  3300 1000 3300
Text GLabel 1000 3950 2    50   Input ~ 0
D7
NoConn ~ 900  3950
Wire Wire Line
	900  3950 1000 3950
Wire Notes Line
	1650 2600 6000 2600
Connection ~ 9050 1850
Wire Wire Line
	7450 2900 8100 2900
Wire Wire Line
	8700 1050 8700 1850
Wire Wire Line
	8700 1850 8800 1850
Wire Wire Line
	8700 1850 8700 2000
Connection ~ 8700 1850
Wire Wire Line
	8600 2000 8600 1850
Wire Wire Line
	8600 1850 8700 1850
Wire Wire Line
	8800 2000 8800 1850
Connection ~ 8800 1850
Wire Wire Line
	8800 1850 9050 1850
$Comp
L Connector_Generic:Conn_01x03 J0
U 1 1 5DA7F6C0
P 1850 3050
F 0 "J0" H 1768 2725 50  0000 C CNN
F 1 "Conn_01x03" H 1768 2816 50  0000 C CNN
F 2 "DigiVolt:L-G-H" H 1850 3050 50  0001 C CNN
F 3 "~" H 1850 3050 50  0001 C CNN
	1    1850 3050
	-1   0    0    1   
$EndComp
Wire Wire Line
	2050 2950 2200 2950
$Comp
L Connector_Generic:Conn_01x03 J1
U 1 1 5DB06FFB
P 1850 4150
F 0 "J1" H 1768 3825 50  0000 C CNN
F 1 "Conn_01x03" H 1768 3916 50  0000 C CNN
F 2 "DigiVolt:L-G-H" H 1850 4150 50  0001 C CNN
F 3 "~" H 1850 4150 50  0001 C CNN
	1    1850 4150
	-1   0    0    1   
$EndComp
Wire Wire Line
	2550 4050 2600 4050
Connection ~ 2600 4050
Wire Wire Line
	2600 4050 2650 4050
Wire Notes Line
	1650 2600 1650 5150
Wire Notes Line
	1650 5150 6000 5150
Wire Notes Line
	600  4850 1400 4850
Wire Notes Line
	600  2600 600  4850
Wire Notes Line
	1400 2600 1400 4850
Wire Wire Line
	2050 4050 2250 4050
$Comp
L DigiVolt:ATmega32U4-AU U1
U 1 1 5D92E058
P 8700 3800
F 0 "U1" H 8250 5550 50  0000 C CNN
F 1 "ATmega32U4-AU" V 8700 3900 50  0000 C CNN
F 2 "Housings_QFP:TQFP-44_10x10mm_Pitch0.8mm" H 8700 3800 50  0001 C CIN
F 3 "http://ww1.microchip.com/downloads/en/DeviceDoc/Atmel-7766-8-bit-AVR-ATmega16U4-32U4_Datasheet.pdf" H 8700 3800 50  0001 C CNN
	1    8700 3800
	1    0    0    -1  
$EndComp
Wire Wire Line
	2550 2950 2550 3150
Wire Wire Line
	2050 3050 2100 3050
Wire Wire Line
	2050 3150 2550 3150
Connection ~ 2550 3150
Wire Wire Line
	2550 3150 2550 3550
Wire Wire Line
	2600 4050 2600 4250
Wire Wire Line
	2050 4150 2100 4150
Wire Wire Line
	2050 4250 2600 4250
Connection ~ 2600 4250
Wire Wire Line
	2600 4250 2600 4350
$Comp
L Device:C C13
U 1 1 5D9F068A
P 3900 4650
F 0 "C13" H 4150 4650 50  0000 R CNN
F 1 "0.1uF" H 4200 4750 50  0000 R CNN
F 2 "Capacitors_SMD:C_0805" H 3938 4500 50  0001 C CNN
F 3 "~" H 3900 4650 50  0001 C CNN
	1    3900 4650
	-1   0    0    1   
$EndComp
$Comp
L power:GND #PWR0114
U 1 1 5D9F1EB0
P 3900 4850
F 0 "#PWR0114" H 3900 4600 50  0001 C CNN
F 1 "GND" H 3905 4677 50  0000 C CNN
F 2 "" H 3900 4850 50  0001 C CNN
F 3 "" H 3900 4850 50  0001 C CNN
	1    3900 4850
	1    0    0    -1  
$EndComp
Wire Wire Line
	3900 4500 3900 4450
Connection ~ 3900 4450
Wire Wire Line
	3900 4450 4250 4450
Wire Wire Line
	3900 4850 3900 4800
Wire Wire Line
	2600 4350 4250 4350
Wire Wire Line
	2550 3550 4250 3550
Wire Wire Line
	3400 4050 3500 4050
$Comp
L Device:C C12
U 1 1 5DA3E396
P 3500 4650
F 0 "C12" H 3750 4650 50  0000 R CNN
F 1 "0.1uF" H 3800 4750 50  0000 R CNN
F 2 "Capacitors_SMD:C_0805" H 3538 4500 50  0001 C CNN
F 3 "~" H 3500 4650 50  0001 C CNN
	1    3500 4650
	-1   0    0    1   
$EndComp
$Comp
L power:GND #PWR0117
U 1 1 5DA3E5DB
P 3500 4850
F 0 "#PWR0117" H 3500 4600 50  0001 C CNN
F 1 "GND" H 3505 4677 50  0000 C CNN
F 2 "" H 3500 4850 50  0001 C CNN
F 3 "" H 3500 4850 50  0001 C CNN
	1    3500 4850
	1    0    0    -1  
$EndComp
Wire Wire Line
	3500 4500 3500 4050
Connection ~ 3500 4050
Wire Wire Line
	3500 4050 4250 4050
Wire Wire Line
	3500 4850 3500 4800
Wire Notes Line
	6000 5150 6000 2600
$Comp
L Connector_Generic:Conn_02x03_Odd_Even J3
U 1 1 5DA7C8C7
P 2550 5950
F 0 "J3" H 2600 6267 50  0000 C CNN
F 1 "ICSP" H 2600 6176 50  0000 C CNN
F 2 "DigiVolt:ICSP" H 2550 5950 50  0001 C CNN
F 3 "~" H 2550 5950 50  0001 C CNN
	1    2550 5950
	1    0    0    -1  
$EndComp
Text GLabel 2100 5850 0    50   Input ~ 0
B3
Text Notes 2150 5850 0    39   ~ 0
MISO
Wire Wire Line
	2100 5850 2350 5850
Text GLabel 2100 5950 0    50   Input ~ 0
B1
Text GLabel 2100 6050 0    50   Input ~ 0
RESET
Wire Wire Line
	2100 5950 2350 5950
Wire Wire Line
	2100 6050 2350 6050
Text Notes 2150 5950 0    39   ~ 0
SCK
Text Notes 2150 6050 0    39   ~ 0
RESET
Text GLabel 3150 5850 2    50   Input ~ 0
Vcc
Text GLabel 3150 5950 2    50   Input ~ 0
B2
Wire Wire Line
	2850 5850 3150 5850
Wire Wire Line
	2850 5950 3150 5950
Wire Wire Line
	2850 6050 3150 6050
Text Notes 2950 5950 0    39   ~ 0
MOSI
$Comp
L power:GND #PWR0121
U 1 1 5DAF2126
P 3150 6050
F 0 "#PWR0121" H 3150 5800 50  0001 C CNN
F 1 "GND" V 3050 6000 50  0000 C CNN
F 2 "" H 3150 6050 50  0001 C CNN
F 3 "" H 3150 6050 50  0001 C CNN
	1    3150 6050
	0    -1   -1   0   
$EndComp
Text GLabel 8050 1450 2    50   Input ~ 0
RESET
Wire Wire Line
	7450 1400 7450 1450
Wire Wire Line
	7450 1450 7850 1450
Wire Wire Line
	7850 1450 7850 2300
Wire Wire Line
	7850 2300 8100 2300
Connection ~ 7450 1450
Wire Wire Line
	7450 1450 7450 1500
Wire Wire Line
	7850 1450 8050 1450
Connection ~ 7850 1450
Wire Notes Line
	1650 6300 3600 6300
Wire Notes Line
	3600 6300 3600 5500
Wire Notes Line
	3600 5500 1650 5500
Wire Notes Line
	1650 5500 1650 6300
Text Notes 1650 6400 0    50   ~ 0
ICSP
Wire Wire Line
	3800 4450 3900 4450
$EndSCHEMATC
