EESchema Schematic File Version 2
LIBS:SquareGen
LIBS:power
LIBS:device
LIBS:transistors
LIBS:conn
LIBS:linear
LIBS:regul
LIBS:74xx
LIBS:cmos4000
LIBS:adc-dac
LIBS:memory
LIBS:xilinx
LIBS:microcontrollers
LIBS:dsp
LIBS:microchip
LIBS:analog_switches
LIBS:motorola
LIBS:texas
LIBS:intel
LIBS:audio
LIBS:interface
LIBS:digital-audio
LIBS:philips
LIBS:display
LIBS:cypress
LIBS:siliconi
LIBS:opto
LIBS:atmel
LIBS:contrib
LIBS:valves
LIBS:SquareGen-cache
EELAYER 25 0
EELAYER END
$Descr A4 11693 8268
encoding utf-8
Sheet 1 1
Title ""
Date ""
Rev ""
Comp ""
Comment1 ""
Comment2 ""
Comment3 ""
Comment4 ""
$EndDescr
$Comp
L 74HC14 U1
U 1 1 5B7F8018
P 5450 3450
F 0 "U1" H 5600 3550 50  0000 C CNN
F 1 "74AC14" H 5650 3350 50  0000 C CNN
F 2 "SMD_Packages:SOIC-14_N" H 5450 3450 50  0001 C CNN
F 3 "" H 5450 3450 50  0001 C CNN
	1    5450 3450
	1    0    0    -1  
$EndComp
$Comp
L 74HC14 U1
U 2 1 5B7F80A7
P 6800 3000
F 0 "U1" H 6950 3100 50  0000 C CNN
F 1 "74AC14" H 7000 2900 50  0000 C CNN
F 2 "" H 6800 3000 50  0001 C CNN
F 3 "" H 6800 3000 50  0001 C CNN
	2    6800 3000
	1    0    0    -1  
$EndComp
$Comp
L 74HC14 U1
U 3 1 5B7F80E4
P 6800 3500
F 0 "U1" H 6950 3600 50  0000 C CNN
F 1 "74AC14" H 7000 3400 50  0000 C CNN
F 2 "" H 6800 3500 50  0001 C CNN
F 3 "" H 6800 3500 50  0001 C CNN
	3    6800 3500
	1    0    0    -1  
$EndComp
$Comp
L 74HC14 U1
U 4 1 5B7F8116
P 6800 4000
F 0 "U1" H 6950 4100 50  0000 C CNN
F 1 "74AC14" H 7000 3900 50  0000 C CNN
F 2 "" H 6800 4000 50  0001 C CNN
F 3 "" H 6800 4000 50  0001 C CNN
	4    6800 4000
	1    0    0    -1  
$EndComp
$Comp
L 74HC14 U1
U 5 1 5B7F8136
P 6800 4500
F 0 "U1" H 6950 4600 50  0000 C CNN
F 1 "74AC14" H 7000 4400 50  0000 C CNN
F 2 "" H 6800 4500 50  0001 C CNN
F 3 "" H 6800 4500 50  0001 C CNN
	5    6800 4500
	1    0    0    -1  
$EndComp
$Comp
L 74HC14 U1
U 6 1 5B7F815F
P 6800 5000
F 0 "U1" H 6950 5100 50  0000 C CNN
F 1 "74AC14" H 7000 4900 50  0000 C CNN
F 2 "" H 6800 5000 50  0001 C CNN
F 3 "" H 6800 5000 50  0001 C CNN
	6    6800 5000
	1    0    0    -1  
$EndComp
$Comp
L R_Small R2
U 1 1 5B7F8185
P 7400 3000
F 0 "R2" V 7500 2950 50  0000 L CNN
F 1 "220" V 7300 2900 50  0000 L CNN
F 2 "SMD_Packages:SMD-1206_Pol" H 7400 3000 50  0001 C CNN
F 3 "" H 7400 3000 50  0001 C CNN
	1    7400 3000
	0    1    1    0   
$EndComp
$Comp
L R_Small R1
U 1 1 5B7F8289
P 5450 3000
F 0 "R1" V 5550 2950 50  0000 L CNN
F 1 "6.8K" V 5350 2900 50  0000 L CNN
F 2 "SMD_Packages:SMD-1206_Pol" H 5450 3000 50  0001 C CNN
F 3 "" H 5450 3000 50  0001 C CNN
	1    5450 3000
	0    1    1    0   
$EndComp
Wire Wire Line
	5350 3000 5000 3000
Wire Wire Line
	5000 3000 5000 3600
Wire Wire Line
	5550 3000 6350 3000
Wire Wire Line
	5900 3000 5900 3450
$Comp
L C_Small C1
U 1 1 5B7F86A6
P 5000 3700
F 0 "C1" H 5010 3770 50  0000 L CNN
F 1 "47nF" H 5010 3620 50  0000 L CNN
F 2 "SMD_Packages:SMD-1206_Pol" H 5000 3700 50  0001 C CNN
F 3 "" H 5000 3700 50  0001 C CNN
	1    5000 3700
	1    0    0    -1  
$EndComp
$Comp
L C_Small C2
U 1 1 5B7F871E
P 6200 2400
F 0 "C2" H 6210 2470 50  0000 L CNN
F 1 "100nF" H 6210 2320 50  0000 L CNN
F 2 "SMD_Packages:SMD-1206_Pol" H 6200 2400 50  0001 C CNN
F 3 "" H 6200 2400 50  0001 C CNN
	1    6200 2400
	1    0    0    -1  
$EndComp
Connection ~ 5000 3450
$Comp
L GND #PWR01
U 1 1 5B7F8780
P 5000 3800
F 0 "#PWR01" H 5000 3550 50  0001 C CNN
F 1 "GND" H 5000 3650 50  0000 C CNN
F 2 "" H 5000 3800 50  0001 C CNN
F 3 "" H 5000 3800 50  0001 C CNN
	1    5000 3800
	1    0    0    -1  
$EndComp
$Comp
L R_Small R3
U 1 1 5B7F8BDE
P 7400 3500
F 0 "R3" V 7500 3450 50  0000 L CNN
F 1 "220" V 7300 3400 50  0000 L CNN
F 2 "SMD_Packages:SMD-1206_Pol" H 7400 3500 50  0001 C CNN
F 3 "" H 7400 3500 50  0001 C CNN
	1    7400 3500
	0    1    1    0   
$EndComp
$Comp
L R_Small R4
U 1 1 5B7F8C0E
P 7400 4000
F 0 "R4" V 7500 3950 50  0000 L CNN
F 1 "220" V 7300 3900 50  0000 L CNN
F 2 "SMD_Packages:SMD-1206_Pol" H 7400 4000 50  0001 C CNN
F 3 "" H 7400 4000 50  0001 C CNN
	1    7400 4000
	0    1    1    0   
$EndComp
$Comp
L R_Small R6
U 1 1 5B7F8C3F
P 7400 5000
F 0 "R6" V 7500 4950 50  0000 L CNN
F 1 "220" V 7300 4900 50  0000 L CNN
F 2 "SMD_Packages:SMD-1206_Pol" H 7400 5000 50  0001 C CNN
F 3 "" H 7400 5000 50  0001 C CNN
	1    7400 5000
	0    1    1    0   
$EndComp
$Comp
L R_Small R5
U 1 1 5B7F8C6D
P 7400 4500
F 0 "R5" V 7500 4450 50  0000 L CNN
F 1 "220" V 7300 4400 50  0000 L CNN
F 2 "SMD_Packages:SMD-1206_Pol" H 7400 4500 50  0001 C CNN
F 3 "" H 7400 4500 50  0001 C CNN
	1    7400 4500
	0    1    1    0   
$EndComp
Wire Wire Line
	7250 4500 7300 4500
Wire Wire Line
	7250 3000 7300 3000
Wire Wire Line
	6350 3000 6350 5000
Connection ~ 6350 4000
$Comp
L GND #PWR02
U 1 1 5B7F949C
P 6200 2500
F 0 "#PWR02" H 6200 2250 50  0001 C CNN
F 1 "GND" H 6200 2350 50  0000 C CNN
F 2 "" H 6200 2500 50  0001 C CNN
F 3 "" H 6200 2500 50  0001 C CNN
	1    6200 2500
	1    0    0    -1  
$EndComp
Connection ~ 5900 3000
Connection ~ 6350 3000
Wire Wire Line
	7500 3000 8200 3000
Wire Wire Line
	7800 3000 7800 5000
Wire Wire Line
	7800 5000 7500 5000
Wire Wire Line
	7500 3500 7800 3500
Connection ~ 7800 3500
Wire Wire Line
	7500 4000 7800 4000
Connection ~ 7800 4000
Wire Wire Line
	7500 4500 7800 4500
Connection ~ 7800 4500
$Comp
L VCC #PWR03
U 1 1 5B7F997E
P 6200 2300
F 0 "#PWR03" H 6200 2150 50  0001 C CNN
F 1 "VCC" H 6200 2450 50  0000 C CNN
F 2 "" H 6200 2300 50  0001 C CNN
F 3 "" H 6200 2300 50  0001 C CNN
	1    6200 2300
	1    0    0    -1  
$EndComp
$Comp
L Screw_Terminal_01x02 J2
U 1 1 5B7FA589
P 8400 3000
F 0 "J2" H 8400 3100 50  0000 C CNN
F 1 " " H 8400 2800 50  0000 C CNN
F 2 "SMD_Packages:SMD-1206_Pol" H 8400 3000 50  0001 C CNN
F 3 "" H 8400 3000 50  0001 C CNN
	1    8400 3000
	1    0    0    -1  
$EndComp
Connection ~ 7800 3000
$Comp
L GND #PWR04
U 1 1 5B7FA613
P 8200 3100
F 0 "#PWR04" H 8200 2850 50  0001 C CNN
F 1 "GND" H 8200 2950 50  0000 C CNN
F 2 "" H 8200 3100 50  0001 C CNN
F 3 "" H 8200 3100 50  0001 C CNN
	1    8200 3100
	1    0    0    -1  
$EndComp
$Comp
L VCC #PWR05
U 1 1 5B7FACC2
P 5400 3350
F 0 "#PWR05" H 5400 3200 50  0001 C CNN
F 1 "VCC" H 5400 3500 50  0000 C CNN
F 2 "" H 5400 3350 50  0001 C CNN
F 3 "" H 5400 3350 50  0001 C CNN
	1    5400 3350
	1    0    0    -1  
$EndComp
$Comp
L GND #PWR06
U 1 1 5B7FAD12
P 5400 3550
F 0 "#PWR06" H 5400 3300 50  0001 C CNN
F 1 "GND" H 5400 3400 50  0000 C CNN
F 2 "" H 5400 3550 50  0001 C CNN
F 3 "" H 5400 3550 50  0001 C CNN
	1    5400 3550
	1    0    0    -1  
$EndComp
$Comp
L Screw_Terminal_01x02 J1
U 1 1 5B7FAE96
P 7150 2300
F 0 "J1" H 7150 2400 50  0000 C CNN
F 1 " " H 7150 2100 50  0000 C CNN
F 2 "SMD_Packages:SMD-1206_Pol" H 7150 2300 50  0001 C CNN
F 3 "" H 7150 2300 50  0001 C CNN
	1    7150 2300
	1    0    0    -1  
$EndComp
$Comp
L GND #PWR07
U 1 1 5B7FAF9F
P 6950 2400
F 0 "#PWR07" H 6950 2150 50  0001 C CNN
F 1 "GND" H 6950 2250 50  0000 C CNN
F 2 "" H 6950 2400 50  0001 C CNN
F 3 "" H 6950 2400 50  0001 C CNN
	1    6950 2400
	1    0    0    -1  
$EndComp
$Comp
L VCC #PWR08
U 1 1 5B7FB0D9
P 6950 2300
F 0 "#PWR08" H 6950 2150 50  0001 C CNN
F 1 "VCC" H 6950 2450 50  0000 C CNN
F 2 "" H 6950 2300 50  0001 C CNN
F 3 "" H 6950 2300 50  0001 C CNN
	1    6950 2300
	1    0    0    -1  
$EndComp
Wire Wire Line
	7250 5000 7300 5000
Connection ~ 6350 4500
Connection ~ 6350 3500
Wire Wire Line
	7250 3500 7300 3500
Wire Wire Line
	7250 4000 7300 4000
$EndSCHEMATC
