EESchema Schematic File Version 4
EELAYER 30 0
EELAYER END
$Descr A4 11693 8268
encoding utf-8
Sheet 1 1
Title "RF Power Sensor"
Date "2021-06-13"
Rev "1.1"
Comp ""
Comment1 ""
Comment2 ""
Comment3 ""
Comment4 ""
$EndDescr
$Comp
L Connector:Conn_Coaxial J1
U 1 1 60C5B8D4
P 3700 2900
F 0 "J1" H 3628 3138 50  0000 C CNN
F 1 "Conn_Coaxial" H 3628 3047 50  0000 C CNN
F 2 "Connectors_Molex:Molex_SMA_Jack_Edge_Mount" H 3700 2900 50  0001 C CNN
F 3 " ~" H 3700 2900 50  0001 C CNN
	1    3700 2900
	-1   0    0    -1  
$EndComp
$Comp
L Device:R_Small R3
U 1 1 60C5D0A8
P 4650 2900
F 0 "R3" V 4454 2900 50  0000 C CNN
F 1 "18" V 4545 2900 50  0000 C CNN
F 2 "Resistors_SMD:R_0805" H 4650 2900 50  0001 C CNN
F 3 "~" H 4650 2900 50  0001 C CNN
	1    4650 2900
	0    1    1    0   
$EndComp
$Comp
L Device:R_Small R6
U 1 1 60C5D64E
P 7350 3100
F 0 "R6" H 7409 3146 50  0000 L CNN
F 1 "270K" H 7409 3055 50  0000 L CNN
F 2 "Resistors_SMD:R_0805" H 7350 3100 50  0001 C CNN
F 3 "~" H 7350 3100 50  0001 C CNN
	1    7350 3100
	1    0    0    -1  
$EndComp
$Comp
L Device:R_Small R1
U 1 1 60C5C307
P 4150 3100
F 0 "R1" H 4000 3150 50  0000 L CNN
F 1 "560" H 3950 3050 50  0000 L CNN
F 2 "Resistors_SMD:R_0805" H 4150 3100 50  0001 C CNN
F 3 "~" H 4150 3100 50  0001 C CNN
	1    4150 3100
	1    0    0    -1  
$EndComp
$Comp
L Device:R_Small R2
U 1 1 60C5C850
P 4350 3100
F 0 "R2" H 4409 3146 50  0000 L CNN
F 1 "620" H 4409 3055 50  0000 L CNN
F 2 "Resistors_SMD:R_0805" H 4350 3100 50  0001 C CNN
F 3 "~" H 4350 3100 50  0001 C CNN
	1    4350 3100
	1    0    0    -1  
$EndComp
$Comp
L power:GND #PWR0101
U 1 1 60C5FA03
P 4250 3350
F 0 "#PWR0101" H 4250 3100 50  0001 C CNN
F 1 "GND" H 4255 3177 50  0000 C CNN
F 2 "" H 4250 3350 50  0001 C CNN
F 3 "" H 4250 3350 50  0001 C CNN
	1    4250 3350
	1    0    0    -1  
$EndComp
Wire Wire Line
	3900 2900 4150 2900
Wire Wire Line
	4150 2900 4150 3000
Wire Wire Line
	4150 2900 4350 2900
Wire Wire Line
	4350 2900 4350 3000
Connection ~ 4150 2900
Wire Wire Line
	4350 2900 4550 2900
Connection ~ 4350 2900
Wire Wire Line
	4750 2900 4900 2900
Wire Wire Line
	4900 2900 4900 3000
Wire Wire Line
	4900 2900 5100 2900
Wire Wire Line
	5100 2900 5100 3000
Connection ~ 4900 2900
$Comp
L pspice:DIODE D1
U 1 1 60C64043
P 5550 2900
F 0 "D1" H 5550 3165 50  0000 C CNN
F 1 "BAT62-02W" H 5550 3074 50  0000 C CNN
F 2 "Diodes_SMD:D_SC-80" H 5550 2900 50  0001 C CNN
F 3 "~" H 5550 2900 50  0001 C CNN
	1    5550 2900
	1    0    0    -1  
$EndComp
$Comp
L Device:C_Small C1
U 1 1 60C64F50
P 5950 3100
F 0 "C1" H 5750 3150 50  0000 L CNN
F 1 "10pF" H 5600 3050 50  0000 L CNN
F 2 "Capacitors_SMD:C_0805" H 5950 3100 50  0001 C CNN
F 3 "~" H 5950 3100 50  0001 C CNN
	1    5950 3100
	1    0    0    -1  
$EndComp
$Comp
L Device:C_Small C2
U 1 1 60C658A4
P 6150 3100
F 0 "C2" H 6242 3146 50  0000 L CNN
F 1 "100pF" H 6242 3055 50  0000 L CNN
F 2 "Capacitors_SMD:C_0805" H 6150 3100 50  0001 C CNN
F 3 "~" H 6150 3100 50  0001 C CNN
	1    6150 3100
	1    0    0    -1  
$EndComp
$Comp
L Device:C_Small C3
U 1 1 60C65C59
P 7150 3100
F 0 "C3" H 6950 3150 50  0000 L CNN
F 1 "2.2nF" H 6750 3050 50  0000 L CNN
F 2 "Capacitors_SMD:C_0805" H 7150 3100 50  0001 C CNN
F 3 "~" H 7150 3100 50  0001 C CNN
	1    7150 3100
	1    0    0    -1  
$EndComp
$Comp
L power:GND #PWR0102
U 1 1 60C66BA7
P 6050 3350
F 0 "#PWR0102" H 6050 3100 50  0001 C CNN
F 1 "GND" H 6055 3177 50  0000 C CNN
F 2 "" H 6050 3350 50  0001 C CNN
F 3 "" H 6050 3350 50  0001 C CNN
	1    6050 3350
	1    0    0    -1  
$EndComp
Wire Wire Line
	5950 3300 6050 3300
Wire Wire Line
	6050 3350 6050 3300
Connection ~ 6050 3300
Wire Wire Line
	6050 3300 6150 3300
Wire Wire Line
	5100 2900 5350 2900
Connection ~ 5100 2900
Wire Wire Line
	5750 2900 5950 2900
Wire Wire Line
	5950 2900 5950 3000
Wire Wire Line
	5950 2900 6150 2900
Wire Wire Line
	6150 2900 6150 3000
Connection ~ 5950 2900
$Comp
L pspice:INDUCTOR L1
U 1 1 60C6AD05
P 6650 2900
F 0 "L1" H 6650 3115 50  0000 C CNN
F 1 "5T 3mm" H 6650 3024 50  0000 C CNN
F 2 "Resistors_SMD:R_1812" H 6650 2900 50  0001 C CNN
F 3 "~" H 6650 2900 50  0001 C CNN
	1    6650 2900
	1    0    0    -1  
$EndComp
Wire Wire Line
	6150 2900 6400 2900
Connection ~ 6150 2900
Wire Wire Line
	6900 2900 7150 2900
Wire Wire Line
	7150 2900 7150 3000
Wire Wire Line
	7150 2900 7350 2900
Wire Wire Line
	7350 2900 7350 3000
Connection ~ 7150 2900
$Comp
L power:GND #PWR0103
U 1 1 60C720A3
P 7250 3350
F 0 "#PWR0103" H 7250 3100 50  0001 C CNN
F 1 "GND" H 7255 3177 50  0000 C CNN
F 2 "" H 7250 3350 50  0001 C CNN
F 3 "" H 7250 3350 50  0001 C CNN
	1    7250 3350
	1    0    0    -1  
$EndComp
Wire Wire Line
	7150 3300 7250 3300
Wire Wire Line
	7250 3350 7250 3300
Connection ~ 7250 3300
Wire Wire Line
	7250 3300 7350 3300
$Comp
L Connector:Conn_01x02_Female J2
U 1 1 60C73D04
P 8000 2900
F 0 "J2" H 8028 2876 50  0000 L CNN
F 1 "Voltmeter" H 8028 2785 50  0000 L CNN
F 2 "" H 8000 2900 50  0001 C CNN
F 3 "~" H 8000 2900 50  0001 C CNN
	1    8000 2900
	1    0    0    -1  
$EndComp
$Comp
L power:GND #PWR0104
U 1 1 60C743CE
P 7700 3350
F 0 "#PWR0104" H 7700 3100 50  0001 C CNN
F 1 "GND" H 7705 3177 50  0000 C CNN
F 2 "" H 7700 3350 50  0001 C CNN
F 3 "" H 7700 3350 50  0001 C CNN
	1    7700 3350
	1    0    0    -1  
$EndComp
Wire Wire Line
	7800 3000 7700 3000
Wire Wire Line
	7350 2900 7800 2900
Connection ~ 7350 2900
Wire Wire Line
	5000 3300 5100 3300
Connection ~ 5000 3300
Wire Wire Line
	5000 3350 5000 3300
Wire Wire Line
	4900 3300 5000 3300
$Comp
L power:GND #PWR0105
U 1 1 60C62718
P 5000 3350
F 0 "#PWR0105" H 5000 3100 50  0001 C CNN
F 1 "GND" H 5005 3177 50  0000 C CNN
F 2 "" H 5000 3350 50  0001 C CNN
F 3 "" H 5000 3350 50  0001 C CNN
	1    5000 3350
	1    0    0    -1  
$EndComp
$Comp
L Device:R_Small R5
U 1 1 60C5D379
P 5100 3100
F 0 "R5" H 5159 3146 50  0000 L CNN
F 1 "91" H 5159 3055 50  0000 L CNN
F 2 "Resistors_SMD:R_0805" H 5100 3100 50  0001 C CNN
F 3 "~" H 5100 3100 50  0001 C CNN
	1    5100 3100
	1    0    0    -1  
$EndComp
$Comp
L Device:R_Small R4
U 1 1 60C5CE7E
P 4900 3100
F 0 "R4" H 4750 3150 50  0000 L CNN
F 1 "82" H 4750 3050 50  0000 L CNN
F 2 "Resistors_SMD:R_0805" H 4900 3100 50  0001 C CNN
F 3 "~" H 4900 3100 50  0001 C CNN
	1    4900 3100
	1    0    0    -1  
$EndComp
Wire Wire Line
	7700 3000 7700 3350
Wire Wire Line
	7150 3200 7150 3300
Wire Wire Line
	7350 3200 7350 3300
Wire Wire Line
	5950 3200 5950 3300
Wire Wire Line
	6150 3200 6150 3300
Wire Wire Line
	4900 3200 4900 3300
Wire Wire Line
	5100 3200 5100 3300
Wire Wire Line
	4150 3200 4150 3300
Wire Wire Line
	4350 3200 4350 3300
$Comp
L power:GND #PWR0106
U 1 1 60C7D74A
P 3700 3350
F 0 "#PWR0106" H 3700 3100 50  0001 C CNN
F 1 "GND" H 3705 3177 50  0000 C CNN
F 2 "" H 3700 3350 50  0001 C CNN
F 3 "" H 3700 3350 50  0001 C CNN
	1    3700 3350
	1    0    0    -1  
$EndComp
Wire Wire Line
	3700 3100 3700 3350
Wire Wire Line
	4150 3300 4250 3300
Wire Wire Line
	4250 3350 4250 3300
Connection ~ 4250 3300
Wire Wire Line
	4250 3300 4350 3300
$Comp
L power:PWR_FLAG #FLG0101
U 1 1 60C81262
P 5550 3850
F 0 "#FLG0101" H 5550 3925 50  0001 C CNN
F 1 "PWR_FLAG" H 5550 4023 50  0000 C CNN
F 2 "" H 5550 3850 50  0001 C CNN
F 3 "~" H 5550 3850 50  0001 C CNN
	1    5550 3850
	1    0    0    -1  
$EndComp
$Comp
L power:GND #PWR0107
U 1 1 60C81ECE
P 5550 3950
F 0 "#PWR0107" H 5550 3700 50  0001 C CNN
F 1 "GND" H 5555 3777 50  0000 C CNN
F 2 "" H 5550 3950 50  0001 C CNN
F 3 "" H 5550 3950 50  0001 C CNN
	1    5550 3950
	1    0    0    -1  
$EndComp
Wire Wire Line
	5550 3850 5550 3950
Text Notes 4400 2450 0    50   ~ 0
3dB Attenuation
Wire Notes Line
	4100 2550 4100 2450
Wire Notes Line
	4100 2450 5150 2450
Wire Notes Line
	5150 2450 5150 2550
$EndSCHEMATC
