DigitalVFO online - not averaged
2020-05-15T11:29:25.853817,4.30
2020-05-15T11:29:27.636141,4.30
2020-05-15T11:29:29.441568,4.30
2020-05-15T11:29:31.264818,4.30
2020-05-15T11:29:33.087337,4.30
2020-05-15T11:29:34.878972,4.30
2020-05-15T11:29:36.678245,4.30
2020-05-15T11:29:38.481050,4.30
2020-05-15T11:29:40.285169,4.30
2020-05-15T11:29:42.076343,4.40
2020-05-15T11:29:43.874050,4.40
2020-05-15T11:29:45.670203,4.30
2020-05-15T11:29:47.453566,4.30
2020-05-15T11:29:49.256255,4.30
2020-05-15T11:29:51.069494,4.30
2020-05-15T11:29:52.880370,4.40
2020-05-15T11:29:54.690409,4.30
2020-05-15T11:29:56.496245,4.30
2020-05-15T11:29:58.302076,4.40
2020-05-15T11:30:00.124696,4.30
2020-05-15T11:30:01.936278,4.40
2020-05-15T11:30:03.748829,4.30
2020-05-15T11:30:05.558854,4.30
2020-05-15T11:30:07.377227,4.40
2020-05-15T11:30:09.187277,4.30
2020-05-15T11:30:11.005714,4.30
2020-05-15T11:30:12.815629,4.30
2020-05-15T11:30:14.638255,4.30
2020-05-15T11:30:16.460741,4.40
2020-05-15T11:30:18.266571,4.30
2020-05-15T11:30:20.089126,4.30
2020-05-15T11:30:21.893236,4.30
2020-05-15T11:30:23.713106,4.30
2020-05-15T11:30:25.523349,4.40
2020-05-15T11:30:27.338318,4.30
2020-05-15T11:30:29.151753,4.30
2020-05-15T11:30:30.982149,4.30
2020-05-15T11:30:32.785442,4.40
2020-05-15T11:30:34.604383,4.30
2020-05-15T11:30:36.417182,4.30
2020-05-15T11:30:38.230957,4.30
2020-05-15T11:30:40.036023,4.30
2020-05-15T11:30:41.854205,4.30
2020-05-15T11:30:43.670373,4.30
2020-05-15T11:30:45.479181,4.30
2020-05-15T11:30:47.285037,4.30
2020-05-15T11:30:49.099510,4.40
2020-05-15T11:30:50.914777,4.30
2020-05-15T11:30:52.729716,4.30
2020-05-15T11:30:54.547662,4.40
2020-05-15T11:30:56.354080,4.30
2020-05-15T11:30:58.169555,4.30
2020-05-15T11:31:00.003817,4.30
2020-05-15T11:31:01.820477,4.40
2020-05-15T11:31:03.625036,4.30
2020-05-15T11:31:05.432733,4.30
2020-05-15T11:31:07.241484,4.30
2020-05-15T11:31:09.064006,4.30
2020-05-15T11:31:10.868446,4.30
2020-05-15T11:31:12.683470,4.30
2020-05-15T11:31:14.498284,4.30
2020-05-15T11:31:16.311715,4.30
2020-05-15T11:31:18.116421,4.30
2020-05-15T11:31:19.925868,4.30
2020-05-15T11:31:21.738281,4.30
2020-05-15T11:31:23.556394,4.30
2020-05-15T11:31:25.378377,4.30
2020-05-15T11:31:27.189227,4.30
2020-05-15T11:31:28.995060,4.30
2020-05-15T11:31:30.839711,4.30
2020-05-15T11:31:32.640209,4.40
2020-05-15T11:31:34.458168,4.30
2020-05-15T11:31:36.268411,4.30
2020-05-15T11:31:38.090886,4.40
2020-05-15T11:31:39.896697,4.30
2020-05-15T11:31:41.714744,4.30
2020-05-15T11:31:43.520529,4.30
2020-05-15T11:31:45.330719,4.30
2020-05-15T11:31:47.136546,4.30
2020-05-15T11:31:48.951357,4.30
2020-05-15T11:31:50.764830,4.30
2020-05-15T11:31:52.586568,4.30
2020-05-15T11:31:54.393173,4.30
2020-05-15T11:31:56.198972,4.30
2020-05-15T11:31:58.017387,4.30
2020-05-15T11:31:59.842052,4.30
2020-05-15T11:32:01.662222,4.30
2020-05-15T11:32:03.462970,4.30
2020-05-15T11:32:05.278226,4.30
2020-05-15T11:32:07.084041,4.30
2020-05-15T11:32:08.906588,4.30
2020-05-15T11:32:10.712411,4.30
2020-05-15T11:32:12.534957,4.30
2020-05-15T11:32:14.340705,4.30
2020-05-15T11:32:16.153942,4.30
2020-05-15T11:32:17.962151,4.30
2020-05-15T11:32:19.782326,4.30
2020-05-15T11:32:21.597537,4.30
2020-05-15T11:32:23.410415,4.30
2020-05-15T11:32:25.222836,4.30
2020-05-15T11:32:27.030079,4.30
2020-05-15T11:32:28.849957,4.30
2020-05-15T11:32:30.684440,4.30
2020-05-15T11:32:32.499487,4.30
2020-05-15T11:32:34.319422,4.30
2020-05-15T11:32:36.127868,4.40
2020-05-15T11:32:37.950337,4.30
2020-05-15T11:32:39.763947,4.30
2020-05-15T11:32:41.578720,4.30
2020-05-15T11:32:43.401272,4.30
2020-05-15T11:32:45.214515,4.30
2020-05-15T11:32:47.015554,4.30
2020-05-15T11:32:48.826059,4.30
2020-05-15T11:32:50.624636,4.30
2020-05-15T11:32:52.447155,4.30
2020-05-15T11:32:54.269713,4.30
2020-05-15T11:32:56.090954,4.30
2020-05-15T11:32:57.898094,4.30
2020-05-15T11:32:59.724823,4.30
2020-05-15T11:33:01.526481,4.30
2020-05-15T11:33:03.332341,4.30
2020-05-15T11:33:05.137216,4.30
2020-05-15T11:33:06.943906,4.30
2020-05-15T11:33:08.758051,4.30
2020-05-15T11:33:10.563272,4.30
2020-05-15T11:33:12.374017,4.30
2020-05-15T11:33:14.191586,4.30
2020-05-15T11:33:16.002345,4.30
2020-05-15T11:33:17.812422,4.30
2020-05-15T11:33:19.629888,4.30
2020-05-15T11:33:21.448079,4.30
2020-05-15T11:33:23.262154,4.30
2020-05-15T11:33:25.085916,4.30
2020-05-15T11:33:26.890590,4.30
2020-05-15T11:33:28.704895,4.30
2020-05-15T11:33:30.532614,4.30
2020-05-15T11:33:32.348559,4.30
2020-05-15T11:33:34.148555,4.30
2020-05-15T11:33:35.959855,4.30
2020-05-15T11:33:37.776913,4.30
2020-05-15T11:33:39.580881,4.30
2020-05-15T11:33:41.395185,4.30
2020-05-15T11:33:43.206807,4.30
2020-05-15T11:33:45.024298,4.30
2020-05-15T11:33:46.842846,4.30
2020-05-15T11:33:48.652675,4.30
2020-05-15T11:33:50.463660,4.30
2020-05-15T11:33:52.269497,4.30
2020-05-15T11:33:54.075512,4.30
2020-05-15T11:33:55.885406,4.30
2020-05-15T11:33:57.698465,4.30
2020-05-15T11:33:59.497105,4.30
2020-05-15T11:34:01.315082,4.30
2020-05-15T11:34:03.111937,4.30
2020-05-15T11:34:04.920803,4.30
2020-05-15T11:34:06.731009,4.30
2020-05-15T11:34:08.546793,4.30
2020-05-15T11:34:10.361209,4.30
2020-05-15T11:34:12.171351,4.30
2020-05-15T11:34:13.987378,4.30
2020-05-15T11:34:15.799733,4.30
2020-05-15T11:34:17.618736,4.30
2020-05-15T11:34:19.426902,4.30
2020-05-15T11:34:21.247634,4.30
2020-05-15T11:34:23.072393,4.30
2020-05-15T11:34:24.893034,4.30
2020-05-15T11:34:26.683645,4.30
2020-05-15T11:34:28.503263,4.30
2020-05-15T11:34:30.338354,4.30
2020-05-15T11:34:32.152557,4.30
2020-05-15T11:34:33.967864,4.30
2020-05-15T11:34:35.774328,4.30
2020-05-15T11:34:37.586676,4.30
2020-05-15T11:34:39.400024,4.30
2020-05-15T11:34:41.215168,4.30
2020-05-15T11:34:43.032404,4.30
2020-05-15T11:34:44.843555,4.30
2020-05-15T11:34:46.666106,4.30
2020-05-15T11:34:48.473085,4.30
2020-05-15T11:34:50.347754,4.30
2020-05-15T11:34:52.200651,4.30
2020-05-15T11:34:54.056649,4.30
2020-05-15T11:34:55.895920,4.30
2020-05-15T11:34:57.735204,4.30
2020-05-15T11:34:59.618511,4.30
2020-05-15T11:35:01.472582,4.30
2020-05-15T11:35:03.303203,4.30
2020-05-15T11:35:05.149869,4.30
2020-05-15T11:35:07.027270,4.30
2020-05-15T11:35:08.908069,4.30
2020-05-15T11:35:10.821412,4.30
2020-05-15T11:35:12.715214,4.30
2020-05-15T11:35:14.589228,4.30
2020-05-15T11:35:16.480376,4.30
2020-05-15T11:35:18.347125,4.30
2020-05-15T11:35:20.222130,4.30
2020-05-15T11:35:22.093935,4.30
2020-05-15T11:35:23.971848,4.30
2020-05-15T11:35:25.840490,4.30
2020-05-15T11:35:27.721931,4.30
2020-05-15T11:35:29.621938,4.30
2020-05-15T11:35:31.514769,4.30
2020-05-15T11:35:33.390060,4.30
2020-05-15T11:35:35.288079,4.30
2020-05-15T11:35:37.167532,4.30
2020-05-15T11:35:39.042417,4.30
2020-05-15T11:35:40.935648,4.30
2020-05-15T11:35:42.821062,4.30
2020-05-15T11:35:44.708028,4.30
2020-05-15T11:35:46.592333,4.30
2020-05-15T11:35:48.448941,4.30
2020-05-15T11:35:50.309747,4.30
2020-05-15T11:35:52.184691,4.30
2020-05-15T11:35:54.071742,4.30
2020-05-15T11:35:55.961501,4.30
2020-05-15T11:35:57.859114,4.30
2020-05-15T11:35:59.777297,4.30
2020-05-15T11:36:01.673435,4.30
2020-05-15T11:36:03.557951,4.30
2020-05-15T11:36:05.440740,4.30
2020-05-15T11:36:07.349477,4.30
2020-05-15T11:36:09.235135,4.30
2020-05-15T11:36:11.128851,4.30
2020-05-15T11:36:13.021335,4.30
2020-05-15T11:36:14.926422,4.30
2020-05-15T11:36:16.824473,4.30
2020-05-15T11:36:18.691457,4.30
2020-05-15T11:36:20.600646,4.30
2020-05-15T11:36:22.515736,4.30
2020-05-15T11:36:24.394094,4.30
2020-05-15T11:36:26.299281,4.30
2020-05-15T11:36:28.213506,4.30
2020-05-15T11:36:30.143676,4.30
2020-05-15T11:36:32.035549,4.30
2020-05-15T11:36:33.919546,4.30
2020-05-15T11:36:35.822532,4.30
2020-05-15T11:36:37.708028,4.30
2020-05-15T11:36:39.605273,4.30
2020-05-15T11:36:41.510172,4.30
2020-05-15T11:36:43.418191,4.30
2020-05-15T11:36:45.315238,4.30
2020-05-15T11:36:47.216169,4.30
2020-05-15T11:36:49.106866,4.30
2020-05-15T11:36:51.015280,4.30
2020-05-15T11:36:52.911995,4.30
2020-05-15T11:36:54.806252,4.30
2020-05-15T11:36:56.709604,4.30
2020-05-15T11:36:58.597750,4.30
2020-05-15T11:37:00.548627,4.30
2020-05-15T11:37:02.431397,4.30
2020-05-15T11:37:04.329860,4.30
2020-05-15T11:37:06.226257,4.30
2020-05-15T11:37:08.135231,4.30
2020-05-15T11:37:10.034656,4.30
2020-05-15T11:37:11.940848,4.30
2020-05-15T11:37:13.829609,4.30
2020-05-15T11:37:15.711125,4.30
2020-05-15T11:37:17.600426,4.30
2020-05-15T11:37:19.487461,4.30
2020-05-15T11:37:21.366640,4.40
2020-05-15T11:37:23.258111,4.30
2020-05-15T11:37:25.150613,4.30
2020-05-15T11:37:27.052276,4.30
2020-05-15T11:37:28.921783,4.30
2020-05-15T11:37:30.842016,4.30
2020-05-15T11:37:32.710593,4.30
2020-05-15T11:37:34.591512,4.30
2020-05-15T11:37:36.483160,4.30
2020-05-15T11:37:38.371456,4.30
2020-05-15T11:37:40.257616,4.30
2020-05-15T11:37:42.166823,4.30
2020-05-15T11:37:44.063785,4.30
2020-05-15T11:37:45.964250,4.30
2020-05-15T11:37:47.852197,4.30
2020-05-15T11:37:49.742411,4.30
2020-05-15T11:37:51.641325,4.30
2020-05-15T11:37:53.538593,4.30
2020-05-15T11:37:55.443580,4.30
2020-05-15T11:37:57.332363,4.30
2020-05-15T11:37:59.196520,4.30
2020-05-15T11:38:01.122425,4.30
2020-05-15T11:38:02.994948,4.30
2020-05-15T11:38:04.885042,4.30
2020-05-15T11:38:06.790619,4.30
2020-05-15T11:38:08.693877,4.30
2020-05-15T11:38:10.598956,4.30
2020-05-15T11:38:12.486022,4.30
2020-05-15T11:38:14.387740,4.30
2020-05-15T11:38:16.277933,4.30
2020-05-15T11:38:18.160947,4.30
2020-05-15T11:38:20.063721,4.30
2020-05-15T11:38:21.962769,4.30
2020-05-15T11:38:23.867095,4.30
2020-05-15T11:38:25.771048,4.30
2020-05-15T11:38:27.677519,4.30
2020-05-15T11:38:29.583158,4.30
2020-05-15T11:38:31.488701,4.30
2020-05-15T11:38:33.350557,4.40
2020-05-15T11:38:35.252565,4.30
2020-05-15T11:38:37.167788,4.30
2020-05-15T11:38:39.062663,4.30
2020-05-15T11:38:40.959662,4.30
2020-05-15T11:38:42.842548,4.30
2020-05-15T11:38:44.744612,4.30
2020-05-15T11:38:46.660229,4.30
2020-05-15T11:38:48.536476,4.30
2020-05-15T11:38:50.435431,4.30
2020-05-15T11:38:52.339575,4.30
2020-05-15T11:38:54.254200,4.30
2020-05-15T11:38:56.167287,4.30
2020-05-15T11:38:58.073503,4.30
2020-05-15T11:38:59.991753,4.30
2020-05-15T11:39:01.886273,4.30
2020-05-15T11:39:03.769042,4.30
2020-05-15T11:39:05.670486,4.30
2020-05-15T11:39:07.570332,4.30
2020-05-15T11:39:09.470366,4.30
2020-05-15T11:39:11.369384,4.30
2020-05-15T11:39:13.268229,4.30
2020-05-15T11:39:15.176095,4.30
2020-05-15T11:39:17.083323,4.30
2020-05-15T11:39:18.968645,4.30
2020-05-15T11:39:20.880092,4.30
2020-05-15T11:39:22.777419,4.30
2020-05-15T11:39:24.681830,4.30
2020-05-15T11:39:26.582236,4.30
2020-05-15T11:39:28.487450,4.30
2020-05-15T11:39:30.429787,4.30
2020-05-15T11:39:32.314766,4.30
2020-05-15T11:39:34.209193,4.30
2020-05-15T11:39:36.099489,4.30
2020-05-15T11:39:38.011587,4.30
2020-05-15T11:39:39.914628,4.30
2020-05-15T11:39:41.824689,4.30
2020-05-15T11:39:43.715191,4.30
2020-05-15T11:39:45.613483,4.30
2020-05-15T11:39:47.491363,4.30
2020-05-15T11:39:49.378262,4.30
2020-05-15T11:39:51.289393,4.40
2020-05-15T11:39:53.178986,4.30
2020-05-15T11:39:55.085536,4.30
2020-05-15T11:39:56.991552,4.30
2020-05-15T11:39:58.882436,4.30
2020-05-15T11:40:00.804781,4.30
2020-05-15T11:40:02.719774,4.30
2020-05-15T11:40:04.594593,4.30
2020-05-15T11:40:06.497069,4.30
2020-05-15T11:40:08.412071,4.30
2020-05-15T11:40:10.305508,4.30
2020-05-15T11:40:12.213408,4.30
2020-05-15T11:40:14.107285,4.30
2020-05-15T11:40:16.009701,4.30
2020-05-15T11:40:17.895997,4.30
2020-05-15T11:40:19.791113,4.30
2020-05-15T11:40:21.682199,4.30
2020-05-15T11:40:23.579897,4.30
2020-05-15T11:40:25.485548,4.30
2020-05-15T11:40:27.387033,4.30
2020-05-15T11:40:29.280385,4.30
2020-05-15T11:40:31.188586,4.30
2020-05-15T11:40:33.061063,4.30
2020-05-15T11:40:34.951402,4.30
2020-05-15T11:40:36.846894,4.30
2020-05-15T11:40:38.753301,4.30
2020-05-15T11:40:40.648314,4.30
2020-05-15T11:40:42.524075,4.30
2020-05-15T11:40:44.427693,4.30
2020-05-15T11:40:46.333519,4.30
2020-05-15T11:40:48.216281,4.30
2020-05-15T11:40:50.129339,4.30
2020-05-15T11:40:52.039571,4.30
2020-05-15T11:40:53.944592,4.30
2020-05-15T11:40:55.837375,4.30
2020-05-15T11:40:57.742184,4.30
2020-05-15T11:40:59.651846,4.30
2020-05-15T11:41:01.545773,4.30
2020-05-15T11:41:03.395960,4.30
2020-05-15T11:41:05.292054,4.30
2020-05-15T11:41:07.208762,4.30
2020-05-15T11:41:09.107159,4.30
2020-05-15T11:41:11.015971,4.30
2020-05-15T11:41:12.922819,4.30
2020-05-15T11:41:14.805078,4.30
2020-05-15T11:41:16.701734,4.30
2020-05-15T11:41:18.581173,4.30
2020-05-15T11:41:20.477234,4.30
2020-05-15T11:41:22.376017,4.30
2020-05-15T11:41:24.252306,4.30
2020-05-15T11:41:26.154032,4.30
2020-05-15T11:41:28.038805,4.30
2020-05-15T11:41:29.917188,4.30
2020-05-15T11:41:31.800736,4.30
2020-05-15T11:41:33.691949,4.30
2020-05-15T11:41:35.551101,4.30
2020-05-15T11:41:37.417390,4.30
2020-05-15T11:41:39.291858,4.30
2020-05-15T11:41:41.181308,4.30
2020-05-15T11:41:43.060080,4.30
2020-05-15T11:41:44.939514,4.30
2020-05-15T11:41:46.817524,4.30
2020-05-15T11:41:48.699313,4.40
2020-05-15T11:41:50.603175,4.30
2020-05-15T11:41:52.492015,4.30
2020-05-15T11:41:54.376957,4.30
2020-05-15T11:41:56.228620,4.30
2020-05-15T11:41:58.119242,4.30
2020-05-15T11:42:00.035439,4.30
2020-05-15T11:42:01.925522,4.30
2020-05-15T11:42:03.793868,4.30
2020-05-15T11:42:05.697853,4.30
2020-05-15T11:42:07.592010,4.30
2020-05-15T11:42:09.499739,4.30
2020-05-15T11:42:11.386712,4.30
2020-05-15T11:42:13.278707,4.30
2020-05-15T11:42:15.179191,4.30
2020-05-15T11:42:17.077772,4.30
2020-05-15T11:42:18.984233,4.30
2020-05-15T11:42:20.880102,4.30
2020-05-15T11:42:22.779777,4.30
2020-05-15T11:42:24.677969,4.30
2020-05-15T11:42:26.582171,4.30
2020-05-15T11:42:28.478225,4.30
2020-05-15T11:42:30.447528,4.30
2020-05-15T11:42:32.351606,4.30
2020-05-15T11:42:34.252743,4.30
2020-05-15T11:42:36.159314,4.30
2020-05-15T11:42:38.049369,4.30
2020-05-15T11:42:39.959982,4.30
2020-05-15T11:42:41.847421,4.30
2020-05-15T11:42:43.746528,4.30
2020-05-15T11:42:45.637129,4.30
2020-05-15T11:42:47.531867,4.30
2020-05-15T11:42:49.434683,4.30
2020-05-15T11:42:51.343886,4.30
2020-05-15T11:42:53.244331,4.30
2020-05-15T11:42:55.135610,4.30
2020-05-15T11:42:57.039937,4.30
2020-05-15T11:42:58.930488,4.30
2020-05-15T11:43:00.842305,4.30
2020-05-15T11:43:02.735318,4.30
2020-05-15T11:43:04.628481,4.30
2020-05-15T11:43:06.523989,4.30
2020-05-15T11:43:08.439735,4.30
2020-05-15T11:43:10.338645,4.40
2020-05-15T11:43:12.245733,4.30
2020-05-15T11:43:14.147410,4.30
2020-05-15T11:43:16.042499,4.30
2020-05-15T11:43:17.935171,4.30
2020-05-15T11:43:19.833775,4.40
2020-05-15T11:43:21.739490,4.30
2020-05-15T11:43:23.652270,4.30
2020-05-15T11:43:25.543228,4.30
2020-05-15T11:43:27.453181,4.30
2020-05-15T11:43:29.351889,4.30
2020-05-15T11:43:31.274592,4.30
2020-05-15T11:43:33.161132,4.30
2020-05-15T11:43:35.073425,4.30
2020-05-15T11:43:36.984590,4.30
2020-05-15T11:43:38.880046,4.30
2020-05-15T11:43:40.781785,4.30
2020-05-15T11:43:42.673131,4.30
2020-05-15T11:43:44.576246,4.30
2020-05-15T11:43:46.473728,4.30
2020-05-15T11:43:48.361677,4.30
2020-05-15T11:43:50.263025,4.30
2020-05-15T11:43:52.164639,4.30
2020-05-15T11:43:54.079941,4.30
2020-05-15T11:43:55.974438,4.30
2020-05-15T11:43:57.878389,4.30
2020-05-15T11:43:59.780942,4.30
2020-05-15T11:44:01.687611,4.30
2020-05-15T11:44:03.563808,4.30
2020-05-15T11:44:05.470038,4.30
2020-05-15T11:44:07.383045,4.30
2020-05-15T11:44:09.290041,4.30
2020-05-15T11:44:11.199224,4.30
2020-05-15T11:44:13.114209,4.30
2020-05-15T11:44:15.016745,4.30
2020-05-15T11:44:16.923051,4.30
2020-05-15T11:44:18.815346,4.30
2020-05-15T11:44:20.721286,4.30
2020-05-15T11:44:22.601399,4.30
2020-05-15T11:44:24.506784,4.30
2020-05-15T11:44:26.410063,4.30
2020-05-15T11:44:28.300061,4.40
2020-05-15T11:44:30.224842,4.30
2020-05-15T11:44:32.129327,4.30
2020-05-15T11:44:34.033265,4.30
2020-05-15T11:44:35.932665,4.30
2020-05-15T11:44:37.839815,4.30
2020-05-15T11:44:39.737392,4.30
2020-05-15T11:44:41.638381,4.30
2020-05-15T11:44:43.530700,4.30
2020-05-15T11:44:45.425415,4.30
2020-05-15T11:44:47.293572,4.30
2020-05-15T11:44:49.189852,4.30
2020-05-15T11:44:51.080558,4.30
2020-05-15T11:44:52.957481,4.30
2020-05-15T11:44:54.850594,4.30
2020-05-15T11:44:56.733311,4.30
2020-05-15T11:44:58.630575,4.30
2020-05-15T11:45:00.532034,4.30
2020-05-15T11:45:02.441795,4.30
2020-05-15T11:45:04.328546,4.30
2020-05-15T11:45:06.230854,4.30
2020-05-15T11:45:08.146166,4.30
2020-05-15T11:45:10.032833,4.30
2020-05-15T11:45:11.938355,4.30
2020-05-15T11:45:13.834337,4.30
2020-05-15T11:45:15.741204,4.30
2020-05-15T11:45:17.650862,4.30
2020-05-15T11:45:19.548920,4.30
2020-05-15T11:45:21.446103,4.30
2020-05-15T11:45:23.345002,4.30
2020-05-15T11:45:25.244332,4.30
2020-05-15T11:45:27.153870,4.30
2020-05-15T11:45:29.065958,4.30
2020-05-15T11:45:30.987381,4.30
2020-05-15T11:45:32.880819,4.30
2020-05-15T11:45:34.787317,4.30
2020-05-15T11:45:36.691193,4.30
2020-05-15T11:45:38.589242,4.30
2020-05-15T11:45:40.490962,4.30
2020-05-15T11:45:42.391506,4.30
2020-05-15T11:45:44.295875,4.30
2020-05-15T11:45:46.200291,4.30
2020-05-15T11:45:48.093418,4.30
2020-05-15T11:45:50.007120,4.30
2020-05-15T11:45:51.898601,4.40
2020-05-15T11:45:53.795228,4.30
2020-05-15T11:45:55.690186,4.30
2020-05-15T11:45:57.561485,4.30
2020-05-15T11:45:59.461993,4.30
2020-05-15T11:46:01.382454,4.30
2020-05-15T11:46:03.264654,4.30
2020-05-15T11:46:05.162993,4.30
2020-05-15T11:46:07.056748,4.30
2020-05-15T11:46:08.947030,4.30
2020-05-15T11:46:10.845532,4.30
2020-05-15T11:46:12.742679,4.30
2020-05-15T11:46:14.647951,4.30
2020-05-15T11:46:16.537786,4.30
2020-05-15T11:46:18.423293,4.30
2020-05-15T11:46:20.317773,4.30
2020-05-15T11:46:22.212035,4.30
2020-05-15T11:46:24.104626,4.30
2020-05-15T11:46:25.998071,4.30
2020-05-15T11:46:27.904285,4.30
2020-05-15T11:46:29.803119,4.30
2020-05-15T11:46:31.711694,4.30
2020-05-15T11:46:33.578511,4.30
2020-05-15T11:46:35.475877,4.30
2020-05-15T11:46:37.379009,4.30
2020-05-15T11:46:39.283368,4.30
2020-05-15T11:46:41.169601,4.30
2020-05-15T11:46:43.070237,4.30
2020-05-15T11:46:44.954572,4.30
2020-05-15T11:46:46.853778,4.30
2020-05-15T11:46:48.733853,4.30
2020-05-15T11:46:50.629774,4.30
2020-05-15T11:46:52.536244,4.30
2020-05-15T11:46:54.435595,4.30
2020-05-15T11:46:56.345645,4.30
2020-05-15T11:46:58.224012,4.30
2020-05-15T11:47:00.134884,4.30
2020-05-15T11:47:02.029784,4.30
2020-05-15T11:47:03.902698,4.30
2020-05-15T11:47:05.810669,4.30
2020-05-15T11:47:07.726434,4.30
2020-05-15T11:47:09.619796,4.30
2020-05-15T11:47:11.527114,4.30
2020-05-15T11:47:13.424600,4.30
2020-05-15T11:47:15.329295,4.30
2020-05-15T11:47:17.221869,4.30
2020-05-15T11:47:19.108841,4.30
2020-05-15T11:47:21.016516,4.30
2020-05-15T11:47:22.915259,4.40
2020-05-15T11:47:24.792400,4.30
2020-05-15T11:47:26.700961,4.30
2020-05-15T11:47:28.603251,4.30
2020-05-15T11:47:30.577284,4.30
2020-05-15T11:47:32.485584,4.30
2020-05-15T11:47:34.354060,4.30
2020-05-15T11:47:36.253311,4.30
2020-05-15T11:47:38.152544,4.30
2020-05-15T11:47:40.050100,4.30
2020-05-15T11:47:41.958140,4.30
2020-05-15T11:47:43.853731,4.30
2020-05-15T11:47:45.765053,4.30
2020-05-15T11:47:47.659411,4.30
2020-05-15T11:47:49.554350,4.30
2020-05-15T11:47:51.453477,4.30
2020-05-15T11:47:53.350506,4.30
2020-05-15T11:47:55.252200,4.30
2020-05-15T11:47:57.139730,4.30
2020-05-15T11:47:59.031136,4.30
2020-05-15T11:48:00.951710,4.30
2020-05-15T11:48:02.849841,4.30
2020-05-15T11:48:04.749635,4.30
2020-05-15T11:48:06.660937,4.30
2020-05-15T11:48:08.571487,4.30
2020-05-15T11:48:10.463175,4.30
2020-05-15T11:48:12.360505,4.30
2020-05-15T11:48:14.247560,4.30
2020-05-15T11:48:16.145891,4.30
2020-05-15T11:48:18.020369,4.30
2020-05-15T11:48:19.924502,4.30
2020-05-15T11:48:21.829654,4.30
2020-05-15T11:48:23.730164,4.30
2020-05-15T11:48:25.640957,4.30
2020-05-15T11:48:27.532303,4.30
2020-05-15T11:48:29.407361,4.30
2020-05-15T11:48:31.330058,4.30
2020-05-15T11:48:33.196160,4.30
2020-05-15T11:48:35.097347,4.30
2020-05-15T11:48:37.008284,4.30
2020-05-15T11:48:38.910883,4.30
2020-05-15T11:48:40.820640,4.30
2020-05-15T11:48:42.718971,4.30
2020-05-15T11:48:44.624797,4.30
2020-05-15T11:48:46.529156,4.30
2020-05-15T11:48:48.398349,4.30
2020-05-15T11:48:50.294286,4.30
2020-05-15T11:48:52.187105,4.30
2020-05-15T11:48:54.085930,4.40
2020-05-15T11:48:55.994048,4.30
2020-05-15T11:48:57.890992,4.40
2020-05-15T11:48:59.800546,4.30
2020-05-15T11:49:01.710391,4.30
2020-05-15T11:49:03.586845,4.30
2020-05-15T11:49:05.493031,4.30
2020-05-15T11:49:07.398092,4.30
2020-05-15T11:49:09.306100,4.30
2020-05-15T11:49:11.222033,4.30
2020-05-15T11:49:13.112931,4.30
2020-05-15T11:49:15.016096,4.30
2020-05-15T11:49:16.916545,4.30
2020-05-15T11:49:18.811099,4.30
2020-05-15T11:49:20.706131,4.30
2020-05-15T11:49:22.611787,4.40
2020-05-15T11:49:24.499906,4.30
2020-05-15T11:49:26.406696,4.30
2020-05-15T11:49:28.292296,4.30
2020-05-15T11:49:30.194026,4.30
2020-05-15T11:49:32.103432,4.30
2020-05-15T11:49:33.995797,4.30
2020-05-15T11:49:35.904611,4.30
2020-05-15T11:49:37.797305,4.30
2020-05-15T11:49:39.689617,4.30
2020-05-15T11:49:41.599650,4.30
2020-05-15T11:49:43.489576,4.30
2020-05-15T11:49:45.385555,4.30
2020-05-15T11:49:47.281091,4.30
2020-05-15T11:49:49.171127,4.30
2020-05-15T11:49:51.074493,4.30
2020-05-15T11:49:52.982152,4.30
2020-05-15T11:49:54.885554,4.30
2020-05-15T11:49:56.783488,4.30
2020-05-15T11:49:58.662740,4.30
2020-05-15T11:50:00.566148,4.30
2020-05-15T11:50:02.473009,4.30
2020-05-15T11:50:04.349875,4.30
2020-05-15T11:50:06.258304,4.30
2020-05-15T11:50:08.157832,4.30
2020-05-15T11:50:10.053450,4.30
2020-05-15T11:50:11.934880,4.30
2020-05-15T11:50:13.824461,4.30
2020-05-15T11:50:15.721397,4.30
2020-05-15T11:50:17.621471,4.30
2020-05-15T11:50:19.505778,4.30
2020-05-15T11:50:21.404805,4.30
2020-05-15T11:50:23.306636,4.30
2020-05-15T11:50:25.202764,4.30
2020-05-15T11:50:27.102963,4.30
2020-05-15T11:50:28.972953,4.30
2020-05-15T11:50:30.901010,4.30
2020-05-15T11:50:32.792277,4.30
2020-05-15T11:50:34.701077,4.30
2020-05-15T11:50:36.588687,4.30
2020-05-15T11:50:38.490260,4.30
2020-05-15T11:50:40.397557,4.30
2020-05-15T11:50:42.303156,4.40
2020-05-15T11:50:44.206308,4.30
2020-05-15T11:50:46.119930,4.30
2020-05-15T11:50:47.987941,4.40
2020-05-15T11:50:49.887497,4.30
2020-05-15T11:50:51.780783,4.40
2020-05-15T11:50:53.691397,4.30
2020-05-15T11:50:55.597590,4.30
2020-05-15T11:50:57.477991,4.30
2020-05-15T11:50:59.380019,4.30
2020-05-15T11:51:01.289764,4.30
2020-05-15T11:51:03.171342,4.30
2020-05-15T11:51:05.056123,4.30
2020-05-15T11:51:06.964409,4.30
2020-05-15T11:51:08.863354,4.30
2020-05-15T11:51:10.767377,4.30
2020-05-15T11:51:12.677821,4.30
2020-05-15T11:51:14.579398,4.30
2020-05-15T11:51:16.481046,4.30
2020-05-15T11:51:18.368071,4.30
2020-05-15T11:51:20.273020,4.30
2020-05-15T11:51:22.178030,4.30
2020-05-15T11:51:24.079650,4.30
2020-05-15T11:51:25.983687,4.30
2020-05-15T11:51:27.889693,4.30
2020-05-15T11:51:29.799889,4.30
2020-05-15T11:51:31.703178,4.30
2020-05-15T11:51:33.553712,4.30
2020-05-15T11:51:35.455775,4.30
2020-05-15T11:51:37.352793,4.30
2020-05-15T11:51:39.251251,4.30
2020-05-15T11:51:41.147996,4.30
2020-05-15T11:51:43.046837,4.30
2020-05-15T11:51:44.930963,4.30
2020-05-15T11:51:46.834973,4.30
2020-05-15T11:51:48.713551,4.30
2020-05-15T11:51:50.608335,4.30
2020-05-15T11:51:52.497222,4.30
2020-05-15T11:51:54.394358,4.30
2020-05-15T11:51:56.333198,4.30
2020-05-15T11:51:58.239037,4.30
2020-05-15T11:52:00.163190,4.30
2020-05-15T11:52:02.046505,4.30
2020-05-15T11:52:03.908919,4.30
2020-05-15T11:52:05.808412,4.30
2020-05-15T11:52:07.692322,4.30
2020-05-15T11:52:09.591137,4.30
2020-05-15T11:52:11.492672,4.30
2020-05-15T11:52:13.387964,4.30
2020-05-15T11:52:15.283355,4.30
2020-05-15T11:52:17.179374,4.30
2020-05-15T11:52:19.071364,4.30
2020-05-15T11:52:20.975003,4.30
2020-05-15T11:52:22.877465,4.30
2020-05-15T11:52:24.787392,4.30
2020-05-15T11:52:26.699529,4.30
2020-05-15T11:52:28.585796,4.30
2020-05-15T11:52:30.494204,4.30
2020-05-15T11:52:32.374674,4.30
2020-05-15T11:52:34.263906,4.30
2020-05-15T11:52:36.171821,4.30
2020-05-15T11:52:38.073781,4.30
2020-05-15T11:52:39.979895,4.30
2020-05-15T11:52:41.871739,4.30
2020-05-15T11:52:43.754420,4.30
2020-05-15T11:52:45.658576,4.30
2020-05-15T11:52:47.544759,4.30
2020-05-15T11:52:49.449554,4.30
2020-05-15T11:52:51.348314,4.30
2020-05-15T11:52:53.256286,4.30
2020-05-15T11:52:55.170169,4.30
2020-05-15T11:52:57.066118,4.30
2020-05-15T11:52:58.952403,4.30
2020-05-15T11:53:00.893993,4.30
2020-05-15T11:53:02.806385,4.30
2020-05-15T11:53:04.696324,4.30
2020-05-15T11:53:06.604075,4.30
2020-05-15T11:53:08.514471,4.40
2020-05-15T11:53:10.417279,4.30
2020-05-15T11:53:12.327144,4.30
2020-05-15T11:53:14.220415,4.30
2020-05-15T11:53:16.127408,4.30
2020-05-15T11:53:18.003414,4.30
2020-05-15T11:53:19.899995,4.30
2020-05-15T11:53:21.776496,4.30
2020-05-15T11:53:23.669186,4.30
2020-05-15T11:53:25.571449,4.30
2020-05-15T11:53:27.476122,4.30
2020-05-15T11:53:29.385646,4.30
2020-05-15T11:53:31.317637,4.30
2020-05-15T11:53:33.196374,4.30
2020-05-15T11:53:35.106937,4.30
2020-05-15T11:53:37.005618,4.30
2020-05-15T11:53:38.906311,4.30
2020-05-15T11:53:40.807822,4.30
2020-05-15T11:53:42.715728,4.40
2020-05-15T11:53:44.619142,4.30
2020-05-15T11:53:46.531165,4.30
2020-05-15T11:53:48.408049,4.30
2020-05-15T11:53:50.310965,4.30
2020-05-15T11:53:52.215849,4.30
2020-05-15T11:53:54.106675,4.30
2020-05-15T11:53:56.009974,4.30
2020-05-15T11:53:57.892672,4.30
2020-05-15T11:53:59.801101,4.30
2020-05-15T11:54:01.694789,4.30
2020-05-15T11:54:03.565998,4.30
2020-05-15T11:54:05.467006,4.30
2020-05-15T11:54:07.358693,4.30
2020-05-15T11:54:09.238716,4.30
2020-05-15T11:54:11.151210,4.30
2020-05-15T11:54:13.027767,4.30
2020-05-15T11:54:14.927675,4.30
2020-05-15T11:54:16.827665,4.30
2020-05-15T11:54:18.714485,4.30
2020-05-15T11:54:20.598042,4.30
2020-05-15T11:54:22.484978,4.30
2020-05-15T11:54:24.358784,4.30
2020-05-15T11:54:26.239562,4.30
2020-05-15T11:54:28.139325,4.30
2020-05-15T11:54:30.044598,4.30
2020-05-15T11:54:31.952669,4.30
2020-05-15T11:54:33.851470,4.30
2020-05-15T11:54:35.753233,4.30
2020-05-15T11:54:37.644965,4.30
2020-05-15T11:54:39.537715,4.30
2020-05-15T11:54:41.451616,4.30
2020-05-15T11:54:43.361338,4.30
2020-05-15T11:54:45.270223,4.30
2020-05-15T11:54:47.150364,4.30
2020-05-15T11:54:49.022407,4.30
2020-05-15T11:54:50.935154,4.30
2020-05-15T11:54:52.835681,4.30
2020-05-15T11:54:54.713959,4.30
2020-05-15T11:54:56.620218,4.30
2020-05-15T11:54:58.515436,4.30
2020-05-15T11:55:00.436557,4.30
2020-05-15T11:55:02.308091,4.30
2020-05-15T11:55:04.197717,4.30
2020-05-15T11:55:06.084883,4.30
2020-05-15T11:55:07.994182,4.30
2020-05-15T11:55:09.895509,4.30
2020-05-15T11:55:11.801481,4.30
2020-05-15T11:55:13.685453,4.30
2020-05-15T11:55:15.593306,4.30
2020-05-15T11:55:17.482102,4.30
2020-05-15T11:55:19.378778,4.30
2020-05-15T11:55:21.278244,4.30
2020-05-15T11:55:23.178499,4.30
2020-05-15T11:55:25.092373,4.30
2020-05-15T11:55:26.995737,4.30
2020-05-15T11:55:28.885192,4.30
2020-05-15T11:55:30.807162,4.30
2020-05-15T11:55:32.698473,4.30
2020-05-15T11:55:34.594793,4.30
2020-05-15T11:55:36.498784,4.30
2020-05-15T11:55:38.398449,4.30
2020-05-15T11:55:40.277740,4.30
2020-05-15T11:55:42.159673,4.30
2020-05-15T11:55:44.064992,4.30
2020-05-15T11:55:45.976799,4.30
2020-05-15T11:55:47.855144,4.30
2020-05-15T11:55:49.749382,4.30
2020-05-15T11:55:51.638454,4.30
2020-05-15T11:55:53.548450,4.30
2020-05-15T11:55:55.451531,4.30
2020-05-15T11:55:57.350172,4.30
2020-05-15T11:55:59.240370,4.30
2020-05-15T11:56:01.159213,4.30
2020-05-15T11:56:03.042619,4.30
2020-05-15T11:56:04.944346,4.30
2020-05-15T11:56:06.858420,4.30
2020-05-15T11:56:08.763654,4.30
2020-05-15T11:56:10.653066,4.30
2020-05-15T11:56:12.553321,4.30
2020-05-15T11:56:14.431609,4.30
2020-05-15T11:56:16.341314,4.30
2020-05-15T11:56:18.195143,4.30
2020-05-15T11:56:20.095943,4.30
2020-05-15T11:56:21.992370,4.30
2020-05-15T11:56:23.877253,4.30
2020-05-15T11:56:25.773057,4.30
2020-05-15T11:56:27.665186,4.30
2020-05-15T11:56:29.558419,4.30
2020-05-15T11:56:31.474067,4.30
2020-05-15T11:56:33.336395,4.30
2020-05-15T11:56:35.237267,4.30
2020-05-15T11:56:37.135934,4.30
2020-05-15T11:56:39.038744,4.30
2020-05-15T11:56:40.930938,4.30
2020-05-15T11:56:42.838867,4.30
2020-05-15T11:56:44.719769,4.30
2020-05-15T11:56:46.609795,4.30
2020-05-15T11:56:48.486785,4.30
2020-05-15T11:56:50.394640,4.30
2020-05-15T11:56:52.278825,4.30
2020-05-15T11:56:54.183820,4.30
2020-05-15T11:56:56.083082,4.30
2020-05-15T11:56:57.968930,4.30
2020-05-15T11:56:59.875144,4.30
2020-05-15T11:57:01.764654,4.30
2020-05-15T11:57:03.651559,4.30
2020-05-15T11:57:05.546098,4.30
2020-05-15T11:57:07.451986,4.30
2020-05-15T11:57:09.358733,4.30
2020-05-15T11:57:11.249707,4.30
2020-05-15T11:57:13.161305,4.30
2020-05-15T11:57:15.069707,4.30
2020-05-15T11:57:16.976042,4.30
2020-05-15T11:57:18.866033,4.30
2020-05-15T11:57:20.764887,4.30
2020-05-15T11:57:22.664808,4.30
2020-05-15T11:57:24.573458,4.30
2020-05-15T11:57:26.469609,4.30
2020-05-15T11:57:28.365047,4.30
2020-05-15T11:57:30.285181,4.30
2020-05-15T11:57:32.189849,4.30
2020-05-15T11:57:34.075227,4.30
2020-05-15T11:57:35.988644,4.30
2020-05-15T11:57:37.891411,4.30
2020-05-15T11:57:39.791706,4.30
2020-05-15T11:57:41.691889,4.40
2020-05-15T11:57:43.600428,4.30
2020-05-15T11:57:45.507240,4.30
2020-05-15T11:57:47.411133,4.30
2020-05-15T11:57:49.313882,4.30
2020-05-15T11:57:51.224799,4.30
2020-05-15T11:57:53.112534,4.30
2020-05-15T11:57:55.007267,4.30
2020-05-15T11:57:56.912399,4.30
2020-05-15T11:57:58.802376,4.30
2020-05-15T11:58:00.701209,4.30
2020-05-15T11:58:02.602047,4.30
2020-05-15T11:58:04.487712,4.30
2020-05-15T11:58:06.391747,4.30
2020-05-15T11:58:08.279162,4.30
2020-05-15T11:58:10.176430,4.30
2020-05-15T11:58:12.067713,4.30
2020-05-15T11:58:13.957690,4.30
2020-05-15T11:58:15.856541,4.30
2020-05-15T11:58:17.755388,4.30
2020-05-15T11:58:19.645368,4.30
2020-05-15T11:58:21.535383,4.30
2020-05-15T11:58:23.418189,4.30
2020-05-15T11:58:25.313606,4.30
2020-05-15T11:58:27.203980,4.30
2020-05-15T11:58:29.105485,4.30
2020-05-15T11:58:31.046729,4.30
2020-05-15T11:58:32.933452,4.30
2020-05-15T11:58:34.823360,4.30
2020-05-15T11:58:36.723551,4.30
2020-05-15T11:58:38.619928,4.30
2020-05-15T11:58:40.515749,4.30
2020-05-15T11:58:42.429564,4.30
2020-05-15T11:58:44.323979,4.30
2020-05-15T11:58:46.231759,4.30
2020-05-15T11:58:48.112855,4.30
2020-05-15T11:58:50.017765,4.30
2020-05-15T11:58:51.921907,4.40
2020-05-15T11:58:53.821184,4.30
2020-05-15T11:58:55.726305,4.30
2020-05-15T11:58:57.614392,4.30
2020-05-15T11:58:59.519908,4.30
2020-05-15T11:59:01.447529,4.30
2020-05-15T11:59:03.326655,4.30
2020-05-15T11:59:05.234492,4.40
2020-05-15T11:59:07.146080,4.40
2020-05-15T11:59:09.036494,4.30
2020-05-15T11:59:10.934534,4.30
2020-05-15T11:59:12.827470,4.30
2020-05-15T11:59:14.710059,4.30
2020-05-15T11:59:16.603273,4.30
2020-05-15T11:59:18.470299,4.30
2020-05-15T11:59:20.369080,4.30
2020-05-15T11:59:22.258335,4.30
2020-05-15T11:59:24.157099,4.30
2020-05-15T11:59:26.063879,4.30
2020-05-15T11:59:27.969214,4.30
2020-05-15T11:59:29.885289,4.30
2020-05-15T11:59:31.782343,4.30
2020-05-15T11:59:33.655191,4.30
2020-05-15T11:59:35.550876,4.30
2020-05-15T11:59:37.450340,4.30
2020-05-15T11:59:39.352903,4.30
2020-05-15T11:59:41.258859,4.30
2020-05-15T11:59:43.162969,4.30
2020-05-15T11:59:45.070271,4.30
2020-05-15T11:59:46.972133,4.30
2020-05-15T11:59:48.850309,4.40
2020-05-15T11:59:50.757494,4.30
2020-05-15T11:59:52.665721,4.30
2020-05-15T11:59:54.557609,4.40
2020-05-15T11:59:56.454630,4.30
2020-05-15T11:59:58.343678,4.30
2020-05-15T12:00:00.256828,4.30
2020-05-15T12:00:02.165063,4.30
2020-05-15T12:00:04.047261,4.40
2020-05-15T12:00:05.952243,4.30
2020-05-15T12:00:07.861077,4.30
2020-05-15T12:00:09.766641,4.30
2020-05-15T12:00:11.669179,4.30
2020-05-15T12:00:13.561901,4.30
2020-05-15T12:00:15.477090,4.30
2020-05-15T12:00:17.386678,4.30
2020-05-15T12:00:19.288497,4.30
2020-05-15T12:00:21.181915,4.30
2020-05-15T12:00:23.078785,4.30
2020-05-15T12:00:24.982066,4.40
2020-05-15T12:00:26.885660,4.30
2020-05-15T12:00:28.784222,4.30
2020-05-15T12:00:30.702315,4.30
2020-05-15T12:00:32.602151,4.30
2020-05-15T12:00:34.490694,4.30
2020-05-15T12:00:36.397352,4.30
2020-05-15T12:00:38.282724,4.30
2020-05-15T12:00:40.189607,4.30
2020-05-15T12:00:42.084970,4.30
2020-05-15T12:00:43.966787,4.30
2020-05-15T12:00:45.873825,4.30
2020-05-15T12:00:47.757425,4.30
2020-05-15T12:00:49.660949,4.30
2020-05-15T12:00:51.570534,4.30
2020-05-15T12:00:53.474823,4.30
2020-05-15T12:00:55.360979,4.30
2020-05-15T12:00:57.260272,4.30
2020-05-15T12:00:59.154495,4.30
2020-05-15T12:01:01.061380,4.30
2020-05-15T12:01:02.943898,4.30
2020-05-15T12:01:04.844353,4.30
2020-05-15T12:01:06.735381,4.30
2020-05-15T12:01:08.639268,4.30
2020-05-15T12:01:10.532664,4.30
2020-05-15T12:01:12.442554,4.30
2020-05-15T12:01:14.320082,4.30
2020-05-15T12:01:16.232082,4.30
2020-05-15T12:01:18.115496,4.30
2020-05-15T12:01:20.020068,4.30
2020-05-15T12:01:21.917207,4.30
2020-05-15T12:01:23.823593,4.30
2020-05-15T12:01:25.730215,4.30
2020-05-15T12:01:27.635396,4.30
2020-05-15T12:01:29.542039,4.30
2020-05-15T12:01:31.442259,4.30
2020-05-15T12:01:33.326731,4.30
2020-05-15T12:01:35.231021,4.30
2020-05-15T12:01:37.135460,4.30
2020-05-15T12:01:39.050469,4.30
2020-05-15T12:01:40.935894,4.30
2020-05-15T12:01:42.842625,4.30
2020-05-15T12:01:44.751428,4.30
2020-05-15T12:01:46.650532,4.30
2020-05-15T12:01:48.517749,4.30
2020-05-15T12:01:50.419918,4.30
2020-05-15T12:01:52.318533,4.30
2020-05-15T12:01:54.210367,4.30
2020-05-15T12:01:56.104834,4.30
2020-05-15T12:01:58.008023,4.30
2020-05-15T12:01:59.929410,4.30
2020-05-15T12:02:01.826675,4.30
2020-05-15T12:02:03.698622,4.30
2020-05-15T12:02:05.609258,4.30
2020-05-15T12:02:07.509786,4.30
2020-05-15T12:02:09.395352,4.30
2020-05-15T12:02:11.310730,4.30
2020-05-15T12:02:13.216813,4.30
2020-05-15T12:02:15.129760,4.30
2020-05-15T12:02:17.033060,4.30
2020-05-15T12:02:18.936436,4.30
2020-05-15T12:02:20.833442,4.30
2020-05-15T12:02:22.731602,4.30
2020-05-15T12:02:24.632969,4.30
2020-05-15T12:02:26.526638,4.30
2020-05-15T12:02:28.417095,4.30
2020-05-15T12:02:30.343652,4.30
2020-05-15T12:02:32.255141,4.30
2020-05-15T12:02:34.148582,4.30
2020-05-15T12:02:36.043728,4.30
2020-05-15T12:02:37.918966,4.30
2020-05-15T12:02:39.825694,4.30
2020-05-15T12:02:41.729126,4.30
2020-05-15T12:02:43.621006,4.30
2020-05-15T12:02:45.524781,4.30
2020-05-15T12:02:47.410286,4.30
2020-05-15T12:02:49.297277,4.30
2020-05-15T12:02:51.199046,4.30
2020-05-15T12:02:53.079720,4.30
2020-05-15T12:02:54.981711,4.30
2020-05-15T12:02:56.885754,4.30
2020-05-15T12:02:58.788295,4.30
2020-05-15T12:03:00.701523,4.30
2020-05-15T12:03:02.597104,4.30
2020-05-15T12:03:04.506771,4.30
2020-05-15T12:03:06.420569,4.30
2020-05-15T12:03:08.328860,4.30
2020-05-15T12:03:10.233105,4.30
2020-05-15T12:03:12.142846,4.30
2020-05-15T12:03:14.023988,4.40
2020-05-15T12:03:15.920939,4.30
2020-05-15T12:03:17.815886,4.30
2020-05-15T12:03:19.726689,4.30
2020-05-15T12:03:21.638773,4.40
2020-05-15T12:03:23.554486,4.30
2020-05-15T12:03:25.454902,4.30
2020-05-15T12:03:27.358901,4.30
2020-05-15T12:03:29.243695,4.30
2020-05-15T12:03:31.183221,4.30
2020-05-15T12:03:33.068830,4.30
2020-05-15T12:03:34.978053,4.30
2020-05-15T12:03:36.869816,4.30
2020-05-15T12:03:38.766562,4.30
2020-05-15T12:03:40.672075,4.30
2020-05-15T12:03:42.562957,4.30
2020-05-15T12:03:44.447548,4.30
2020-05-15T12:03:46.350915,4.30
2020-05-15T12:03:48.220847,4.30
2020-05-15T12:03:50.124313,4.30
2020-05-15T12:03:52.025171,4.30
2020-05-15T12:03:53.920144,4.30
2020-05-15T12:03:55.827230,4.30
2020-05-15T12:03:57.729926,4.30
2020-05-15T12:03:59.624670,4.30
2020-05-15T12:04:01.506541,4.30
2020-05-15T12:04:03.355925,4.30
2020-05-15T12:04:05.248278,4.30
2020-05-15T12:04:07.156280,4.40
2020-05-15T12:04:09.059618,4.30
2020-05-15T12:04:10.949383,4.30
2020-05-15T12:04:12.856152,4.30
2020-05-15T12:04:14.756714,4.30
2020-05-15T12:04:16.664552,4.30
2020-05-15T12:04:18.537077,4.30
2020-05-15T12:04:20.433486,4.30
2020-05-15T12:04:22.295985,4.30
2020-05-15T12:04:24.187641,4.30
2020-05-15T12:04:26.090374,4.30
2020-05-15T12:04:28.000500,4.30
2020-05-15T12:04:29.937764,4.30
2020-05-15T12:04:31.823072,4.30
2020-05-15T12:04:33.698359,4.30
2020-05-15T12:04:35.594025,4.30
2020-05-15T12:04:37.491129,4.30
2020-05-15T12:04:39.393656,4.30
2020-05-15T12:04:41.291719,4.30
2020-05-15T12:04:43.173732,4.30
2020-05-15T12:04:45.074245,4.30
2020-05-15T12:04:46.967132,4.30
2020-05-15T12:04:48.822547,4.30
2020-05-15T12:04:50.714261,4.30
2020-05-15T12:04:52.604265,4.30
2020-05-15T12:04:54.489668,4.30
2020-05-15T12:04:56.389005,4.30
2020-05-15T12:04:58.276186,4.30
2020-05-15T12:05:00.201183,4.30
2020-05-15T12:05:02.111731,4.30
2020-05-15T12:05:04.003622,4.30
2020-05-15T12:05:05.898989,4.30
2020-05-15T12:05:07.802063,4.30
2020-05-15T12:05:09.693064,4.30
2020-05-15T12:05:11.590623,4.30
2020-05-15T12:05:13.488745,4.30
2020-05-15T12:05:15.392870,4.30
2020-05-15T12:05:17.282848,4.30
2020-05-15T12:05:19.176083,4.30
2020-05-15T12:05:21.079206,4.30
2020-05-15T12:05:22.958532,4.30
2020-05-15T12:05:24.859224,4.30
2020-05-15T12:05:26.775452,4.30
2020-05-15T12:05:28.666242,4.30
2020-05-15T12:05:30.570832,4.30
2020-05-15T12:05:32.464175,4.30
2020-05-15T12:05:34.371164,4.30
2020-05-15T12:05:36.282534,4.30
2020-05-15T12:05:38.176806,4.30
2020-05-15T12:05:40.088372,4.30
2020-05-15T12:05:41.975357,4.30
2020-05-15T12:05:43.860368,4.30
2020-05-15T12:05:45.750296,4.30
2020-05-15T12:05:47.648309,4.30
2020-05-15T12:05:49.539134,4.30
2020-05-15T12:05:51.437975,4.30
2020-05-15T12:05:53.346017,4.30
2020-05-15T12:05:55.261118,4.30
2020-05-15T12:05:57.158441,4.30
2020-05-15T12:05:59.044495,4.30
2020-05-15T12:06:00.977170,4.30
2020-05-15T12:06:02.864591,4.30
2020-05-15T12:06:04.751407,4.30
2020-05-15T12:06:06.653457,4.30
2020-05-15T12:06:08.561407,4.30
2020-05-15T12:06:10.469178,4.30
2020-05-15T12:06:12.385348,4.30
2020-05-15T12:06:14.295925,4.30
2020-05-15T12:06:16.205632,4.30
2020-05-15T12:06:18.108992,4.30
2020-05-15T12:06:20.006114,4.30
2020-05-15T12:06:21.894515,4.30
2020-05-15T12:06:23.792137,4.30
2020-05-15T12:06:25.671505,4.30
2020-05-15T12:06:27.572062,4.30
2020-05-15T12:06:29.460013,4.30
2020-05-15T12:06:31.374307,4.30
2020-05-15T12:06:33.275251,4.30
2020-05-15T12:06:35.166259,4.30
2020-05-15T12:06:37.071094,4.30
2020-05-15T12:06:38.951973,4.40
2020-05-15T12:06:40.858228,4.30
2020-05-15T12:06:42.774414,4.30
2020-05-15T12:06:44.664455,4.30
2020-05-15T12:06:46.576488,4.30
2020-05-15T12:06:48.455516,4.30
2020-05-15T12:06:50.360266,4.30
2020-05-15T12:06:52.231012,4.30
2020-05-15T12:06:54.118313,4.30
2020-05-15T12:06:56.007214,4.30
2020-05-15T12:06:57.907265,4.30
2020-05-15T12:06:59.806792,4.30
2020-05-15T12:07:01.684972,4.30
2020-05-15T12:07:03.525389,4.30
2020-05-15T12:07:05.431218,4.30
2020-05-15T12:07:07.333557,4.30
2020-05-15T12:07:09.223270,4.30
2020-05-15T12:07:11.118965,4.30
2020-05-15T12:07:13.017436,4.30
2020-05-15T12:07:14.929024,4.30
2020-05-15T12:07:16.835066,4.30
2020-05-15T12:07:18.731099,4.30
2020-05-15T12:07:20.645384,4.30
2020-05-15T12:07:22.555176,4.30
2020-05-15T12:07:24.458582,4.30
2020-05-15T12:07:26.350163,4.40
2020-05-15T12:07:28.250420,4.30
2020-05-15T12:07:30.139314,4.30
2020-05-15T12:07:32.042116,4.30
2020-05-15T12:07:33.921586,4.30
2020-05-15T12:07:35.832062,4.30
2020-05-15T12:07:37.716653,4.30
2020-05-15T12:07:39.617393,4.30
2020-05-15T12:07:41.520673,4.30
2020-05-15T12:07:43.428461,4.30
2020-05-15T12:07:45.327721,4.30
2020-05-15T12:07:47.232853,4.30
2020-05-15T12:07:49.140159,4.30
2020-05-15T12:07:51.041763,4.30
2020-05-15T12:07:52.926254,4.30
2020-05-15T12:07:54.831014,4.30
2020-05-15T12:07:56.739022,4.30
2020-05-15T12:07:58.632250,4.30
2020-05-15T12:08:00.552043,4.30
2020-05-15T12:08:02.451853,4.30
2020-05-15T12:08:04.340947,4.30
2020-05-15T12:08:06.238073,4.30
2020-05-15T12:08:08.130917,4.30
2020-05-15T12:08:10.019781,4.30
2020-05-15T12:08:11.917723,4.30
2020-05-15T12:08:13.811084,4.30
2020-05-15T12:08:15.711489,4.30
2020-05-15T12:08:17.610033,4.30
2020-05-15T12:08:19.508471,4.30
2020-05-15T12:08:21.390589,4.30
2020-05-15T12:08:23.296679,4.30
2020-05-15T12:08:25.204542,4.30
2020-05-15T12:08:27.116894,4.30
2020-05-15T12:08:28.999594,4.30
2020-05-15T12:08:30.916617,4.30
2020-05-15T12:08:32.816953,4.30
2020-05-15T12:08:34.711728,4.30
2020-05-15T12:08:36.609061,4.30
2020-05-15T12:08:38.516100,4.30
2020-05-15T12:08:40.415612,4.30
2020-05-15T12:08:42.307512,4.30
2020-05-15T12:08:44.208313,4.30
2020-05-15T12:08:46.116420,4.30
2020-05-15T12:08:48.005342,4.30
2020-05-15T12:08:49.903842,4.30
2020-05-15T12:08:51.805302,4.30
2020-05-15T12:08:53.708756,4.30
2020-05-15T12:08:55.619434,4.30
2020-05-15T12:08:57.513505,4.30
2020-05-15T12:08:59.408329,4.30
2020-05-15T12:09:01.333472,4.30
2020-05-15T12:09:03.212073,4.30
2020-05-15T12:09:05.115645,4.30
2020-05-15T12:09:07.021827,4.30
2020-05-15T12:09:08.925933,4.30
2020-05-15T12:09:10.809709,4.30
2020-05-15T12:09:12.706040,4.30
2020-05-15T12:09:14.601290,4.30
2020-05-15T12:09:16.509215,4.30
2020-05-15T12:09:18.376702,4.30
2020-05-15T12:09:20.280113,4.30
2020-05-15T12:09:22.177261,4.30
2020-05-15T12:09:24.086965,4.30
2020-05-15T12:09:26.000834,4.30
2020-05-15T12:09:27.907554,4.30
2020-05-15T12:09:29.791441,4.30
2020-05-15T12:09:31.702233,4.30
2020-05-15T12:09:33.569930,4.30
2020-05-15T12:09:35.481385,4.30
2020-05-15T12:09:37.381262,4.30
2020-05-15T12:09:39.270411,4.30
2020-05-15T12:09:41.185237,4.30
2020-05-15T12:09:43.099875,4.30
2020-05-15T12:09:44.997417,4.30
2020-05-15T12:09:46.890593,4.30
2020-05-15T12:09:48.780245,4.30
2020-05-15T12:09:50.686970,4.30
2020-05-15T12:09:52.592007,4.30
2020-05-15T12:09:54.498126,4.30
2020-05-15T12:09:56.403377,4.30
2020-05-15T12:09:58.302370,4.30
2020-05-15T12:10:00.215661,4.30
2020-05-15T12:10:02.102059,4.30
2020-05-15T12:10:04.006909,4.30
2020-05-15T12:10:05.901339,4.30
2020-05-15T12:10:07.793127,4.30
2020-05-15T12:10:09.691174,4.30
2020-05-15T12:10:11.594546,4.30
2020-05-15T12:10:13.501805,4.30
2020-05-15T12:10:15.402441,4.30
2020-05-15T12:10:17.315603,4.30
2020-05-15T12:10:19.193396,4.30
2020-05-15T12:10:21.106412,4.30
2020-05-15T12:10:23.005098,4.30
2020-05-15T12:10:24.911644,4.30
2020-05-15T12:10:26.816396,4.30
2020-05-15T12:10:28.716862,4.30
2020-05-15T12:10:30.637219,4.30
2020-05-15T12:10:32.528342,4.30
2020-05-15T12:10:34.411259,4.30
2020-05-15T12:10:36.294843,4.30
2020-05-15T12:10:38.199655,4.30
2020-05-15T12:10:40.106012,4.30
2020-05-15T12:10:42.016952,4.30
2020-05-15T12:10:43.912158,4.30
2020-05-15T12:10:45.813913,4.40
2020-05-15T12:10:47.698980,4.30
2020-05-15T12:10:49.609671,4.30
2020-05-15T12:10:51.512202,4.30
2020-05-15T12:10:53.392988,4.30
2020-05-15T12:10:55.291803,4.30
2020-05-15T12:10:57.178948,4.30
2020-05-15T12:10:59.076039,4.30
2020-05-15T12:11:00.992985,4.30
2020-05-15T12:11:02.882766,4.30
2020-05-15T12:11:04.751251,4.30
2020-05-15T12:11:06.650428,4.30
2020-05-15T12:11:08.553959,4.30
2020-05-15T12:11:10.463649,4.30
2020-05-15T12:11:12.370627,4.30
2020-05-15T12:11:14.249556,4.30
2020-05-15T12:11:16.151114,4.30
2020-05-15T12:11:18.035438,4.30
2020-05-15T12:11:19.937473,4.30
2020-05-15T12:11:21.829926,4.30
2020-05-15T12:11:23.726992,4.30
2020-05-15T12:11:25.630474,4.30
2020-05-15T12:11:27.517605,4.30
2020-05-15T12:11:29.425646,4.30
2020-05-15T12:11:31.343164,4.30
2020-05-15T12:11:33.218161,4.30
2020-05-15T12:11:35.111989,4.30
2020-05-15T12:11:36.993905,4.30
2020-05-15T12:11:38.894218,4.30
2020-05-15T12:11:40.795860,4.30
2020-05-15T12:11:42.705838,4.30
2020-05-15T12:11:44.591618,4.30
2020-05-15T12:11:46.493663,4.30
2020-05-15T12:11:48.375330,4.30
2020-05-15T12:11:50.273303,4.30
2020-05-15T12:11:52.170639,4.30
2020-05-15T12:11:54.061439,4.30
2020-05-15T12:11:55.957799,4.30
2020-05-15T12:11:57.850946,4.30
2020-05-15T12:11:59.770087,4.30
2020-05-15T12:12:01.674426,4.30
2020-05-15T12:12:03.548087,4.30
2020-05-15T12:12:05.448217,4.30
2020-05-15T12:12:07.338117,4.30
2020-05-15T12:12:09.219575,4.30
2020-05-15T12:12:11.124312,4.30
2020-05-15T12:12:13.029495,4.30
2020-05-15T12:12:14.918416,4.30
2020-05-15T12:12:16.807821,4.30
2020-05-15T12:12:18.678903,4.30
2020-05-15T12:12:20.577646,4.30
2020-05-15T12:12:22.478594,4.30
2020-05-15T12:12:24.372664,4.30
2020-05-15T12:12:26.276174,4.30
2020-05-15T12:12:28.170266,4.30
2020-05-15T12:12:30.074545,4.30
2020-05-15T12:12:31.962971,4.30
2020-05-15T12:12:33.839731,4.30
2020-05-15T12:12:35.749426,4.30
2020-05-15T12:12:37.649550,4.30
2020-05-15T12:12:39.561304,4.30
2020-05-15T12:12:41.466557,4.30
2020-05-15T12:12:43.368738,4.30
2020-05-15T12:12:45.278039,4.30
2020-05-15T12:12:47.170185,4.30
2020-05-15T12:12:49.073126,4.30
2020-05-15T12:12:50.974456,4.30
2020-05-15T12:12:52.882575,4.30
2020-05-15T12:12:54.779497,4.30
2020-05-15T12:12:56.691692,4.30
2020-05-15T12:12:58.585707,4.30
2020-05-15T12:13:00.496093,4.30
2020-05-15T12:13:02.394271,4.30
2020-05-15T12:13:04.299383,4.30
2020-05-15T12:13:06.197244,4.30
2020-05-15T12:13:08.109356,4.30
2020-05-15T12:13:10.007450,4.30
2020-05-15T12:13:11.912436,4.30
2020-05-15T12:13:13.796285,4.30
2020-05-15T12:13:15.705929,4.30
2020-05-15T12:13:17.598529,4.30
2020-05-15T12:13:19.495365,4.30
2020-05-15T12:13:21.403568,4.30
2020-05-15T12:13:23.295486,4.30
2020-05-15T12:13:25.152816,4.30
2020-05-15T12:13:26.940932,4.30
2020-05-15T12:13:28.738792,4.30
2020-05-15T12:13:30.516450,4.30
2020-05-15T12:13:32.308311,4.30
2020-05-15T12:13:34.109331,4.30
