(kicad_sch (version 20230121) (generator eeschema)

  (uuid de3eb61c-3a8a-4800-85b6-dab2da16ad64)

  (paper "A4")

  (title_block
    (title " for ESP8266-12E/F")
    (date "2024-03-11")
    (rev "1.4")
  )

  (lib_symbols
    (symbol "Connector_Generic:Conn_01x06" (pin_names (offset 1.016) hide) (in_bom yes) (on_board yes)
      (property "Reference" "J" (at 0 7.62 0)
        (effects (font (size 1.27 1.27)))
      )
      (property "Value" "Conn_01x06" (at 0 -10.16 0)
        (effects (font (size 1.27 1.27)))
      )
      (property "Footprint" "" (at 0 0 0)
        (effects (font (size 1.27 1.27)) hide)
      )
      (property "Datasheet" "~" (at 0 0 0)
        (effects (font (size 1.27 1.27)) hide)
      )
      (property "ki_keywords" "connector" (at 0 0 0)
        (effects (font (size 1.27 1.27)) hide)
      )
      (property "ki_description" "Generic connector, single row, 01x06, script generated (kicad-library-utils/schlib/autogen/connector/)" (at 0 0 0)
        (effects (font (size 1.27 1.27)) hide)
      )
      (property "ki_fp_filters" "Connector*:*_1x??_*" (at 0 0 0)
        (effects (font (size 1.27 1.27)) hide)
      )
      (symbol "Conn_01x06_1_1"
        (rectangle (start -1.27 -7.493) (end 0 -7.747)
          (stroke (width 0.1524) (type default))
          (fill (type none))
        )
        (rectangle (start -1.27 -4.953) (end 0 -5.207)
          (stroke (width 0.1524) (type default))
          (fill (type none))
        )
        (rectangle (start -1.27 -2.413) (end 0 -2.667)
          (stroke (width 0.1524) (type default))
          (fill (type none))
        )
        (rectangle (start -1.27 0.127) (end 0 -0.127)
          (stroke (width 0.1524) (type default))
          (fill (type none))
        )
        (rectangle (start -1.27 2.667) (end 0 2.413)
          (stroke (width 0.1524) (type default))
          (fill (type none))
        )
        (rectangle (start -1.27 5.207) (end 0 4.953)
          (stroke (width 0.1524) (type default))
          (fill (type none))
        )
        (rectangle (start -1.27 6.35) (end 1.27 -8.89)
          (stroke (width 0.254) (type default))
          (fill (type background))
        )
        (pin passive line (at -5.08 5.08 0) (length 3.81)
          (name "Pin_1" (effects (font (size 1.27 1.27))))
          (number "1" (effects (font (size 1.27 1.27))))
        )
        (pin passive line (at -5.08 2.54 0) (length 3.81)
          (name "Pin_2" (effects (font (size 1.27 1.27))))
          (number "2" (effects (font (size 1.27 1.27))))
        )
        (pin passive line (at -5.08 0 0) (length 3.81)
          (name "Pin_3" (effects (font (size 1.27 1.27))))
          (number "3" (effects (font (size 1.27 1.27))))
        )
        (pin passive line (at -5.08 -2.54 0) (length 3.81)
          (name "Pin_4" (effects (font (size 1.27 1.27))))
          (number "4" (effects (font (size 1.27 1.27))))
        )
        (pin passive line (at -5.08 -5.08 0) (length 3.81)
          (name "Pin_5" (effects (font (size 1.27 1.27))))
          (number "5" (effects (font (size 1.27 1.27))))
        )
        (pin passive line (at -5.08 -7.62 0) (length 3.81)
          (name "Pin_6" (effects (font (size 1.27 1.27))))
          (number "6" (effects (font (size 1.27 1.27))))
        )
      )
    )
    (symbol "Device:C_Small" (pin_numbers hide) (pin_names (offset 0.254) hide) (in_bom yes) (on_board yes)
      (property "Reference" "C" (at 0.254 1.778 0)
        (effects (font (size 1.27 1.27)) (justify left))
      )
      (property "Value" "C_Small" (at 0.254 -2.032 0)
        (effects (font (size 1.27 1.27)) (justify left))
      )
      (property "Footprint" "" (at 0 0 0)
        (effects (font (size 1.27 1.27)) hide)
      )
      (property "Datasheet" "~" (at 0 0 0)
        (effects (font (size 1.27 1.27)) hide)
      )
      (property "ki_keywords" "capacitor cap" (at 0 0 0)
        (effects (font (size 1.27 1.27)) hide)
      )
      (property "ki_description" "Unpolarized capacitor, small symbol" (at 0 0 0)
        (effects (font (size 1.27 1.27)) hide)
      )
      (property "ki_fp_filters" "C_*" (at 0 0 0)
        (effects (font (size 1.27 1.27)) hide)
      )
      (symbol "C_Small_0_1"
        (polyline
          (pts
            (xy -1.524 -0.508)
            (xy 1.524 -0.508)
          )
          (stroke (width 0.3302) (type default))
          (fill (type none))
        )
        (polyline
          (pts
            (xy -1.524 0.508)
            (xy 1.524 0.508)
          )
          (stroke (width 0.3048) (type default))
          (fill (type none))
        )
      )
      (symbol "C_Small_1_1"
        (pin passive line (at 0 2.54 270) (length 2.032)
          (name "~" (effects (font (size 1.27 1.27))))
          (number "1" (effects (font (size 1.27 1.27))))
        )
        (pin passive line (at 0 -2.54 90) (length 2.032)
          (name "~" (effects (font (size 1.27 1.27))))
          (number "2" (effects (font (size 1.27 1.27))))
        )
      )
    )
    (symbol "Device:LED" (pin_numbers hide) (pin_names (offset 1.016) hide) (in_bom yes) (on_board yes)
      (property "Reference" "D" (at 0 2.54 0)
        (effects (font (size 1.27 1.27)))
      )
      (property "Value" "LED" (at 0 -2.54 0)
        (effects (font (size 1.27 1.27)))
      )
      (property "Footprint" "" (at 0 0 0)
        (effects (font (size 1.27 1.27)) hide)
      )
      (property "Datasheet" "~" (at 0 0 0)
        (effects (font (size 1.27 1.27)) hide)
      )
      (property "ki_keywords" "LED diode" (at 0 0 0)
        (effects (font (size 1.27 1.27)) hide)
      )
      (property "ki_description" "Light emitting diode" (at 0 0 0)
        (effects (font (size 1.27 1.27)) hide)
      )
      (property "ki_fp_filters" "LED* LED_SMD:* LED_THT:*" (at 0 0 0)
        (effects (font (size 1.27 1.27)) hide)
      )
      (symbol "LED_0_1"
        (polyline
          (pts
            (xy -1.27 -1.27)
            (xy -1.27 1.27)
          )
          (stroke (width 0.254) (type default))
          (fill (type none))
        )
        (polyline
          (pts
            (xy -1.27 0)
            (xy 1.27 0)
          )
          (stroke (width 0) (type default))
          (fill (type none))
        )
        (polyline
          (pts
            (xy 1.27 -1.27)
            (xy 1.27 1.27)
            (xy -1.27 0)
            (xy 1.27 -1.27)
          )
          (stroke (width 0.254) (type default))
          (fill (type none))
        )
        (polyline
          (pts
            (xy -3.048 -0.762)
            (xy -4.572 -2.286)
            (xy -3.81 -2.286)
            (xy -4.572 -2.286)
            (xy -4.572 -1.524)
          )
          (stroke (width 0) (type default))
          (fill (type none))
        )
        (polyline
          (pts
            (xy -1.778 -0.762)
            (xy -3.302 -2.286)
            (xy -2.54 -2.286)
            (xy -3.302 -2.286)
            (xy -3.302 -1.524)
          )
          (stroke (width 0) (type default))
          (fill (type none))
        )
      )
      (symbol "LED_1_1"
        (pin passive line (at -3.81 0 0) (length 2.54)
          (name "K" (effects (font (size 1.27 1.27))))
          (number "1" (effects (font (size 1.27 1.27))))
        )
        (pin passive line (at 3.81 0 180) (length 2.54)
          (name "A" (effects (font (size 1.27 1.27))))
          (number "2" (effects (font (size 1.27 1.27))))
        )
      )
    )
    (symbol "Device:R" (pin_numbers hide) (pin_names (offset 0)) (in_bom yes) (on_board yes)
      (property "Reference" "R" (at 2.032 0 90)
        (effects (font (size 1.27 1.27)))
      )
      (property "Value" "R" (at 0 0 90)
        (effects (font (size 1.27 1.27)))
      )
      (property "Footprint" "" (at -1.778 0 90)
        (effects (font (size 1.27 1.27)) hide)
      )
      (property "Datasheet" "~" (at 0 0 0)
        (effects (font (size 1.27 1.27)) hide)
      )
      (property "ki_keywords" "R res resistor" (at 0 0 0)
        (effects (font (size 1.27 1.27)) hide)
      )
      (property "ki_description" "Resistor" (at 0 0 0)
        (effects (font (size 1.27 1.27)) hide)
      )
      (property "ki_fp_filters" "R_*" (at 0 0 0)
        (effects (font (size 1.27 1.27)) hide)
      )
      (symbol "R_0_1"
        (rectangle (start -1.016 -2.54) (end 1.016 2.54)
          (stroke (width 0.254) (type default))
          (fill (type none))
        )
      )
      (symbol "R_1_1"
        (pin passive line (at 0 3.81 270) (length 1.27)
          (name "~" (effects (font (size 1.27 1.27))))
          (number "1" (effects (font (size 1.27 1.27))))
        )
        (pin passive line (at 0 -3.81 90) (length 1.27)
          (name "~" (effects (font (size 1.27 1.27))))
          (number "2" (effects (font (size 1.27 1.27))))
        )
      )
    )
    (symbol "Global:USB2TTL_FT232RL" (in_bom yes) (on_board yes)
      (property "Reference" "U" (at -17.78 24.13 0)
        (effects (font (size 1.27 1.27)))
      )
      (property "Value" "" (at -20.32 33.02 0)
        (effects (font (size 1.27 1.27)))
      )
      (property "Footprint" "" (at -20.32 33.02 0)
        (effects (font (size 1.27 1.27)) hide)
      )
      (property "Datasheet" "" (at -20.32 33.02 0)
        (effects (font (size 1.27 1.27)) hide)
      )
      (symbol "USB2TTL_FT232RL_1_1"
        (rectangle (start -17.78 22.86) (end 0 -6.35)
          (stroke (width 0) (type default))
          (fill (type background))
        )
        (rectangle (start -13.97 24.13) (end -3.81 22.86)
          (stroke (width 0) (type default))
          (fill (type none))
        )
        (text "USB to TTL\nFT232RL" (at -8.89 6.35 900)
          (effects (font (size 1.27 1.27)))
        )
        (pin input line (at 2.54 0 180) (length 2.54)
          (name "TXD" (effects (font (size 1.27 1.27))))
          (number "1" (effects (font (size 1.27 1.27))))
        )
        (pin input line (at -20.32 20.32 0) (length 2.54)
          (name "PWREN" (effects (font (size 1.27 1.27))))
          (number "10" (effects (font (size 1.27 1.27))))
        )
        (pin input line (at -20.32 17.78 0) (length 2.54)
          (name "TEN" (effects (font (size 1.27 1.27))))
          (number "11" (effects (font (size 1.27 1.27))))
        )
        (pin input line (at -20.32 15.24 0) (length 2.54)
          (name "SLEEP" (effects (font (size 1.27 1.27))))
          (number "12" (effects (font (size 1.27 1.27))))
        )
        (pin input line (at -20.32 12.7 0) (length 2.54)
          (name "CTS" (effects (font (size 1.27 1.27))))
          (number "13" (effects (font (size 1.27 1.27))))
        )
        (pin input line (at -20.32 10.16 0) (length 2.54)
          (name "3.3v" (effects (font (size 1.27 1.27))))
          (number "14" (effects (font (size 1.27 1.27))))
        )
        (pin input line (at -20.32 7.62 0) (length 2.54)
          (name "5v" (effects (font (size 1.27 1.27))))
          (number "15" (effects (font (size 1.27 1.27))))
        )
        (pin input line (at -20.32 5.08 0) (length 2.54)
          (name "RXL" (effects (font (size 1.27 1.27))))
          (number "16" (effects (font (size 1.27 1.27))))
        )
        (pin input line (at -20.32 2.54 0) (length 2.54)
          (name "TXL" (effects (font (size 1.27 1.27))))
          (number "17" (effects (font (size 1.27 1.27))))
        )
        (pin input line (at -20.32 0 0) (length 2.54)
          (name "GND" (effects (font (size 1.27 1.27))))
          (number "18" (effects (font (size 1.27 1.27))))
        )
        (pin input line (at 2.54 2.54 180) (length 2.54)
          (name "DTR" (effects (font (size 1.27 1.27))))
          (number "2" (effects (font (size 1.27 1.27))))
        )
        (pin input line (at 2.54 5.08 180) (length 2.54)
          (name "RTS" (effects (font (size 1.27 1.27))))
          (number "3" (effects (font (size 1.27 1.27))))
        )
        (pin input line (at 2.54 7.62 180) (length 2.54)
          (name "Vcc" (effects (font (size 1.27 1.27))))
          (number "4" (effects (font (size 1.27 1.27))))
        )
        (pin input line (at 2.54 10.16 180) (length 2.54)
          (name "RXD" (effects (font (size 1.27 1.27))))
          (number "5" (effects (font (size 1.27 1.27))))
        )
        (pin input line (at 2.54 12.7 180) (length 2.54)
          (name "RI" (effects (font (size 1.27 1.27))))
          (number "6" (effects (font (size 1.27 1.27))))
        )
        (pin input line (at 2.54 15.24 180) (length 2.54)
          (name "GND" (effects (font (size 1.27 1.27))))
          (number "7" (effects (font (size 1.27 1.27))))
        )
        (pin input line (at 2.54 17.78 180) (length 2.54)
          (name "RSD" (effects (font (size 1.27 1.27))))
          (number "8" (effects (font (size 1.27 1.27))))
        )
        (pin input line (at 2.54 20.32 180) (length 2.54)
          (name "DCD" (effects (font (size 1.27 1.27))))
          (number "9" (effects (font (size 1.27 1.27))))
        )
      )
    )
    (symbol "Switch:SW_Push" (pin_numbers hide) (pin_names (offset 1.016) hide) (in_bom yes) (on_board yes)
      (property "Reference" "SW" (at 1.27 2.54 0)
        (effects (font (size 1.27 1.27)) (justify left))
      )
      (property "Value" "SW_Push" (at 0 -1.524 0)
        (effects (font (size 1.27 1.27)))
      )
      (property "Footprint" "" (at 0 5.08 0)
        (effects (font (size 1.27 1.27)) hide)
      )
      (property "Datasheet" "~" (at 0 5.08 0)
        (effects (font (size 1.27 1.27)) hide)
      )
      (property "ki_keywords" "switch normally-open pushbutton push-button" (at 0 0 0)
        (effects (font (size 1.27 1.27)) hide)
      )
      (property "ki_description" "Push button switch, generic, two pins" (at 0 0 0)
        (effects (font (size 1.27 1.27)) hide)
      )
      (symbol "SW_Push_0_1"
        (circle (center -2.032 0) (radius 0.508)
          (stroke (width 0) (type default))
          (fill (type none))
        )
        (polyline
          (pts
            (xy 0 1.27)
            (xy 0 3.048)
          )
          (stroke (width 0) (type default))
          (fill (type none))
        )
        (polyline
          (pts
            (xy 2.54 1.27)
            (xy -2.54 1.27)
          )
          (stroke (width 0) (type default))
          (fill (type none))
        )
        (circle (center 2.032 0) (radius 0.508)
          (stroke (width 0) (type default))
          (fill (type none))
        )
        (pin passive line (at -5.08 0 0) (length 2.54)
          (name "1" (effects (font (size 1.27 1.27))))
          (number "1" (effects (font (size 1.27 1.27))))
        )
        (pin passive line (at 5.08 0 180) (length 2.54)
          (name "2" (effects (font (size 1.27 1.27))))
          (number "2" (effects (font (size 1.27 1.27))))
        )
      )
    )
    (symbol "power:GND" (power) (pin_names (offset 0)) (in_bom yes) (on_board yes)
      (property "Reference" "#PWR" (at 0 -6.35 0)
        (effects (font (size 1.27 1.27)) hide)
      )
      (property "Value" "GND" (at 0 -3.81 0)
        (effects (font (size 1.27 1.27)))
      )
      (property "Footprint" "" (at 0 0 0)
        (effects (font (size 1.27 1.27)) hide)
      )
      (property "Datasheet" "" (at 0 0 0)
        (effects (font (size 1.27 1.27)) hide)
      )
      (property "ki_keywords" "global power" (at 0 0 0)
        (effects (font (size 1.27 1.27)) hide)
      )
      (property "ki_description" "Power symbol creates a global label with name \"GND\" , ground" (at 0 0 0)
        (effects (font (size 1.27 1.27)) hide)
      )
      (symbol "GND_0_1"
        (polyline
          (pts
            (xy 0 0)
            (xy 0 -1.27)
            (xy 1.27 -1.27)
            (xy 0 -2.54)
            (xy -1.27 -1.27)
            (xy 0 -1.27)
          )
          (stroke (width 0) (type default))
          (fill (type none))
        )
      )
      (symbol "GND_1_1"
        (pin power_in line (at 0 0 270) (length 0) hide
          (name "GND" (effects (font (size 1.27 1.27))))
          (number "1" (effects (font (size 1.27 1.27))))
        )
      )
    )
    (symbol "power:PWR_FLAG" (power) (pin_numbers hide) (pin_names (offset 0) hide) (in_bom yes) (on_board yes)
      (property "Reference" "#FLG" (at 0 1.905 0)
        (effects (font (size 1.27 1.27)) hide)
      )
      (property "Value" "PWR_FLAG" (at 0 3.81 0)
        (effects (font (size 1.27 1.27)))
      )
      (property "Footprint" "" (at 0 0 0)
        (effects (font (size 1.27 1.27)) hide)
      )
      (property "Datasheet" "~" (at 0 0 0)
        (effects (font (size 1.27 1.27)) hide)
      )
      (property "ki_keywords" "flag power" (at 0 0 0)
        (effects (font (size 1.27 1.27)) hide)
      )
      (property "ki_description" "Special symbol for telling ERC where power comes from" (at 0 0 0)
        (effects (font (size 1.27 1.27)) hide)
      )
      (symbol "PWR_FLAG_0_0"
        (pin power_out line (at 0 0 90) (length 0)
          (name "pwr" (effects (font (size 1.27 1.27))))
          (number "1" (effects (font (size 1.27 1.27))))
        )
      )
      (symbol "PWR_FLAG_0_1"
        (polyline
          (pts
            (xy 0 0)
            (xy 0 1.27)
            (xy -1.016 1.905)
            (xy 0 2.54)
            (xy 1.016 1.905)
            (xy 0 1.27)
          )
          (stroke (width 0) (type default))
          (fill (type none))
        )
      )
    )
  )

  (junction (at 124.841 102.108) (diameter 0) (color 0 0 0 0)
    (uuid 4657ae8c-3d97-4145-8c24-61ae506bb03d)
  )
  (junction (at 124.841 112.268) (diameter 0) (color 0 0 0 0)
    (uuid 64262249-4bfa-4a78-b868-f9aee92d88a8)
  )
  (junction (at 144.272 59.944) (diameter 0) (color 0 0 0 0)
    (uuid 78582f28-93f2-47fc-8674-073b5dc64fce)
  )
  (junction (at 168.021 82.042) (diameter 0) (color 0 0 0 0)
    (uuid c9a8094a-851e-4e3f-991c-745768c2e746)
  )

  (no_connect (at 193.04 66.802) (uuid 19aef4ca-6767-464c-b0d2-b0b49839629f))
  (no_connect (at 170.18 71.882) (uuid 33b1fcb8-df76-461b-bd72-a37aac0fc61a))
  (no_connect (at 193.04 69.342) (uuid 37c4bb72-950b-4132-81dc-d09d8418f369))
  (no_connect (at 170.18 66.802) (uuid 4f3093f2-b278-440f-99d9-5d6149984bf2))
  (no_connect (at 170.18 64.262) (uuid 5bfb3a8c-5b7b-4e81-a992-cb59ad41f04e))
  (no_connect (at 170.18 61.722) (uuid 71ad4961-f465-47dc-84da-7ed6252cff41))
  (no_connect (at 170.18 69.342) (uuid 932414f5-4362-4d85-8f5e-6ee52cd859ff))
  (no_connect (at 193.04 76.962) (uuid 99ffd6b3-1e14-429b-af84-8b93f98e26d7))
  (no_connect (at 170.18 79.502) (uuid a200c634-2537-40fd-aceb-740b2d9b669a))
  (no_connect (at 193.04 64.262) (uuid b541c5b7-d7e0-4cad-83a9-9aabca9fd4d3))
  (no_connect (at 193.04 61.722) (uuid b7dab94f-447d-46ea-ad59-1e0e8dc6a876))
  (no_connect (at 193.04 79.502) (uuid bd138b19-b1e4-4e44-860a-424ba11ca8cf))
  (no_connect (at 170.18 74.422) (uuid c8eaa4fb-0ab3-4ae3-982f-bf9b53658ecb))
  (no_connect (at 170.18 76.962) (uuid e39f6b7b-19e0-4af5-b44d-d33ca56e2e85))

  (wire (pts (xy 168.021 82.042) (xy 168.021 83.439))
    (stroke (width 0) (type default))
    (uuid 07866a2d-f988-402b-98b9-36aa0f43e732)
  )
  (wire (pts (xy 160.909 97.282) (xy 159.004 97.282))
    (stroke (width 0) (type default))
    (uuid 0b2336e6-b610-40d4-bdb7-7d021b72299f)
  )
  (wire (pts (xy 136.271 102.108) (xy 136.271 104.648))
    (stroke (width 0) (type default))
    (uuid 239bdde0-8908-4902-880f-d692d22191b6)
  )
  (wire (pts (xy 107.442 72.009) (xy 109.347 72.009))
    (stroke (width 0) (type default))
    (uuid 25605dbd-6634-417b-ba91-707f2f86ae8c)
  )
  (wire (pts (xy 122.936 99.568) (xy 124.841 99.568))
    (stroke (width 0) (type default))
    (uuid 31226ff7-71ba-4ec3-b06d-fb50bcd6fb2c)
  )
  (wire (pts (xy 144.272 59.944) (xy 144.272 62.484))
    (stroke (width 0) (type default))
    (uuid 3795b2bf-f1a1-4b78-8e0e-0c76ef4f9697)
  )
  (wire (pts (xy 124.841 99.568) (xy 124.841 102.108))
    (stroke (width 0) (type default))
    (uuid 46f74622-079a-4e04-a0c8-d418d74cfb85)
  )
  (wire (pts (xy 159.004 97.282) (xy 159.004 99.187))
    (stroke (width 0) (type default))
    (uuid 55fbb88c-8aa3-4aaf-ba05-d0644eaf5e69)
  )
  (wire (pts (xy 144.272 77.724) (xy 144.272 78.994))
    (stroke (width 0) (type default))
    (uuid 5acd50d9-1491-4c18-b5cd-ce3371f1c3ca)
  )
  (wire (pts (xy 141.732 59.944) (xy 144.272 59.944))
    (stroke (width 0) (type default))
    (uuid 68de8bc8-ffe6-41e7-b453-b763ed86d0b9)
  )
  (wire (pts (xy 107.442 77.089) (xy 109.347 77.089))
    (stroke (width 0) (type default))
    (uuid 6da2fd3f-0eea-4060-852e-79fd90fc4174)
  )
  (wire (pts (xy 159.004 106.807) (xy 159.004 108.077))
    (stroke (width 0) (type default))
    (uuid 76793dc3-baa9-4d24-bbbc-de5ecc9bc6ee)
  )
  (wire (pts (xy 168.021 82.042) (xy 170.18 82.042))
    (stroke (width 0) (type default))
    (uuid 7a87dad8-d28b-489f-bbff-e9c6f5ed2661)
  )
  (wire (pts (xy 107.442 69.469) (xy 109.347 69.469))
    (stroke (width 0) (type default))
    (uuid 88ea1398-5c27-4593-b8c8-db3c77c02352)
  )
  (wire (pts (xy 107.442 79.629) (xy 117.221 79.629))
    (stroke (width 0) (type default))
    (uuid 99190ba6-6ea5-416c-8655-d9ee09c0a2e0)
  )
  (wire (pts (xy 136.271 112.268) (xy 136.271 109.728))
    (stroke (width 0) (type default))
    (uuid 9cc2d4bd-cd00-4eeb-910d-6c86a3ea391d)
  )
  (wire (pts (xy 124.841 112.268) (xy 136.271 112.268))
    (stroke (width 0) (type default))
    (uuid 9d133b95-5276-4c8c-bfd1-1b38dd972db5)
  )
  (wire (pts (xy 124.841 102.108) (xy 136.271 102.108))
    (stroke (width 0) (type default))
    (uuid b7165afe-cf5a-45bc-a0eb-7c93c6807976)
  )
  (wire (pts (xy 107.442 66.929) (xy 109.347 66.929))
    (stroke (width 0) (type default))
    (uuid cc00fd16-be07-4242-8144-3b32b1ad50d4)
  )
  (wire (pts (xy 107.442 74.549) (xy 109.347 74.549))
    (stroke (width 0) (type default))
    (uuid e78aac69-abb1-4aeb-b2ce-d85a09ef4fc8)
  )

  (text "Vcc" (at 96.901 67.945 0)
    (effects (font (size 1.27 1.27)) (justify left bottom))
    (uuid 3cd10713-c015-4779-8c4a-1fa143040526)
  )
  (text "TX" (at 97.536 78.105 0)
    (effects (font (size 1.27 1.27)) (justify left bottom))
    (uuid 5290d4e8-d9a6-44e9-8625-7bce444b1d79)
  )
  (text "FLASH" (at 94.361 73.025 0)
    (effects (font (size 1.27 1.27)) (justify left bottom))
    (uuid 55144fe9-03d6-4b0e-8fa5-bc3b99d552ad)
  )
  (text "Note: The RX and TX lines\nmust be crossed when connecting\nto the ESP8266 pins."
    (at 89.535 88.9 0)
    (effects (font (size 1.27 1.27)) (justify left bottom))
    (uuid 684ef6c6-920e-423c-bb88-beaefe447e2f)
  )
  (text "RX" (at 97.536 75.565 0)
    (effects (font (size 1.27 1.27)) (justify left bottom))
    (uuid 6cac17a3-987c-466b-9d27-f26f48d9938b)
  )
  (text "RST" (at 96.901 70.485 0)
    (effects (font (size 1.27 1.27)) (justify left bottom))
    (uuid bf5c6558-62d8-461b-b83a-5a645cdf3029)
  )
  (text "GND" (at 96.266 80.645 0)
    (effects (font (size 1.27 1.27)) (justify left bottom))
    (uuid c428fb88-448f-4273-a64b-160afb12b317)
  )

  (global_label "TX" (shape input) (at 109.347 77.089 0) (fields_autoplaced)
    (effects (font (size 1.27 1.27)) (justify left))
    (uuid 448850ff-455f-4cb6-b41c-1944aa65c2da)
    (property "Intersheetrefs" "${INTERSHEET_REFS}" (at 114.5093 77.089 0)
      (effects (font (size 1.27 1.27)) (justify left) hide)
    )
  )
  (global_label "RX" (shape input) (at 193.04 71.882 0) (fields_autoplaced)
    (effects (font (size 1.27 1.27)) (justify left))
    (uuid 4a68db6e-892e-4c56-ac07-b7c5c91d20fc)
    (property "Intersheetrefs" "${INTERSHEET_REFS}" (at 198.5047 71.882 0)
      (effects (font (size 1.27 1.27)) (justify left) hide)
    )
  )
  (global_label "Vcc" (shape input) (at 141.732 59.944 180) (fields_autoplaced)
    (effects (font (size 1.27 1.27)) (justify right))
    (uuid 4d926915-1782-431d-a3de-7b5363daff40)
    (property "Intersheetrefs" "${INTERSHEET_REFS}" (at 135.481 59.944 0)
      (effects (font (size 1.27 1.27)) (justify right) hide)
    )
  )
  (global_label "Vcc" (shape input) (at 109.347 66.929 0) (fields_autoplaced)
    (effects (font (size 1.27 1.27)) (justify left))
    (uuid 4dfe3d10-c4c1-49c2-b6a1-e6cbd915fb39)
    (property "Intersheetrefs" "${INTERSHEET_REFS}" (at 115.598 66.929 0)
      (effects (font (size 1.27 1.27)) (justify left) hide)
    )
  )
  (global_label "RST" (shape input) (at 109.347 69.469 0) (fields_autoplaced)
    (effects (font (size 1.27 1.27)) (justify left))
    (uuid 8934cf6c-a9a6-418c-8d22-7b2b1897e84c)
    (property "Intersheetrefs" "${INTERSHEET_REFS}" (at 115.7793 69.469 0)
      (effects (font (size 1.27 1.27)) (justify left) hide)
    )
  )
  (global_label "FLASH" (shape input) (at 109.347 72.009 0) (fields_autoplaced)
    (effects (font (size 1.27 1.27)) (justify left))
    (uuid 89a8fcf0-ecf1-48d6-9e08-c5e57b6fb740)
    (property "Intersheetrefs" "${INTERSHEET_REFS}" (at 118.0775 72.009 0)
      (effects (font (size 1.27 1.27)) (justify left) hide)
    )
  )
  (global_label "RX" (shape input) (at 109.347 74.549 0) (fields_autoplaced)
    (effects (font (size 1.27 1.27)) (justify left))
    (uuid 8a8e68b2-5c6a-4c54-b369-3274cc3402c7)
    (property "Intersheetrefs" "${INTERSHEET_REFS}" (at 114.8117 74.549 0)
      (effects (font (size 1.27 1.27)) (justify left) hide)
    )
  )
  (global_label "RST" (shape input) (at 122.936 99.568 180) (fields_autoplaced)
    (effects (font (size 1.27 1.27)) (justify right))
    (uuid 9042f936-cdb9-4f2f-951c-945f920dda1d)
    (property "Intersheetrefs" "${INTERSHEET_REFS}" (at 116.5037 99.568 0)
      (effects (font (size 1.27 1.27)) (justify right) hide)
    )
  )
  (global_label "FLASH" (shape input) (at 160.909 97.282 0) (fields_autoplaced)
    (effects (font (size 1.27 1.27)) (justify left))
    (uuid c1efc151-779d-4401-86a4-48969dd2e5b9)
    (property "Intersheetrefs" "${INTERSHEET_REFS}" (at 169.6395 97.282 0)
      (effects (font (size 1.27 1.27)) (justify left) hide)
    )
  )
  (global_label "TX" (shape input) (at 193.04 82.042 0) (fields_autoplaced)
    (effects (font (size 1.27 1.27)) (justify left))
    (uuid c9d11631-ad2c-4dfe-8df9-0e6dd40640d4)
    (property "Intersheetrefs" "${INTERSHEET_REFS}" (at 198.2023 82.042 0)
      (effects (font (size 1.27 1.27)) (justify left) hide)
    )
  )
  (global_label "Vcc" (shape input) (at 193.04 74.422 0) (fields_autoplaced)
    (effects (font (size 1.27 1.27)) (justify left))
    (uuid f8a2321c-dc4a-4992-842d-abf3673de6aa)
    (property "Intersheetrefs" "${INTERSHEET_REFS}" (at 199.291 74.422 0)
      (effects (font (size 1.27 1.27)) (justify left) hide)
    )
  )

  (symbol (lib_id "Global:USB2TTL_FT232RL") (at 190.5 82.042 0) (unit 1)
    (in_bom yes) (on_board yes) (dnp no) (fields_autoplaced)
    (uuid 018cd639-1582-49d4-b94b-29f0e8e411a0)
    (property "Reference" "U1" (at 181.61 55.88 0)
      (effects (font (size 1.27 1.27)))
    )
    (property "Value" "~" (at 170.18 49.022 0)
      (effects (font (size 1.27 1.27)))
    )
    (property "Footprint" "Global:USB_TTL_FT232RL" (at 170.18 49.022 0)
      (effects (font (size 1.27 1.27)) hide)
    )
    (property "Datasheet" "" (at 170.18 49.022 0)
      (effects (font (size 1.27 1.27)) hide)
    )
    (pin "9" (uuid 86eab556-96af-476e-9cd3-0357b4924cb9))
    (pin "5" (uuid 9446b4a1-0fc8-4fd1-b8a6-4c0f0a07cd3f))
    (pin "18" (uuid 1b9922fb-e95f-4a3e-89fb-bf1bc726ab6f))
    (pin "4" (uuid e25e1e5d-551c-4c47-826c-14b5e144d4af))
    (pin "7" (uuid be01a8bf-c809-41c3-b74c-9dd0c6859707))
    (pin "8" (uuid c76e3c9c-9fe9-469f-bcc5-032565cb358d))
    (pin "2" (uuid a8b9b745-f057-436e-aacc-f53d264b2603))
    (pin "6" (uuid 8328262a-109c-4de5-931a-522babf76a0f))
    (pin "14" (uuid 8a9b03db-cb5f-4390-b91e-bdca259cb624))
    (pin "13" (uuid fb1f9642-49bf-4c9a-9429-15507e92b85f))
    (pin "16" (uuid ddef827f-0671-4fb1-b9c0-6f02b2aabad0))
    (pin "12" (uuid 489c02ad-a38e-4251-a531-ed3da519baeb))
    (pin "11" (uuid 9ecbfa5b-562c-4914-b1ea-7dc6301fc430))
    (pin "10" (uuid ddb612fc-3fbb-4612-8cb4-dadc712586cf))
    (pin "1" (uuid cef0dff9-6ae0-4f1b-95e8-c1066279db0b))
    (pin "17" (uuid 83d2a1e3-456d-4962-a657-da0b03e76052))
    (pin "15" (uuid d533434f-709a-46af-b89a-7bc09ad29a24))
    (pin "3" (uuid e2f711b5-1c21-4bdb-8ae1-1ee524c06923))
    (instances
      (project "Programmer_ESP8266-12x"
        (path "/de3eb61c-3a8a-4800-85b6-dab2da16ad64"
          (reference "U1") (unit 1)
        )
      )
    )
  )

  (symbol (lib_id "Device:R") (at 159.004 102.997 0) (unit 1)
    (in_bom yes) (on_board yes) (dnp no)
    (uuid 151e9e90-b596-4870-b1d9-9a9b80064374)
    (property "Reference" "R2" (at 160.909 102.997 0)
      (effects (font (size 1.27 1.27)) (justify left))
    )
    (property "Value" "1K0" (at 159.004 104.902 90)
      (effects (font (size 1.27 1.27)) (justify left))
    )
    (property "Footprint" "Resistor_SMD:R_0805_2012Metric" (at 157.226 102.997 90)
      (effects (font (size 1.27 1.27)) hide)
    )
    (property "Datasheet" "~" (at 159.004 102.997 0)
      (effects (font (size 1.27 1.27)) hide)
    )
    (pin "1" (uuid 2f0ab5eb-bcfa-478e-ac31-8362772c16a6))
    (pin "2" (uuid 9aee8b75-cfd0-45ac-a29f-76a62cea2c61))
    (instances
      (project "Programmer_ESP8266-12x"
        (path "/de3eb61c-3a8a-4800-85b6-dab2da16ad64"
          (reference "R2") (unit 1)
        )
      )
    )
  )

  (symbol (lib_id "Device:C_Small") (at 136.271 107.188 0) (unit 1)
    (in_bom yes) (on_board yes) (dnp no) (fields_autoplaced)
    (uuid 23a5aa73-15b5-414c-957b-c50b12b57236)
    (property "Reference" "C1" (at 139.7 105.9243 0)
      (effects (font (size 1.27 1.27)) (justify left))
    )
    (property "Value" "470pF" (at 139.7 108.4643 0)
      (effects (font (size 1.27 1.27)) (justify left))
    )
    (property "Footprint" "Capacitor_SMD:C_0805_2012Metric" (at 136.271 107.188 0)
      (effects (font (size 1.27 1.27)) hide)
    )
    (property "Datasheet" "~" (at 136.271 107.188 0)
      (effects (font (size 1.27 1.27)) hide)
    )
    (pin "1" (uuid b44b0b9b-60eb-4347-adb7-c52686fa1f6c))
    (pin "2" (uuid 06bc536e-5e52-4c69-95ab-91e0dcbaecda))
    (instances
      (project "Programmer_ESP8266-12x"
        (path "/de3eb61c-3a8a-4800-85b6-dab2da16ad64"
          (reference "C1") (unit 1)
        )
      )
    )
  )

  (symbol (lib_id "Switch:SW_Push") (at 124.841 107.188 90) (unit 1)
    (in_bom yes) (on_board yes) (dnp no) (fields_autoplaced)
    (uuid 5491be20-9e08-48cb-9429-0ba70eed62d8)
    (property "Reference" "SW4" (at 127 105.918 90)
      (effects (font (size 1.27 1.27)) (justify right))
    )
    (property "Value" "Reset" (at 127 108.458 90)
      (effects (font (size 1.27 1.27)) (justify right))
    )
    (property "Footprint" "Global:Switch_SPST_THT_6mm" (at 119.761 107.188 0)
      (effects (font (size 1.27 1.27)) hide)
    )
    (property "Datasheet" "~" (at 119.761 107.188 0)
      (effects (font (size 1.27 1.27)) hide)
    )
    (pin "1" (uuid 52f836ea-0f78-4dde-ae0e-66b7d43f0991))
    (pin "2" (uuid e4d7d7b2-caa0-4ee4-978a-f04c5b92dd96))
    (instances
      (project "Programmer_ESP8266-12x"
        (path "/de3eb61c-3a8a-4800-85b6-dab2da16ad64"
          (reference "SW4") (unit 1)
        )
      )
    )
  )

  (symbol (lib_id "Connector_Generic:Conn_01x06") (at 102.362 72.009 0) (mirror y) (unit 1)
    (in_bom yes) (on_board yes) (dnp no) (fields_autoplaced)
    (uuid 5d7fa9cb-3fc3-4de6-a735-50679c236e4d)
    (property "Reference" "J2" (at 102.362 60.96 0)
      (effects (font (size 1.27 1.27)))
    )
    (property "Value" "6pin_linear_pogo_2mm" (at 102.362 63.5 0)
      (effects (font (size 1.27 1.27)))
    )
    (property "Footprint" "Connector_IDC:IDC-Header_2x03_P2.54mm_Vertical" (at 102.362 72.009 0)
      (effects (font (size 1.27 1.27)) hide)
    )
    (property "Datasheet" "~" (at 102.362 72.009 0)
      (effects (font (size 1.27 1.27)) hide)
    )
    (pin "6" (uuid 910e2809-5975-4797-8a68-660e28b9516a))
    (pin "4" (uuid e2bdd4f0-9a52-4763-80a6-58d39b416906))
    (pin "5" (uuid 6465d218-741b-4795-bc21-870f92ff22f9))
    (pin "3" (uuid 84fa8d80-3602-475f-92d6-9f3d66561ae9))
    (pin "1" (uuid a79385e9-311a-43b4-bdb5-f657c5ea4010))
    (pin "2" (uuid 0ee80c27-639f-44ab-9f75-4dc2868e9e86))
    (instances
      (project "Programmer_ESP8266-12x"
        (path "/de3eb61c-3a8a-4800-85b6-dab2da16ad64"
          (reference "J2") (unit 1)
        )
      )
    )
  )

  (symbol (lib_id "power:GND") (at 124.841 112.268 0) (unit 1)
    (in_bom yes) (on_board yes) (dnp no) (fields_autoplaced)
    (uuid 7361a2a3-b019-4a6e-a670-83c1970ba8bf)
    (property "Reference" "#PWR016" (at 124.841 118.618 0)
      (effects (font (size 1.27 1.27)) hide)
    )
    (property "Value" "GND" (at 124.841 117.348 0)
      (effects (font (size 1.27 1.27)))
    )
    (property "Footprint" "" (at 124.841 112.268 0)
      (effects (font (size 1.27 1.27)) hide)
    )
    (property "Datasheet" "" (at 124.841 112.268 0)
      (effects (font (size 1.27 1.27)) hide)
    )
    (pin "1" (uuid 14d3025f-8193-44bf-b80c-fdaae0dd4edb))
    (instances
      (project "Programmer_ESP8266-12x"
        (path "/de3eb61c-3a8a-4800-85b6-dab2da16ad64"
          (reference "#PWR016") (unit 1)
        )
      )
    )
  )

  (symbol (lib_id "Device:LED") (at 144.272 73.914 90) (unit 1)
    (in_bom yes) (on_board yes) (dnp no)
    (uuid 74601d11-b9f3-46c6-8abc-59451534b8af)
    (property "Reference" "D1" (at 140.462 72.644 90)
      (effects (font (size 1.27 1.27)))
    )
    (property "Value" "LED" (at 140.462 75.5015 90)
      (effects (font (size 1.27 1.27)))
    )
    (property "Footprint" "LED_THT:LED_D3.0mm" (at 144.272 73.914 0)
      (effects (font (size 1.27 1.27)) hide)
    )
    (property "Datasheet" "~" (at 144.272 73.914 0)
      (effects (font (size 1.27 1.27)) hide)
    )
    (pin "1" (uuid db716025-45f5-47a2-ae21-e9eec4850a08))
    (pin "2" (uuid c0adfa58-c751-4e4d-a980-78ff3b8e9596))
    (instances
      (project "Programmer_ESP8266-12x"
        (path "/de3eb61c-3a8a-4800-85b6-dab2da16ad64"
          (reference "D1") (unit 1)
        )
      )
    )
  )

  (symbol (lib_id "power:PWR_FLAG") (at 168.021 82.042 90) (unit 1)
    (in_bom yes) (on_board yes) (dnp no)
    (uuid 98ccab5e-0dc3-46b3-b11b-50e43820b3d3)
    (property "Reference" "#FLG02" (at 166.116 82.042 0)
      (effects (font (size 1.27 1.27)) hide)
    )
    (property "Value" "PWR_FLAG" (at 163.576 80.137 90)
      (effects (font (size 1.27 1.27)))
    )
    (property "Footprint" "" (at 168.021 82.042 0)
      (effects (font (size 1.27 1.27)) hide)
    )
    (property "Datasheet" "~" (at 168.021 82.042 0)
      (effects (font (size 1.27 1.27)) hide)
    )
    (pin "1" (uuid f670c4df-3f4c-41a8-826b-f8072db51cbd))
    (instances
      (project "Programmer_ESP8266-12x"
        (path "/de3eb61c-3a8a-4800-85b6-dab2da16ad64"
          (reference "#FLG02") (unit 1)
        )
      )
    )
  )

  (symbol (lib_id "power:GND") (at 168.021 83.439 0) (unit 1)
    (in_bom yes) (on_board yes) (dnp no) (fields_autoplaced)
    (uuid a1433508-37df-4fb9-bc3c-5de6b16a7ad1)
    (property "Reference" "#PWR013" (at 168.021 89.789 0)
      (effects (font (size 1.27 1.27)) hide)
    )
    (property "Value" "GND" (at 168.021 88.519 0)
      (effects (font (size 1.27 1.27)))
    )
    (property "Footprint" "" (at 168.021 83.439 0)
      (effects (font (size 1.27 1.27)) hide)
    )
    (property "Datasheet" "" (at 168.021 83.439 0)
      (effects (font (size 1.27 1.27)) hide)
    )
    (pin "1" (uuid 01ecdee9-9eec-460c-8301-edc825925772))
    (instances
      (project "Programmer_ESP8266-12x"
        (path "/de3eb61c-3a8a-4800-85b6-dab2da16ad64"
          (reference "#PWR013") (unit 1)
        )
      )
    )
  )

  (symbol (lib_id "power:GND") (at 144.272 78.994 0) (unit 1)
    (in_bom yes) (on_board yes) (dnp no) (fields_autoplaced)
    (uuid c2273ec3-6805-448c-92cd-b97eb8f9c4e1)
    (property "Reference" "#PWR019" (at 144.272 85.344 0)
      (effects (font (size 1.27 1.27)) hide)
    )
    (property "Value" "GND" (at 144.272 84.074 0)
      (effects (font (size 1.27 1.27)))
    )
    (property "Footprint" "" (at 144.272 78.994 0)
      (effects (font (size 1.27 1.27)) hide)
    )
    (property "Datasheet" "" (at 144.272 78.994 0)
      (effects (font (size 1.27 1.27)) hide)
    )
    (pin "1" (uuid a61058d2-21ae-4aa4-9cb8-2fff1962d189))
    (instances
      (project "Programmer_ESP8266-12x"
        (path "/de3eb61c-3a8a-4800-85b6-dab2da16ad64"
          (reference "#PWR019") (unit 1)
        )
      )
    )
  )

  (symbol (lib_id "power:PWR_FLAG") (at 144.272 59.944 0) (unit 1)
    (in_bom yes) (on_board yes) (dnp no) (fields_autoplaced)
    (uuid ca881c0b-6f86-47f9-965a-d16ccb914bce)
    (property "Reference" "#FLG01" (at 144.272 58.039 0)
      (effects (font (size 1.27 1.27)) hide)
    )
    (property "Value" "PWR_FLAG" (at 144.272 54.864 0)
      (effects (font (size 1.27 1.27)))
    )
    (property "Footprint" "" (at 144.272 59.944 0)
      (effects (font (size 1.27 1.27)) hide)
    )
    (property "Datasheet" "~" (at 144.272 59.944 0)
      (effects (font (size 1.27 1.27)) hide)
    )
    (pin "1" (uuid d742daf0-bb62-45a8-bb77-5618b3898047))
    (instances
      (project "Programmer_ESP8266-12x"
        (path "/de3eb61c-3a8a-4800-85b6-dab2da16ad64"
          (reference "#FLG01") (unit 1)
        )
      )
    )
  )

  (symbol (lib_id "power:GND") (at 159.004 118.237 0) (unit 1)
    (in_bom yes) (on_board yes) (dnp no) (fields_autoplaced)
    (uuid cace78d8-4758-4fc0-94d7-c544dc4fffe1)
    (property "Reference" "#PWR015" (at 159.004 124.587 0)
      (effects (font (size 1.27 1.27)) hide)
    )
    (property "Value" "GND" (at 159.004 123.317 0)
      (effects (font (size 1.27 1.27)))
    )
    (property "Footprint" "" (at 159.004 118.237 0)
      (effects (font (size 1.27 1.27)) hide)
    )
    (property "Datasheet" "" (at 159.004 118.237 0)
      (effects (font (size 1.27 1.27)) hide)
    )
    (pin "1" (uuid b5373940-9ec4-46ff-9abc-399d1473b995))
    (instances
      (project "Programmer_ESP8266-12x"
        (path "/de3eb61c-3a8a-4800-85b6-dab2da16ad64"
          (reference "#PWR015") (unit 1)
        )
      )
    )
  )

  (symbol (lib_id "Device:R") (at 144.272 66.294 180) (unit 1)
    (in_bom yes) (on_board yes) (dnp no)
    (uuid fba84239-9648-444b-8122-7c8ec3fb9d07)
    (property "Reference" "R1" (at 142.367 66.294 0)
      (effects (font (size 1.27 1.27)) (justify left))
    )
    (property "Value" "1K0" (at 144.272 64.389 90)
      (effects (font (size 1.27 1.27)) (justify left))
    )
    (property "Footprint" "Resistor_SMD:R_0805_2012Metric" (at 146.05 66.294 90)
      (effects (font (size 1.27 1.27)) hide)
    )
    (property "Datasheet" "~" (at 144.272 66.294 0)
      (effects (font (size 1.27 1.27)) hide)
    )
    (pin "1" (uuid e48053a5-f6d7-41ae-96cd-2c5a329f17ef))
    (pin "2" (uuid d32ed8bf-4dbd-4234-b4e9-4a305757eb38))
    (instances
      (project "Programmer_ESP8266-12x"
        (path "/de3eb61c-3a8a-4800-85b6-dab2da16ad64"
          (reference "R1") (unit 1)
        )
      )
    )
  )

  (symbol (lib_id "Switch:SW_Push") (at 159.004 113.157 270) (unit 1)
    (in_bom yes) (on_board yes) (dnp no) (fields_autoplaced)
    (uuid fc4fce22-31df-4a02-87d9-3f7d293b5b2e)
    (property "Reference" "SW3" (at 163.83 111.887 90)
      (effects (font (size 1.27 1.27)) (justify left))
    )
    (property "Value" "Flash" (at 163.83 114.427 90)
      (effects (font (size 1.27 1.27)) (justify left))
    )
    (property "Footprint" "Global:Switch_SPST_THT_6mm" (at 164.084 113.157 0)
      (effects (font (size 1.27 1.27)) hide)
    )
    (property "Datasheet" "~" (at 164.084 113.157 0)
      (effects (font (size 1.27 1.27)) hide)
    )
    (pin "1" (uuid 5f8130e3-156c-4d6e-a835-85be9d4d0c17))
    (pin "2" (uuid dc7287c5-4451-4fe6-95a0-52e964dee2fe))
    (instances
      (project "Programmer_ESP8266-12x"
        (path "/de3eb61c-3a8a-4800-85b6-dab2da16ad64"
          (reference "SW3") (unit 1)
        )
      )
    )
  )

  (symbol (lib_id "power:GND") (at 117.221 79.629 90) (mirror x) (unit 1)
    (in_bom yes) (on_board yes) (dnp no) (fields_autoplaced)
    (uuid fed25463-ec0d-4b65-bc6c-4c2460046a03)
    (property "Reference" "#PWR017" (at 123.571 79.629 0)
      (effects (font (size 1.27 1.27)) hide)
    )
    (property "Value" "GND" (at 121.031 79.629 90)
      (effects (font (size 1.27 1.27)) (justify right))
    )
    (property "Footprint" "" (at 117.221 79.629 0)
      (effects (font (size 1.27 1.27)) hide)
    )
    (property "Datasheet" "" (at 117.221 79.629 0)
      (effects (font (size 1.27 1.27)) hide)
    )
    (pin "1" (uuid a1e3c882-87a1-457f-a9b1-8104055697e6))
    (instances
      (project "Programmer_ESP8266-12x"
        (path "/de3eb61c-3a8a-4800-85b6-dab2da16ad64"
          (reference "#PWR017") (unit 1)
        )
      )
    )
  )

  (sheet_instances
    (path "/" (page "1"))
  )
)
