(kicad_sch (version 20230121) (generator eeschema)

  (uuid 2efdefe2-f7ce-4a66-98d3-f1674f6d0050)

  (paper "A4")

  (lib_symbols
    (symbol "Connector:Conn_01x08_Pin" (pin_names (offset 1.016) hide) (in_bom yes) (on_board yes)
      (property "Reference" "J" (at 0 10.16 0)
        (effects (font (size 1.27 1.27)))
      )
      (property "Value" "Conn_01x08_Pin" (at 0 -12.7 0)
        (effects (font (size 1.27 1.27)))
      )
      (property "Footprint" "" (at 0 0 0)
        (effects (font (size 1.27 1.27)) hide)
      )
      (property "Datasheet" "~" (at 0 0 0)
        (effects (font (size 1.27 1.27)) hide)
      )
      (property "ki_locked" "" (at 0 0 0)
        (effects (font (size 1.27 1.27)))
      )
      (property "ki_keywords" "connector" (at 0 0 0)
        (effects (font (size 1.27 1.27)) hide)
      )
      (property "ki_description" "Generic connector, single row, 01x08, script generated" (at 0 0 0)
        (effects (font (size 1.27 1.27)) hide)
      )
      (property "ki_fp_filters" "Connector*:*_1x??_*" (at 0 0 0)
        (effects (font (size 1.27 1.27)) hide)
      )
      (symbol "Conn_01x08_Pin_1_1"
        (polyline
          (pts
            (xy 1.27 -10.16)
            (xy 0.8636 -10.16)
          )
          (stroke (width 0.1524) (type default))
          (fill (type none))
        )
        (polyline
          (pts
            (xy 1.27 -7.62)
            (xy 0.8636 -7.62)
          )
          (stroke (width 0.1524) (type default))
          (fill (type none))
        )
        (polyline
          (pts
            (xy 1.27 -5.08)
            (xy 0.8636 -5.08)
          )
          (stroke (width 0.1524) (type default))
          (fill (type none))
        )
        (polyline
          (pts
            (xy 1.27 -2.54)
            (xy 0.8636 -2.54)
          )
          (stroke (width 0.1524) (type default))
          (fill (type none))
        )
        (polyline
          (pts
            (xy 1.27 0)
            (xy 0.8636 0)
          )
          (stroke (width 0.1524) (type default))
          (fill (type none))
        )
        (polyline
          (pts
            (xy 1.27 2.54)
            (xy 0.8636 2.54)
          )
          (stroke (width 0.1524) (type default))
          (fill (type none))
        )
        (polyline
          (pts
            (xy 1.27 5.08)
            (xy 0.8636 5.08)
          )
          (stroke (width 0.1524) (type default))
          (fill (type none))
        )
        (polyline
          (pts
            (xy 1.27 7.62)
            (xy 0.8636 7.62)
          )
          (stroke (width 0.1524) (type default))
          (fill (type none))
        )
        (rectangle (start 0.8636 -10.033) (end 0 -10.287)
          (stroke (width 0.1524) (type default))
          (fill (type outline))
        )
        (rectangle (start 0.8636 -7.493) (end 0 -7.747)
          (stroke (width 0.1524) (type default))
          (fill (type outline))
        )
        (rectangle (start 0.8636 -4.953) (end 0 -5.207)
          (stroke (width 0.1524) (type default))
          (fill (type outline))
        )
        (rectangle (start 0.8636 -2.413) (end 0 -2.667)
          (stroke (width 0.1524) (type default))
          (fill (type outline))
        )
        (rectangle (start 0.8636 0.127) (end 0 -0.127)
          (stroke (width 0.1524) (type default))
          (fill (type outline))
        )
        (rectangle (start 0.8636 2.667) (end 0 2.413)
          (stroke (width 0.1524) (type default))
          (fill (type outline))
        )
        (rectangle (start 0.8636 5.207) (end 0 4.953)
          (stroke (width 0.1524) (type default))
          (fill (type outline))
        )
        (rectangle (start 0.8636 7.747) (end 0 7.493)
          (stroke (width 0.1524) (type default))
          (fill (type outline))
        )
        (pin passive line (at 5.08 7.62 180) (length 3.81)
          (name "Pin_1" (effects (font (size 1.27 1.27))))
          (number "1" (effects (font (size 1.27 1.27))))
        )
        (pin passive line (at 5.08 5.08 180) (length 3.81)
          (name "Pin_2" (effects (font (size 1.27 1.27))))
          (number "2" (effects (font (size 1.27 1.27))))
        )
        (pin passive line (at 5.08 2.54 180) (length 3.81)
          (name "Pin_3" (effects (font (size 1.27 1.27))))
          (number "3" (effects (font (size 1.27 1.27))))
        )
        (pin passive line (at 5.08 0 180) (length 3.81)
          (name "Pin_4" (effects (font (size 1.27 1.27))))
          (number "4" (effects (font (size 1.27 1.27))))
        )
        (pin passive line (at 5.08 -2.54 180) (length 3.81)
          (name "Pin_5" (effects (font (size 1.27 1.27))))
          (number "5" (effects (font (size 1.27 1.27))))
        )
        (pin passive line (at 5.08 -5.08 180) (length 3.81)
          (name "Pin_6" (effects (font (size 1.27 1.27))))
          (number "6" (effects (font (size 1.27 1.27))))
        )
        (pin passive line (at 5.08 -7.62 180) (length 3.81)
          (name "Pin_7" (effects (font (size 1.27 1.27))))
          (number "7" (effects (font (size 1.27 1.27))))
        )
        (pin passive line (at 5.08 -10.16 180) (length 3.81)
          (name "Pin_8" (effects (font (size 1.27 1.27))))
          (number "8" (effects (font (size 1.27 1.27))))
        )
      )
    )
    (symbol "Connector:Conn_01x09_Pin" (pin_names (offset 1.016) hide) (in_bom yes) (on_board yes)
      (property "Reference" "J" (at 0 12.7 0)
        (effects (font (size 1.27 1.27)))
      )
      (property "Value" "Conn_01x09_Pin" (at 0 -12.7 0)
        (effects (font (size 1.27 1.27)))
      )
      (property "Footprint" "" (at 0 0 0)
        (effects (font (size 1.27 1.27)) hide)
      )
      (property "Datasheet" "~" (at 0 0 0)
        (effects (font (size 1.27 1.27)) hide)
      )
      (property "ki_locked" "" (at 0 0 0)
        (effects (font (size 1.27 1.27)))
      )
      (property "ki_keywords" "connector" (at 0 0 0)
        (effects (font (size 1.27 1.27)) hide)
      )
      (property "ki_description" "Generic connector, single row, 01x09, script generated" (at 0 0 0)
        (effects (font (size 1.27 1.27)) hide)
      )
      (property "ki_fp_filters" "Connector*:*_1x??_*" (at 0 0 0)
        (effects (font (size 1.27 1.27)) hide)
      )
      (symbol "Conn_01x09_Pin_1_1"
        (polyline
          (pts
            (xy 1.27 -10.16)
            (xy 0.8636 -10.16)
          )
          (stroke (width 0.1524) (type default))
          (fill (type none))
        )
        (polyline
          (pts
            (xy 1.27 -7.62)
            (xy 0.8636 -7.62)
          )
          (stroke (width 0.1524) (type default))
          (fill (type none))
        )
        (polyline
          (pts
            (xy 1.27 -5.08)
            (xy 0.8636 -5.08)
          )
          (stroke (width 0.1524) (type default))
          (fill (type none))
        )
        (polyline
          (pts
            (xy 1.27 -2.54)
            (xy 0.8636 -2.54)
          )
          (stroke (width 0.1524) (type default))
          (fill (type none))
        )
        (polyline
          (pts
            (xy 1.27 0)
            (xy 0.8636 0)
          )
          (stroke (width 0.1524) (type default))
          (fill (type none))
        )
        (polyline
          (pts
            (xy 1.27 2.54)
            (xy 0.8636 2.54)
          )
          (stroke (width 0.1524) (type default))
          (fill (type none))
        )
        (polyline
          (pts
            (xy 1.27 5.08)
            (xy 0.8636 5.08)
          )
          (stroke (width 0.1524) (type default))
          (fill (type none))
        )
        (polyline
          (pts
            (xy 1.27 7.62)
            (xy 0.8636 7.62)
          )
          (stroke (width 0.1524) (type default))
          (fill (type none))
        )
        (polyline
          (pts
            (xy 1.27 10.16)
            (xy 0.8636 10.16)
          )
          (stroke (width 0.1524) (type default))
          (fill (type none))
        )
        (rectangle (start 0.8636 -10.033) (end 0 -10.287)
          (stroke (width 0.1524) (type default))
          (fill (type outline))
        )
        (rectangle (start 0.8636 -7.493) (end 0 -7.747)
          (stroke (width 0.1524) (type default))
          (fill (type outline))
        )
        (rectangle (start 0.8636 -4.953) (end 0 -5.207)
          (stroke (width 0.1524) (type default))
          (fill (type outline))
        )
        (rectangle (start 0.8636 -2.413) (end 0 -2.667)
          (stroke (width 0.1524) (type default))
          (fill (type outline))
        )
        (rectangle (start 0.8636 0.127) (end 0 -0.127)
          (stroke (width 0.1524) (type default))
          (fill (type outline))
        )
        (rectangle (start 0.8636 2.667) (end 0 2.413)
          (stroke (width 0.1524) (type default))
          (fill (type outline))
        )
        (rectangle (start 0.8636 5.207) (end 0 4.953)
          (stroke (width 0.1524) (type default))
          (fill (type outline))
        )
        (rectangle (start 0.8636 7.747) (end 0 7.493)
          (stroke (width 0.1524) (type default))
          (fill (type outline))
        )
        (rectangle (start 0.8636 10.287) (end 0 10.033)
          (stroke (width 0.1524) (type default))
          (fill (type outline))
        )
        (pin passive line (at 5.08 10.16 180) (length 3.81)
          (name "Pin_1" (effects (font (size 1.27 1.27))))
          (number "1" (effects (font (size 1.27 1.27))))
        )
        (pin passive line (at 5.08 7.62 180) (length 3.81)
          (name "Pin_2" (effects (font (size 1.27 1.27))))
          (number "2" (effects (font (size 1.27 1.27))))
        )
        (pin passive line (at 5.08 5.08 180) (length 3.81)
          (name "Pin_3" (effects (font (size 1.27 1.27))))
          (number "3" (effects (font (size 1.27 1.27))))
        )
        (pin passive line (at 5.08 2.54 180) (length 3.81)
          (name "Pin_4" (effects (font (size 1.27 1.27))))
          (number "4" (effects (font (size 1.27 1.27))))
        )
        (pin passive line (at 5.08 0 180) (length 3.81)
          (name "Pin_5" (effects (font (size 1.27 1.27))))
          (number "5" (effects (font (size 1.27 1.27))))
        )
        (pin passive line (at 5.08 -2.54 180) (length 3.81)
          (name "Pin_6" (effects (font (size 1.27 1.27))))
          (number "6" (effects (font (size 1.27 1.27))))
        )
        (pin passive line (at 5.08 -5.08 180) (length 3.81)
          (name "Pin_7" (effects (font (size 1.27 1.27))))
          (number "7" (effects (font (size 1.27 1.27))))
        )
        (pin passive line (at 5.08 -7.62 180) (length 3.81)
          (name "Pin_8" (effects (font (size 1.27 1.27))))
          (number "8" (effects (font (size 1.27 1.27))))
        )
        (pin passive line (at 5.08 -10.16 180) (length 3.81)
          (name "Pin_9" (effects (font (size 1.27 1.27))))
          (number "9" (effects (font (size 1.27 1.27))))
        )
      )
    )
    (symbol "power:GND" (power) (pin_names (offset 0)) (in_bom yes) (on_board yes)
      (property "Reference" "#PWR" (at 0 -6.35 0)
        (effects (font (size 1.27 1.27)) hide)
      )
      (property "Value" "GND" (at 0 -3.81 0)
        (effects (font (size 1.27 1.27)))
      )
      (property "Footprint" "" (at 0 0 0)
        (effects (font (size 1.27 1.27)) hide)
      )
      (property "Datasheet" "" (at 0 0 0)
        (effects (font (size 1.27 1.27)) hide)
      )
      (property "ki_keywords" "global power" (at 0 0 0)
        (effects (font (size 1.27 1.27)) hide)
      )
      (property "ki_description" "Power symbol creates a global label with name \"GND\" , ground" (at 0 0 0)
        (effects (font (size 1.27 1.27)) hide)
      )
      (symbol "GND_0_1"
        (polyline
          (pts
            (xy 0 0)
            (xy 0 -1.27)
            (xy 1.27 -1.27)
            (xy 0 -2.54)
            (xy -1.27 -1.27)
            (xy 0 -1.27)
          )
          (stroke (width 0) (type default))
          (fill (type none))
        )
      )
      (symbol "GND_1_1"
        (pin power_in line (at 0 0 270) (length 0) hide
          (name "GND" (effects (font (size 1.27 1.27))))
          (number "1" (effects (font (size 1.27 1.27))))
        )
      )
    )
  )


  (wire (pts (xy 95.885 55.88) (xy 113.665 55.88))
    (stroke (width 0) (type default))
    (uuid 056dc054-8651-4aed-8cda-96bd67a63337)
  )
  (wire (pts (xy 97.155 71.12) (xy 97.155 73.025))
    (stroke (width 0) (type default))
    (uuid 0adbe2d5-14b0-476d-96f3-ac3ecd88d07b)
  )
  (wire (pts (xy 95.885 68.58) (xy 113.665 68.58))
    (stroke (width 0) (type default))
    (uuid 33e6934f-6728-41e3-8737-59da61b1e786)
  )
  (wire (pts (xy 95.885 66.04) (xy 113.665 66.04))
    (stroke (width 0) (type default))
    (uuid 419780d7-0bc3-42b4-affd-f189a6881946)
  )
  (wire (pts (xy 95.885 60.96) (xy 113.665 60.96))
    (stroke (width 0) (type default))
    (uuid 5e80bd27-dc68-4a23-8ac4-194156e78dcb)
  )
  (wire (pts (xy 95.885 53.34) (xy 113.665 53.34))
    (stroke (width 0) (type default))
    (uuid 82031b6e-2eda-4874-9215-a5ccf3667d17)
  )
  (wire (pts (xy 95.885 50.8) (xy 113.665 50.8))
    (stroke (width 0) (type default))
    (uuid 936902ee-3750-486a-95e8-f8d7c6948678)
  )
  (wire (pts (xy 95.885 63.5) (xy 113.665 63.5))
    (stroke (width 0) (type default))
    (uuid c4a5946f-773f-4cd5-bf63-5422358e95ce)
  )
  (wire (pts (xy 95.885 58.42) (xy 113.665 58.42))
    (stroke (width 0) (type default))
    (uuid d2e88d35-e992-4b8a-a136-f2eea2dd1e36)
  )
  (wire (pts (xy 95.885 71.12) (xy 97.155 71.12))
    (stroke (width 0) (type default))
    (uuid f83f0d7d-79ec-4e01-a467-3dada0203d76)
  )

  (symbol (lib_id "Connector:Conn_01x08_Pin") (at 118.745 58.42 0) (mirror y) (unit 1)
    (in_bom yes) (on_board yes) (dnp no) (fields_autoplaced)
    (uuid 62142742-3364-4adf-af90-7ddfb7b379dd)
    (property "Reference" "J2" (at 120.65 58.42 0)
      (effects (font (size 1.27 1.27)) (justify right))
    )
    (property "Value" "Conn_01x08_Pin" (at 120.65 60.96 0)
      (effects (font (size 1.27 1.27)) (justify right))
    )
    (property "Footprint" "Connector_PinHeader_2.54mm:PinHeader_1x08_P2.54mm_Vertical" (at 118.745 58.42 0)
      (effects (font (size 1.27 1.27)) hide)
    )
    (property "Datasheet" "~" (at 118.745 58.42 0)
      (effects (font (size 1.27 1.27)) hide)
    )
    (pin "3" (uuid 28a2ecc1-402b-4da1-a9c5-eba8774ff81d))
    (pin "4" (uuid 01029b72-a842-474f-8822-68cbfc729c49))
    (pin "6" (uuid ae2446d1-3989-4e0f-99f3-d12a17415a42))
    (pin "7" (uuid 40fb27ae-7eec-4e85-b4b4-2df8f56b98f2))
    (pin "8" (uuid 96003de2-5153-4b72-8a56-56b879585570))
    (pin "2" (uuid 57697cad-2cb4-4815-971f-b90050bb23e3))
    (pin "1" (uuid 80505854-0de1-4264-9e46-3d245c52449e))
    (pin "5" (uuid 4c15be9f-5e1f-4cb2-b844-bc94e8e301a2))
    (instances
      (project "JST1.25x8_Breakout"
        (path "/2efdefe2-f7ce-4a66-98d3-f1674f6d0050"
          (reference "J2") (unit 1)
        )
      )
    )
  )

  (symbol (lib_id "power:GND") (at 97.155 73.025 0) (unit 1)
    (in_bom yes) (on_board yes) (dnp no) (fields_autoplaced)
    (uuid 6d43239a-10c9-4d5d-8f07-571863119296)
    (property "Reference" "#PWR01" (at 97.155 79.375 0)
      (effects (font (size 1.27 1.27)) hide)
    )
    (property "Value" "GND" (at 97.155 77.47 0)
      (effects (font (size 1.27 1.27)))
    )
    (property "Footprint" "" (at 97.155 73.025 0)
      (effects (font (size 1.27 1.27)) hide)
    )
    (property "Datasheet" "" (at 97.155 73.025 0)
      (effects (font (size 1.27 1.27)) hide)
    )
    (pin "1" (uuid 6e6b0308-245b-49f1-b618-c0d6fbeef265))
    (instances
      (project "JST1.25x8_Breakout"
        (path "/2efdefe2-f7ce-4a66-98d3-f1674f6d0050"
          (reference "#PWR01") (unit 1)
        )
      )
    )
  )

  (symbol (lib_id "Connector:Conn_01x09_Pin") (at 90.805 60.96 0) (unit 1)
    (in_bom yes) (on_board yes) (dnp no) (fields_autoplaced)
    (uuid 841f30cb-ccd1-470a-854a-262aec4d840c)
    (property "Reference" "J1" (at 91.44 45.72 0)
      (effects (font (size 1.27 1.27)))
    )
    (property "Value" "Conn_01x09_Pin" (at 91.44 48.26 0)
      (effects (font (size 1.27 1.27)))
    )
    (property "Footprint" "Global:JST1.25x8_SMD" (at 90.805 60.96 0)
      (effects (font (size 1.27 1.27)) hide)
    )
    (property "Datasheet" "~" (at 90.805 60.96 0)
      (effects (font (size 1.27 1.27)) hide)
    )
    (pin "3" (uuid f2fbdffd-d414-45ee-aee7-90ad1f60196e))
    (pin "9" (uuid 9f0a9823-8e72-4351-bf1e-53dd6dda8591))
    (pin "7" (uuid ab4364bc-5e11-42e1-b2be-bd4cbe50abd7))
    (pin "8" (uuid b1eb7040-a8b0-4143-a795-bae65f74c98b))
    (pin "4" (uuid c50adc67-3aab-4284-ac38-bcf1208c4590))
    (pin "2" (uuid 45ae2f11-8c4f-44bf-8d4e-3ee7e78784ab))
    (pin "5" (uuid 31dafc39-49f1-4b94-af0a-6db0813cd8ba))
    (pin "6" (uuid bcf4115c-67ec-436a-86a5-3a69f3cf32df))
    (pin "1" (uuid 362540f2-a32e-42de-ada3-68346a6cca8d))
    (instances
      (project "JST1.25x8_Breakout"
        (path "/2efdefe2-f7ce-4a66-98d3-f1674f6d0050"
          (reference "J1") (unit 1)
        )
      )
    )
  )

  (sheet_instances
    (path "/" (page "1"))
  )
)
