(kicad_pcb (version 20221018) (generator pcbnew)

  (general
    (thickness 1.6)
  )

  (paper "A4")
  (layers
    (0 "F.Cu" signal)
    (31 "B.Cu" signal)
    (32 "B.Adhes" user "B.Adhesive")
    (33 "F.Adhes" user "F.Adhesive")
    (34 "B.Paste" user)
    (35 "F.Paste" user)
    (36 "B.SilkS" user "B.Silkscreen")
    (37 "F.SilkS" user "F.Silkscreen")
    (38 "B.Mask" user)
    (39 "F.Mask" user)
    (40 "Dwgs.User" user "User.Drawings")
    (41 "Cmts.User" user "User.Comments")
    (42 "Eco1.User" user "User.Eco1")
    (43 "Eco2.User" user "User.Eco2")
    (44 "Edge.Cuts" user)
    (45 "Margin" user)
    (46 "B.CrtYd" user "B.Courtyard")
    (47 "F.CrtYd" user "F.Courtyard")
    (48 "B.Fab" user)
    (49 "F.Fab" user)
    (50 "User.1" user)
    (51 "User.2" user)
    (52 "User.3" user)
    (53 "User.4" user)
    (54 "User.5" user)
    (55 "User.6" user)
    (56 "User.7" user)
    (57 "User.8" user)
    (58 "User.9" user)
  )

  (setup
    (pad_to_mask_clearance 0)
    (pcbplotparams
      (layerselection 0x00010fc_ffffffff)
      (plot_on_all_layers_selection 0x0000000_00000000)
      (disableapertmacros false)
      (usegerberextensions false)
      (usegerberattributes true)
      (usegerberadvancedattributes true)
      (creategerberjobfile true)
      (dashed_line_dash_ratio 12.000000)
      (dashed_line_gap_ratio 3.000000)
      (svgprecision 4)
      (plotframeref false)
      (viasonmask false)
      (mode 1)
      (useauxorigin false)
      (hpglpennumber 1)
      (hpglpenspeed 20)
      (hpglpendiameter 15.000000)
      (dxfpolygonmode true)
      (dxfimperialunits true)
      (dxfusepcbnewfont true)
      (psnegative false)
      (psa4output false)
      (plotreference true)
      (plotvalue true)
      (plotinvisibletext false)
      (sketchpadsonfab false)
      (subtractmaskfromsilk false)
      (outputformat 1)
      (mirror false)
      (drillshape 0)
      (scaleselection 1)
      (outputdirectory "gerbers/")
    )
  )

  (net 0 "")
  (net 1 "Net-(J1-Pin_1)")
  (net 2 "Net-(J1-Pin_2)")
  (net 3 "Net-(J1-Pin_3)")
  (net 4 "Net-(J1-Pin_4)")
  (net 5 "Net-(J1-Pin_5)")
  (net 6 "Net-(J1-Pin_6)")
  (net 7 "Net-(J1-Pin_7)")
  (net 8 "Net-(J1-Pin_8)")
  (net 9 "GND")

  (footprint "Connector_PinHeader_2.54mm:PinHeader_1x08_P2.54mm_Vertical" (layer "F.Cu")
    (tstamp 1e09d870-b4e7-4d92-9b62-eb06a815b149)
    (at 166.3 93.925)
    (descr "Through hole straight pin header, 1x08, 2.54mm pitch, single row")
    (tags "Through hole pin header THT 1x08 2.54mm single row")
    (property "Sheetfile" "JST1.25x8_Breakout.kicad_sch")
    (property "Sheetname" "")
    (property "ki_description" "Generic connector, single row, 01x08, script generated")
    (property "ki_keywords" "connector")
    (path "/62142742-3364-4adf-af90-7ddfb7b379dd")
    (attr through_hole)
    (fp_text reference "J2" (at 11.6 -16.225) (layer "F.SilkS")
        (effects (font (size 1 1) (thickness 0.15)))
      (tstamp cc8dccc6-fcaf-4866-a1fe-a246904e0276)
    )
    (fp_text value "Conn_01x08_Pin" (at -0.65 41.3) (layer "F.Fab")
        (effects (font (size 1 1) (thickness 0.15)))
      (tstamp 7d5fe663-c3a6-4612-bfb6-a26ee66aec7f)
    )
    (fp_text user "${REFERENCE}" (at 0 8.89 90) (layer "F.Fab")
        (effects (font (size 1 1) (thickness 0.15)))
      (tstamp 7ff531ec-5695-4bf8-a9fc-d0c37e8d2222)
    )
    (fp_line (start -1.33 -1.33) (end 0 -1.33)
      (stroke (width 0.12) (type solid)) (layer "F.SilkS") (tstamp 42fe35f2-a48c-4d80-8fac-9bd53279fa12))
    (fp_line (start -1.33 0) (end -1.33 -1.33)
      (stroke (width 0.12) (type solid)) (layer "F.SilkS") (tstamp 0d9c35b4-e939-4e38-a258-05d7cedaac62))
    (fp_line (start -1.33 1.27) (end -1.33 19.11)
      (stroke (width 0.12) (type solid)) (layer "F.SilkS") (tstamp 843a54ef-cc78-4e78-a8ac-d308f51aa23c))
    (fp_line (start -1.33 1.27) (end 1.33 1.27)
      (stroke (width 0.12) (type solid)) (layer "F.SilkS") (tstamp 5d20076e-9943-4817-a1db-d86bf5779c5f))
    (fp_line (start -1.33 19.11) (end 1.33 19.11)
      (stroke (width 0.12) (type solid)) (layer "F.SilkS") (tstamp 81f6327c-9419-4594-b2aa-3e433b235e3f))
    (fp_line (start 1.33 1.27) (end 1.33 19.11)
      (stroke (width 0.12) (type solid)) (layer "F.SilkS") (tstamp ac3aa1be-f6c4-412a-8cd8-6189c5be3c37))
    (fp_line (start -1.8 -1.8) (end -1.8 19.55)
      (stroke (width 0.05) (type solid)) (layer "F.CrtYd") (tstamp ac3c5c54-d950-4ad6-930c-c388c3e06af0))
    (fp_line (start -1.8 19.55) (end 1.8 19.55)
      (stroke (width 0.05) (type solid)) (layer "F.CrtYd") (tstamp 1300e70a-cee3-449c-9df3-6439b579666e))
    (fp_line (start 1.8 -1.8) (end -1.8 -1.8)
      (stroke (width 0.05) (type solid)) (layer "F.CrtYd") (tstamp 21e091e5-7ed7-44ba-a2d2-421ac9e0a1f7))
    (fp_line (start 1.8 19.55) (end 1.8 -1.8)
      (stroke (width 0.05) (type solid)) (layer "F.CrtYd") (tstamp 87f37205-73ca-457a-9ab5-fb0f45233253))
    (fp_line (start -1.27 -0.635) (end -0.635 -1.27)
      (stroke (width 0.1) (type solid)) (layer "F.Fab") (tstamp 62808e43-8c6f-4b89-82c3-fd086dfc6081))
    (fp_line (start -1.27 19.05) (end -1.27 -0.635)
      (stroke (width 0.1) (type solid)) (layer "F.Fab") (tstamp f4f75aac-4311-410f-829c-7ebac71b6944))
    (fp_line (start -0.635 -1.27) (end 1.27 -1.27)
      (stroke (width 0.1) (type solid)) (layer "F.Fab") (tstamp 207c0079-fa7d-4c1a-a938-f27c1ca80ce4))
    (fp_line (start 1.27 -1.27) (end 1.27 19.05)
      (stroke (width 0.1) (type solid)) (layer "F.Fab") (tstamp b380e4b5-9703-4be5-874c-707f186fa0c1))
    (fp_line (start 1.27 19.05) (end -1.27 19.05)
      (stroke (width 0.1) (type solid)) (layer "F.Fab") (tstamp 0f31ed8e-d973-45a9-9d6c-9ff7ec8e3f54))
    (pad "1" thru_hole rect (at 0 0) (size 1.7 1.7) (drill 1) (layers "*.Cu" "*.Mask")
      (net 1 "Net-(J1-Pin_1)") (pinfunction "Pin_1") (pintype "passive") (tstamp 03597612-2d79-498c-8fec-1963b57ab639))
    (pad "2" thru_hole oval (at 0 2.54) (size 1.7 1.7) (drill 1) (layers "*.Cu" "*.Mask")
      (net 2 "Net-(J1-Pin_2)") (pinfunction "Pin_2") (pintype "passive") (tstamp 978cdf2d-f141-4ca9-8f84-7553a977c8b1))
    (pad "3" thru_hole oval (at 0 5.08) (size 1.7 1.7) (drill 1) (layers "*.Cu" "*.Mask")
      (net 3 "Net-(J1-Pin_3)") (pinfunction "Pin_3") (pintype "passive") (tstamp 9eb060c6-bb39-4107-94f8-f0c99c48c1d1))
    (pad "4" thru_hole oval (at 0 7.62) (size 1.7 1.7) (drill 1) (layers "*.Cu" "*.Mask")
      (net 4 "Net-(J1-Pin_4)") (pinfunction "Pin_4") (pintype "passive") (tstamp 10976b14-3a31-4814-976d-bf960d964546))
    (pad "5" thru_hole oval (at 0 10.16) (size 1.7 1.7) (drill 1) (layers "*.Cu" "*.Mask")
      (net 5 "Net-(J1-Pin_5)") (pinfunction "Pin_5") (pintype "passive") (tstamp 86ae4b5d-d327-4d2f-be0b-1d3a13be384f))
    (pad "6" thru_hole oval (at 0 12.7) (size 1.7 1.7) (drill 1) (layers "*.Cu" "*.Mask")
      (net 6 "Net-(J1-Pin_6)") (pinfunction "Pin_6") (pintype "passive") (tstamp bf2e274b-55cf-40e1-a237-6bc948e073a2))
    (pad "7" thru_hole oval (at 0 15.24) (size 1.7 1.7) (drill 1) (layers "*.Cu" "*.Mask")
      (net 7 "Net-(J1-Pin_7)") (pinfunction "Pin_7") (pintype "passive") (tstamp 2ff2de25-e28e-477d-84b1-090af1457a4f))
    (pad "8" thru_hole oval (at 0 17.78) (size 1.7 1.7) (drill 1) (layers "*.Cu" "*.Mask")
      (net 8 "Net-(J1-Pin_8)") (pinfunction "Pin_8") (pintype "passive") (tstamp 96e9220a-6054-4df0-84d9-b971b10bbace))
    (model "${KICAD6_3DMODEL_DIR}/Connector_PinHeader_2.54mm.3dshapes/PinHeader_1x08_P2.54mm_Vertical.wrl"
      (offset (xyz 0 0 0))
      (scale (xyz 1 1 1))
      (rotate (xyz 0 0 0))
    )
  )

  (footprint "Global:JST1.25x8_SMD" (layer "F.Cu")
    (tstamp 83632cd4-0655-4ee3-bf7e-ce5877199fc4)
    (at 176.2 98.3 -90)
    (property "Sheetfile" "JST1.25x8_Breakout.kicad_sch")
    (property "Sheetname" "")
    (property "ki_description" "Generic connector, single row, 01x09, script generated")
    (property "ki_keywords" "connector")
    (path "/841f30cb-ccd1-470a-854a-262aec4d840c")
    (attr smd)
    (fp_text reference "J1" (at 23.6 23.7 -90 unlocked) (layer "F.SilkS")
        (effects (font (size 1 1) (thickness 0.1)))
      (tstamp 2f6b8da2-9db4-4276-8520-7ebb28477e4d)
    )
    (fp_text value "Conn_01x09_Pin" (at 23.6 25.2 -90 unlocked) (layer "F.Fab")
        (effects (font (size 1 1) (thickness 0.15)))
      (tstamp 872ae909-6693-4a7b-8741-6654ed969b3c)
    )
    (fp_text user "${REFERENCE}" (at 23.6 26.7 -90 unlocked) (layer "F.Fab")
        (effects (font (size 1 1) (thickness 0.15)))
      (tstamp 622e65b6-9de2-451e-b771-c3d5afb93ca3)
    )
    (pad "1" smd roundrect (at 0 -0.05 270) (size 0.6 1.5) (layers "F.Cu" "F.Paste" "F.Mask") (roundrect_rratio 0.25)
      (net 1 "Net-(J1-Pin_1)") (pinfunction "Pin_1") (pintype "passive") (thermal_bridge_angle 45) (tstamp 3b63617d-126a-4f63-bf8d-6d11388e2c6d))
    (pad "2" smd roundrect (at 1.25 0 270) (size 0.6 1.5) (layers "F.Cu" "F.Paste" "F.Mask") (roundrect_rratio 0.25)
      (net 2 "Net-(J1-Pin_2)") (pinfunction "Pin_2") (pintype "passive") (thermal_bridge_angle 45) (tstamp 103b74d4-9055-4d90-8da6-7e66ed382c13))
    (pad "3" smd roundrect (at 2.5 0 270) (size 0.6 1.5) (layers "F.Cu" "F.Paste" "F.Mask") (roundrect_rratio 0.25)
      (net 3 "Net-(J1-Pin_3)") (pinfunction "Pin_3") (pintype "passive") (thermal_bridge_angle 45) (tstamp 03f03118-0e76-4696-b41d-0391d3de3623))
    (pad "4" smd roundrect (at 3.75 0 270) (size 0.6 1.5) (layers "F.Cu" "F.Paste" "F.Mask") (roundrect_rratio 0.25)
      (net 4 "Net-(J1-Pin_4)") (pinfunction "Pin_4") (pintype "passive") (thermal_bridge_angle 45) (tstamp c5f5b27e-045b-4af5-bd2e-09661c50f4a4))
    (pad "5" smd roundrect (at 5 0 270) (size 0.6 1.5) (layers "F.Cu" "F.Paste" "F.Mask") (roundrect_rratio 0.25)
      (net 5 "Net-(J1-Pin_5)") (pinfunction "Pin_5") (pintype "passive") (thermal_bridge_angle 45) (tstamp d1f87664-cbbd-4e28-ae6d-f4422e1b1c65))
    (pad "6" smd roundrect (at 6.25 0 270) (size 0.6 1.5) (layers "F.Cu" "F.Paste" "F.Mask") (roundrect_rratio 0.25)
      (net 6 "Net-(J1-Pin_6)") (pinfunction "Pin_6") (pintype "passive") (thermal_bridge_angle 45) (tstamp c29ee017-0c7d-4696-bf3d-000849ad1274))
    (pad "7" smd roundrect (at 7.5 0 270) (size 0.6 1.5) (layers "F.Cu" "F.Paste" "F.Mask") (roundrect_rratio 0.25)
      (net 7 "Net-(J1-Pin_7)") (pinfunction "Pin_7") (pintype "passive") (thermal_bridge_angle 45) (tstamp c363803e-21c2-4707-b7c3-77e7f6dc951b))
    (pad "8" smd roundrect (at 8.75 0 270) (size 0.6 1.5) (layers "F.Cu" "F.Paste" "F.Mask") (roundrect_rratio 0.25)
      (net 8 "Net-(J1-Pin_8)") (pinfunction "Pin_8") (pintype "passive") (thermal_bridge_angle 45) (tstamp ca6cf6db-f66b-4070-a13a-62bf53f3ce33))
    (pad "9" smd roundrect (at -2.5 -2.65 270) (size 1.9 2.6) (layers "F.Cu" "F.Paste" "F.Mask") (roundrect_rratio 0.25)
      (net 9 "GND") (pinfunction "Pin_9") (pintype "passive") (thermal_bridge_angle 45) (tstamp 714a1d0e-33b6-4898-8ccf-3fea7a8b503f))
    (pad "9" smd roundrect (at 11.25 -2.65 270) (size 1.9 2.6) (layers "F.Cu" "F.Paste" "F.Mask") (roundrect_rratio 0.25)
      (net 9 "GND") (pinfunction "Pin_9") (pintype "passive") (thermal_bridge_angle 45) (tstamp ea54480b-10f5-44b4-bbc9-38ef81bf11de))
  )

  (gr_rect (start 162.825 90.425) (end 183.175 115.05)
    (stroke (width 0.05) (type default)) (fill none) (layer "Edge.Cuts") (tstamp 49889999-9461-43dc-8826-2158eacda432))
  (gr_text "JST1.25x8\nBreakout" (at 176.075 102.625 90) (layer "B.SilkS") (tstamp 323ac5c8-f467-45a5-be7c-c295aa9bc9fa)
    (effects (font (size 2 2) (thickness 0.2)) (justify bottom mirror))
  )
  (gr_text "1" (at 182.275 98.7 90) (layer "F.SilkS") (tstamp 20ff5e7c-c87a-4948-9b62-029828e8c498)
    (effects (font (size 1 1) (thickness 0.1)) (justify left bottom))
  )
  (gr_text "2" (at 163.7 96.05 -90) (layer "F.SilkS") (tstamp 30213c84-34eb-4c5b-b3b4-33ff50e91b1b)
    (effects (font (size 1 1) (thickness 0.1)) (justify left bottom))
  )
  (gr_text "8" (at 163.7 111.225 -90) (layer "F.SilkS") (tstamp 326d8461-7439-40b1-94a3-ee5c3aa714af)
    (effects (font (size 1 1) (thickness 0.1)) (justify left bottom))
  )
  (gr_text "1" (at 163.725 93.5 -90) (layer "F.SilkS") (tstamp 5a562352-70be-4940-ba42-cdede89d0668)
    (effects (font (size 1 1) (thickness 0.1)) (justify left bottom))
  )
  (gr_text "6" (at 163.7 106.075 -90) (layer "F.SilkS") (tstamp 80a2d1ad-a23f-4c2f-aa36-ec81bcecf3fa)
    (effects (font (size 1 1) (thickness 0.1)) (justify left bottom))
  )
  (gr_text "5" (at 163.7 103.525 -90) (layer "F.SilkS") (tstamp 8d6a90af-568b-4c65-98f6-5be349bfed60)
    (effects (font (size 1 1) (thickness 0.1)) (justify left bottom))
  )
  (gr_text "7" (at 163.7 108.625 -90) (layer "F.SilkS") (tstamp b9e36c34-0331-4996-b1e1-2611c5016074)
    (effects (font (size 1 1) (thickness 0.1)) (justify left bottom))
  )
  (gr_text "4" (at 163.675 101.05 -90) (layer "F.SilkS") (tstamp da5cfa66-5141-4e2a-b02e-0d48376a3460)
    (effects (font (size 1 1) (thickness 0.1)) (justify left bottom))
  )
  (gr_text "3" (at 163.7 98.475 -90) (layer "F.SilkS") (tstamp ee36433c-7b09-43dd-b81c-ab6ac4e85a2a)
    (effects (font (size 1 1) (thickness 0.1)) (justify left bottom))
  )

  (segment (start 176.25 98.3) (end 170.675 98.3) (width 0.2) (layer "F.Cu") (net 1) (tstamp 286af0be-3f7c-4a1a-9ccc-b0f4d0fd3a11))
  (segment (start 170.675 98.3) (end 166.3 93.925) (width 0.2) (layer "F.Cu") (net 1) (tstamp 4da40b3e-d03d-4d14-8b95-22dcbc3b9ff1))
  (segment (start 169.385 99.55) (end 176.2 99.55) (width 0.2) (layer "F.Cu") (net 2) (tstamp 42b40fa3-4664-48e4-91e6-f2b1a196ffc3))
  (segment (start 166.3 96.465) (end 169.385 99.55) (width 0.2) (layer "F.Cu") (net 2) (tstamp 8d9207d7-1a77-4e3b-aeb7-141a739f1c65))
  (segment (start 168.095 100.8) (end 176.2 100.8) (width 0.2) (layer "F.Cu") (net 3) (tstamp 38c071bd-0a36-47af-9614-5d840ec71c6c))
  (segment (start 166.3 99.005) (end 168.095 100.8) (width 0.2) (layer "F.Cu") (net 3) (tstamp a1e9a48b-74e9-4636-944c-aca2907a6083))
  (segment (start 176.2 102.05) (end 166.805 102.05) (width 0.2) (layer "F.Cu") (net 4) (tstamp c2930e8c-185a-4a4e-8b44-5fd77045c349))
  (segment (start 166.805 102.05) (end 166.3 101.545) (width 0.2) (layer "F.Cu") (net 4) (tstamp cac018fa-f163-428b-9c73-3b0f221492bf))
  (segment (start 167.085 103.3) (end 166.3 104.085) (width 0.2) (layer "F.Cu") (net 5) (tstamp 1ecd1fcb-f1dc-4e76-b722-b48556cd4f95))
  (segment (start 176.2 103.3) (end 167.085 103.3) (width 0.2) (layer "F.Cu") (net 5) (tstamp 36414b36-4e1f-40f2-9069-f9cb2fa3253c))
  (segment (start 176.2 104.55) (end 168.375 104.55) (width 0.2) (layer "F.Cu") (net 6) (tstamp d4bfdc0c-6dc5-461d-a0cf-eaf9e90cebe5))
  (segment (start 168.375 104.55) (end 166.3 106.625) (width 0.2) (layer "F.Cu") (net 6) (tstamp e74de03b-9422-4da3-8559-8a2cb8f3bfab))
  (segment (start 176.2 105.8) (end 169.665 105.8) (width 0.2) (layer "F.Cu") (net 7) (tstamp 8c367df2-65d7-417d-865c-c52cdb36233f))
  (segment (start 169.665 105.8) (end 166.3 109.165) (width 0.2) (layer "F.Cu") (net 7) (tstamp 8c9c6089-f797-4429-ab04-493c7b249381))
  (segment (start 170.955 107.05) (end 166.3 111.705) (width 0.2) (layer "F.Cu") (net 8) (tstamp c1721e89-8945-40e4-a34a-724bc7f00666))
  (segment (start 176.2 107.05) (end 170.955 107.05) (width 0.2) (layer "F.Cu") (net 8) (tstamp fa15c89e-954b-4a6e-a0be-cd306046dddc))

  (zone (net 9) (net_name "GND") (layers "F&B.Cu") (tstamp 4c139862-7554-47fb-9314-bc74de0b12d6) (hatch edge 0.5)
    (connect_pads (clearance 0.5))
    (min_thickness 0.25) (filled_areas_thickness no)
    (fill yes (thermal_gap 0.5) (thermal_bridge_width 0.5))
    (polygon
      (pts
        (xy 162.325 89.8)
        (xy 183.575 89.925)
        (xy 183.525 115.7)
        (xy 161.775 115.825)
      )
    )
    (filled_polygon
      (layer "F.Cu")
      (pts
        (xy 182.617539 90.945185)
        (xy 182.663294 90.997989)
        (xy 182.6745 91.0495)
        (xy 182.6745 114.4255)
        (xy 182.654815 114.492539)
        (xy 182.602011 114.538294)
        (xy 182.5505 114.5495)
        (xy 163.4495 114.5495)
        (xy 163.382461 114.529815)
        (xy 163.336706 114.477011)
        (xy 163.3255 114.4255)
        (xy 163.3255 111.705)
        (xy 164.944341 111.705)
        (xy 164.964936 111.940403)
        (xy 164.964938 111.940413)
        (xy 165.026094 112.168655)
        (xy 165.026096 112.168659)
        (xy 165.026097 112.168663)
        (xy 165.125965 112.38283)
        (xy 165.125967 112.382834)
        (xy 165.234281 112.537521)
        (xy 165.261505 112.576401)
        (xy 165.428599 112.743495)
        (xy 165.525384 112.811265)
        (xy 165.622165 112.879032)
        (xy 165.622167 112.879033)
        (xy 165.62217 112.879035)
        (xy 165.836337 112.978903)
        (xy 166.064592 113.040063)
        (xy 166.252918 113.056539)
        (xy 166.299999 113.060659)
        (xy 166.3 113.060659)
        (xy 166.300001 113.060659)
        (xy 166.339234 113.057226)
        (xy 166.535408 113.040063)
        (xy 166.763663 112.978903)
        (xy 166.97783 112.879035)
        (xy 167.171401 112.743495)
        (xy 167.338495 112.576401)
        (xy 167.474035 112.38283)
        (xy 167.573903 112.168663)
        (xy 167.635063 111.940408)
        (xy 167.655659 111.705)
        (xy 167.635063 111.469592)
        (xy 167.600671 111.341239)
        (xy 167.602334 111.271393)
        (xy 167.632763 111.22147)
        (xy 167.884202 110.970031)
        (xy 177.783519 110.970031)
        (xy 177.852105 110.989655)
        (xy 177.852108 110.989656)
        (xy 177.968451 110.999999)
        (xy 177.968454 111)
        (xy 179.731546 111)
        (xy 179.731548 110.999999)
        (xy 179.847891 110.989656)
        (xy 179.847894 110.989655)
        (xy 179.916479 110.970031)
        (xy 178.85 109.903553)
        (xy 177.783519 110.970031)
        (xy 167.884202 110.970031)
        (xy 168.772686 110.081548)
        (xy 177.05 110.081548)
        (xy 177.060343 110.197891)
        (xy 177.060344 110.197894)
        (xy 177.114893 110.388539)
        (xy 177.206704 110.564304)
        (xy 177.330419 110.716025)
        (xy 177.330421 110.716026)
        (xy 178.496446 109.550001)
        (xy 179.203553 109.550001)
        (xy 180.369578 110.716026)
        (xy 180.369578 110.716025)
        (xy 180.493296 110.5643)
        (xy 180.585106 110.388539)
        (xy 180.639655 110.197894)
        (xy 180.639656 110.197891)
        (xy 180.649999 110.081548)
        (xy 180.65 110.081546)
        (xy 180.65 109.018454)
        (xy 180.649999 109.018451)
        (xy 180.639656 108.902108)
        (xy 180.639655 108.902105)
        (xy 180.585106 108.71146)
        (xy 180.493295 108.535696)
        (xy 180.369578 108.383973)
        (xy 179.203553 109.549999)
        (xy 179.203553 109.550001)
        (xy 178.496446 109.550001)
        (xy 178.496447 109.55)
        (xy 178.496447 109.549999)
        (xy 177.33042 108.383972)
        (xy 177.330419 108.383973)
        (xy 177.206703 108.535699)
        (xy 177.114893 108.71146)
        (xy 177.060344 108.902105)
        (xy 177.060343 108.902108)
        (xy 177.05 109.018451)
        (xy 177.05 110.081548)
        (xy 168.772686 110.081548)
        (xy 170.724268 108.129967)
        (xy 177.78352 108.129967)
        (xy 178.85 109.196447)
        (xy 178.850001 109.196447)
        (xy 179.916479 108.129966)
        (xy 179.847898 108.110344)
        (xy 179.731548 108.1)
        (xy 177.968451 108.1)
        (xy 177.852101 108.110344)
        (xy 177.78352 108.129966)
        (xy 177.78352 108.129967)
        (xy 170.724268 108.129967)
        (xy 171.167416 107.686819)
        (xy 171.228739 107.653334)
        (xy 171.255097 107.6505)
        (xy 175.079192 107.6505)
        (xy 175.146231 107.670185)
        (xy 175.166874 107.68682)
        (xy 175.198129 107.718076)
        (xy 175.198133 107.718079)
        (xy 175.198135 107.718081)
        (xy 175.339602 107.801744)
        (xy 175.381224 107.813836)
        (xy 175.497426 107.847597)
        (xy 175.497429 107.847597)
        (xy 175.497431 107.847598)
        (xy 175.534306 107.8505)
        (xy 175.534314 107.8505)
        (xy 176.865686 107.8505)
        (xy 176.865694 107.8505)
        (xy 176.902569 107.847598)
        (xy 176.902571 107.847597)
        (xy 176.902573 107.847597)
        (xy 176.944191 107.835505)
        (xy 177.060398 107.801744)
        (xy 177.201865 107.718081)
        (xy 177.318081 107.601865)
        (xy 177.401744 107.460398)
        (xy 177.447598 107.302569)
        (xy 177.4505 107.265694)
        (xy 177.4505 106.834306)
        (xy 177.447598 106.797431)
        (xy 177.401744 106.639602)
        (xy 177.318081 106.498135)
        (xy 177.31411 106.49142)
        (xy 177.316083 106.490252)
        (xy 177.294769 106.435965)
        (xy 177.308448 106.367447)
        (xy 177.314136 106.358595)
        (xy 177.31411 106.35858)
        (xy 177.371674 106.261243)
        (xy 177.401744 106.210398)
        (xy 177.447598 106.052569)
        (xy 177.4505 106.015694)
        (xy 177.4505 105.584306)
        (xy 177.447598 105.547431)
        (xy 177.401744 105.389602)
        (xy 177.324527 105.259035)
        (xy 177.31411 105.24142)
        (xy 177.316083 105.240252)
        (xy 177.294769 105.185965)
        (xy 177.308448 105.117447)
        (xy 177.314136 105.108595)
        (xy 177.31411 105.10858)
        (xy 177.328026 105.085048)
        (xy 177.401744 104.960398)
        (xy 177.447598 104.802569)
        (xy 177.4505 104.765694)
        (xy 177.4505 104.334306)
        (xy 177.447598 104.297431)
        (xy 177.401744 104.139602)
        (xy 177.318081 103.998135)
        (xy 177.31411 103.99142)
        (xy 177.316083 103.990252)
        (xy 177.294769 103.935965)
        (xy 177.308448 103.867447)
        (xy 177.314136 103.858595)
        (xy 177.31411 103.85858)
        (xy 177.328026 103.835048)
        (xy 177.401744 103.710398)
        (xy 177.447598 103.552569)
        (xy 177.4505 103.515694)
        (xy 177.4505 103.084306)
        (xy 177.447598 103.047431)
        (xy 177.401744 102.889602)
        (xy 177.318081 102.748135)
        (xy 177.31411 102.74142)
        (xy 177.316083 102.740252)
        (xy 177.294769 102.685965)
        (xy 177.308448 102.617447)
        (xy 177.314136 102.608595)
        (xy 177.31411 102.60858)
        (xy 177.328946 102.583493)
        (xy 177.401744 102.460398)
        (xy 177.447598 102.302569)
        (xy 177.4505 102.265694)
        (xy 177.4505 101.834306)
        (xy 177.447598 101.797431)
        (xy 177.442652 101.780408)
        (xy 177.401745 101.639606)
        (xy 177.401744 101.639603)
        (xy 177.401744 101.639602)
        (xy 177.318081 101.498135)
        (xy 177.31411 101.49142)
        (xy 177.316083 101.490252)
        (xy 177.294769 101.435965)
        (xy 177.308448 101.367447)
        (xy 177.314136 101.358595)
        (xy 177.31411 101.35858)
        (xy 177.334243 101.324536)
        (xy 177.401744 101.210398)
        (xy 177.447598 101.052569)
        (xy 177.4505 101.015694)
        (xy 177.4505 100.584306)
        (xy 177.447598 100.547431)
        (xy 177.401744 100.389602)
        (xy 177.318081 100.248135)
        (xy 177.31411 100.24142)
        (xy 177.316083 100.240252)
        (xy 177.294769 100.185965)
        (xy 177.308448 100.117447)
        (xy 177.314136 100.108595)
        (xy 177.31411 100.10858)
        (xy 177.352599 100.043498)
        (xy 177.401744 99.960398)
        (xy 177.447598 99.802569)
        (xy 177.4505 99.765694)
        (xy 177.4505 99.334306)
        (xy 177.447598 99.297431)
        (xy 177.431032 99.240412)
        (xy 177.401745 99.139606)
        (xy 177.401744 99.139603)
        (xy 177.401744 99.139602)
        (xy 177.331265 99.020429)
        (xy 177.314083 98.952706)
        (xy 177.336243 98.886443)
        (xy 177.350315 98.86963)
        (xy 177.368081 98.851865)
        (xy 177.451744 98.710398)
        (xy 177.497598 98.552569)
        (xy 177.5005 98.515694)
        (xy 177.5005 98.084306)
        (xy 177.497598 98.047431)
        (xy 177.451744 97.889602)
        (xy 177.368081 97.748135)
        (xy 177.368079 97.748133)
        (xy 177.368076 97.748129)
        (xy 177.25187 97.631923)
        (xy 177.251862 97.631917)
        (xy 177.110396 97.548255)
        (xy 177.110393 97.548254)
        (xy 176.952573 97.502402)
        (xy 176.952567 97.502401)
        (xy 176.915701 97.4995)
        (xy 176.915694 97.4995)
        (xy 175.584306 97.4995)
        (xy 175.584298 97.4995)
        (xy 175.547432 97.502401)
        (xy 175.547426 97.502402)
        (xy 175.389606 97.548254)
        (xy 175.389603 97.548255)
        (xy 175.248137 97.631917)
        (xy 175.248129 97.631923)
        (xy 175.216874 97.66318)
        (xy 175.155552 97.696666)
        (xy 175.129192 97.6995)
        (xy 170.975097 97.6995)
        (xy 170.908058 97.679815)
        (xy 170.887416 97.663181)
        (xy 170.444266 97.220031)
        (xy 177.783519 97.220031)
        (xy 177.852105 97.239655)
        (xy 177.852108 97.239656)
        (xy 177.968451 97.249999)
        (xy 177.968454 97.25)
        (xy 179.731546 97.25)
        (xy 179.731548 97.249999)
        (xy 179.847891 97.239656)
        (xy 179.847894 97.239655)
        (xy 179.916479 97.220031)
        (xy 178.85 96.153553)
        (xy 177.783519 97.220031)
        (xy 170.444266 97.220031)
        (xy 169.555783 96.331548)
        (xy 177.05 96.331548)
        (xy 177.060343 96.447891)
        (xy 177.060344 96.447894)
        (xy 177.114893 96.638539)
        (xy 177.206704 96.814304)
        (xy 177.330419 96.966025)
        (xy 177.330421 96.966026)
        (xy 178.496446 95.800001)
        (xy 179.203553 95.800001)
        (xy 180.369578 96.966026)
        (xy 180.369578 96.966025)
        (xy 180.493296 96.8143)
        (xy 180.585106 96.638539)
        (xy 180.639655 96.447894)
        (xy 180.639656 96.447891)
        (xy 180.649999 96.331548)
        (xy 180.65 96.331546)
        (xy 180.65 95.268454)
        (xy 180.649999 95.268451)
        (xy 180.639656 95.152108)
        (xy 180.639655 95.152105)
        (xy 180.585106 94.96146)
        (xy 180.493295 94.785696)
        (xy 180.369578 94.633973)
        (xy 179.203553 95.799999)
        (xy 179.203553 95.800001)
        (xy 178.496446 95.800001)
        (xy 178.496447 95.8)
        (xy 178.496447 95.799999)
        (xy 177.33042 94.633972)
        (xy 177.330419 94.633973)
        (xy 177.206703 94.785699)
        (xy 177.114893 94.96146)
        (xy 177.060344 95.152105)
        (xy 177.060343 95.152108)
        (xy 177.05 95.268451)
        (xy 177.05 96.331548)
        (xy 169.555783 96.331548)
        (xy 167.686818 94.462583)
        (xy 167.653333 94.40126)
        (xy 167.651044 94.379967)
        (xy 177.78352 94.379967)
        (xy 178.85 95.446447)
        (xy 178.850001 95.446447)
        (xy 179.916479 94.379966)
        (xy 179.847898 94.360344)
        (xy 179.731548 94.35)
        (xy 177.968451 94.35)
        (xy 177.852101 94.360344)
        (xy 177.78352 94.379966)
        (xy 177.78352 94.379967)
        (xy 167.651044 94.379967)
        (xy 167.650499 94.374902)
        (xy 167.650499 93.027129)
        (xy 167.650498 93.027123)
        (xy 167.650497 93.027116)
        (xy 167.644091 92.967517)
        (xy 167.593796 92.832669)
        (xy 167.593795 92.832668)
        (xy 167.593793 92.832664)
        (xy 167.507547 92.717455)
        (xy 167.507544 92.717452)
        (xy 167.392335 92.631206)
        (xy 167.392328 92.631202)
        (xy 167.257482 92.580908)
        (xy 167.257483 92.580908)
        (xy 167.197883 92.574501)
        (xy 167.197881 92.5745)
        (xy 167.197873 92.5745)
        (xy 167.197864 92.5745)
        (xy 165.402129 92.5745)
        (xy 165.402123 92.574501)
        (xy 165.342516 92.580908)
        (xy 165.207671 92.631202)
        (xy 165.207664 92.631206)
        (xy 165.092455 92.717452)
        (xy 165.092452 92.717455)
        (xy 165.006206 92.832664)
        (xy 165.006202 92.832671)
        (xy 164.955908 92.967517)
        (xy 164.949501 93.027116)
        (xy 164.949501 93.027123)
        (xy 164.9495 93.027135)
        (xy 164.9495 94.82287)
        (xy 164.949501 94.822876)
        (xy 164.955908 94.882483)
        (xy 165.006202 95.017328)
        (xy 165.006206 95.017335)
        (xy 165.092452 95.132544)
        (xy 165.092455 95.132547)
        (xy 165.207664 95.218793)
        (xy 165.207671 95.218797)
        (xy 165.339081 95.26781)
        (xy 165.395015 95.309681)
        (xy 165.419432 95.375145)
        (xy 165.40458 95.443418)
        (xy 165.38343 95.471673)
        (xy 165.261503 95.5936)
        (xy 165.125965 95.787169)
        (xy 165.125964 95.787171)
        (xy 165.026098 96.001335)
        (xy 165.026094 96.001344)
        (xy 164.964938 96.229586)
        (xy 164.964936 96.229596)
        (xy 164.944341 96.464999)
        (xy 164.944341 96.465)
        (xy 164.964936 96.700403)
        (xy 164.964938 96.700413)
        (xy 165.026094 96.928655)
        (xy 165.026096 96.928659)
        (xy 165.026097 96.928663)
        (xy 165.04352 96.966026)
        (xy 165.125965 97.14283)
        (xy 165.125967 97.142834)
        (xy 165.261501 97.336395)
        (xy 165.261506 97.336402)
        (xy 165.428597 97.503493)
        (xy 165.428603 97.503498)
        (xy 165.614158 97.633425)
        (xy 165.657783 97.688002)
        (xy 165.664977 97.7575)
        (xy 165.633454 97.819855)
        (xy 165.614158 97.836575)
        (xy 165.428597 97.966505)
        (xy 165.261505 98.133597)
        (xy 165.125965 98.327169)
        (xy 165.125964 98.327171)
        (xy 165.026098 98.541335)
        (xy 165.026094 98.541344)
        (xy 164.964938 98.769586)
        (xy 164.964936 98.769596)
        (xy 164.944341 99.004999)
        (xy 164.944341 99.005)
        (xy 164.964936 99.240403)
        (xy 164.964938 99.240413)
        (xy 165.026094 99.468655)
        (xy 165.026096 99.468659)
        (xy 165.026097 99.468663)
        (xy 165.035362 99.488531)
        (xy 165.125965 99.68283)
        (xy 165.125967 99.682834)
        (xy 165.261501 99.876395)
        (xy 165.261506 99.876402)
        (xy 165.428597 100.043493)
        (xy 165.428603 100.043498)
        (xy 165.614158 100.173425)
        (xy 165.657783 100.228002)
        (xy 165.664977 100.2975)
        (xy 165.633454 100.359855)
        (xy 165.614158 100.376575)
        (xy 165.428597 100.506505)
        (xy 165.261505 100.673597)
        (xy 165.125965 100.867169)
        (xy 165.125964 100.867171)
        (xy 165.026098 101.081335)
        (xy 165.026094 101.081344)
        (xy 164.964938 101.309586)
        (xy 164.964936 101.309596)
        (xy 164.944341 101.544999)
        (xy 164.944341 101.545)
        (xy 164.964936 101.780403)
        (xy 164.964938 101.780413)
        (xy 165.026094 102.008655)
        (xy 165.026096 102.008659)
        (xy 165.026097 102.008663)
        (xy 165.125965 102.22283)
        (xy 165.125967 102.222834)
        (xy 165.261501 102.416395)
        (xy 165.261506 102.416402)
        (xy 165.428597 102.583493)
        (xy 165.428603 102.583498)
        (xy 165.614158 102.713425)
        (xy 165.657783 102.768002)
        (xy 165.664977 102.8375)
        (xy 165.633454 102.899855)
        (xy 165.614158 102.916575)
        (xy 165.428597 103.046505)
        (xy 165.261505 103.213597)
        (xy 165.125965 103.407169)
        (xy 165.125964 103.407171)
        (xy 165.026098 103.621335)
        (xy 165.026094 103.621344)
        (xy 164.964938 103.849586)
        (xy 164.964936 103.849596)
        (xy 164.944341 104.084999)
        (xy 164.944341 104.085)
        (xy 164.964936 104.320403)
        (xy 164.964938 104.320413)
        (xy 165.026094 104.548655)
        (xy 165.026096 104.548659)
        (xy 165.026097 104.548663)
        (xy 165.125965 104.76283)
        (xy 165.125967 104.762834)
        (xy 165.261501 104.956395)
        (xy 165.261506 104.956402)
        (xy 165.428597 105.123493)
        (xy 165.428603 105.123498)
        (xy 165.614158 105.253425)
        (xy 165.657783 105.308002)
        (xy 165.664977 105.3775)
        (xy 165.633454 105.439855)
        (xy 165.614158 105.456575)
        (xy 165.428597 105.586505)
        (xy 165.261505 105.753597)
        (xy 165.125965 105.947169)
        (xy 165.125964 105.947171)
        (xy 165.026098 106.161335)
        (xy 165.026094 106.161344)
        (xy 164.964938 106.389586)
        (xy 164.964936 106.389596)
        (xy 164.944341 106.624999)
        (xy 164.944341 106.625)
        (xy 164.964936 106.860403)
        (xy 164.964938 106.860413)
        (xy 165.026094 107.088655)
        (xy 165.026096 107.088659)
        (xy 165.026097 107.088663)
        (xy 165.125842 107.302567)
        (xy 165.125965 107.30283)
        (xy 165.125967 107.302834)
        (xy 165.261501 107.496395)
        (xy 165.261506 107.496402)
        (xy 165.428597 107.663493)
        (xy 165.428603 107.663498)
        (xy 165.614158 107.793425)
        (xy 165.657783 107.848002)
        (xy 165.664977 107.9175)
        (xy 165.633454 107.979855)
        (xy 165.614158 107.996575)
        (xy 165.428597 108.126505)
        (xy 165.261505 108.293597)
        (xy 165.125965 108.487169)
        (xy 165.125964 108.487171)
        (xy 165.026098 108.701335)
        (xy 165.026094 108.701344)
        (xy 164.964938 108.929586)
        (xy 164.964936 108.929596)
        (xy 164.944341 109.164999)
        (xy 164.944341 109.165)
        (xy 164.964936 109.400403)
        (xy 164.964938 109.400413)
        (xy 165.026094 109.628655)
        (xy 165.026096 109.628659)
        (xy 165.026097 109.628663)
        (xy 165.125965 109.84283)
        (xy 165.125967 109.842834)
        (xy 165.261501 110.036395)
        (xy 165.261506 110.036402)
        (xy 165.428597 110.203493)
        (xy 165.428603 110.203498)
        (xy 165.614158 110.333425)
        (xy 165.657783 110.388002)
        (xy 165.664977 110.4575)
        (xy 165.633454 110.519855)
        (xy 165.614158 110.536575)
        (xy 165.428597 110.666505)
        (xy 165.261505 110.833597)
        (xy 165.125965 111.027169)
        (xy 165.125964 111.027171)
        (xy 165.026098 111.241335)
        (xy 165.026094 111.241344)
        (xy 164.964938 111.469586)
        (xy 164.964936 111.469596)
        (xy 164.944341 111.704999)
        (xy 164.944341 111.705)
        (xy 163.3255 111.705)
        (xy 163.3255 91.0495)
        (xy 163.345185 90.982461)
        (xy 163.397989 90.936706)
        (xy 163.4495 90.9255)
        (xy 182.5505 90.9255)
      )
    )
  )
)
