(kicad_sch (version 20230121) (generator eeschema)

  (uuid a88c89ed-b45c-46a0-aacb-3570d5c30b45)

  (paper "A4")

  (title_block
    (title "Step Attenuator")
    (date "2024-04-03")
  )

  (lib_symbols
    (symbol "Connector:Conn_Coaxial" (pin_names (offset 1.016) hide) (in_bom yes) (on_board yes)
      (property "Reference" "J" (at 0.254 3.048 0)
        (effects (font (size 1.27 1.27)))
      )
      (property "Value" "Conn_Coaxial" (at 2.921 0 90)
        (effects (font (size 1.27 1.27)))
      )
      (property "Footprint" "" (at 0 0 0)
        (effects (font (size 1.27 1.27)) hide)
      )
      (property "Datasheet" " ~" (at 0 0 0)
        (effects (font (size 1.27 1.27)) hide)
      )
      (property "ki_keywords" "BNC SMA SMB SMC LEMO coaxial connector CINCH RCA MCX MMCX U.FL UMRF" (at 0 0 0)
        (effects (font (size 1.27 1.27)) hide)
      )
      (property "ki_description" "coaxial connector (BNC, SMA, SMB, SMC, Cinch/RCA, LEMO, ...)" (at 0 0 0)
        (effects (font (size 1.27 1.27)) hide)
      )
      (property "ki_fp_filters" "*BNC* *SMA* *SMB* *SMC* *Cinch* *LEMO* *UMRF* *MCX* *U.FL*" (at 0 0 0)
        (effects (font (size 1.27 1.27)) hide)
      )
      (symbol "Conn_Coaxial_0_1"
        (arc (start -1.778 -0.508) (mid 0.2311 -1.8066) (end 1.778 0)
          (stroke (width 0.254) (type default))
          (fill (type none))
        )
        (polyline
          (pts
            (xy -2.54 0)
            (xy -0.508 0)
          )
          (stroke (width 0) (type default))
          (fill (type none))
        )
        (polyline
          (pts
            (xy 0 -2.54)
            (xy 0 -1.778)
          )
          (stroke (width 0) (type default))
          (fill (type none))
        )
        (circle (center 0 0) (radius 0.508)
          (stroke (width 0.2032) (type default))
          (fill (type none))
        )
        (arc (start 1.778 0) (mid 0.2099 1.8101) (end -1.778 0.508)
          (stroke (width 0.254) (type default))
          (fill (type none))
        )
      )
      (symbol "Conn_Coaxial_1_1"
        (pin passive line (at -5.08 0 0) (length 2.54)
          (name "In" (effects (font (size 1.27 1.27))))
          (number "1" (effects (font (size 1.27 1.27))))
        )
        (pin passive line (at 0 -5.08 90) (length 2.54)
          (name "Ext" (effects (font (size 1.27 1.27))))
          (number "2" (effects (font (size 1.27 1.27))))
        )
      )
    )
    (symbol "Device:R" (pin_numbers hide) (pin_names (offset 0)) (in_bom yes) (on_board yes)
      (property "Reference" "R" (at 2.032 0 90)
        (effects (font (size 1.27 1.27)))
      )
      (property "Value" "R" (at 0 0 90)
        (effects (font (size 1.27 1.27)))
      )
      (property "Footprint" "" (at -1.778 0 90)
        (effects (font (size 1.27 1.27)) hide)
      )
      (property "Datasheet" "~" (at 0 0 0)
        (effects (font (size 1.27 1.27)) hide)
      )
      (property "ki_keywords" "R res resistor" (at 0 0 0)
        (effects (font (size 1.27 1.27)) hide)
      )
      (property "ki_description" "Resistor" (at 0 0 0)
        (effects (font (size 1.27 1.27)) hide)
      )
      (property "ki_fp_filters" "R_*" (at 0 0 0)
        (effects (font (size 1.27 1.27)) hide)
      )
      (symbol "R_0_1"
        (rectangle (start -1.016 -2.54) (end 1.016 2.54)
          (stroke (width 0.254) (type default))
          (fill (type none))
        )
      )
      (symbol "R_1_1"
        (pin passive line (at 0 3.81 270) (length 1.27)
          (name "~" (effects (font (size 1.27 1.27))))
          (number "1" (effects (font (size 1.27 1.27))))
        )
        (pin passive line (at 0 -3.81 90) (length 1.27)
          (name "~" (effects (font (size 1.27 1.27))))
          (number "2" (effects (font (size 1.27 1.27))))
        )
      )
    )
    (symbol "Switch:SW_DPDT_x2" (pin_names (offset 0) hide) (in_bom yes) (on_board yes)
      (property "Reference" "SW" (at 0 5.08 0)
        (effects (font (size 1.27 1.27)))
      )
      (property "Value" "SW_DPDT_x2" (at 0 -5.08 0)
        (effects (font (size 1.27 1.27)))
      )
      (property "Footprint" "" (at 0 0 0)
        (effects (font (size 1.27 1.27)) hide)
      )
      (property "Datasheet" "~" (at 0 0 0)
        (effects (font (size 1.27 1.27)) hide)
      )
      (property "ki_keywords" "switch dual-pole double-throw DPDT spdt ON-ON" (at 0 0 0)
        (effects (font (size 1.27 1.27)) hide)
      )
      (property "ki_description" "Switch, dual pole double throw, separate symbols" (at 0 0 0)
        (effects (font (size 1.27 1.27)) hide)
      )
      (property "ki_fp_filters" "SW*DPDT*" (at 0 0 0)
        (effects (font (size 1.27 1.27)) hide)
      )
      (symbol "SW_DPDT_x2_0_0"
        (circle (center -2.032 0) (radius 0.508)
          (stroke (width 0) (type default))
          (fill (type none))
        )
        (circle (center 2.032 -2.54) (radius 0.508)
          (stroke (width 0) (type default))
          (fill (type none))
        )
      )
      (symbol "SW_DPDT_x2_0_1"
        (rectangle (start -3.175 3.81) (end 3.175 -3.81)
          (stroke (width 0.254) (type default))
          (fill (type background))
        )
        (polyline
          (pts
            (xy -1.524 0.254)
            (xy 1.5748 2.286)
          )
          (stroke (width 0) (type default))
          (fill (type none))
        )
        (circle (center 2.032 2.54) (radius 0.508)
          (stroke (width 0) (type default))
          (fill (type none))
        )
      )
      (symbol "SW_DPDT_x2_1_1"
        (pin passive line (at 5.08 2.54 180) (length 2.54)
          (name "A" (effects (font (size 1.27 1.27))))
          (number "1" (effects (font (size 1.27 1.27))))
        )
        (pin passive line (at -5.08 0 0) (length 2.54)
          (name "B" (effects (font (size 1.27 1.27))))
          (number "2" (effects (font (size 1.27 1.27))))
        )
        (pin passive line (at 5.08 -2.54 180) (length 2.54)
          (name "C" (effects (font (size 1.27 1.27))))
          (number "3" (effects (font (size 1.27 1.27))))
        )
      )
      (symbol "SW_DPDT_x2_2_1"
        (pin passive line (at 5.08 2.54 180) (length 2.54)
          (name "A" (effects (font (size 1.27 1.27))))
          (number "4" (effects (font (size 1.27 1.27))))
        )
        (pin passive line (at -5.08 0 0) (length 2.54)
          (name "B" (effects (font (size 1.27 1.27))))
          (number "5" (effects (font (size 1.27 1.27))))
        )
        (pin passive line (at 5.08 -2.54 180) (length 2.54)
          (name "C" (effects (font (size 1.27 1.27))))
          (number "6" (effects (font (size 1.27 1.27))))
        )
      )
    )
    (symbol "power:GND" (power) (pin_names (offset 0)) (in_bom yes) (on_board yes)
      (property "Reference" "#PWR" (at 0 -6.35 0)
        (effects (font (size 1.27 1.27)) hide)
      )
      (property "Value" "GND" (at 0 -3.81 0)
        (effects (font (size 1.27 1.27)))
      )
      (property "Footprint" "" (at 0 0 0)
        (effects (font (size 1.27 1.27)) hide)
      )
      (property "Datasheet" "" (at 0 0 0)
        (effects (font (size 1.27 1.27)) hide)
      )
      (property "ki_keywords" "global power" (at 0 0 0)
        (effects (font (size 1.27 1.27)) hide)
      )
      (property "ki_description" "Power symbol creates a global label with name \"GND\" , ground" (at 0 0 0)
        (effects (font (size 1.27 1.27)) hide)
      )
      (symbol "GND_0_1"
        (polyline
          (pts
            (xy 0 0)
            (xy 0 -1.27)
            (xy 1.27 -1.27)
            (xy 0 -2.54)
            (xy -1.27 -1.27)
            (xy 0 -1.27)
          )
          (stroke (width 0) (type default))
          (fill (type none))
        )
      )
      (symbol "GND_1_1"
        (pin power_in line (at 0 0 270) (length 0) hide
          (name "GND" (effects (font (size 1.27 1.27))))
          (number "1" (effects (font (size 1.27 1.27))))
        )
      )
    )
  )

  (junction (at 159.639 78.105) (diameter 0) (color 0 0 0 0)
    (uuid 05f02f0c-fbd3-44b7-bb6c-cdd6c5364627)
  )
  (junction (at 241.3 68.961) (diameter 0) (color 0 0 0 0)
    (uuid 06bea6a4-8020-4d4a-ba56-fd831bea2ed0)
  )
  (junction (at 101.6 64.897) (diameter 0) (color 0 0 0 0)
    (uuid 07a27d72-5457-4cde-9df1-a7f781aa0509)
  )
  (junction (at 149.86 64.897) (diameter 0) (color 0 0 0 0)
    (uuid 0a99d7f9-1841-4f74-85e4-37342838178b)
  )
  (junction (at 147.828 78.105) (diameter 0) (color 0 0 0 0)
    (uuid 10bf92c0-92ff-4f94-949b-f6712b8aa8f2)
  )
  (junction (at 205.74 68.961) (diameter 0) (color 0 0 0 0)
    (uuid 14d06d4d-dc6c-4cf3-b020-8406fee9c0e2)
  )
  (junction (at 101.6 70.485) (diameter 0) (color 0 0 0 0)
    (uuid 1672fc0a-01a4-4176-b8f5-4a7b84392b1b)
  )
  (junction (at 119.888 78.105) (diameter 0) (color 0 0 0 0)
    (uuid 17f67b50-b34e-4995-9f9e-cd7acf0e9f0f)
  )
  (junction (at 157.48 68.961) (diameter 0) (color 0 0 0 0)
    (uuid 1d84aeb2-1e05-4804-b301-4e66e6caa36a)
  )
  (junction (at 213.36 68.961) (diameter 0) (color 0 0 0 0)
    (uuid 1ee995d9-747b-47a1-ac76-6067ee2bcef5)
  )
  (junction (at 177.8 68.961) (diameter 0) (color 0 0 0 0)
    (uuid 203eb463-6a59-4b37-aa00-bca050453653)
  )
  (junction (at 157.48 64.897) (diameter 0) (color 0 0 0 0)
    (uuid 23ffd16c-eb9d-480d-a738-18ca812024cf)
  )
  (junction (at 241.3 64.897) (diameter 0) (color 0 0 0 0)
    (uuid 35cfb6fd-31bc-4d29-adbb-111d2944a3c3)
  )
  (junction (at 73.66 70.485) (diameter 0) (color 0 0 0 0)
    (uuid 384e1630-f29d-4791-9dfa-9a161ab32582)
  )
  (junction (at 185.42 68.961) (diameter 0) (color 0 0 0 0)
    (uuid 3b5836b9-34ff-4c31-a235-270958251559)
  )
  (junction (at 205.74 64.897) (diameter 0) (color 0 0 0 0)
    (uuid 441f8a2b-1fa0-42a5-b4d3-4e81d095b344)
  )
  (junction (at 233.68 64.897) (diameter 0) (color 0 0 0 0)
    (uuid 4c5c55fb-02f1-44fb-8e62-27ddf1f3ff95)
  )
  (junction (at 73.66 68.961) (diameter 0) (color 0 0 0 0)
    (uuid 4e822e32-298a-405d-aba3-3cbef47e21cf)
  )
  (junction (at 66.04 70.485) (diameter 0) (color 0 0 0 0)
    (uuid 5b601e02-472f-4d4d-b09d-26f6085600d7)
  )
  (junction (at 175.768 78.105) (diameter 0) (color 0 0 0 0)
    (uuid 65d4f398-1ca1-4f47-a8ee-b9c895442813)
  )
  (junction (at 203.708 78.105) (diameter 0) (color 0 0 0 0)
    (uuid 697b1988-e461-42a1-b3f7-173ea6c833a8)
  )
  (junction (at 149.86 70.485) (diameter 0) (color 0 0 0 0)
    (uuid 765a6a95-67e2-4f9f-bdf6-378c28307f7b)
  )
  (junction (at 213.36 64.897) (diameter 0) (color 0 0 0 0)
    (uuid 7a3d94d3-304f-47fd-a368-e22e251d1f41)
  )
  (junction (at 73.66 64.897) (diameter 0) (color 0 0 0 0)
    (uuid 83105f06-d3b8-46a6-9119-fe505611ebd3)
  )
  (junction (at 177.8 64.897) (diameter 0) (color 0 0 0 0)
    (uuid 84286e0e-4c42-420a-b392-d521d0439811)
  )
  (junction (at 177.8 70.485) (diameter 0) (color 0 0 0 0)
    (uuid 88f98be7-10ca-4c94-a849-0f39bbb930f3)
  )
  (junction (at 233.68 70.485) (diameter 0) (color 0 0 0 0)
    (uuid 89ad12b2-551a-47b3-aaac-4abb6c841902)
  )
  (junction (at 241.3 70.485) (diameter 0) (color 0 0 0 0)
    (uuid 8f70c7f0-8b16-46c8-9201-41c6f1d0ad47)
  )
  (junction (at 93.98 64.897) (diameter 0) (color 0 0 0 0)
    (uuid 916176ca-682c-4fa3-bae2-656ea18880fc)
  )
  (junction (at 64.008 78.105) (diameter 0) (color 0 0 0 0)
    (uuid 93f892da-5eca-426e-888d-9dcefad7fe03)
  )
  (junction (at 129.54 64.897) (diameter 0) (color 0 0 0 0)
    (uuid 9417afab-8f10-48eb-8f56-489366a2def7)
  )
  (junction (at 121.92 68.961) (diameter 0) (color 0 0 0 0)
    (uuid 95e83236-98ab-4da1-97fd-57f5501be953)
  )
  (junction (at 129.54 70.485) (diameter 0) (color 0 0 0 0)
    (uuid 9cafbafd-b4f8-4432-aa85-dd925197c78a)
  )
  (junction (at 93.98 68.961) (diameter 0) (color 0 0 0 0)
    (uuid 9f057618-ee62-4713-811f-3523621f78bb)
  )
  (junction (at 101.6 68.961) (diameter 0) (color 0 0 0 0)
    (uuid a497f2fb-5748-4172-9939-8e83b5d91851)
  )
  (junction (at 157.48 70.485) (diameter 0) (color 0 0 0 0)
    (uuid a7824798-861e-490e-acfc-031532177448)
  )
  (junction (at 129.54 68.961) (diameter 0) (color 0 0 0 0)
    (uuid af7cd3e1-4ba6-44cf-bbaa-cec4b65f4888)
  )
  (junction (at 103.759 78.105) (diameter 0) (color 0 0 0 0)
    (uuid b541edec-064f-49dc-b716-7a7077670ba6)
  )
  (junction (at 66.04 68.961) (diameter 0) (color 0 0 0 0)
    (uuid b69a433f-5efa-4cc0-8ccd-259427dd6948)
  )
  (junction (at 121.92 70.485) (diameter 0) (color 0 0 0 0)
    (uuid b9883205-8c72-4cfc-b9d2-5cefc5d8a662)
  )
  (junction (at 243.459 78.105) (diameter 0) (color 0 0 0 0)
    (uuid bd77f458-5b66-4a4b-bc9d-698f08a27ce3)
  )
  (junction (at 93.98 70.485) (diameter 0) (color 0 0 0 0)
    (uuid bddb0550-bd0c-4969-a54e-94955f145432)
  )
  (junction (at 66.04 64.897) (diameter 0) (color 0 0 0 0)
    (uuid bfd6a8cf-aaaf-4a9b-8aff-4ceb2993fe71)
  )
  (junction (at 131.699 78.105) (diameter 0) (color 0 0 0 0)
    (uuid c5e19044-f0a8-4833-bb67-80aa6d0603f9)
  )
  (junction (at 185.42 70.485) (diameter 0) (color 0 0 0 0)
    (uuid cd095064-cc1c-4e1f-9c5d-9200e7310437)
  )
  (junction (at 205.74 70.485) (diameter 0) (color 0 0 0 0)
    (uuid cd3e5b46-4e0c-42a5-8d8a-dd7ec0633201)
  )
  (junction (at 121.92 64.897) (diameter 0) (color 0 0 0 0)
    (uuid cfe4d872-0140-4d20-bcbc-89cf281d0ec5)
  )
  (junction (at 75.819 78.105) (diameter 0) (color 0 0 0 0)
    (uuid d0f0f341-cca4-4242-a9fc-6c074c7d1973)
  )
  (junction (at 215.519 78.105) (diameter 0) (color 0 0 0 0)
    (uuid d658c472-5238-44c2-a829-238626177352)
  )
  (junction (at 149.86 68.961) (diameter 0) (color 0 0 0 0)
    (uuid dae68957-58b1-4b0c-88ee-7b00ec32279b)
  )
  (junction (at 213.36 70.485) (diameter 0) (color 0 0 0 0)
    (uuid de81f978-0c9e-4a7d-83d8-9de9d90b13ea)
  )
  (junction (at 187.579 78.105) (diameter 0) (color 0 0 0 0)
    (uuid edef44c4-ce0e-4dda-9a2d-f9b6ec9a47f7)
  )
  (junction (at 91.948 78.105) (diameter 0) (color 0 0 0 0)
    (uuid f2635486-3d9c-4acc-9042-e3eb33f3e9a9)
  )
  (junction (at 185.42 64.897) (diameter 0) (color 0 0 0 0)
    (uuid f466972b-3677-408c-b382-12bd982e762a)
  )
  (junction (at 231.648 78.105) (diameter 0) (color 0 0 0 0)
    (uuid fba011fb-ac54-4a0d-82fa-a265b46e56c6)
  )
  (junction (at 233.68 68.961) (diameter 0) (color 0 0 0 0)
    (uuid fccb5b0f-affc-4b93-8633-c082a781d12e)
  )

  (wire (pts (xy 229.489 70.485) (xy 233.68 70.485))
    (stroke (width 0) (type default))
    (uuid 0577880c-2442-4960-a785-2813bf1c39f8)
  )
  (wire (pts (xy 157.48 78.105) (xy 159.639 78.105))
    (stroke (width 0) (type default))
    (uuid 0694bc94-78b8-4427-8edd-24d52b0bd398)
  )
  (wire (pts (xy 61.849 70.485) (xy 66.04 70.485))
    (stroke (width 0) (type default))
    (uuid 084e9e5e-653c-4f27-a2cf-8921ea64aa63)
  )
  (wire (pts (xy 129.54 68.961) (xy 129.54 70.485))
    (stroke (width 0) (type default))
    (uuid 0a864700-bed0-4653-896a-defa256c00e0)
  )
  (wire (pts (xy 89.789 70.485) (xy 93.98 70.485))
    (stroke (width 0) (type default))
    (uuid 0b5ec4ac-95d9-4e9b-bb1f-2efbc3716744)
  )
  (wire (pts (xy 205.74 64.897) (xy 205.74 68.961))
    (stroke (width 0) (type default))
    (uuid 0ed621b5-151e-4578-904a-3059b856b983)
  )
  (wire (pts (xy 64.008 78.105) (xy 66.04 78.105))
    (stroke (width 0) (type default))
    (uuid 0f238069-67e8-41cf-8605-e66619aae9b8)
  )
  (wire (pts (xy 173.609 70.485) (xy 177.8 70.485))
    (stroke (width 0) (type default))
    (uuid 144d3d27-938e-4b6e-8bd9-06e647467776)
  )
  (wire (pts (xy 233.68 59.817) (xy 241.3 59.817))
    (stroke (width 0) (type default))
    (uuid 1ec82361-c9fa-4c59-b0e0-8c700a3bcf82)
  )
  (wire (pts (xy 233.68 68.961) (xy 233.68 70.485))
    (stroke (width 0) (type default))
    (uuid 227d04f4-1c55-4964-ba74-cbf4075b5372)
  )
  (wire (pts (xy 213.36 70.485) (xy 217.551 70.485))
    (stroke (width 0) (type default))
    (uuid 294e9864-ae20-4609-9001-fe13df9d3847)
  )
  (wire (pts (xy 131.699 78.105) (xy 133.731 78.105))
    (stroke (width 0) (type default))
    (uuid 2a23a80c-c7cc-442c-b863-2d5971f6ee91)
  )
  (wire (pts (xy 101.6 68.961) (xy 101.6 70.485))
    (stroke (width 0) (type default))
    (uuid 2a6a80e8-c083-4b24-812a-ef19a592e229)
  )
  (wire (pts (xy 121.92 68.961) (xy 121.92 70.485))
    (stroke (width 0) (type default))
    (uuid 2ad4f8a8-2188-4e55-bc8b-55dd9f665c14)
  )
  (wire (pts (xy 66.04 59.817) (xy 73.66 59.817))
    (stroke (width 0) (type default))
    (uuid 2c0a9b3c-60e1-45eb-87ac-f56143006d50)
  )
  (wire (pts (xy 241.3 68.961) (xy 241.3 70.485))
    (stroke (width 0) (type default))
    (uuid 2c38fd16-5325-4119-8f40-e0184555e3ba)
  )
  (wire (pts (xy 149.86 64.897) (xy 149.86 68.961))
    (stroke (width 0) (type default))
    (uuid 37737563-1e57-4433-9e1f-93c78d758692)
  )
  (wire (pts (xy 243.459 78.105) (xy 245.491 78.105))
    (stroke (width 0) (type default))
    (uuid 3a3fda65-c6f7-4d14-a619-bf86b33baad8)
  )
  (wire (pts (xy 89.789 78.105) (xy 91.948 78.105))
    (stroke (width 0) (type default))
    (uuid 3b066528-c7b5-4eac-9542-ddbbccd489c3)
  )
  (wire (pts (xy 241.3 78.105) (xy 243.459 78.105))
    (stroke (width 0) (type default))
    (uuid 41b12e72-7cc5-4fc6-b73d-f38dc69cf87d)
  )
  (wire (pts (xy 213.36 64.897) (xy 213.36 68.961))
    (stroke (width 0) (type default))
    (uuid 425d8ea2-c7c9-486d-806b-57470d716636)
  )
  (wire (pts (xy 175.768 78.105) (xy 177.8 78.105))
    (stroke (width 0) (type default))
    (uuid 45725ef8-3895-42d7-84e4-06f31454a41f)
  )
  (wire (pts (xy 201.549 70.485) (xy 205.74 70.485))
    (stroke (width 0) (type default))
    (uuid 46fcc6b0-3df6-4f10-891f-1e7dd50aa471)
  )
  (wire (pts (xy 93.98 68.961) (xy 93.98 70.485))
    (stroke (width 0) (type default))
    (uuid 476e19ce-302b-4466-8ca6-f3c41430fd25)
  )
  (wire (pts (xy 117.729 70.485) (xy 121.92 70.485))
    (stroke (width 0) (type default))
    (uuid 48bd8e24-50a7-452a-8cc5-34b6e19d2fe5)
  )
  (wire (pts (xy 157.48 68.961) (xy 157.48 70.485))
    (stroke (width 0) (type default))
    (uuid 4989d373-be26-4c9c-b3d2-cce14debc5b2)
  )
  (wire (pts (xy 119.888 78.105) (xy 121.92 78.105))
    (stroke (width 0) (type default))
    (uuid 4e84ec2d-71af-4573-8b1d-f6190294cf20)
  )
  (wire (pts (xy 203.708 78.105) (xy 205.74 78.105))
    (stroke (width 0) (type default))
    (uuid 53f3231a-7292-46fb-88f9-cca9cfcd8aff)
  )
  (wire (pts (xy 201.549 78.105) (xy 203.708 78.105))
    (stroke (width 0) (type default))
    (uuid 54e5c3b5-f4f1-4bff-b6d1-518cbc7ac2a0)
  )
  (wire (pts (xy 73.66 78.105) (xy 75.819 78.105))
    (stroke (width 0) (type default))
    (uuid 54f4252d-1948-435f-9d2f-8fa83f1c2619)
  )
  (wire (pts (xy 149.86 59.817) (xy 157.48 59.817))
    (stroke (width 0) (type default))
    (uuid 5538bdda-0e93-4fe7-9a4e-108f144d9846)
  )
  (wire (pts (xy 187.579 78.105) (xy 189.611 78.105))
    (stroke (width 0) (type default))
    (uuid 57c3c18c-439a-4369-8d21-5463f6ff1d8e)
  )
  (wire (pts (xy 213.36 68.961) (xy 213.36 70.485))
    (stroke (width 0) (type default))
    (uuid 5b36be13-1c85-442d-a355-72455c12b882)
  )
  (wire (pts (xy 205.74 68.961) (xy 205.74 70.485))
    (stroke (width 0) (type default))
    (uuid 5c4dce47-99ca-4ad2-be9e-497e8c139de8)
  )
  (wire (pts (xy 177.8 68.961) (xy 177.8 70.485))
    (stroke (width 0) (type default))
    (uuid 5ed35fa4-ffb5-43c9-b9fe-1ef33c3b6b97)
  )
  (wire (pts (xy 147.828 78.105) (xy 149.86 78.105))
    (stroke (width 0) (type default))
    (uuid 5ed6a389-436a-40eb-933c-ae12999305ea)
  )
  (wire (pts (xy 233.68 64.897) (xy 233.68 68.961))
    (stroke (width 0) (type default))
    (uuid 5f480091-3e01-49ab-a746-ded81b09b07c)
  )
  (wire (pts (xy 121.92 59.817) (xy 129.54 59.817))
    (stroke (width 0) (type default))
    (uuid 61f08f01-4704-4168-8008-7210a048d47e)
  )
  (wire (pts (xy 205.74 59.817) (xy 213.36 59.817))
    (stroke (width 0) (type default))
    (uuid 651ff7c1-03f8-4901-a70a-80a15a4dd117)
  )
  (wire (pts (xy 129.54 64.897) (xy 129.54 68.961))
    (stroke (width 0) (type default))
    (uuid 7235326e-1f93-4656-a332-2759d6a74e48)
  )
  (wire (pts (xy 121.92 64.897) (xy 121.92 68.961))
    (stroke (width 0) (type default))
    (uuid 75decf09-4370-45e8-a6f8-8f70995bb053)
  )
  (wire (pts (xy 213.36 78.105) (xy 215.519 78.105))
    (stroke (width 0) (type default))
    (uuid 76e36423-3ec3-4d88-b06e-0592d54a4593)
  )
  (wire (pts (xy 91.948 78.105) (xy 93.98 78.105))
    (stroke (width 0) (type default))
    (uuid 79c29ca2-7e6e-41fd-bb8d-7d76e76b3e5c)
  )
  (wire (pts (xy 93.98 64.897) (xy 93.98 68.961))
    (stroke (width 0) (type default))
    (uuid 7cf16e73-e68a-407e-83c4-017986da9711)
  )
  (wire (pts (xy 149.86 68.961) (xy 149.86 70.485))
    (stroke (width 0) (type default))
    (uuid 7e5aa483-da9a-4afb-9586-5b7e22478a8c)
  )
  (wire (pts (xy 117.729 78.105) (xy 119.888 78.105))
    (stroke (width 0) (type default))
    (uuid 8169237a-cd7a-4d45-a30e-d385e68a1208)
  )
  (wire (pts (xy 73.66 70.485) (xy 77.851 70.485))
    (stroke (width 0) (type default))
    (uuid 87637dda-7f0d-4f35-838e-ac6cbf9e1b02)
  )
  (wire (pts (xy 157.48 64.897) (xy 157.48 68.961))
    (stroke (width 0) (type default))
    (uuid 8a7b7abd-4b91-4fab-851a-af851eda35b4)
  )
  (wire (pts (xy 241.3 70.485) (xy 245.491 70.485))
    (stroke (width 0) (type default))
    (uuid 8e6a41fd-75f6-4dc4-952d-b347adf445d6)
  )
  (wire (pts (xy 159.639 78.105) (xy 161.671 78.105))
    (stroke (width 0) (type default))
    (uuid 915fd078-b0e1-4dcb-b291-19f5b78f1327)
  )
  (wire (pts (xy 101.6 64.897) (xy 101.6 68.961))
    (stroke (width 0) (type default))
    (uuid 95717506-97e5-4207-87db-2840e5a56338)
  )
  (wire (pts (xy 73.66 68.961) (xy 73.66 70.485))
    (stroke (width 0) (type default))
    (uuid 98a34e8d-5fa3-468e-8ab8-2d16cd6c690e)
  )
  (wire (pts (xy 61.849 78.105) (xy 64.008 78.105))
    (stroke (width 0) (type default))
    (uuid 99e4d218-08b1-410d-b395-f97ae5171c61)
  )
  (wire (pts (xy 66.04 68.961) (xy 66.04 70.485))
    (stroke (width 0) (type default))
    (uuid 9cbf4fba-de01-4b3a-bc51-06ea8288b1f1)
  )
  (wire (pts (xy 101.6 78.105) (xy 103.759 78.105))
    (stroke (width 0) (type default))
    (uuid 9df5f27e-7bfd-48e8-a0e6-ffc25254e8bf)
  )
  (wire (pts (xy 103.759 78.105) (xy 105.791 78.105))
    (stroke (width 0) (type default))
    (uuid 9e32dc24-252a-4a35-b6f7-2505f36bd6f7)
  )
  (wire (pts (xy 129.54 78.105) (xy 131.699 78.105))
    (stroke (width 0) (type default))
    (uuid a20f2be7-444d-472e-8d0b-f8dfb012b86b)
  )
  (wire (pts (xy 66.04 64.897) (xy 66.04 68.961))
    (stroke (width 0) (type default))
    (uuid a243ed11-6a70-458b-90f9-94a69e6a6525)
  )
  (wire (pts (xy 185.42 78.105) (xy 187.579 78.105))
    (stroke (width 0) (type default))
    (uuid adfc0d9e-2d00-4e60-845b-6b5e9bdce1e6)
  )
  (wire (pts (xy 231.648 78.105) (xy 233.68 78.105))
    (stroke (width 0) (type default))
    (uuid b790d851-c245-4e32-adfc-b702f2420421)
  )
  (wire (pts (xy 129.54 70.485) (xy 133.731 70.485))
    (stroke (width 0) (type default))
    (uuid b7d17e18-ec5d-43fa-8e1d-bf21c3ac0c66)
  )
  (wire (pts (xy 177.8 64.897) (xy 177.8 68.961))
    (stroke (width 0) (type default))
    (uuid b8a0f72a-73db-4510-9344-4222ffd8293b)
  )
  (wire (pts (xy 229.489 78.105) (xy 231.648 78.105))
    (stroke (width 0) (type default))
    (uuid bbbe7b83-13b3-49b7-a814-1005b735a5f8)
  )
  (wire (pts (xy 185.42 64.897) (xy 185.42 68.961))
    (stroke (width 0) (type default))
    (uuid bd9e6682-e7af-4e99-8272-1b7a5ee09796)
  )
  (wire (pts (xy 185.42 70.485) (xy 189.611 70.485))
    (stroke (width 0) (type default))
    (uuid c4aca626-0330-48e4-a5e8-cc1dc0704a59)
  )
  (wire (pts (xy 145.669 78.105) (xy 147.828 78.105))
    (stroke (width 0) (type default))
    (uuid c6115c43-c8c0-4ea8-8a4a-d440b2dcb139)
  )
  (wire (pts (xy 145.669 70.485) (xy 149.86 70.485))
    (stroke (width 0) (type default))
    (uuid d3173a61-dd35-49e3-b75a-7fcea2e7e507)
  )
  (wire (pts (xy 173.609 78.105) (xy 175.768 78.105))
    (stroke (width 0) (type default))
    (uuid d5864d5f-6893-4425-b65c-c463fd662b31)
  )
  (wire (pts (xy 73.66 64.897) (xy 73.66 68.961))
    (stroke (width 0) (type default))
    (uuid d71dc72c-eae2-4111-bd7c-838b79da15f8)
  )
  (wire (pts (xy 241.3 64.897) (xy 241.3 68.961))
    (stroke (width 0) (type default))
    (uuid da26493b-5ca5-40fe-8e5b-7619822a6621)
  )
  (wire (pts (xy 215.519 78.105) (xy 217.551 78.105))
    (stroke (width 0) (type default))
    (uuid db9aa279-1a79-4aac-9041-5b5eb0d43ad1)
  )
  (wire (pts (xy 157.48 70.485) (xy 161.671 70.485))
    (stroke (width 0) (type default))
    (uuid df06e944-6dc4-4544-b9bc-5b6093c3a300)
  )
  (wire (pts (xy 101.6 70.485) (xy 105.791 70.485))
    (stroke (width 0) (type default))
    (uuid e2d11c45-6d4a-4240-9967-411ce22207b8)
  )
  (wire (pts (xy 53.34 62.357) (xy 55.88 62.357))
    (stroke (width 0) (type default))
    (uuid e4446ea0-b3be-4bb7-a352-08921c6a1145)
  )
  (wire (pts (xy 75.819 78.105) (xy 77.851 78.105))
    (stroke (width 0) (type default))
    (uuid e8ddbfd6-83b0-41e6-afb1-728e6e7d78bd)
  )
  (wire (pts (xy 93.98 59.817) (xy 101.6 59.817))
    (stroke (width 0) (type default))
    (uuid ebf93f87-e2e2-40e3-a9eb-f325769f24c7)
  )
  (wire (pts (xy 177.8 59.817) (xy 185.42 59.817))
    (stroke (width 0) (type default))
    (uuid f26bbe94-5fb5-4709-a4d7-9938939e7683)
  )
  (wire (pts (xy 185.42 68.961) (xy 185.42 70.485))
    (stroke (width 0) (type default))
    (uuid fcafedfb-6e69-45ac-93ec-b305614e38a2)
  )

  (text "6dB" (at 177.292 53.721 0)
    (effects (font (size 3 3)) (justify left bottom))
    (uuid 1a1fa5cf-a004-4331-99b2-6e6f2ce128c7)
  )
  (text "10dB" (at 232.2068 53.8988 0)
    (effects (font (size 3 3)) (justify left bottom))
    (uuid 446115d8-109c-4134-a635-4118db11a5a1)
  )
  (text "3dB" (at 121.92 53.594 0)
    (effects (font (size 3 3)) (justify left bottom))
    (uuid 715f91da-df98-4aa4-ac0e-0441f9036a3c)
  )
  (text "8dB" (at 205.359 54.102 0)
    (effects (font (size 3 3)) (justify left bottom))
    (uuid 8d5d7513-e445-4918-9561-4458a2f790bd)
  )
  (text "4dB" (at 149.479 53.594 0)
    (effects (font (size 3 3)) (justify left bottom))
    (uuid afe59e12-6e18-4208-953a-0f366ea8004b)
  )
  (text "2dB" (at 93.599 53.594 0)
    (effects (font (size 3 3)) (justify left bottom))
    (uuid bcc9a346-ced4-4838-8d44-fce7f6162c3a)
  )
  (text "1dB" (at 65.913 53.34 0)
    (effects (font (size 3 3)) (justify left bottom))
    (uuid ff896c9a-e1e3-409c-8fd8-4118122e21db)
  )

  (symbol (lib_id "Device:R") (at 201.549 74.295 180) (unit 1)
    (in_bom yes) (on_board yes) (dnp no)
    (uuid 03519988-2ea8-4c54-8938-66e76e96e386)
    (property "Reference" "R31" (at 199.644 74.295 90)
      (effects (font (size 1.27 1.27)))
    )
    (property "Value" "510" (at 201.676 74.295 90)
      (effects (font (size 1.27 1.27)))
    )
    (property "Footprint" "Resistor_SMD:R_1206_3216Metric" (at 203.327 74.295 90)
      (effects (font (size 1.27 1.27)) hide)
    )
    (property "Datasheet" "~" (at 201.549 74.295 0)
      (effects (font (size 1.27 1.27)) hide)
    )
    (pin "1" (uuid 3ee331c8-dd1d-4bb1-be20-951af1024f2a))
    (pin "2" (uuid d8f70c20-55ec-4eee-9629-f3c00b5c07a5))
    (instances
      (project "StepAttenuator"
        (path "/a88c89ed-b45c-46a0-aacb-3570d5c30b45"
          (reference "R31") (unit 1)
        )
      )
    )
  )

  (symbol (lib_id "Device:R") (at 233.68 74.295 180) (unit 1)
    (in_bom yes) (on_board yes) (dnp no)
    (uuid 05363970-0231-4ca9-8a22-3bbb1ee97efb)
    (property "Reference" "R38" (at 231.775 74.295 90)
      (effects (font (size 1.27 1.27)))
    )
    (property "Value" "270" (at 233.807 74.295 90)
      (effects (font (size 1.27 1.27)))
    )
    (property "Footprint" "Resistor_SMD:R_1206_3216Metric" (at 235.458 74.295 90)
      (effects (font (size 1.27 1.27)) hide)
    )
    (property "Datasheet" "~" (at 233.68 74.295 0)
      (effects (font (size 1.27 1.27)) hide)
    )
    (pin "1" (uuid c748e91f-2394-4a24-af27-66cb04c55388))
    (pin "2" (uuid b41d9d18-e163-492b-9cb2-afa32025c001))
    (instances
      (project "StepAttenuator"
        (path "/a88c89ed-b45c-46a0-aacb-3570d5c30b45"
          (reference "R38") (unit 1)
        )
      )
    )
  )

  (symbol (lib_id "Device:R") (at 229.489 74.295 180) (unit 1)
    (in_bom yes) (on_board yes) (dnp no)
    (uuid 054e3b45-3c90-4660-a78b-bcea8dcda33e)
    (property "Reference" "R37" (at 227.584 74.295 90)
      (effects (font (size 1.27 1.27)))
    )
    (property "Value" "150" (at 229.616 74.295 90)
      (effects (font (size 1.27 1.27)))
    )
    (property "Footprint" "Resistor_SMD:R_1206_3216Metric" (at 231.267 74.295 90)
      (effects (font (size 1.27 1.27)) hide)
    )
    (property "Datasheet" "~" (at 229.489 74.295 0)
      (effects (font (size 1.27 1.27)) hide)
    )
    (pin "1" (uuid c3214f49-a463-45ee-9a11-6393bbc13e55))
    (pin "2" (uuid bab918eb-5eeb-4676-b4c9-d9e50b4251fb))
    (instances
      (project "StepAttenuator"
        (path "/a88c89ed-b45c-46a0-aacb-3570d5c30b45"
          (reference "R37") (unit 1)
        )
      )
    )
  )

  (symbol (lib_id "Device:R") (at 153.67 68.961 90) (unit 1)
    (in_bom yes) (on_board yes) (dnp no)
    (uuid 0572deb2-89db-4249-90b7-c3d8f6f2b098)
    (property "Reference" "R22" (at 153.67 67.056 90)
      (effects (font (size 1.27 1.27)))
    )
    (property "Value" "~" (at 153.67 69.088 90)
      (effects (font (size 1.27 1.27)))
    )
    (property "Footprint" "Resistor_SMD:R_1206_3216Metric" (at 153.67 70.739 90)
      (effects (font (size 1.27 1.27)) hide)
    )
    (property "Datasheet" "~" (at 153.67 68.961 0)
      (effects (font (size 1.27 1.27)) hide)
    )
    (pin "1" (uuid 7d556264-2248-4652-8d07-d664c3967486))
    (pin "2" (uuid 98c08481-e9e9-479e-8a58-dd83a81262dd))
    (instances
      (project "StepAttenuator"
        (path "/a88c89ed-b45c-46a0-aacb-3570d5c30b45"
          (reference "R22") (unit 1)
        )
      )
    )
  )

  (symbol (lib_id "Switch:SW_DPDT_x2") (at 134.62 62.357 180) (unit 2)
    (in_bom yes) (on_board yes) (dnp no)
    (uuid 05e9a281-3883-4df2-bc6d-7272e7d9ea92)
    (property "Reference" "SW3" (at 134.62 53.975 0)
      (effects (font (size 1.27 1.27)))
    )
    (property "Value" "SW_DPDT_x2" (at 132.2324 56.896 0)
      (effects (font (size 1.27 1.27)))
    )
    (property "Footprint" "Global:Switch_DPDT_MTS202" (at 134.62 62.357 0)
      (effects (font (size 1.27 1.27)) hide)
    )
    (property "Datasheet" "~" (at 134.62 62.357 0)
      (effects (font (size 1.27 1.27)) hide)
    )
    (pin "6" (uuid 5bb9e0aa-df03-47ed-ae76-0a687c4a033e))
    (pin "4" (uuid 4d9190b7-7cd8-4084-8a71-5f92f687f6f2))
    (pin "2" (uuid e03bed18-7aef-4901-a74e-8e3837d3e632))
    (pin "3" (uuid d718bdf9-280f-4bf4-875f-90c570d3da0d))
    (pin "1" (uuid 93764623-a6f5-4899-b0f0-75ee7df3140b))
    (pin "5" (uuid aa9b900f-3a8e-4376-b9f1-bd8795a22b87))
    (instances
      (project "StepAttenuator"
        (path "/a88c89ed-b45c-46a0-aacb-3570d5c30b45"
          (reference "SW3") (unit 2)
        )
      )
    )
  )

  (symbol (lib_id "Device:R") (at 121.92 74.295 180) (unit 1)
    (in_bom yes) (on_board yes) (dnp no)
    (uuid 064df47f-954f-415b-9915-d2008c9d43f6)
    (property "Reference" "R14" (at 120.015 74.295 90)
      (effects (font (size 1.27 1.27)))
    )
    (property "Value" "680" (at 122.047 74.295 90)
      (effects (font (size 1.27 1.27)))
    )
    (property "Footprint" "Resistor_SMD:R_1206_3216Metric" (at 123.698 74.295 90)
      (effects (font (size 1.27 1.27)) hide)
    )
    (property "Datasheet" "~" (at 121.92 74.295 0)
      (effects (font (size 1.27 1.27)) hide)
    )
    (pin "1" (uuid 471ba121-478f-4d86-be0f-26374c4bb0a2))
    (pin "2" (uuid e4078737-4ee9-4f2c-bc98-4a1d65383caf))
    (instances
      (project "StepAttenuator"
        (path "/a88c89ed-b45c-46a0-aacb-3570d5c30b45"
          (reference "R14") (unit 1)
        )
      )
    )
  )

  (symbol (lib_id "Device:R") (at 66.04 74.295 180) (unit 1)
    (in_bom yes) (on_board yes) (dnp no)
    (uuid 0e749f69-47fa-4fe0-a87d-dd077938b77a)
    (property "Reference" "R4" (at 64.135 74.295 90)
      (effects (font (size 1.27 1.27)))
    )
    (property "Value" "1740" (at 66.167 74.295 90)
      (effects (font (size 1.27 1.27)))
    )
    (property "Footprint" "Resistor_SMD:R_1206_3216Metric" (at 67.818 74.295 90)
      (effects (font (size 1.27 1.27)) hide)
    )
    (property "Datasheet" "~" (at 66.04 74.295 0)
      (effects (font (size 1.27 1.27)) hide)
    )
    (pin "1" (uuid 47d2b104-bb0b-4d04-9d13-561944c293c7))
    (pin "2" (uuid 6863ed60-a06c-4f2c-8818-275c58134ea1))
    (instances
      (project "StepAttenuator"
        (path "/a88c89ed-b45c-46a0-aacb-3570d5c30b45"
          (reference "R4") (unit 1)
        )
      )
    )
  )

  (symbol (lib_id "Device:R") (at 69.85 68.961 90) (unit 1)
    (in_bom yes) (on_board yes) (dnp no)
    (uuid 1a4a4acc-21e6-412b-a902-0a5ba1598e37)
    (property "Reference" "R2" (at 69.85 67.056 90)
      (effects (font (size 1.27 1.27)))
    )
    (property "Value" "12" (at 69.85 69.088 90)
      (effects (font (size 1.27 1.27)))
    )
    (property "Footprint" "Resistor_SMD:R_1206_3216Metric" (at 69.85 70.739 90)
      (effects (font (size 1.27 1.27)) hide)
    )
    (property "Datasheet" "~" (at 69.85 68.961 0)
      (effects (font (size 1.27 1.27)) hide)
    )
    (pin "1" (uuid 5a4f6da2-b5aa-46e9-bcdc-0113d943aed5))
    (pin "2" (uuid 2a9d2f39-a97a-4e8a-971b-792da5c27a99))
    (instances
      (project "StepAttenuator"
        (path "/a88c89ed-b45c-46a0-aacb-3570d5c30b45"
          (reference "R2") (unit 1)
        )
      )
    )
  )

  (symbol (lib_id "Device:R") (at 189.611 74.295 180) (unit 1)
    (in_bom yes) (on_board yes) (dnp no)
    (uuid 21c18660-af58-446a-9797-31f97cf677a4)
    (property "Reference" "R30" (at 187.706 74.295 90)
      (effects (font (size 1.27 1.27)))
    )
    (property "Value" "~" (at 189.738 74.295 90)
      (effects (font (size 1.27 1.27)))
    )
    (property "Footprint" "Resistor_SMD:R_1206_3216Metric" (at 191.389 74.295 90)
      (effects (font (size 1.27 1.27)) hide)
    )
    (property "Datasheet" "~" (at 189.611 74.295 0)
      (effects (font (size 1.27 1.27)) hide)
    )
    (pin "1" (uuid ed2a2d2b-25d9-486f-9611-bafb3fb30ccc))
    (pin "2" (uuid c93c1840-f3f8-44f8-af2c-95bbe34a2dd2))
    (instances
      (project "StepAttenuator"
        (path "/a88c89ed-b45c-46a0-aacb-3570d5c30b45"
          (reference "R30") (unit 1)
        )
      )
    )
  )

  (symbol (lib_id "Device:R") (at 93.98 74.295 180) (unit 1)
    (in_bom yes) (on_board yes) (dnp no)
    (uuid 21dd20c4-ffe8-4215-82e4-a20029988612)
    (property "Reference" "R8" (at 92.075 74.295 90)
      (effects (font (size 1.27 1.27)))
    )
    (property "Value" "1200" (at 94.107 74.295 90)
      (effects (font (size 1.27 1.27)))
    )
    (property "Footprint" "Resistor_SMD:R_1206_3216Metric" (at 95.758 74.295 90)
      (effects (font (size 1.27 1.27)) hide)
    )
    (property "Datasheet" "~" (at 93.98 74.295 0)
      (effects (font (size 1.27 1.27)) hide)
    )
    (pin "1" (uuid e9d5c153-c8c6-4680-93b8-072a00e8f2d3))
    (pin "2" (uuid 190eded5-fb4e-49da-97f5-9ff074b46f72))
    (instances
      (project "StepAttenuator"
        (path "/a88c89ed-b45c-46a0-aacb-3570d5c30b45"
          (reference "R8") (unit 1)
        )
      )
    )
  )

  (symbol (lib_id "Device:R") (at 145.669 74.295 180) (unit 1)
    (in_bom yes) (on_board yes) (dnp no)
    (uuid 23567849-7bcc-4bc9-8dec-7b17e87c1b94)
    (property "Reference" "R19" (at 143.764 74.295 90)
      (effects (font (size 1.27 1.27)))
    )
    (property "Value" "220" (at 145.796 74.295 90)
      (effects (font (size 1.27 1.27)))
    )
    (property "Footprint" "Resistor_SMD:R_1206_3216Metric" (at 147.447 74.295 90)
      (effects (font (size 1.27 1.27)) hide)
    )
    (property "Datasheet" "~" (at 145.669 74.295 0)
      (effects (font (size 1.27 1.27)) hide)
    )
    (pin "1" (uuid 4bc6c3b7-b33b-4530-824a-be8204efe3a8))
    (pin "2" (uuid d9693907-86a1-4502-9e6b-fb2907eb8e1d))
    (instances
      (project "StepAttenuator"
        (path "/a88c89ed-b45c-46a0-aacb-3570d5c30b45"
          (reference "R19") (unit 1)
        )
      )
    )
  )

  (symbol (lib_id "Device:R") (at 217.551 74.295 180) (unit 1)
    (in_bom yes) (on_board yes) (dnp no)
    (uuid 2429675a-1631-4f96-9b96-dfa731569468)
    (property "Reference" "R36" (at 215.646 74.295 90)
      (effects (font (size 1.27 1.27)))
    )
    (property "Value" "150" (at 217.678 74.295 90)
      (effects (font (size 1.27 1.27)))
    )
    (property "Footprint" "Resistor_SMD:R_1206_3216Metric" (at 219.329 74.295 90)
      (effects (font (size 1.27 1.27)) hide)
    )
    (property "Datasheet" "~" (at 217.551 74.295 0)
      (effects (font (size 1.27 1.27)) hide)
    )
    (pin "1" (uuid dccddda6-a696-4750-8be3-a201ba5bbbd9))
    (pin "2" (uuid 6ab73f9c-6b96-47b3-a057-80a153df8540))
    (instances
      (project "StepAttenuator"
        (path "/a88c89ed-b45c-46a0-aacb-3570d5c30b45"
          (reference "R36") (unit 1)
        )
      )
    )
  )

  (symbol (lib_id "power:GND") (at 48.26 67.437 0) (unit 1)
    (in_bom yes) (on_board yes) (dnp no) (fields_autoplaced)
    (uuid 249ed1ff-cde9-494e-a39c-6878a61de522)
    (property "Reference" "#PWR03" (at 48.26 73.787 0)
      (effects (font (size 1.27 1.27)) hide)
    )
    (property "Value" "GND" (at 48.26 72.136 0)
      (effects (font (size 1.27 1.27)))
    )
    (property "Footprint" "" (at 48.26 67.437 0)
      (effects (font (size 1.27 1.27)) hide)
    )
    (property "Datasheet" "" (at 48.26 67.437 0)
      (effects (font (size 1.27 1.27)) hide)
    )
    (pin "1" (uuid 331e47d4-b9db-411b-b92f-248a633b4267))
    (instances
      (project "StepAttenuator"
        (path "/a88c89ed-b45c-46a0-aacb-3570d5c30b45"
          (reference "#PWR03") (unit 1)
        )
      )
    )
  )

  (symbol (lib_id "Connector:Conn_Coaxial") (at 256.54 62.357 0) (unit 1)
    (in_bom yes) (on_board yes) (dnp no)
    (uuid 2818106b-a3c4-4a9c-b3a9-1d5922e212e9)
    (property "Reference" "J2" (at 256.54 56.896 0)
      (effects (font (size 1.27 1.27)))
    )
    (property "Value" "Conn_Coaxial" (at 261.747 59.055 0)
      (effects (font (size 1.27 1.27)))
    )
    (property "Footprint" "Global:BNC_Pad" (at 256.54 62.357 0)
      (effects (font (size 1.27 1.27)) hide)
    )
    (property "Datasheet" " ~" (at 256.54 62.357 0)
      (effects (font (size 1.27 1.27)) hide)
    )
    (pin "2" (uuid 75dc87ff-5444-43ff-b2fc-08080e5a80b1))
    (pin "1" (uuid fc64947a-12f5-409a-8e84-559334b86540))
    (instances
      (project "StepAttenuator"
        (path "/a88c89ed-b45c-46a0-aacb-3570d5c30b45"
          (reference "J2") (unit 1)
        )
      )
    )
  )

  (symbol (lib_id "Device:R") (at 61.849 74.295 180) (unit 1)
    (in_bom yes) (on_board yes) (dnp no)
    (uuid 29822372-3902-469a-a08d-0120e626260b)
    (property "Reference" "R3" (at 59.944 74.295 90)
      (effects (font (size 1.27 1.27)))
    )
    (property "Value" "1740" (at 61.976 74.295 90)
      (effects (font (size 1.27 1.27)))
    )
    (property "Footprint" "Resistor_SMD:R_1206_3216Metric" (at 63.627 74.295 90)
      (effects (font (size 1.27 1.27)) hide)
    )
    (property "Datasheet" "~" (at 61.849 74.295 0)
      (effects (font (size 1.27 1.27)) hide)
    )
    (pin "1" (uuid 373efe06-61b3-4e32-b089-14bb900e8fd7))
    (pin "2" (uuid a4639b94-818e-4632-a5b2-640ded726bab))
    (instances
      (project "StepAttenuator"
        (path "/a88c89ed-b45c-46a0-aacb-3570d5c30b45"
          (reference "R3") (unit 1)
        )
      )
    )
  )

  (symbol (lib_id "Device:R") (at 181.61 64.897 90) (unit 1)
    (in_bom yes) (on_board yes) (dnp no)
    (uuid 2a81a051-ec3e-456e-977f-6b4d6ae36bf6)
    (property "Reference" "R27" (at 181.61 62.992 90)
      (effects (font (size 1.27 1.27)))
    )
    (property "Value" "82" (at 181.61 65.024 90)
      (effects (font (size 1.27 1.27)))
    )
    (property "Footprint" "Resistor_SMD:R_1206_3216Metric" (at 181.61 66.675 90)
      (effects (font (size 1.27 1.27)) hide)
    )
    (property "Datasheet" "~" (at 181.61 64.897 0)
      (effects (font (size 1.27 1.27)) hide)
    )
    (pin "1" (uuid bf40a033-1a76-4789-be2d-d4badaf2dce2))
    (pin "2" (uuid b1d69021-6c79-4919-8a94-07adbcff35fd))
    (instances
      (project "StepAttenuator"
        (path "/a88c89ed-b45c-46a0-aacb-3570d5c30b45"
          (reference "R27") (unit 1)
        )
      )
    )
  )

  (symbol (lib_id "power:GND") (at 231.648 78.105 0) (unit 1)
    (in_bom yes) (on_board yes) (dnp no) (fields_autoplaced)
    (uuid 2b847f8a-6935-4e23-a365-2af4285010a0)
    (property "Reference" "#PWR014" (at 231.648 84.455 0)
      (effects (font (size 1.27 1.27)) hide)
    )
    (property "Value" "GND" (at 231.648 82.804 0)
      (effects (font (size 1.27 1.27)))
    )
    (property "Footprint" "" (at 231.648 78.105 0)
      (effects (font (size 1.27 1.27)) hide)
    )
    (property "Datasheet" "" (at 231.648 78.105 0)
      (effects (font (size 1.27 1.27)) hide)
    )
    (pin "1" (uuid f7e01db9-8867-493d-b0f2-7b720047e69d))
    (instances
      (project "StepAttenuator"
        (path "/a88c89ed-b45c-46a0-aacb-3570d5c30b45"
          (reference "#PWR014") (unit 1)
        )
      )
    )
  )

  (symbol (lib_id "Device:R") (at 97.79 68.961 90) (unit 1)
    (in_bom yes) (on_board yes) (dnp no)
    (uuid 2eafe1b9-2b35-4689-9b69-01ed26253458)
    (property "Reference" "R10" (at 97.79 67.056 90)
      (effects (font (size 1.27 1.27)))
    )
    (property "Value" "24" (at 97.79 69.088 90)
      (effects (font (size 1.27 1.27)))
    )
    (property "Footprint" "Resistor_SMD:R_1206_3216Metric" (at 97.79 70.739 90)
      (effects (font (size 1.27 1.27)) hide)
    )
    (property "Datasheet" "~" (at 97.79 68.961 0)
      (effects (font (size 1.27 1.27)) hide)
    )
    (pin "1" (uuid 6c3084a7-8bba-4782-a4aa-7cd799d772ce))
    (pin "2" (uuid f0931061-e2cd-4f7e-8691-da004d927fe5))
    (instances
      (project "StepAttenuator"
        (path "/a88c89ed-b45c-46a0-aacb-3570d5c30b45"
          (reference "R10") (unit 1)
        )
      )
    )
  )

  (symbol (lib_id "Switch:SW_DPDT_x2") (at 106.68 62.357 180) (unit 2)
    (in_bom yes) (on_board yes) (dnp no)
    (uuid 32c81d8a-f7d1-4acf-9b64-1f4c0eed1526)
    (property "Reference" "SW2" (at 106.68 53.975 0)
      (effects (font (size 1.27 1.27)))
    )
    (property "Value" "SW_DPDT_x2" (at 104.0892 56.8452 0)
      (effects (font (size 1.27 1.27)))
    )
    (property "Footprint" "Global:Switch_DPDT_MTS202" (at 106.68 62.357 0)
      (effects (font (size 1.27 1.27)) hide)
    )
    (property "Datasheet" "~" (at 106.68 62.357 0)
      (effects (font (size 1.27 1.27)) hide)
    )
    (pin "6" (uuid fc55508b-3fea-4ef8-9061-38b92e73ad6c))
    (pin "4" (uuid 13c07c1a-7d42-485a-87e5-d1f510f8d625))
    (pin "2" (uuid e03bed18-7aef-4901-a74e-8e3837d3e633))
    (pin "3" (uuid d718bdf9-280f-4bf4-875f-90c570d3da0e))
    (pin "1" (uuid 93764623-a6f5-4899-b0f0-75ee7df3140c))
    (pin "5" (uuid e625a90c-7523-494c-845d-fbbe7d888982))
    (instances
      (project "StepAttenuator"
        (path "/a88c89ed-b45c-46a0-aacb-3570d5c30b45"
          (reference "SW2") (unit 2)
        )
      )
    )
  )

  (symbol (lib_id "Device:R") (at 153.67 64.897 90) (unit 1)
    (in_bom yes) (on_board yes) (dnp no)
    (uuid 39ad4950-2e08-416b-b3c3-43b93c4f29d0)
    (property "Reference" "R21" (at 153.67 62.992 90)
      (effects (font (size 1.27 1.27)))
    )
    (property "Value" "24" (at 153.67 65.024 90)
      (effects (font (size 1.27 1.27)))
    )
    (property "Footprint" "Resistor_SMD:R_1206_3216Metric" (at 153.67 66.675 90)
      (effects (font (size 1.27 1.27)) hide)
    )
    (property "Datasheet" "~" (at 153.67 64.897 0)
      (effects (font (size 1.27 1.27)) hide)
    )
    (pin "1" (uuid 1cb55184-eed3-46cc-9c50-bbeb858400e1))
    (pin "2" (uuid cb83efb4-1d7c-49b7-b257-610616570cb9))
    (instances
      (project "StepAttenuator"
        (path "/a88c89ed-b45c-46a0-aacb-3570d5c30b45"
          (reference "R21") (unit 1)
        )
      )
    )
  )

  (symbol (lib_id "Device:R") (at 125.73 68.961 90) (unit 1)
    (in_bom yes) (on_board yes) (dnp no)
    (uuid 3e8af9b2-374d-499e-9ca4-0f0a87b81d4e)
    (property "Reference" "R16" (at 125.73 67.056 90)
      (effects (font (size 1.27 1.27)))
    )
    (property "Value" "~" (at 125.73 69.088 90)
      (effects (font (size 1.27 1.27)))
    )
    (property "Footprint" "Resistor_SMD:R_1206_3216Metric" (at 125.73 70.739 90)
      (effects (font (size 1.27 1.27)) hide)
    )
    (property "Datasheet" "~" (at 125.73 68.961 0)
      (effects (font (size 1.27 1.27)) hide)
    )
    (pin "1" (uuid 91846ffe-09ce-4938-9275-95e59dc681c9))
    (pin "2" (uuid d8b945a4-45b2-4682-be28-cfad3a34309e))
    (instances
      (project "StepAttenuator"
        (path "/a88c89ed-b45c-46a0-aacb-3570d5c30b45"
          (reference "R16") (unit 1)
        )
      )
    )
  )

  (symbol (lib_id "power:GND") (at 187.579 78.105 0) (unit 1)
    (in_bom yes) (on_board yes) (dnp no) (fields_autoplaced)
    (uuid 41450341-47b3-4199-afd9-c923c2323e09)
    (property "Reference" "#PWR011" (at 187.579 84.455 0)
      (effects (font (size 1.27 1.27)) hide)
    )
    (property "Value" "GND" (at 187.579 82.804 0)
      (effects (font (size 1.27 1.27)))
    )
    (property "Footprint" "" (at 187.579 78.105 0)
      (effects (font (size 1.27 1.27)) hide)
    )
    (property "Datasheet" "" (at 187.579 78.105 0)
      (effects (font (size 1.27 1.27)) hide)
    )
    (pin "1" (uuid 4c530470-ade3-48bc-8350-6e5300d04033))
    (instances
      (project "StepAttenuator"
        (path "/a88c89ed-b45c-46a0-aacb-3570d5c30b45"
          (reference "#PWR011") (unit 1)
        )
      )
    )
  )

  (symbol (lib_id "Device:R") (at 173.609 74.295 180) (unit 1)
    (in_bom yes) (on_board yes) (dnp no)
    (uuid 4339db6e-b1a0-4b24-a333-bfe79d998d11)
    (property "Reference" "R25" (at 171.704 74.295 90)
      (effects (font (size 1.27 1.27)))
    )
    (property "Value" "150" (at 173.736 74.295 90)
      (effects (font (size 1.27 1.27)))
    )
    (property "Footprint" "Resistor_SMD:R_1206_3216Metric" (at 175.387 74.295 90)
      (effects (font (size 1.27 1.27)) hide)
    )
    (property "Datasheet" "~" (at 173.609 74.295 0)
      (effects (font (size 1.27 1.27)) hide)
    )
    (pin "1" (uuid 964f725c-7a99-44a0-b54c-fb7d35287b61))
    (pin "2" (uuid a401e2fd-3d49-4b63-b2f2-6b4061c4f41b))
    (instances
      (project "StepAttenuator"
        (path "/a88c89ed-b45c-46a0-aacb-3570d5c30b45"
          (reference "R25") (unit 1)
        )
      )
    )
  )

  (symbol (lib_id "power:GND") (at 103.759 78.105 0) (unit 1)
    (in_bom yes) (on_board yes) (dnp no) (fields_autoplaced)
    (uuid 43e784c7-2e93-45df-af75-9721c6f69cb5)
    (property "Reference" "#PWR05" (at 103.759 84.455 0)
      (effects (font (size 1.27 1.27)) hide)
    )
    (property "Value" "GND" (at 103.759 82.804 0)
      (effects (font (size 1.27 1.27)))
    )
    (property "Footprint" "" (at 103.759 78.105 0)
      (effects (font (size 1.27 1.27)) hide)
    )
    (property "Datasheet" "" (at 103.759 78.105 0)
      (effects (font (size 1.27 1.27)) hide)
    )
    (pin "1" (uuid 5514f5ab-d858-4d9a-81cb-1571cbf82805))
    (instances
      (project "StepAttenuator"
        (path "/a88c89ed-b45c-46a0-aacb-3570d5c30b45"
          (reference "#PWR05") (unit 1)
        )
      )
    )
  )

  (symbol (lib_id "Device:R") (at 89.789 74.295 180) (unit 1)
    (in_bom yes) (on_board yes) (dnp no)
    (uuid 447b1111-b2c1-453c-99a1-63ee3a41953e)
    (property "Reference" "R7" (at 87.884 74.295 90)
      (effects (font (size 1.27 1.27)))
    )
    (property "Value" "680" (at 89.916 74.295 90)
      (effects (font (size 1.27 1.27)))
    )
    (property "Footprint" "Resistor_SMD:R_1206_3216Metric" (at 91.567 74.295 90)
      (effects (font (size 1.27 1.27)) hide)
    )
    (property "Datasheet" "~" (at 89.789 74.295 0)
      (effects (font (size 1.27 1.27)) hide)
    )
    (pin "1" (uuid dc2f7e6d-4b54-40fe-864e-02fa063c9c62))
    (pin "2" (uuid d3b0b4e2-d57d-4537-b481-9ffcbf532fd9))
    (instances
      (project "StepAttenuator"
        (path "/a88c89ed-b45c-46a0-aacb-3570d5c30b45"
          (reference "R7") (unit 1)
        )
      )
    )
  )

  (symbol (lib_id "power:GND") (at 243.459 78.105 0) (unit 1)
    (in_bom yes) (on_board yes) (dnp no) (fields_autoplaced)
    (uuid 4b45b01b-a0b5-44e2-9caf-c13d5d0235e7)
    (property "Reference" "#PWR015" (at 243.459 84.455 0)
      (effects (font (size 1.27 1.27)) hide)
    )
    (property "Value" "GND" (at 243.459 82.804 0)
      (effects (font (size 1.27 1.27)))
    )
    (property "Footprint" "" (at 243.459 78.105 0)
      (effects (font (size 1.27 1.27)) hide)
    )
    (property "Datasheet" "" (at 243.459 78.105 0)
      (effects (font (size 1.27 1.27)) hide)
    )
    (pin "1" (uuid 492815f6-f8c6-4212-b1f6-fcfc1d9b0c0f))
    (instances
      (project "StepAttenuator"
        (path "/a88c89ed-b45c-46a0-aacb-3570d5c30b45"
          (reference "#PWR015") (unit 1)
        )
      )
    )
  )

  (symbol (lib_id "Switch:SW_DPDT_x2") (at 88.9 62.357 0) (mirror x) (unit 1)
    (in_bom yes) (on_board yes) (dnp no)
    (uuid 4bfde972-290c-4fdf-8f27-6465b6495fe1)
    (property "Reference" "SW2" (at 88.773 53.848 0)
      (effects (font (size 1.27 1.27)))
    )
    (property "Value" "SW_DPDT_x2" (at 91.3892 56.7944 0)
      (effects (font (size 1.27 1.27)))
    )
    (property "Footprint" "Global:Switch_DPDT_MTS202" (at 88.9 62.357 0)
      (effects (font (size 1.27 1.27)) hide)
    )
    (property "Datasheet" "~" (at 88.9 62.357 0)
      (effects (font (size 1.27 1.27)) hide)
    )
    (pin "6" (uuid 79ca65be-f9f0-47ff-b23c-dc0ac36a3f7c))
    (pin "4" (uuid e1bce9f5-7492-4276-9008-04f668a566c0))
    (pin "2" (uuid 7a6bdbdc-1a0d-40b8-a596-e37858bb0e26))
    (pin "3" (uuid 89b5f2cf-6765-49c8-8e4e-72088700699d))
    (pin "1" (uuid c96dbec7-e9a7-4738-b76b-b4228c914c31))
    (pin "5" (uuid 7e0cab33-44d5-4c01-a5a7-2b7cc5d6be86))
    (instances
      (project "StepAttenuator"
        (path "/a88c89ed-b45c-46a0-aacb-3570d5c30b45"
          (reference "SW2") (unit 1)
        )
      )
    )
  )

  (symbol (lib_id "Device:R") (at 149.86 74.295 180) (unit 1)
    (in_bom yes) (on_board yes) (dnp no)
    (uuid 4def102c-e0bc-428f-b165-da6d80c2e601)
    (property "Reference" "R20" (at 147.955 74.295 90)
      (effects (font (size 1.27 1.27)))
    )
    (property "Value" "~" (at 149.987 74.295 90)
      (effects (font (size 1.27 1.27)))
    )
    (property "Footprint" "Resistor_SMD:R_1206_3216Metric" (at 151.638 74.295 90)
      (effects (font (size 1.27 1.27)) hide)
    )
    (property "Datasheet" "~" (at 149.86 74.295 0)
      (effects (font (size 1.27 1.27)) hide)
    )
    (pin "1" (uuid dd61b909-7da8-425b-bb52-0c2bf03f4b73))
    (pin "2" (uuid c08137bb-3ea4-45c5-b345-292b12bb6de2))
    (instances
      (project "StepAttenuator"
        (path "/a88c89ed-b45c-46a0-aacb-3570d5c30b45"
          (reference "R20") (unit 1)
        )
      )
    )
  )

  (symbol (lib_id "power:GND") (at 159.639 78.105 0) (unit 1)
    (in_bom yes) (on_board yes) (dnp no) (fields_autoplaced)
    (uuid 52c4ad48-7cf4-4a59-943d-8bbc3b43ce68)
    (property "Reference" "#PWR09" (at 159.639 84.455 0)
      (effects (font (size 1.27 1.27)) hide)
    )
    (property "Value" "GND" (at 159.639 82.804 0)
      (effects (font (size 1.27 1.27)))
    )
    (property "Footprint" "" (at 159.639 78.105 0)
      (effects (font (size 1.27 1.27)) hide)
    )
    (property "Datasheet" "" (at 159.639 78.105 0)
      (effects (font (size 1.27 1.27)) hide)
    )
    (pin "1" (uuid a96ee20d-f3c2-4a51-97cc-190999f9c5ad))
    (instances
      (project "StepAttenuator"
        (path "/a88c89ed-b45c-46a0-aacb-3570d5c30b45"
          (reference "#PWR09") (unit 1)
        )
      )
    )
  )

  (symbol (lib_id "power:GND") (at 131.699 78.105 0) (unit 1)
    (in_bom yes) (on_board yes) (dnp no) (fields_autoplaced)
    (uuid 545fefa3-eed9-41e5-88c0-04a867ee4ac7)
    (property "Reference" "#PWR07" (at 131.699 84.455 0)
      (effects (font (size 1.27 1.27)) hide)
    )
    (property "Value" "GND" (at 131.699 82.804 0)
      (effects (font (size 1.27 1.27)))
    )
    (property "Footprint" "" (at 131.699 78.105 0)
      (effects (font (size 1.27 1.27)) hide)
    )
    (property "Datasheet" "" (at 131.699 78.105 0)
      (effects (font (size 1.27 1.27)) hide)
    )
    (pin "1" (uuid 5a5cd0d7-1c0a-45ec-a92f-1e1be5ceabec))
    (instances
      (project "StepAttenuator"
        (path "/a88c89ed-b45c-46a0-aacb-3570d5c30b45"
          (reference "#PWR07") (unit 1)
        )
      )
    )
  )

  (symbol (lib_id "power:GND") (at 256.54 67.437 0) (unit 1)
    (in_bom yes) (on_board yes) (dnp no) (fields_autoplaced)
    (uuid 5f11dbbf-ea89-49a6-bfd5-f1902f4660d5)
    (property "Reference" "#PWR016" (at 256.54 73.787 0)
      (effects (font (size 1.27 1.27)) hide)
    )
    (property "Value" "GND" (at 256.54 72.136 0)
      (effects (font (size 1.27 1.27)))
    )
    (property "Footprint" "" (at 256.54 67.437 0)
      (effects (font (size 1.27 1.27)) hide)
    )
    (property "Datasheet" "" (at 256.54 67.437 0)
      (effects (font (size 1.27 1.27)) hide)
    )
    (pin "1" (uuid 59adbfeb-a846-4cca-9369-8c8770242304))
    (instances
      (project "StepAttenuator"
        (path "/a88c89ed-b45c-46a0-aacb-3570d5c30b45"
          (reference "#PWR016") (unit 1)
        )
      )
    )
  )

  (symbol (lib_id "Device:R") (at 177.8 74.295 180) (unit 1)
    (in_bom yes) (on_board yes) (dnp no)
    (uuid 650d2786-37b2-4b14-9b95-de76beddad73)
    (property "Reference" "R26" (at 175.895 74.295 90)
      (effects (font (size 1.27 1.27)))
    )
    (property "Value" "~" (at 177.927 74.295 90)
      (effects (font (size 1.27 1.27)))
    )
    (property "Footprint" "Resistor_SMD:R_1206_3216Metric" (at 179.578 74.295 90)
      (effects (font (size 1.27 1.27)) hide)
    )
    (property "Datasheet" "~" (at 177.8 74.295 0)
      (effects (font (size 1.27 1.27)) hide)
    )
    (pin "1" (uuid 850b5dc2-c2a4-4529-bcba-264034e795eb))
    (pin "2" (uuid 7a30abff-e488-4fdf-ad8f-db9bdf7687d1))
    (instances
      (project "StepAttenuator"
        (path "/a88c89ed-b45c-46a0-aacb-3570d5c30b45"
          (reference "R26") (unit 1)
        )
      )
    )
  )

  (symbol (lib_id "power:GND") (at 175.768 78.105 0) (unit 1)
    (in_bom yes) (on_board yes) (dnp no) (fields_autoplaced)
    (uuid 6ba49342-e328-4cd9-b8f5-5ac27ca73bf4)
    (property "Reference" "#PWR010" (at 175.768 84.455 0)
      (effects (font (size 1.27 1.27)) hide)
    )
    (property "Value" "GND" (at 175.768 82.804 0)
      (effects (font (size 1.27 1.27)))
    )
    (property "Footprint" "" (at 175.768 78.105 0)
      (effects (font (size 1.27 1.27)) hide)
    )
    (property "Datasheet" "" (at 175.768 78.105 0)
      (effects (font (size 1.27 1.27)) hide)
    )
    (pin "1" (uuid cc4e9d74-45ea-4ebd-9cb7-72bf2df6efe9))
    (instances
      (project "StepAttenuator"
        (path "/a88c89ed-b45c-46a0-aacb-3570d5c30b45"
          (reference "#PWR010") (unit 1)
        )
      )
    )
  )

  (symbol (lib_id "Switch:SW_DPDT_x2") (at 172.72 62.357 0) (mirror x) (unit 1)
    (in_bom yes) (on_board yes) (dnp no)
    (uuid 7099b90a-7486-4d8b-8109-6773d2161cea)
    (property "Reference" "SW5" (at 172.5168 53.7464 0)
      (effects (font (size 1.27 1.27)))
    )
    (property "Value" "SW_DPDT_x2" (at 175.006 56.6928 0)
      (effects (font (size 1.27 1.27)))
    )
    (property "Footprint" "Global:Switch_DPDT_MTS202" (at 172.72 62.357 0)
      (effects (font (size 1.27 1.27)) hide)
    )
    (property "Datasheet" "~" (at 172.72 62.357 0)
      (effects (font (size 1.27 1.27)) hide)
    )
    (pin "6" (uuid 79ca65be-f9f0-47ff-b23c-dc0ac36a3f7d))
    (pin "4" (uuid e1bce9f5-7492-4276-9008-04f668a566c1))
    (pin "2" (uuid a919c47c-05dd-47b6-94b4-ff8b5c8bab47))
    (pin "3" (uuid 0521adb4-ca9c-4763-80ba-ae04b21e2d12))
    (pin "1" (uuid 2ed53346-05e3-49af-8c87-1fef1d2a638e))
    (pin "5" (uuid 7e0cab33-44d5-4c01-a5a7-2b7cc5d6be87))
    (instances
      (project "StepAttenuator"
        (path "/a88c89ed-b45c-46a0-aacb-3570d5c30b45"
          (reference "SW5") (unit 1)
        )
      )
    )
  )

  (symbol (lib_id "power:GND") (at 203.708 78.105 0) (unit 1)
    (in_bom yes) (on_board yes) (dnp no) (fields_autoplaced)
    (uuid 758362b9-eaee-4c04-ba4e-4192ab951944)
    (property "Reference" "#PWR012" (at 203.708 84.455 0)
      (effects (font (size 1.27 1.27)) hide)
    )
    (property "Value" "GND" (at 203.708 82.804 0)
      (effects (font (size 1.27 1.27)))
    )
    (property "Footprint" "" (at 203.708 78.105 0)
      (effects (font (size 1.27 1.27)) hide)
    )
    (property "Datasheet" "" (at 203.708 78.105 0)
      (effects (font (size 1.27 1.27)) hide)
    )
    (pin "1" (uuid 0451be9a-2db0-4079-9815-9c678a73436f))
    (instances
      (project "StepAttenuator"
        (path "/a88c89ed-b45c-46a0-aacb-3570d5c30b45"
          (reference "#PWR012") (unit 1)
        )
      )
    )
  )

  (symbol (lib_id "power:GND") (at 119.888 78.105 0) (unit 1)
    (in_bom yes) (on_board yes) (dnp no) (fields_autoplaced)
    (uuid 7712b065-725f-4fbd-8322-54e19a6a6573)
    (property "Reference" "#PWR06" (at 119.888 84.455 0)
      (effects (font (size 1.27 1.27)) hide)
    )
    (property "Value" "GND" (at 119.888 82.804 0)
      (effects (font (size 1.27 1.27)))
    )
    (property "Footprint" "" (at 119.888 78.105 0)
      (effects (font (size 1.27 1.27)) hide)
    )
    (property "Datasheet" "" (at 119.888 78.105 0)
      (effects (font (size 1.27 1.27)) hide)
    )
    (pin "1" (uuid 9f79ea39-cd1f-44b8-88c8-f36c9ddc0150))
    (instances
      (project "StepAttenuator"
        (path "/a88c89ed-b45c-46a0-aacb-3570d5c30b45"
          (reference "#PWR06") (unit 1)
        )
      )
    )
  )

  (symbol (lib_id "Device:R") (at 105.791 74.295 180) (unit 1)
    (in_bom yes) (on_board yes) (dnp no)
    (uuid 789e8fd2-11d9-4af7-a884-7897e0e57a50)
    (property "Reference" "R12" (at 103.886 74.295 90)
      (effects (font (size 1.27 1.27)))
    )
    (property "Value" "1200" (at 105.918 74.295 90)
      (effects (font (size 1.27 1.27)))
    )
    (property "Footprint" "Resistor_SMD:R_1206_3216Metric" (at 107.569 74.295 90)
      (effects (font (size 1.27 1.27)) hide)
    )
    (property "Datasheet" "~" (at 105.791 74.295 0)
      (effects (font (size 1.27 1.27)) hide)
    )
    (pin "1" (uuid 4d51e3a3-4217-4099-a8b8-38ab02c523bb))
    (pin "2" (uuid f06537d1-8c14-471c-9c93-f3f2930c4e27))
    (instances
      (project "StepAttenuator"
        (path "/a88c89ed-b45c-46a0-aacb-3570d5c30b45"
          (reference "R12") (unit 1)
        )
      )
    )
  )

  (symbol (lib_id "power:GND") (at 147.828 78.105 0) (unit 1)
    (in_bom yes) (on_board yes) (dnp no) (fields_autoplaced)
    (uuid 7b9a98bb-ea31-4256-a7c3-4848b96270f8)
    (property "Reference" "#PWR08" (at 147.828 84.455 0)
      (effects (font (size 1.27 1.27)) hide)
    )
    (property "Value" "GND" (at 147.828 82.804 0)
      (effects (font (size 1.27 1.27)))
    )
    (property "Footprint" "" (at 147.828 78.105 0)
      (effects (font (size 1.27 1.27)) hide)
    )
    (property "Datasheet" "" (at 147.828 78.105 0)
      (effects (font (size 1.27 1.27)) hide)
    )
    (pin "1" (uuid c782fb8c-6fb4-4e08-b3c8-c5262dfa71d2))
    (instances
      (project "StepAttenuator"
        (path "/a88c89ed-b45c-46a0-aacb-3570d5c30b45"
          (reference "#PWR08") (unit 1)
        )
      )
    )
  )

  (symbol (lib_id "Switch:SW_DPDT_x2") (at 162.56 62.357 180) (unit 2)
    (in_bom yes) (on_board yes) (dnp no)
    (uuid 7e55b473-2cbe-4e3f-a3d1-1f68199702a4)
    (property "Reference" "SW4" (at 162.56 53.975 0)
      (effects (font (size 1.27 1.27)))
    )
    (property "Value" "SW_DPDT_x2" (at 160.1724 56.7944 0)
      (effects (font (size 1.27 1.27)))
    )
    (property "Footprint" "Global:Switch_DPDT_MTS202" (at 162.56 62.357 0)
      (effects (font (size 1.27 1.27)) hide)
    )
    (property "Datasheet" "~" (at 162.56 62.357 0)
      (effects (font (size 1.27 1.27)) hide)
    )
    (pin "6" (uuid 633a5a8b-4b50-4ca8-b49b-34520e406f5d))
    (pin "4" (uuid 1adba1bf-465f-4d08-be7b-9e864b68aa85))
    (pin "2" (uuid e03bed18-7aef-4901-a74e-8e3837d3e634))
    (pin "3" (uuid d718bdf9-280f-4bf4-875f-90c570d3da0f))
    (pin "1" (uuid 93764623-a6f5-4899-b0f0-75ee7df3140d))
    (pin "5" (uuid 461fff23-7951-450f-8576-16263f82770b))
    (instances
      (project "StepAttenuator"
        (path "/a88c89ed-b45c-46a0-aacb-3570d5c30b45"
          (reference "SW4") (unit 2)
        )
      )
    )
  )

  (symbol (lib_id "Switch:SW_DPDT_x2") (at 116.84 62.357 0) (mirror x) (unit 1)
    (in_bom yes) (on_board yes) (dnp no)
    (uuid 7e993a47-02d4-4a6a-95db-3bf915c658ed)
    (property "Reference" "SW3" (at 116.713 54.102 0)
      (effects (font (size 1.27 1.27)))
    )
    (property "Value" "SW_DPDT_x2" (at 119.2276 56.896 0)
      (effects (font (size 1.27 1.27)))
    )
    (property "Footprint" "Global:Switch_DPDT_MTS202" (at 116.84 62.357 0)
      (effects (font (size 1.27 1.27)) hide)
    )
    (property "Datasheet" "~" (at 116.84 62.357 0)
      (effects (font (size 1.27 1.27)) hide)
    )
    (pin "6" (uuid 79ca65be-f9f0-47ff-b23c-dc0ac36a3f7e))
    (pin "4" (uuid e1bce9f5-7492-4276-9008-04f668a566c2))
    (pin "2" (uuid 51faaa05-692b-4b35-be83-3f19bb163e76))
    (pin "3" (uuid 454942f1-6238-43ed-93df-9abf75a283dd))
    (pin "1" (uuid 2b20bb8b-ed71-4738-8351-f193a54b1cdd))
    (pin "5" (uuid 7e0cab33-44d5-4c01-a5a7-2b7cc5d6be88))
    (instances
      (project "StepAttenuator"
        (path "/a88c89ed-b45c-46a0-aacb-3570d5c30b45"
          (reference "SW3") (unit 1)
        )
      )
    )
  )

  (symbol (lib_id "Switch:SW_DPDT_x2") (at 144.78 62.357 0) (mirror x) (unit 1)
    (in_bom yes) (on_board yes) (dnp no)
    (uuid 83fcef2c-f783-4628-9a01-58778281f9b6)
    (property "Reference" "SW4" (at 144.8816 53.9496 0)
      (effects (font (size 1.27 1.27)))
    )
    (property "Value" "SW_DPDT_x2" (at 147.1168 56.7944 0)
      (effects (font (size 1.27 1.27)))
    )
    (property "Footprint" "Global:Switch_DPDT_MTS202" (at 144.78 62.357 0)
      (effects (font (size 1.27 1.27)) hide)
    )
    (property "Datasheet" "~" (at 144.78 62.357 0)
      (effects (font (size 1.27 1.27)) hide)
    )
    (pin "6" (uuid 79ca65be-f9f0-47ff-b23c-dc0ac36a3f7f))
    (pin "4" (uuid e1bce9f5-7492-4276-9008-04f668a566c3))
    (pin "2" (uuid b5c483ef-7d5d-444e-a648-3848ccfe80c7))
    (pin "3" (uuid e6225b83-d111-4b2a-9603-5e8ab5b797b1))
    (pin "1" (uuid 35b1efdd-8529-4a01-9a6f-ac7c368dcaa7))
    (pin "5" (uuid 7e0cab33-44d5-4c01-a5a7-2b7cc5d6be89))
    (instances
      (project "StepAttenuator"
        (path "/a88c89ed-b45c-46a0-aacb-3570d5c30b45"
          (reference "SW4") (unit 1)
        )
      )
    )
  )

  (symbol (lib_id "Device:R") (at 97.79 64.897 90) (unit 1)
    (in_bom yes) (on_board yes) (dnp no)
    (uuid 89fe0df6-27e3-4efe-a619-5f41d238fa99)
    (property "Reference" "R9" (at 97.79 62.992 90)
      (effects (font (size 1.27 1.27)))
    )
    (property "Value" "24" (at 97.79 65.024 90)
      (effects (font (size 1.27 1.27)))
    )
    (property "Footprint" "Resistor_SMD:R_1206_3216Metric" (at 97.79 66.675 90)
      (effects (font (size 1.27 1.27)) hide)
    )
    (property "Datasheet" "~" (at 97.79 64.897 0)
      (effects (font (size 1.27 1.27)) hide)
    )
    (pin "1" (uuid cc39eead-34ec-4e1d-b305-f0136b7b7b99))
    (pin "2" (uuid 38be7ddb-38e7-44c5-825e-0b8395b4a582))
    (instances
      (project "StepAttenuator"
        (path "/a88c89ed-b45c-46a0-aacb-3570d5c30b45"
          (reference "R9") (unit 1)
        )
      )
    )
  )

  (symbol (lib_id "Switch:SW_DPDT_x2") (at 60.96 62.357 0) (mirror x) (unit 1)
    (in_bom yes) (on_board yes) (dnp no)
    (uuid 8dbbd94d-b4dd-466b-84a1-dc8a5a23b2a8)
    (property "Reference" "SW1" (at 60.96 54.483 0)
      (effects (font (size 1.27 1.27)))
    )
    (property "Value" "SW_DPDT_x2" (at 63.2968 56.6928 0)
      (effects (font (size 1.27 1.27)))
    )
    (property "Footprint" "Global:Switch_DPDT_MTS202" (at 60.96 62.357 0)
      (effects (font (size 1.27 1.27)) hide)
    )
    (property "Datasheet" "~" (at 60.96 62.357 0)
      (effects (font (size 1.27 1.27)) hide)
    )
    (pin "6" (uuid 79ca65be-f9f0-47ff-b23c-dc0ac36a3f80))
    (pin "4" (uuid e1bce9f5-7492-4276-9008-04f668a566c4))
    (pin "2" (uuid e03bed18-7aef-4901-a74e-8e3837d3e631))
    (pin "3" (uuid d718bdf9-280f-4bf4-875f-90c570d3da0c))
    (pin "1" (uuid 93764623-a6f5-4899-b0f0-75ee7df3140a))
    (pin "5" (uuid 7e0cab33-44d5-4c01-a5a7-2b7cc5d6be8a))
    (instances
      (project "StepAttenuator"
        (path "/a88c89ed-b45c-46a0-aacb-3570d5c30b45"
          (reference "SW1") (unit 1)
        )
      )
    )
  )

  (symbol (lib_id "power:GND") (at 75.819 78.105 0) (unit 1)
    (in_bom yes) (on_board yes) (dnp no) (fields_autoplaced)
    (uuid 91190416-e34d-429c-bda0-6e711871252b)
    (property "Reference" "#PWR02" (at 75.819 84.455 0)
      (effects (font (size 1.27 1.27)) hide)
    )
    (property "Value" "GND" (at 75.819 82.804 0)
      (effects (font (size 1.27 1.27)))
    )
    (property "Footprint" "" (at 75.819 78.105 0)
      (effects (font (size 1.27 1.27)) hide)
    )
    (property "Datasheet" "" (at 75.819 78.105 0)
      (effects (font (size 1.27 1.27)) hide)
    )
    (pin "1" (uuid 52f3a1af-04d7-44fa-bce8-7283a14f28e0))
    (instances
      (project "StepAttenuator"
        (path "/a88c89ed-b45c-46a0-aacb-3570d5c30b45"
          (reference "#PWR02") (unit 1)
        )
      )
    )
  )

  (symbol (lib_id "Device:R") (at 77.851 74.295 180) (unit 1)
    (in_bom yes) (on_board yes) (dnp no)
    (uuid 9145e0cc-29cb-4822-98bf-644f06091b60)
    (property "Reference" "R6" (at 75.946 74.295 90)
      (effects (font (size 1.27 1.27)))
    )
    (property "Value" "1740" (at 77.978 74.295 90)
      (effects (font (size 1.27 1.27)))
    )
    (property "Footprint" "Resistor_SMD:R_1206_3216Metric" (at 79.629 74.295 90)
      (effects (font (size 1.27 1.27)) hide)
    )
    (property "Datasheet" "~" (at 77.851 74.295 0)
      (effects (font (size 1.27 1.27)) hide)
    )
    (pin "1" (uuid 12d472ff-c6b2-4b64-912f-51568c6cffc7))
    (pin "2" (uuid f0b99631-fcac-4035-b810-db7082472b1a))
    (instances
      (project "StepAttenuator"
        (path "/a88c89ed-b45c-46a0-aacb-3570d5c30b45"
          (reference "R6") (unit 1)
        )
      )
    )
  )

  (symbol (lib_id "Switch:SW_DPDT_x2") (at 78.74 62.357 180) (unit 2)
    (in_bom yes) (on_board yes) (dnp no)
    (uuid 934d4458-2782-4d15-8119-891d1e4afa0c)
    (property "Reference" "SW1" (at 78.74 53.975 0)
      (effects (font (size 1.27 1.27)))
    )
    (property "Value" "SW_DPDT_x2" (at 76.3524 56.7944 0)
      (effects (font (size 1.27 1.27)))
    )
    (property "Footprint" "Global:Switch_DPDT_MTS202" (at 78.74 62.357 0)
      (effects (font (size 1.27 1.27)) hide)
    )
    (property "Datasheet" "~" (at 78.74 62.357 0)
      (effects (font (size 1.27 1.27)) hide)
    )
    (pin "6" (uuid 79ca65be-f9f0-47ff-b23c-dc0ac36a3f81))
    (pin "4" (uuid e1bce9f5-7492-4276-9008-04f668a566c5))
    (pin "2" (uuid e03bed18-7aef-4901-a74e-8e3837d3e635))
    (pin "3" (uuid d718bdf9-280f-4bf4-875f-90c570d3da10))
    (pin "1" (uuid 93764623-a6f5-4899-b0f0-75ee7df3140e))
    (pin "5" (uuid 7e0cab33-44d5-4c01-a5a7-2b7cc5d6be8b))
    (instances
      (project "StepAttenuator"
        (path "/a88c89ed-b45c-46a0-aacb-3570d5c30b45"
          (reference "SW1") (unit 2)
        )
      )
    )
  )

  (symbol (lib_id "Device:R") (at 241.3 74.295 180) (unit 1)
    (in_bom yes) (on_board yes) (dnp no)
    (uuid 9e42a952-3a0d-41eb-b1e7-f2bbb3cf0257)
    (property "Reference" "R41" (at 239.395 74.295 90)
      (effects (font (size 1.27 1.27)))
    )
    (property "Value" "150" (at 241.427 74.295 90)
      (effects (font (size 1.27 1.27)))
    )
    (property "Footprint" "Resistor_SMD:R_1206_3216Metric" (at 243.078 74.295 90)
      (effects (font (size 1.27 1.27)) hide)
    )
    (property "Datasheet" "~" (at 241.3 74.295 0)
      (effects (font (size 1.27 1.27)) hide)
    )
    (pin "1" (uuid 31826495-2ba7-4f62-a879-35b161bb1ea9))
    (pin "2" (uuid 1880f2d3-89bb-47b4-9392-ba995ecdf6ae))
    (instances
      (project "StepAttenuator"
        (path "/a88c89ed-b45c-46a0-aacb-3570d5c30b45"
          (reference "R41") (unit 1)
        )
      )
    )
  )

  (symbol (lib_id "Device:R") (at 213.36 74.295 180) (unit 1)
    (in_bom yes) (on_board yes) (dnp no)
    (uuid a7ef1f7f-63a2-47f7-b959-9ed06e125507)
    (property "Reference" "R35" (at 211.455 74.295 90)
      (effects (font (size 1.27 1.27)))
    )
    (property "Value" "510" (at 213.487 74.295 90)
      (effects (font (size 1.27 1.27)))
    )
    (property "Footprint" "Resistor_SMD:R_1206_3216Metric" (at 215.138 74.295 90)
      (effects (font (size 1.27 1.27)) hide)
    )
    (property "Datasheet" "~" (at 213.36 74.295 0)
      (effects (font (size 1.27 1.27)) hide)
    )
    (pin "1" (uuid b6781783-1585-43af-a3d3-da7269163de8))
    (pin "2" (uuid 04db13fd-72dd-46d2-ba5b-bf0ef39c7981))
    (instances
      (project "StepAttenuator"
        (path "/a88c89ed-b45c-46a0-aacb-3570d5c30b45"
          (reference "R35") (unit 1)
        )
      )
    )
  )

  (symbol (lib_id "Device:R") (at 237.49 64.897 90) (unit 1)
    (in_bom yes) (on_board yes) (dnp no)
    (uuid ad95148f-9b30-45bc-bd66-5111e0f5bfde)
    (property "Reference" "R39" (at 237.49 62.992 90)
      (effects (font (size 1.27 1.27)))
    )
    (property "Value" "130" (at 237.49 65.024 90)
      (effects (font (size 1.27 1.27)))
    )
    (property "Footprint" "Resistor_SMD:R_1206_3216Metric" (at 237.49 66.675 90)
      (effects (font (size 1.27 1.27)) hide)
    )
    (property "Datasheet" "~" (at 237.49 64.897 0)
      (effects (font (size 1.27 1.27)) hide)
    )
    (pin "1" (uuid 01c6ec4b-3c60-47ee-a12f-461a96d11207))
    (pin "2" (uuid 9df90872-027a-4750-b274-883629e7c0f7))
    (instances
      (project "StepAttenuator"
        (path "/a88c89ed-b45c-46a0-aacb-3570d5c30b45"
          (reference "R39") (unit 1)
        )
      )
    )
  )

  (symbol (lib_id "Device:R") (at 125.73 64.897 90) (unit 1)
    (in_bom yes) (on_board yes) (dnp no)
    (uuid b49ab0e9-147e-410f-91b2-d6e92f2a2e5b)
    (property "Reference" "R15" (at 125.73 62.992 90)
      (effects (font (size 1.27 1.27)))
    )
    (property "Value" "18" (at 125.73 65.024 90)
      (effects (font (size 1.27 1.27)))
    )
    (property "Footprint" "Resistor_SMD:R_1206_3216Metric" (at 125.73 66.675 90)
      (effects (font (size 1.27 1.27)) hide)
    )
    (property "Datasheet" "~" (at 125.73 64.897 0)
      (effects (font (size 1.27 1.27)) hide)
    )
    (pin "1" (uuid 5bddb044-f31b-4c79-aae5-e246ff132787))
    (pin "2" (uuid bce41de1-6087-4407-94f9-5a662641ad78))
    (instances
      (project "StepAttenuator"
        (path "/a88c89ed-b45c-46a0-aacb-3570d5c30b45"
          (reference "R15") (unit 1)
        )
      )
    )
  )

  (symbol (lib_id "Device:R") (at 185.42 74.295 180) (unit 1)
    (in_bom yes) (on_board yes) (dnp no)
    (uuid b4e9c55d-ae57-4360-a8da-4adbf30a3f11)
    (property "Reference" "R29" (at 183.515 74.295 90)
      (effects (font (size 1.27 1.27)))
    )
    (property "Value" "150" (at 185.547 74.295 90)
      (effects (font (size 1.27 1.27)))
    )
    (property "Footprint" "Resistor_SMD:R_1206_3216Metric" (at 187.198 74.295 90)
      (effects (font (size 1.27 1.27)) hide)
    )
    (property "Datasheet" "~" (at 185.42 74.295 0)
      (effects (font (size 1.27 1.27)) hide)
    )
    (pin "1" (uuid a66ce0b5-0d5c-444a-a812-5b23607ed442))
    (pin "2" (uuid b0ad143e-ed41-4463-afaa-65d99b366fef))
    (instances
      (project "StepAttenuator"
        (path "/a88c89ed-b45c-46a0-aacb-3570d5c30b45"
          (reference "R29") (unit 1)
        )
      )
    )
  )

  (symbol (lib_id "power:GND") (at 64.008 78.105 0) (unit 1)
    (in_bom yes) (on_board yes) (dnp no) (fields_autoplaced)
    (uuid b6154a9d-dbb9-44b5-92f5-5327e0d484dc)
    (property "Reference" "#PWR01" (at 64.008 84.455 0)
      (effects (font (size 1.27 1.27)) hide)
    )
    (property "Value" "GND" (at 64.008 82.804 0)
      (effects (font (size 1.27 1.27)))
    )
    (property "Footprint" "" (at 64.008 78.105 0)
      (effects (font (size 1.27 1.27)) hide)
    )
    (property "Datasheet" "" (at 64.008 78.105 0)
      (effects (font (size 1.27 1.27)) hide)
    )
    (pin "1" (uuid 8c1048f5-b046-4cd9-bfa8-d6a387a2315d))
    (instances
      (project "StepAttenuator"
        (path "/a88c89ed-b45c-46a0-aacb-3570d5c30b45"
          (reference "#PWR01") (unit 1)
        )
      )
    )
  )

  (symbol (lib_id "Switch:SW_DPDT_x2") (at 200.66 62.357 0) (mirror x) (unit 1)
    (in_bom yes) (on_board yes) (dnp no)
    (uuid b6692215-b678-4b21-89a6-7980c2c93ba6)
    (property "Reference" "SW6" (at 200.7108 54.0512 0)
      (effects (font (size 1.27 1.27)))
    )
    (property "Value" "SW_DPDT_x2" (at 202.8952 56.5912 0)
      (effects (font (size 1.27 1.27)))
    )
    (property "Footprint" "Global:Switch_DPDT_MTS202" (at 200.66 62.357 0)
      (effects (font (size 1.27 1.27)) hide)
    )
    (property "Datasheet" "~" (at 200.66 62.357 0)
      (effects (font (size 1.27 1.27)) hide)
    )
    (pin "6" (uuid 79ca65be-f9f0-47ff-b23c-dc0ac36a3f82))
    (pin "4" (uuid e1bce9f5-7492-4276-9008-04f668a566c6))
    (pin "2" (uuid 830b2e72-7cef-41d2-b47a-d0b23c8da2c7))
    (pin "3" (uuid b8c4f9e4-4f68-4182-93ca-b018d86d411f))
    (pin "1" (uuid 5271bda0-7d87-4418-88cd-6d2043e70c9a))
    (pin "5" (uuid 7e0cab33-44d5-4c01-a5a7-2b7cc5d6be8c))
    (instances
      (project "StepAttenuator"
        (path "/a88c89ed-b45c-46a0-aacb-3570d5c30b45"
          (reference "SW6") (unit 1)
        )
      )
    )
  )

  (symbol (lib_id "Switch:SW_DPDT_x2") (at 190.5 62.357 180) (unit 2)
    (in_bom yes) (on_board yes) (dnp no)
    (uuid b75d2fde-5452-45ba-b440-8322878e0095)
    (property "Reference" "SW5" (at 190.5 53.975 0)
      (effects (font (size 1.27 1.27)))
    )
    (property "Value" "SW_DPDT_x2" (at 187.96 56.642 0)
      (effects (font (size 1.27 1.27)))
    )
    (property "Footprint" "Global:Switch_DPDT_MTS202" (at 190.5 62.357 0)
      (effects (font (size 1.27 1.27)) hide)
    )
    (property "Datasheet" "~" (at 190.5 62.357 0)
      (effects (font (size 1.27 1.27)) hide)
    )
    (pin "6" (uuid 1525721f-01a9-46b9-974c-3e3af76e607c))
    (pin "4" (uuid 0c4508de-848f-43f4-931b-06491d956dd2))
    (pin "2" (uuid e03bed18-7aef-4901-a74e-8e3837d3e636))
    (pin "3" (uuid d718bdf9-280f-4bf4-875f-90c570d3da11))
    (pin "1" (uuid 93764623-a6f5-4899-b0f0-75ee7df3140f))
    (pin "5" (uuid 35bfec56-54fd-42f8-98e4-d7871bda03f5))
    (instances
      (project "StepAttenuator"
        (path "/a88c89ed-b45c-46a0-aacb-3570d5c30b45"
          (reference "SW5") (unit 2)
        )
      )
    )
  )

  (symbol (lib_id "Device:R") (at 209.55 64.897 90) (unit 1)
    (in_bom yes) (on_board yes) (dnp no)
    (uuid c5a6abb1-0bb5-4242-ab21-e557ac91c84d)
    (property "Reference" "R33" (at 209.55 62.992 90)
      (effects (font (size 1.27 1.27)))
    )
    (property "Value" "100" (at 209.55 65.024 90)
      (effects (font (size 1.27 1.27)))
    )
    (property "Footprint" "Resistor_SMD:R_1206_3216Metric" (at 209.55 66.675 90)
      (effects (font (size 1.27 1.27)) hide)
    )
    (property "Datasheet" "~" (at 209.55 64.897 0)
      (effects (font (size 1.27 1.27)) hide)
    )
    (pin "1" (uuid 1b900d64-68dd-48ba-91aa-9e0422504797))
    (pin "2" (uuid c54c73a3-05df-48ae-bed9-71543f93ec73))
    (instances
      (project "StepAttenuator"
        (path "/a88c89ed-b45c-46a0-aacb-3570d5c30b45"
          (reference "R33") (unit 1)
        )
      )
    )
  )

  (symbol (lib_id "Device:R") (at 157.48 74.295 180) (unit 1)
    (in_bom yes) (on_board yes) (dnp no)
    (uuid c8ef8ed2-2db1-4349-b350-26054eda974d)
    (property "Reference" "R23" (at 155.575 74.295 90)
      (effects (font (size 1.27 1.27)))
    )
    (property "Value" "220" (at 157.607 74.295 90)
      (effects (font (size 1.27 1.27)))
    )
    (property "Footprint" "Resistor_SMD:R_1206_3216Metric" (at 159.258 74.295 90)
      (effects (font (size 1.27 1.27)) hide)
    )
    (property "Datasheet" "~" (at 157.48 74.295 0)
      (effects (font (size 1.27 1.27)) hide)
    )
    (pin "1" (uuid e13bcd37-6ff3-4d37-bdc9-099f7da1b18f))
    (pin "2" (uuid 908325f1-bd1c-4e97-9982-0db1d5806fb0))
    (instances
      (project "StepAttenuator"
        (path "/a88c89ed-b45c-46a0-aacb-3570d5c30b45"
          (reference "R23") (unit 1)
        )
      )
    )
  )

  (symbol (lib_id "Device:R") (at 245.491 74.295 180) (unit 1)
    (in_bom yes) (on_board yes) (dnp no)
    (uuid c904633f-a7a8-474c-ae22-8309920f30c9)
    (property "Reference" "R42" (at 243.586 74.295 90)
      (effects (font (size 1.27 1.27)))
    )
    (property "Value" "270" (at 245.618 74.295 90)
      (effects (font (size 1.27 1.27)))
    )
    (property "Footprint" "Resistor_SMD:R_1206_3216Metric" (at 247.269 74.295 90)
      (effects (font (size 1.27 1.27)) hide)
    )
    (property "Datasheet" "~" (at 245.491 74.295 0)
      (effects (font (size 1.27 1.27)) hide)
    )
    (pin "1" (uuid fa7379d3-a612-4098-a30f-d295fc2e6ff6))
    (pin "2" (uuid 4548df74-e16a-47a4-bdc4-629222218d1d))
    (instances
      (project "StepAttenuator"
        (path "/a88c89ed-b45c-46a0-aacb-3570d5c30b45"
          (reference "R42") (unit 1)
        )
      )
    )
  )

  (symbol (lib_id "Device:R") (at 69.85 64.897 90) (unit 1)
    (in_bom yes) (on_board yes) (dnp no)
    (uuid d3a6b31e-2b0d-42c5-9359-32cfc18ca5b4)
    (property "Reference" "R1" (at 69.85 62.992 90)
      (effects (font (size 1.27 1.27)))
    )
    (property "Value" "12" (at 69.85 65.024 90)
      (effects (font (size 1.27 1.27)))
    )
    (property "Footprint" "Resistor_SMD:R_1206_3216Metric" (at 69.85 66.675 90)
      (effects (font (size 1.27 1.27)) hide)
    )
    (property "Datasheet" "~" (at 69.85 64.897 0)
      (effects (font (size 1.27 1.27)) hide)
    )
    (pin "1" (uuid 02ad8862-4ef8-4ac4-966d-b814600e61b8))
    (pin "2" (uuid 410bd866-029f-4b31-af2f-ef5f153146c3))
    (instances
      (project "StepAttenuator"
        (path "/a88c89ed-b45c-46a0-aacb-3570d5c30b45"
          (reference "R1") (unit 1)
        )
      )
    )
  )

  (symbol (lib_id "Device:R") (at 73.66 74.295 180) (unit 1)
    (in_bom yes) (on_board yes) (dnp no)
    (uuid d47225b9-2554-45ed-bdba-b2e7e9c9e6fa)
    (property "Reference" "R5" (at 71.755 74.295 90)
      (effects (font (size 1.27 1.27)))
    )
    (property "Value" "1740" (at 73.787 74.295 90)
      (effects (font (size 1.27 1.27)))
    )
    (property "Footprint" "Resistor_SMD:R_1206_3216Metric" (at 75.438 74.295 90)
      (effects (font (size 1.27 1.27)) hide)
    )
    (property "Datasheet" "~" (at 73.66 74.295 0)
      (effects (font (size 1.27 1.27)) hide)
    )
    (pin "1" (uuid 8adb0e59-05e4-478d-82d7-9b11498f5ebc))
    (pin "2" (uuid 5fd00e75-af4a-4f64-b13b-17313854feb3))
    (instances
      (project "StepAttenuator"
        (path "/a88c89ed-b45c-46a0-aacb-3570d5c30b45"
          (reference "R5") (unit 1)
        )
      )
    )
  )

  (symbol (lib_id "Switch:SW_DPDT_x2") (at 228.6 62.357 0) (mirror x) (unit 1)
    (in_bom yes) (on_board yes) (dnp no)
    (uuid d6a87ab4-1a12-439e-9cfe-7495f335c010)
    (property "Reference" "SW7" (at 228.5492 53.8988 0)
      (effects (font (size 1.27 1.27)))
    )
    (property "Value" "SW_DPDT_x2" (at 230.7844 56.4896 0)
      (effects (font (size 1.27 1.27)))
    )
    (property "Footprint" "Global:Switch_DPDT_MTS202" (at 228.6 62.357 0)
      (effects (font (size 1.27 1.27)) hide)
    )
    (property "Datasheet" "~" (at 228.6 62.357 0)
      (effects (font (size 1.27 1.27)) hide)
    )
    (pin "6" (uuid 79ca65be-f9f0-47ff-b23c-dc0ac36a3f83))
    (pin "4" (uuid e1bce9f5-7492-4276-9008-04f668a566c7))
    (pin "2" (uuid 8c123ead-c3bd-4a54-8d89-4034ccea9ddf))
    (pin "3" (uuid 84ce0921-446c-4c42-b6dc-5bf958905a57))
    (pin "1" (uuid 36b9e91d-619a-4402-92dc-c0bda2517945))
    (pin "5" (uuid 7e0cab33-44d5-4c01-a5a7-2b7cc5d6be8d))
    (instances
      (project "StepAttenuator"
        (path "/a88c89ed-b45c-46a0-aacb-3570d5c30b45"
          (reference "SW7") (unit 1)
        )
      )
    )
  )

  (symbol (lib_id "power:GND") (at 215.519 78.105 0) (unit 1)
    (in_bom yes) (on_board yes) (dnp no) (fields_autoplaced)
    (uuid d7011102-3992-40d3-b681-ef2c6810aaea)
    (property "Reference" "#PWR013" (at 215.519 84.455 0)
      (effects (font (size 1.27 1.27)) hide)
    )
    (property "Value" "GND" (at 215.519 82.804 0)
      (effects (font (size 1.27 1.27)))
    )
    (property "Footprint" "" (at 215.519 78.105 0)
      (effects (font (size 1.27 1.27)) hide)
    )
    (property "Datasheet" "" (at 215.519 78.105 0)
      (effects (font (size 1.27 1.27)) hide)
    )
    (pin "1" (uuid baf28090-7abd-4a46-8d58-a97b71d9f809))
    (instances
      (project "StepAttenuator"
        (path "/a88c89ed-b45c-46a0-aacb-3570d5c30b45"
          (reference "#PWR013") (unit 1)
        )
      )
    )
  )

  (symbol (lib_id "Connector:Conn_Coaxial") (at 48.26 62.357 0) (mirror y) (unit 1)
    (in_bom yes) (on_board yes) (dnp no)
    (uuid da3efd6b-e187-40c2-b453-751f4b334504)
    (property "Reference" "J1" (at 48.26 56.896 0)
      (effects (font (size 1.27 1.27)))
    )
    (property "Value" "Conn_Coaxial" (at 43.053 59.055 0)
      (effects (font (size 1.27 1.27)))
    )
    (property "Footprint" "Global:BNC_Pad" (at 48.26 62.357 0)
      (effects (font (size 1.27 1.27)) hide)
    )
    (property "Datasheet" " ~" (at 48.26 62.357 0)
      (effects (font (size 1.27 1.27)) hide)
    )
    (pin "2" (uuid d506f9d1-e52b-4e5d-a5f9-42d1e8258e72))
    (pin "1" (uuid d47f7cb5-aa94-45f3-8342-d45edba7099d))
    (instances
      (project "StepAttenuator"
        (path "/a88c89ed-b45c-46a0-aacb-3570d5c30b45"
          (reference "J1") (unit 1)
        )
      )
    )
  )

  (symbol (lib_id "Device:R") (at 209.55 68.961 90) (unit 1)
    (in_bom yes) (on_board yes) (dnp no)
    (uuid daca3ac3-f67c-41ce-85a7-58a4bfa38bff)
    (property "Reference" "R34" (at 209.55 67.056 90)
      (effects (font (size 1.27 1.27)))
    )
    (property "Value" "110" (at 209.55 69.088 90)
      (effects (font (size 1.27 1.27)))
    )
    (property "Footprint" "Resistor_SMD:R_1206_3216Metric" (at 209.55 70.739 90)
      (effects (font (size 1.27 1.27)) hide)
    )
    (property "Datasheet" "~" (at 209.55 68.961 0)
      (effects (font (size 1.27 1.27)) hide)
    )
    (pin "1" (uuid 0f8f3d70-19fa-4986-b426-ad62e19c6726))
    (pin "2" (uuid 058af635-783f-433a-a1bf-fb5e4dc3e868))
    (instances
      (project "StepAttenuator"
        (path "/a88c89ed-b45c-46a0-aacb-3570d5c30b45"
          (reference "R34") (unit 1)
        )
      )
    )
  )

  (symbol (lib_id "Device:R") (at 205.74 74.295 180) (unit 1)
    (in_bom yes) (on_board yes) (dnp no)
    (uuid db23d75f-de52-4fba-9b47-2fb4e2ca3b83)
    (property "Reference" "R32" (at 203.835 74.295 90)
      (effects (font (size 1.27 1.27)))
    )
    (property "Value" "150" (at 205.867 74.295 90)
      (effects (font (size 1.27 1.27)))
    )
    (property "Footprint" "Resistor_SMD:R_1206_3216Metric" (at 207.518 74.295 90)
      (effects (font (size 1.27 1.27)) hide)
    )
    (property "Datasheet" "~" (at 205.74 74.295 0)
      (effects (font (size 1.27 1.27)) hide)
    )
    (pin "1" (uuid 50de1d84-50f4-472d-a8fa-6ffd077e5397))
    (pin "2" (uuid f2218b09-f509-4729-bf48-14898bc13003))
    (instances
      (project "StepAttenuator"
        (path "/a88c89ed-b45c-46a0-aacb-3570d5c30b45"
          (reference "R32") (unit 1)
        )
      )
    )
  )

  (symbol (lib_id "power:GND") (at 91.948 78.105 0) (unit 1)
    (in_bom yes) (on_board yes) (dnp no) (fields_autoplaced)
    (uuid de2b2fbf-a40b-44aa-b71c-2b8057fa1a49)
    (property "Reference" "#PWR04" (at 91.948 84.455 0)
      (effects (font (size 1.27 1.27)) hide)
    )
    (property "Value" "GND" (at 91.948 82.804 0)
      (effects (font (size 1.27 1.27)))
    )
    (property "Footprint" "" (at 91.948 78.105 0)
      (effects (font (size 1.27 1.27)) hide)
    )
    (property "Datasheet" "" (at 91.948 78.105 0)
      (effects (font (size 1.27 1.27)) hide)
    )
    (pin "1" (uuid 7a4080f2-0245-41c5-9fca-b820317d2bcc))
    (instances
      (project "StepAttenuator"
        (path "/a88c89ed-b45c-46a0-aacb-3570d5c30b45"
          (reference "#PWR04") (unit 1)
        )
      )
    )
  )

  (symbol (lib_id "Switch:SW_DPDT_x2") (at 218.44 62.357 180) (unit 2)
    (in_bom yes) (on_board yes) (dnp no)
    (uuid e7bfdda6-1ade-437a-910c-14e6a8cf5730)
    (property "Reference" "SW6" (at 218.44 53.975 0)
      (effects (font (size 1.27 1.27)))
    )
    (property "Value" "SW_DPDT_x2" (at 216.0524 56.642 0)
      (effects (font (size 1.27 1.27)))
    )
    (property "Footprint" "Global:Switch_DPDT_MTS202" (at 218.44 62.357 0)
      (effects (font (size 1.27 1.27)) hide)
    )
    (property "Datasheet" "~" (at 218.44 62.357 0)
      (effects (font (size 1.27 1.27)) hide)
    )
    (pin "6" (uuid ebeae134-4d49-47ec-b17e-c6fb15f57dba))
    (pin "4" (uuid efe5c6a3-2551-491d-a465-40fe1deb97db))
    (pin "2" (uuid e03bed18-7aef-4901-a74e-8e3837d3e637))
    (pin "3" (uuid d718bdf9-280f-4bf4-875f-90c570d3da12))
    (pin "1" (uuid 93764623-a6f5-4899-b0f0-75ee7df31410))
    (pin "5" (uuid ceab9eb0-e260-4716-8923-05b877685483))
    (instances
      (project "StepAttenuator"
        (path "/a88c89ed-b45c-46a0-aacb-3570d5c30b45"
          (reference "SW6") (unit 2)
        )
      )
    )
  )

  (symbol (lib_id "Device:R") (at 133.731 74.295 180) (unit 1)
    (in_bom yes) (on_board yes) (dnp no)
    (uuid e9aa4a61-78d9-495f-8e56-3654de98fa52)
    (property "Reference" "R18" (at 131.826 74.295 90)
      (effects (font (size 1.27 1.27)))
    )
    (property "Value" "680" (at 133.858 74.295 90)
      (effects (font (size 1.27 1.27)))
    )
    (property "Footprint" "Resistor_SMD:R_1206_3216Metric" (at 135.509 74.295 90)
      (effects (font (size 1.27 1.27)) hide)
    )
    (property "Datasheet" "~" (at 133.731 74.295 0)
      (effects (font (size 1.27 1.27)) hide)
    )
    (pin "1" (uuid c56256e8-9e1f-49f0-8ff3-fd76a3ad73dd))
    (pin "2" (uuid 720e4983-4bf0-4c97-9197-822f085f6025))
    (instances
      (project "StepAttenuator"
        (path "/a88c89ed-b45c-46a0-aacb-3570d5c30b45"
          (reference "R18") (unit 1)
        )
      )
    )
  )

  (symbol (lib_id "Device:R") (at 101.6 74.295 180) (unit 1)
    (in_bom yes) (on_board yes) (dnp no)
    (uuid eb6c5914-beb5-4149-ba96-0f3702308b55)
    (property "Reference" "R11" (at 99.695 74.295 90)
      (effects (font (size 1.27 1.27)))
    )
    (property "Value" "680" (at 101.727 74.295 90)
      (effects (font (size 1.27 1.27)))
    )
    (property "Footprint" "Resistor_SMD:R_1206_3216Metric" (at 103.378 74.295 90)
      (effects (font (size 1.27 1.27)) hide)
    )
    (property "Datasheet" "~" (at 101.6 74.295 0)
      (effects (font (size 1.27 1.27)) hide)
    )
    (pin "1" (uuid f15a244a-34b1-423a-81a0-03a1edba80e4))
    (pin "2" (uuid c805d554-fc2d-4882-b4fb-ce92e3af3924))
    (instances
      (project "StepAttenuator"
        (path "/a88c89ed-b45c-46a0-aacb-3570d5c30b45"
          (reference "R11") (unit 1)
        )
      )
    )
  )

  (symbol (lib_id "Device:R") (at 237.49 68.961 90) (unit 1)
    (in_bom yes) (on_board yes) (dnp no)
    (uuid f525bf6c-c4ec-47a3-a473-1d112addc2dc)
    (property "Reference" "R40" (at 237.49 67.056 90)
      (effects (font (size 1.27 1.27)))
    )
    (property "Value" "160" (at 237.49 69.088 90)
      (effects (font (size 1.27 1.27)))
    )
    (property "Footprint" "Resistor_SMD:R_1206_3216Metric" (at 237.49 70.739 90)
      (effects (font (size 1.27 1.27)) hide)
    )
    (property "Datasheet" "~" (at 237.49 68.961 0)
      (effects (font (size 1.27 1.27)) hide)
    )
    (pin "1" (uuid 2cb8805d-4bc1-4a1d-8865-4526c4a2a092))
    (pin "2" (uuid 60c3dfc0-cc15-4f34-8487-c386d6714e56))
    (instances
      (project "StepAttenuator"
        (path "/a88c89ed-b45c-46a0-aacb-3570d5c30b45"
          (reference "R40") (unit 1)
        )
      )
    )
  )

  (symbol (lib_id "Device:R") (at 129.54 74.295 180) (unit 1)
    (in_bom yes) (on_board yes) (dnp no)
    (uuid f785a045-01a7-48b6-aec5-556ea4c3a4e5)
    (property "Reference" "R17" (at 127.635 74.295 90)
      (effects (font (size 1.27 1.27)))
    )
    (property "Value" "510" (at 129.667 74.295 90)
      (effects (font (size 1.27 1.27)))
    )
    (property "Footprint" "Resistor_SMD:R_1206_3216Metric" (at 131.318 74.295 90)
      (effects (font (size 1.27 1.27)) hide)
    )
    (property "Datasheet" "~" (at 129.54 74.295 0)
      (effects (font (size 1.27 1.27)) hide)
    )
    (pin "1" (uuid 09205b1f-c945-4d60-944f-48a1e6d856cc))
    (pin "2" (uuid 5e925a5e-b1be-49fa-bb0f-7ad4ce5ef64e))
    (instances
      (project "StepAttenuator"
        (path "/a88c89ed-b45c-46a0-aacb-3570d5c30b45"
          (reference "R17") (unit 1)
        )
      )
    )
  )

  (symbol (lib_id "Switch:SW_DPDT_x2") (at 246.38 62.357 180) (unit 2)
    (in_bom yes) (on_board yes) (dnp no)
    (uuid f8473bb9-6dc3-4c8d-9ee0-799ff1447e43)
    (property "Reference" "SW7" (at 246.38 53.975 0)
      (effects (font (size 1.27 1.27)))
    )
    (property "Value" "SW_DPDT_x2" (at 244.2464 56.4896 0)
      (effects (font (size 1.27 1.27)))
    )
    (property "Footprint" "Global:Switch_DPDT_MTS202" (at 246.38 62.357 0)
      (effects (font (size 1.27 1.27)) hide)
    )
    (property "Datasheet" "~" (at 246.38 62.357 0)
      (effects (font (size 1.27 1.27)) hide)
    )
    (pin "6" (uuid 0a75a925-8790-4d73-942e-174774685f42))
    (pin "4" (uuid c0c6662c-9b2d-4df8-a966-3c5509b9b8fb))
    (pin "2" (uuid e03bed18-7aef-4901-a74e-8e3837d3e638))
    (pin "3" (uuid d718bdf9-280f-4bf4-875f-90c570d3da13))
    (pin "1" (uuid 93764623-a6f5-4899-b0f0-75ee7df31411))
    (pin "5" (uuid 30742dfc-4c4a-4228-bcb6-0f33536fddd2))
    (instances
      (project "StepAttenuator"
        (path "/a88c89ed-b45c-46a0-aacb-3570d5c30b45"
          (reference "SW7") (unit 2)
        )
      )
    )
  )

  (symbol (lib_id "Device:R") (at 161.671 74.295 180) (unit 1)
    (in_bom yes) (on_board yes) (dnp no)
    (uuid f9a9918f-2bbb-4a1d-9319-510f6ccab964)
    (property "Reference" "R24" (at 159.766 74.295 90)
      (effects (font (size 1.27 1.27)))
    )
    (property "Value" "~" (at 161.798 74.295 90)
      (effects (font (size 1.27 1.27)))
    )
    (property "Footprint" "Resistor_SMD:R_1206_3216Metric" (at 163.449 74.295 90)
      (effects (font (size 1.27 1.27)) hide)
    )
    (property "Datasheet" "~" (at 161.671 74.295 0)
      (effects (font (size 1.27 1.27)) hide)
    )
    (pin "1" (uuid 90ba8ac1-ee7c-468d-a1c6-e9ddbed0fe27))
    (pin "2" (uuid dde0eced-b23d-4c08-b190-75812d60c495))
    (instances
      (project "StepAttenuator"
        (path "/a88c89ed-b45c-46a0-aacb-3570d5c30b45"
          (reference "R24") (unit 1)
        )
      )
    )
  )

  (symbol (lib_id "Device:R") (at 181.61 68.961 90) (unit 1)
    (in_bom yes) (on_board yes) (dnp no)
    (uuid f9cf026f-0419-4966-9da4-e2067985c107)
    (property "Reference" "R28" (at 181.61 67.056 90)
      (effects (font (size 1.27 1.27)))
    )
    (property "Value" "68" (at 181.61 69.088 90)
      (effects (font (size 1.27 1.27)))
    )
    (property "Footprint" "Resistor_SMD:R_1206_3216Metric" (at 181.61 70.739 90)
      (effects (font (size 1.27 1.27)) hide)
    )
    (property "Datasheet" "~" (at 181.61 68.961 0)
      (effects (font (size 1.27 1.27)) hide)
    )
    (pin "1" (uuid 3f7a7b13-1376-43a1-8b62-cf5ab2b4b6de))
    (pin "2" (uuid a734c090-6a4a-4631-b895-cadd1ed6aa2f))
    (instances
      (project "StepAttenuator"
        (path "/a88c89ed-b45c-46a0-aacb-3570d5c30b45"
          (reference "R28") (unit 1)
        )
      )
    )
  )

  (symbol (lib_id "Device:R") (at 117.729 74.295 180) (unit 1)
    (in_bom yes) (on_board yes) (dnp no)
    (uuid ff035d4c-65ac-44c5-8fec-3ea2ec8e09ab)
    (property "Reference" "R13" (at 115.824 74.295 90)
      (effects (font (size 1.27 1.27)))
    )
    (property "Value" "510" (at 117.856 74.295 90)
      (effects (font (size 1.27 1.27)))
    )
    (property "Footprint" "Resistor_SMD:R_1206_3216Metric" (at 119.507 74.295 90)
      (effects (font (size 1.27 1.27)) hide)
    )
    (property "Datasheet" "~" (at 117.729 74.295 0)
      (effects (font (size 1.27 1.27)) hide)
    )
    (pin "1" (uuid 28cadf06-a053-4891-ba7e-cdbd43ddaf2f))
    (pin "2" (uuid d1dde5f9-406e-4123-a74a-dfdf14532334))
    (instances
      (project "StepAttenuator"
        (path "/a88c89ed-b45c-46a0-aacb-3570d5c30b45"
          (reference "R13") (unit 1)
        )
      )
    )
  )

  (sheet_instances
    (path "/" (page "1"))
  )
)
