(kicad_pcb (version 20171130) (host pcbnew "(5.1.6-0-10_14)")

  (general
    (thickness 1.6)
    (drawings 8)
    (tracks 188)
    (zones 0)
    (modules 16)
    (nets 38)
  )

  (page A4)
  (layers
    (0 F.Cu signal)
    (31 B.Cu signal)
    (32 B.Adhes user)
    (33 F.Adhes user)
    (34 B.Paste user)
    (35 F.Paste user)
    (36 B.SilkS user)
    (37 F.SilkS user)
    (38 B.Mask user)
    (39 F.Mask user)
    (40 Dwgs.User user)
    (41 Cmts.User user)
    (42 Eco1.User user)
    (43 Eco2.User user)
    (44 Edge.Cuts user)
    (45 Margin user)
    (46 B.CrtYd user)
    (47 F.CrtYd user)
    (48 B.Fab user)
    (49 F.Fab user)
  )

  (setup
    (last_trace_width 0.25)
    (trace_clearance 0.2)
    (zone_clearance 0.508)
    (zone_45_only no)
    (trace_min 0.2)
    (via_size 0.8)
    (via_drill 0.4)
    (via_min_size 0.4)
    (via_min_drill 0.3)
    (uvia_size 0.3)
    (uvia_drill 0.1)
    (uvias_allowed no)
    (uvia_min_size 0.2)
    (uvia_min_drill 0.1)
    (edge_width 0.05)
    (segment_width 0.2)
    (pcb_text_width 0.3)
    (pcb_text_size 1.5 1.5)
    (mod_edge_width 0.12)
    (mod_text_size 1 1)
    (mod_text_width 0.15)
    (pad_size 1.25 1.25)
    (pad_drill 0)
    (pad_to_mask_clearance 0.051)
    (solder_mask_min_width 0.25)
    (aux_axis_origin 0 0)
    (visible_elements FFFFFF7F)
    (pcbplotparams
      (layerselection 0x010fc_ffffffff)
      (usegerberextensions false)
      (usegerberattributes false)
      (usegerberadvancedattributes false)
      (creategerberjobfile false)
      (excludeedgelayer true)
      (linewidth 0.100000)
      (plotframeref false)
      (viasonmask false)
      (mode 1)
      (useauxorigin false)
      (hpglpennumber 1)
      (hpglpenspeed 20)
      (hpglpendiameter 15.000000)
      (psnegative false)
      (psa4output false)
      (plotreference true)
      (plotvalue true)
      (plotinvisibletext false)
      (padsonsilk false)
      (subtractmaskfromsilk false)
      (outputformat 1)
      (mirror false)
      (drillshape 0)
      (scaleselection 1)
      (outputdirectory "/Users/r-w/gitlab/kicad-projects/PWKeep/kicad/PWKeep/gerbers/"))
  )

  (net 0 "")
  (net 1 GND)
  (net 2 Vcc)
  (net 3 "Net-(C4-Pad2)")
  (net 4 "Net-(C5-Pad2)")
  (net 5 "Net-(C6-Pad1)")
  (net 6 "Net-(C7-Pad1)")
  (net 7 D+)
  (net 8 "Net-(J1-Pad3)")
  (net 9 "Net-(J1-Pad2)")
  (net 10 D-)
  (net 11 "Net-(U1-Pad41)")
  (net 12 "Net-(U1-Pad40)")
  (net 13 "Net-(U1-Pad39)")
  (net 14 "Net-(U1-Pad38)")
  (net 15 "Net-(U1-Pad37)")
  (net 16 "Net-(U1-Pad36)")
  (net 17 "Net-(U1-Pad32)")
  (net 18 "Net-(U1-Pad31)")
  (net 19 "Net-(U1-Pad30)")
  (net 20 "Net-(U1-Pad29)")
  (net 21 "Net-(U1-Pad28)")
  (net 22 "Net-(U1-Pad27)")
  (net 23 "Net-(U1-Pad26)")
  (net 24 "Net-(U1-Pad25)")
  (net 25 "Net-(U1-Pad22)")
  (net 26 "Net-(U1-Pad21)")
  (net 27 "Net-(U1-Pad19)")
  (net 28 "Net-(U1-Pad12)")
  (net 29 "Net-(U1-Pad8)")
  (net 30 "Net-(U1-Pad1)")
  (net 31 MISO)
  (net 32 SCK)
  (net 33 MOSI)
  (net 34 RESET)
  (net 35 "Net-(SW1-Pad2)")
  (net 36 "Net-(U1-Pad18)")
  (net 37 "Net-(R3-Pad2)")

  (net_class Default "This is the default net class."
    (clearance 0.2)
    (trace_width 0.25)
    (via_dia 0.8)
    (via_drill 0.4)
    (uvia_dia 0.3)
    (uvia_drill 0.1)
    (add_net D+)
    (add_net D-)
    (add_net GND)
    (add_net MISO)
    (add_net MOSI)
    (add_net "Net-(C4-Pad2)")
    (add_net "Net-(C5-Pad2)")
    (add_net "Net-(C6-Pad1)")
    (add_net "Net-(C7-Pad1)")
    (add_net "Net-(J1-Pad2)")
    (add_net "Net-(J1-Pad3)")
    (add_net "Net-(R3-Pad2)")
    (add_net "Net-(SW1-Pad2)")
    (add_net "Net-(U1-Pad1)")
    (add_net "Net-(U1-Pad12)")
    (add_net "Net-(U1-Pad18)")
    (add_net "Net-(U1-Pad19)")
    (add_net "Net-(U1-Pad21)")
    (add_net "Net-(U1-Pad22)")
    (add_net "Net-(U1-Pad25)")
    (add_net "Net-(U1-Pad26)")
    (add_net "Net-(U1-Pad27)")
    (add_net "Net-(U1-Pad28)")
    (add_net "Net-(U1-Pad29)")
    (add_net "Net-(U1-Pad30)")
    (add_net "Net-(U1-Pad31)")
    (add_net "Net-(U1-Pad32)")
    (add_net "Net-(U1-Pad36)")
    (add_net "Net-(U1-Pad37)")
    (add_net "Net-(U1-Pad38)")
    (add_net "Net-(U1-Pad39)")
    (add_net "Net-(U1-Pad40)")
    (add_net "Net-(U1-Pad41)")
    (add_net "Net-(U1-Pad8)")
    (add_net RESET)
    (add_net SCK)
    (add_net Vcc)
  )

  (module PWKeep:Button (layer F.Cu) (tedit 5F13D964) (tstamp 5FC4E2A9)
    (at 155.46324 108.43006 90)
    (path /5F0EB50C)
    (fp_text reference SW1 (at 2.73558 -1.69926 180) (layer F.SilkS)
      (effects (font (size 1 1) (thickness 0.15)))
    )
    (fp_text value SW_SPST (at 5.16128 9.6774 90) (layer F.Fab)
      (effects (font (size 1 1) (thickness 0.15)))
    )
    (fp_line (start -0.889 -4.572) (end 6.35 -4.572) (layer F.SilkS) (width 0.15))
    (fp_line (start 6.35 -4.572) (end 6.35 0.889) (layer F.SilkS) (width 0.15))
    (fp_line (start 6.35 0.889) (end -0.889 0.889) (layer F.SilkS) (width 0.15))
    (fp_line (start -0.889 0.889) (end -0.889 -4.572) (layer F.SilkS) (width 0.15))
    (fp_text user %R (at 5.33908 7.95274 90) (layer F.Fab)
      (effects (font (size 1 1) (thickness 0.15)))
    )
    (pad 2 smd rect (at 0 -3.6957 90) (size 1.524 1.5) (layers F.Cu F.Paste F.Mask)
      (net 35 "Net-(SW1-Pad2)"))
    (pad 2 smd rect (at 5.4991 -3.6957 90) (size 1.524 1.5) (layers F.Cu F.Paste F.Mask)
      (net 35 "Net-(SW1-Pad2)"))
    (pad 1 smd rect (at 5.4991 0 90) (size 1.524 1.5) (layers F.Cu F.Paste F.Mask)
      (net 1 GND))
    (pad 1 smd rect (at 0 0 90) (size 1.524 1.5) (layers F.Cu F.Paste F.Mask)
      (net 1 GND))
  )

  (module PWKeep:ICSP_Pogo (layer F.Cu) (tedit 5FC62222) (tstamp 5FC623EB)
    (at 149.606 110.49 90)
    (path /5F36996C)
    (fp_text reference J2 (at 8.98652 -0.77724 270) (layer F.SilkS)
      (effects (font (size 1 1) (thickness 0.15)))
    )
    (fp_text value Conn_01x06_Female (at 7.79526 17.40408 90) (layer F.Fab)
      (effects (font (size 1 1) (thickness 0.15)))
    )
    (pad 6 smd circle (at 10 0 90) (size 1.25 1.25) (layers F.Cu F.Paste F.Mask)
      (net 1 GND))
    (pad 5 smd circle (at 8 0 90) (size 1.25 1.25) (layers F.Cu F.Paste F.Mask)
      (net 34 RESET))
    (pad 4 smd circle (at 6 0 90) (size 1.25 1.25) (layers F.Cu F.Paste F.Mask)
      (net 33 MOSI))
    (pad 3 smd circle (at 4 0 90) (size 1.25 1.25) (layers F.Cu F.Paste F.Mask)
      (net 32 SCK))
    (pad 2 smd circle (at 2 0 90) (size 1.25 1.25) (layers F.Cu F.Paste F.Mask)
      (net 2 Vcc))
    (pad 1 smd circle (at 0 0 90) (size 1.25 1.25) (layers F.Cu F.Paste F.Mask)
      (net 31 MISO))
  )

  (module PWKeep:USB_A (layer F.Cu) (tedit 5EB3C965) (tstamp 5F0D9E1C)
    (at 128.0922 105.5116 270)
    (descr "USB A connector")
    (tags "USB USB_A")
    (path /5F12BF1B)
    (fp_text reference J1 (at 2.1584 2.8622 90) (layer F.SilkS)
      (effects (font (size 1 1) (thickness 0.15)))
    )
    (fp_text value USB_A (at 0 16.51 90) (layer F.Fab)
      (effects (font (size 1 1) (thickness 0.15)))
    )
    (fp_line (start -5.842 0) (end 5.842 0) (layer F.SilkS) (width 0.15))
    (fp_line (start 5.842 0) (end 5.842 17.526) (layer F.SilkS) (width 0.15))
    (fp_line (start 5.842 17.526) (end -5.842 17.526) (layer F.SilkS) (width 0.15))
    (fp_line (start -5.842 17.526) (end -5.842 0) (layer F.SilkS) (width 0.15))
    (fp_line (start -6.35 4.064) (end 6.35 4.064) (layer F.SilkS) (width 0.15))
    (pad "" np_thru_hole circle (at 2.3 1.143 270) (size 1 1) (drill 1) (layers *.Cu *.Mask))
    (pad "" np_thru_hole circle (at -2.3 1.143 270) (size 1 1) (drill 1) (layers *.Cu *.Mask))
    (pad 4 smd rect (at -3.51 -0.762 270) (size 1.1 2.5) (layers F.Cu F.Paste F.Mask)
      (net 1 GND))
    (pad 1 smd rect (at 3.51 -0.762 270) (size 1.1 2.5) (layers F.Cu F.Paste F.Mask)
      (net 2 Vcc))
    (pad 2 smd rect (at 1.016 -0.762 270) (size 1.1 2.5) (layers F.Cu F.Paste F.Mask)
      (net 9 "Net-(J1-Pad2)"))
    (pad 3 smd rect (at -1.016 -0.762 270) (size 1.1 2.5) (layers F.Cu F.Paste F.Mask)
      (net 8 "Net-(J1-Pad3)"))
    (pad "" np_thru_hole circle (at 5.842 1.143 270) (size 2 2) (drill oval 0.9 2) (layers *.Cu *.Mask))
    (pad "" np_thru_hole circle (at -5.842 1.143 270) (size 2 2) (drill oval 0.9 2) (layers *.Cu *.Mask))
    (model ${KISYS3DMOD}/Connectors.3dshapes/USB_A.wrl
      (offset (xyz 3.555999946594238 0 0))
      (scale (xyz 1 1 1))
      (rotate (xyz 0 0 90))
    )
  )

  (module Housings_QFP:TQFP-44_10x10mm_Pitch0.8mm (layer F.Cu) (tedit 58CC9A48) (tstamp 5FC4D153)
    (at 141.2621 105.54208 90)
    (descr "44-Lead Plastic Thin Quad Flatpack (PT) - 10x10x1.0 mm Body [TQFP] (see Microchip Packaging Specification 00000049BS.pdf)")
    (tags "QFP 0.8")
    (path /5F0DBBA8)
    (attr smd)
    (fp_text reference U1 (at 5.34162 -5.84962 90) (layer F.SilkS)
      (effects (font (size 1 1) (thickness 0.15)))
    )
    (fp_text value ATmega32U4-MU (at 2.6924 27.80792 90) (layer F.Fab)
      (effects (font (size 1 1) (thickness 0.15)))
    )
    (fp_line (start -4 -5) (end 5 -5) (layer F.Fab) (width 0.15))
    (fp_line (start 5 -5) (end 5 5) (layer F.Fab) (width 0.15))
    (fp_line (start 5 5) (end -5 5) (layer F.Fab) (width 0.15))
    (fp_line (start -5 5) (end -5 -4) (layer F.Fab) (width 0.15))
    (fp_line (start -5 -4) (end -4 -5) (layer F.Fab) (width 0.15))
    (fp_line (start -6.7 -6.7) (end -6.7 6.7) (layer F.CrtYd) (width 0.05))
    (fp_line (start 6.7 -6.7) (end 6.7 6.7) (layer F.CrtYd) (width 0.05))
    (fp_line (start -6.7 -6.7) (end 6.7 -6.7) (layer F.CrtYd) (width 0.05))
    (fp_line (start -6.7 6.7) (end 6.7 6.7) (layer F.CrtYd) (width 0.05))
    (fp_line (start -5.175 -5.175) (end -5.175 -4.6) (layer F.SilkS) (width 0.15))
    (fp_line (start 5.175 -5.175) (end 5.175 -4.5) (layer F.SilkS) (width 0.15))
    (fp_line (start 5.175 5.175) (end 5.175 4.5) (layer F.SilkS) (width 0.15))
    (fp_line (start -5.175 5.175) (end -5.175 4.5) (layer F.SilkS) (width 0.15))
    (fp_line (start -5.175 -5.175) (end -4.5 -5.175) (layer F.SilkS) (width 0.15))
    (fp_line (start -5.175 5.175) (end -4.5 5.175) (layer F.SilkS) (width 0.15))
    (fp_line (start 5.175 5.175) (end 4.5 5.175) (layer F.SilkS) (width 0.15))
    (fp_line (start 5.175 -5.175) (end 4.5 -5.175) (layer F.SilkS) (width 0.15))
    (fp_line (start -5.175 -4.6) (end -6.45 -4.6) (layer F.SilkS) (width 0.15))
    (fp_text user %R (at 9.03986 8.01624 90) (layer F.Fab)
      (effects (font (size 1 1) (thickness 0.15)))
    )
    (pad 44 smd rect (at -4 -5.7 180) (size 1.5 0.55) (layers F.Cu F.Paste F.Mask)
      (net 2 Vcc))
    (pad 43 smd rect (at -3.2 -5.7 180) (size 1.5 0.55) (layers F.Cu F.Paste F.Mask)
      (net 1 GND))
    (pad 42 smd rect (at -2.4 -5.7 180) (size 1.5 0.55) (layers F.Cu F.Paste F.Mask)
      (net 4 "Net-(C5-Pad2)"))
    (pad 41 smd rect (at -1.6 -5.7 180) (size 1.5 0.55) (layers F.Cu F.Paste F.Mask)
      (net 11 "Net-(U1-Pad41)"))
    (pad 40 smd rect (at -0.8 -5.7 180) (size 1.5 0.55) (layers F.Cu F.Paste F.Mask)
      (net 12 "Net-(U1-Pad40)"))
    (pad 39 smd rect (at 0 -5.7 180) (size 1.5 0.55) (layers F.Cu F.Paste F.Mask)
      (net 13 "Net-(U1-Pad39)"))
    (pad 38 smd rect (at 0.8 -5.7 180) (size 1.5 0.55) (layers F.Cu F.Paste F.Mask)
      (net 14 "Net-(U1-Pad38)"))
    (pad 37 smd rect (at 1.6 -5.7 180) (size 1.5 0.55) (layers F.Cu F.Paste F.Mask)
      (net 15 "Net-(U1-Pad37)"))
    (pad 36 smd rect (at 2.4 -5.7 180) (size 1.5 0.55) (layers F.Cu F.Paste F.Mask)
      (net 16 "Net-(U1-Pad36)"))
    (pad 35 smd rect (at 3.2 -5.7 180) (size 1.5 0.55) (layers F.Cu F.Paste F.Mask)
      (net 1 GND))
    (pad 34 smd rect (at 4 -5.7 180) (size 1.5 0.55) (layers F.Cu F.Paste F.Mask)
      (net 2 Vcc))
    (pad 33 smd rect (at 5.7 -4 90) (size 1.5 0.55) (layers F.Cu F.Paste F.Mask)
      (net 37 "Net-(R3-Pad2)"))
    (pad 32 smd rect (at 5.7 -3.2 90) (size 1.5 0.55) (layers F.Cu F.Paste F.Mask)
      (net 17 "Net-(U1-Pad32)"))
    (pad 31 smd rect (at 5.7 -2.4 90) (size 1.5 0.55) (layers F.Cu F.Paste F.Mask)
      (net 18 "Net-(U1-Pad31)"))
    (pad 30 smd rect (at 5.7 -1.6 90) (size 1.5 0.55) (layers F.Cu F.Paste F.Mask)
      (net 19 "Net-(U1-Pad30)"))
    (pad 29 smd rect (at 5.7 -0.8 90) (size 1.5 0.55) (layers F.Cu F.Paste F.Mask)
      (net 20 "Net-(U1-Pad29)"))
    (pad 28 smd rect (at 5.7 0 90) (size 1.5 0.55) (layers F.Cu F.Paste F.Mask)
      (net 21 "Net-(U1-Pad28)"))
    (pad 27 smd rect (at 5.7 0.8 90) (size 1.5 0.55) (layers F.Cu F.Paste F.Mask)
      (net 22 "Net-(U1-Pad27)"))
    (pad 26 smd rect (at 5.7 1.6 90) (size 1.5 0.55) (layers F.Cu F.Paste F.Mask)
      (net 23 "Net-(U1-Pad26)"))
    (pad 25 smd rect (at 5.7 2.4 90) (size 1.5 0.55) (layers F.Cu F.Paste F.Mask)
      (net 24 "Net-(U1-Pad25)"))
    (pad 24 smd rect (at 5.7 3.2 90) (size 1.5 0.55) (layers F.Cu F.Paste F.Mask)
      (net 2 Vcc))
    (pad 23 smd rect (at 5.7 4 90) (size 1.5 0.55) (layers F.Cu F.Paste F.Mask)
      (net 1 GND))
    (pad 22 smd rect (at 4 5.7 180) (size 1.5 0.55) (layers F.Cu F.Paste F.Mask)
      (net 25 "Net-(U1-Pad22)"))
    (pad 21 smd rect (at 3.2 5.7 180) (size 1.5 0.55) (layers F.Cu F.Paste F.Mask)
      (net 26 "Net-(U1-Pad21)"))
    (pad 20 smd rect (at 2.4 5.7 180) (size 1.5 0.55) (layers F.Cu F.Paste F.Mask)
      (net 35 "Net-(SW1-Pad2)"))
    (pad 19 smd rect (at 1.6 5.7 180) (size 1.5 0.55) (layers F.Cu F.Paste F.Mask)
      (net 27 "Net-(U1-Pad19)"))
    (pad 18 smd rect (at 0.8 5.7 180) (size 1.5 0.55) (layers F.Cu F.Paste F.Mask)
      (net 36 "Net-(U1-Pad18)"))
    (pad 17 smd rect (at 0 5.7 180) (size 1.5 0.55) (layers F.Cu F.Paste F.Mask)
      (net 5 "Net-(C6-Pad1)"))
    (pad 16 smd rect (at -0.8 5.7 180) (size 1.5 0.55) (layers F.Cu F.Paste F.Mask)
      (net 6 "Net-(C7-Pad1)"))
    (pad 15 smd rect (at -1.6 5.7 180) (size 1.5 0.55) (layers F.Cu F.Paste F.Mask)
      (net 1 GND))
    (pad 14 smd rect (at -2.4 5.7 180) (size 1.5 0.55) (layers F.Cu F.Paste F.Mask)
      (net 2 Vcc))
    (pad 13 smd rect (at -3.2 5.7 180) (size 1.5 0.55) (layers F.Cu F.Paste F.Mask)
      (net 34 RESET))
    (pad 12 smd rect (at -4 5.7 180) (size 1.5 0.55) (layers F.Cu F.Paste F.Mask)
      (net 28 "Net-(U1-Pad12)"))
    (pad 11 smd rect (at -5.7 4 90) (size 1.5 0.55) (layers F.Cu F.Paste F.Mask)
      (net 31 MISO))
    (pad 10 smd rect (at -5.7 3.2 90) (size 1.5 0.55) (layers F.Cu F.Paste F.Mask)
      (net 33 MOSI))
    (pad 9 smd rect (at -5.7 2.4 90) (size 1.5 0.55) (layers F.Cu F.Paste F.Mask)
      (net 32 SCK))
    (pad 8 smd rect (at -5.7 1.6 90) (size 1.5 0.55) (layers F.Cu F.Paste F.Mask)
      (net 29 "Net-(U1-Pad8)"))
    (pad 7 smd rect (at -5.7 0.8 90) (size 1.5 0.55) (layers F.Cu F.Paste F.Mask)
      (net 2 Vcc))
    (pad 6 smd rect (at -5.7 0 90) (size 1.5 0.55) (layers F.Cu F.Paste F.Mask)
      (net 3 "Net-(C4-Pad2)"))
    (pad 5 smd rect (at -5.7 -0.8 90) (size 1.5 0.55) (layers F.Cu F.Paste F.Mask)
      (net 1 GND))
    (pad 4 smd rect (at -5.7 -1.6 90) (size 1.5 0.55) (layers F.Cu F.Paste F.Mask)
      (net 7 D+))
    (pad 3 smd rect (at -5.7 -2.4 90) (size 1.5 0.55) (layers F.Cu F.Paste F.Mask)
      (net 10 D-))
    (pad 2 smd rect (at -5.7 -3.2 90) (size 1.5 0.55) (layers F.Cu F.Paste F.Mask)
      (net 2 Vcc))
    (pad 1 smd rect (at -5.7 -4 90) (size 1.5 0.55) (layers F.Cu F.Paste F.Mask)
      (net 30 "Net-(U1-Pad1)"))
    (model ${KISYS3DMOD}/Housings_QFP.3dshapes/TQFP-44_10x10mm_Pitch0.8mm.wrl
      (at (xyz 0 0 0))
      (scale (xyz 1 1 1))
      (rotate (xyz 0 0 0))
    )
  )

  (module Capacitors_SMD:C_0805 (layer F.Cu) (tedit 58AA8463) (tstamp 5FC4D396)
    (at 131.17322 109.26318 90)
    (descr "Capacitor SMD 0805, reflow soldering, AVX (see smccp.pdf)")
    (tags "capacitor 0805")
    (path /5F1360CE)
    (attr smd)
    (fp_text reference C1 (at -1.64846 -1.52654 180) (layer F.SilkS)
      (effects (font (size 1 1) (thickness 0.15)))
    )
    (fp_text value 1uF (at -6.20776 1.76784 90) (layer F.Fab)
      (effects (font (size 1 1) (thickness 0.15)))
    )
    (fp_line (start -1 0.62) (end -1 -0.62) (layer F.Fab) (width 0.1))
    (fp_line (start 1 0.62) (end -1 0.62) (layer F.Fab) (width 0.1))
    (fp_line (start 1 -0.62) (end 1 0.62) (layer F.Fab) (width 0.1))
    (fp_line (start -1 -0.62) (end 1 -0.62) (layer F.Fab) (width 0.1))
    (fp_line (start 0.5 -0.85) (end -0.5 -0.85) (layer F.SilkS) (width 0.12))
    (fp_line (start -0.5 0.85) (end 0.5 0.85) (layer F.SilkS) (width 0.12))
    (fp_line (start -1.75 -0.88) (end 1.75 -0.88) (layer F.CrtYd) (width 0.05))
    (fp_line (start -1.75 -0.88) (end -1.75 0.87) (layer F.CrtYd) (width 0.05))
    (fp_line (start 1.75 0.87) (end 1.75 -0.88) (layer F.CrtYd) (width 0.05))
    (fp_line (start 1.75 0.87) (end -1.75 0.87) (layer F.CrtYd) (width 0.05))
    (fp_text user %R (at -9.16432 -0.98806 180) (layer F.Fab)
      (effects (font (size 1 1) (thickness 0.15)))
    )
    (pad 2 smd rect (at 1 0 90) (size 1 1.25) (layers F.Cu F.Paste F.Mask)
      (net 2 Vcc))
    (pad 1 smd rect (at -1 0 90) (size 1 1.25) (layers F.Cu F.Paste F.Mask)
      (net 1 GND))
    (model Capacitors_SMD.3dshapes/C_0805.wrl
      (at (xyz 0 0 0))
      (scale (xyz 1 1 1))
      (rotate (xyz 0 0 0))
    )
  )

  (module Capacitors_SMD:C_0805 (layer F.Cu) (tedit 58AA8463) (tstamp 5FC4D3A7)
    (at 133.0452 109.2708 270)
    (descr "Capacitor SMD 0805, reflow soldering, AVX (see smccp.pdf)")
    (tags "capacitor 0805")
    (path /5F10309D)
    (attr smd)
    (fp_text reference C2 (at 1.44018 -1.79578 180) (layer F.SilkS)
      (effects (font (size 1 1) (thickness 0.15)))
    )
    (fp_text value 0.1uF (at 10.22604 0.72136 90) (layer F.Fab)
      (effects (font (size 1 1) (thickness 0.15)))
    )
    (fp_line (start 1.75 0.87) (end -1.75 0.87) (layer F.CrtYd) (width 0.05))
    (fp_line (start 1.75 0.87) (end 1.75 -0.88) (layer F.CrtYd) (width 0.05))
    (fp_line (start -1.75 -0.88) (end -1.75 0.87) (layer F.CrtYd) (width 0.05))
    (fp_line (start -1.75 -0.88) (end 1.75 -0.88) (layer F.CrtYd) (width 0.05))
    (fp_line (start -0.5 0.85) (end 0.5 0.85) (layer F.SilkS) (width 0.12))
    (fp_line (start 0.5 -0.85) (end -0.5 -0.85) (layer F.SilkS) (width 0.12))
    (fp_line (start -1 -0.62) (end 1 -0.62) (layer F.Fab) (width 0.1))
    (fp_line (start 1 -0.62) (end 1 0.62) (layer F.Fab) (width 0.1))
    (fp_line (start 1 0.62) (end -1 0.62) (layer F.Fab) (width 0.1))
    (fp_line (start -1 0.62) (end -1 -0.62) (layer F.Fab) (width 0.1))
    (fp_text user %R (at 6.5024 -1.61798 90) (layer F.Fab)
      (effects (font (size 1 1) (thickness 0.15)))
    )
    (pad 1 smd rect (at -1 0 270) (size 1 1.25) (layers F.Cu F.Paste F.Mask)
      (net 2 Vcc))
    (pad 2 smd rect (at 1 0 270) (size 1 1.25) (layers F.Cu F.Paste F.Mask)
      (net 1 GND))
    (model Capacitors_SMD.3dshapes/C_0805.wrl
      (at (xyz 0 0 0))
      (scale (xyz 1 1 1))
      (rotate (xyz 0 0 0))
    )
  )

  (module Capacitors_SMD:C_0805 (layer F.Cu) (tedit 58AA8463) (tstamp 5FC4D3B8)
    (at 131.30276 101.65588 270)
    (descr "Capacitor SMD 0805, reflow soldering, AVX (see smccp.pdf)")
    (tags "capacitor 0805")
    (path /5F102CD1)
    (attr smd)
    (fp_text reference C3 (at -0.94234 -1.61544 90) (layer F.SilkS)
      (effects (font (size 1 1) (thickness 0.15)))
    )
    (fp_text value 0.1uF (at -6.69544 -2.82956 90) (layer F.Fab)
      (effects (font (size 1 1) (thickness 0.15)))
    )
    (fp_line (start -1 0.62) (end -1 -0.62) (layer F.Fab) (width 0.1))
    (fp_line (start 1 0.62) (end -1 0.62) (layer F.Fab) (width 0.1))
    (fp_line (start 1 -0.62) (end 1 0.62) (layer F.Fab) (width 0.1))
    (fp_line (start -1 -0.62) (end 1 -0.62) (layer F.Fab) (width 0.1))
    (fp_line (start 0.5 -0.85) (end -0.5 -0.85) (layer F.SilkS) (width 0.12))
    (fp_line (start -0.5 0.85) (end 0.5 0.85) (layer F.SilkS) (width 0.12))
    (fp_line (start -1.75 -0.88) (end 1.75 -0.88) (layer F.CrtYd) (width 0.05))
    (fp_line (start -1.75 -0.88) (end -1.75 0.87) (layer F.CrtYd) (width 0.05))
    (fp_line (start 1.75 0.87) (end 1.75 -0.88) (layer F.CrtYd) (width 0.05))
    (fp_line (start 1.75 0.87) (end -1.75 0.87) (layer F.CrtYd) (width 0.05))
    (fp_text user %R (at -5.15366 1.8669 90) (layer F.Fab)
      (effects (font (size 1 1) (thickness 0.15)))
    )
    (pad 2 smd rect (at 1 0 270) (size 1 1.25) (layers F.Cu F.Paste F.Mask)
      (net 1 GND))
    (pad 1 smd rect (at -1 0 270) (size 1 1.25) (layers F.Cu F.Paste F.Mask)
      (net 2 Vcc))
    (model Capacitors_SMD.3dshapes/C_0805.wrl
      (at (xyz 0 0 0))
      (scale (xyz 1 1 1))
      (rotate (xyz 0 0 0))
    )
  )

  (module Capacitors_SMD:C_0805 (layer B.Cu) (tedit 58AA8463) (tstamp 5FC4D3C9)
    (at 142.87246 109.82452 180)
    (descr "Capacitor SMD 0805, reflow soldering, AVX (see smccp.pdf)")
    (tags "capacitor 0805")
    (path /5F0E807F)
    (attr smd)
    (fp_text reference C4 (at 2.66192 0.22352) (layer B.SilkS)
      (effects (font (size 1 1) (thickness 0.15)) (justify mirror))
    )
    (fp_text value 1uF (at -3.52806 -8.63854) (layer B.Fab)
      (effects (font (size 1 1) (thickness 0.15)) (justify mirror))
    )
    (fp_line (start 1.75 -0.87) (end -1.75 -0.87) (layer B.CrtYd) (width 0.05))
    (fp_line (start 1.75 -0.87) (end 1.75 0.88) (layer B.CrtYd) (width 0.05))
    (fp_line (start -1.75 0.88) (end -1.75 -0.87) (layer B.CrtYd) (width 0.05))
    (fp_line (start -1.75 0.88) (end 1.75 0.88) (layer B.CrtYd) (width 0.05))
    (fp_line (start -0.5 -0.85) (end 0.5 -0.85) (layer B.SilkS) (width 0.12))
    (fp_line (start 0.5 0.85) (end -0.5 0.85) (layer B.SilkS) (width 0.12))
    (fp_line (start -1 0.62) (end 1 0.62) (layer B.Fab) (width 0.1))
    (fp_line (start 1 0.62) (end 1 -0.62) (layer B.Fab) (width 0.1))
    (fp_line (start 1 -0.62) (end -1 -0.62) (layer B.Fab) (width 0.1))
    (fp_line (start -1 -0.62) (end -1 0.62) (layer B.Fab) (width 0.1))
    (fp_text user %R (at -6.15696 -5.45338) (layer B.Fab)
      (effects (font (size 1 1) (thickness 0.15)) (justify mirror))
    )
    (pad 1 smd rect (at -1 0 180) (size 1 1.25) (layers B.Cu B.Paste B.Mask)
      (net 1 GND))
    (pad 2 smd rect (at 1 0 180) (size 1 1.25) (layers B.Cu B.Paste B.Mask)
      (net 3 "Net-(C4-Pad2)"))
    (model Capacitors_SMD.3dshapes/C_0805.wrl
      (at (xyz 0 0 0))
      (scale (xyz 1 1 1))
      (rotate (xyz 0 0 0))
    )
  )

  (module Capacitors_SMD:C_0805 (layer B.Cu) (tedit 58AA8463) (tstamp 5FC4D3DA)
    (at 137.55878 105.8545 90)
    (descr "Capacitor SMD 0805, reflow soldering, AVX (see smccp.pdf)")
    (tags "capacitor 0805")
    (path /5F0E4C10)
    (attr smd)
    (fp_text reference C5 (at -2.62128 0.23876 -90) (layer B.SilkS)
      (effects (font (size 1 1) (thickness 0.15)) (justify mirror))
    )
    (fp_text value 0.1uF (at 0 -1.75 -90) (layer B.Fab)
      (effects (font (size 1 1) (thickness 0.15)) (justify mirror))
    )
    (fp_line (start -1 -0.62) (end -1 0.62) (layer B.Fab) (width 0.1))
    (fp_line (start 1 -0.62) (end -1 -0.62) (layer B.Fab) (width 0.1))
    (fp_line (start 1 0.62) (end 1 -0.62) (layer B.Fab) (width 0.1))
    (fp_line (start -1 0.62) (end 1 0.62) (layer B.Fab) (width 0.1))
    (fp_line (start 0.5 0.85) (end -0.5 0.85) (layer B.SilkS) (width 0.12))
    (fp_line (start -0.5 -0.85) (end 0.5 -0.85) (layer B.SilkS) (width 0.12))
    (fp_line (start -1.75 0.88) (end 1.75 0.88) (layer B.CrtYd) (width 0.05))
    (fp_line (start -1.75 0.88) (end -1.75 -0.87) (layer B.CrtYd) (width 0.05))
    (fp_line (start 1.75 -0.87) (end 1.75 0.88) (layer B.CrtYd) (width 0.05))
    (fp_line (start 1.75 -0.87) (end -1.75 -0.87) (layer B.CrtYd) (width 0.05))
    (fp_text user %R (at -9.23036 2.2225 -90) (layer B.Fab)
      (effects (font (size 1 1) (thickness 0.15)) (justify mirror))
    )
    (pad 2 smd rect (at 1 0 90) (size 1 1.25) (layers B.Cu B.Paste B.Mask)
      (net 4 "Net-(C5-Pad2)"))
    (pad 1 smd rect (at -1 0 90) (size 1 1.25) (layers B.Cu B.Paste B.Mask)
      (net 1 GND))
    (model Capacitors_SMD.3dshapes/C_0805.wrl
      (at (xyz 0 0 0))
      (scale (xyz 1 1 1))
      (rotate (xyz 0 0 0))
    )
  )

  (module Capacitors_SMD:C_0805 (layer B.Cu) (tedit 58AA8463) (tstamp 5FC64940)
    (at 143.39824 103.52278 90)
    (descr "Capacitor SMD 0805, reflow soldering, AVX (see smccp.pdf)")
    (tags "capacitor 0805")
    (path /5F0E2751)
    (attr smd)
    (fp_text reference C6 (at 0.03556 1.58242 90) (layer B.SilkS)
      (effects (font (size 1 1) (thickness 0.15)) (justify mirror))
    )
    (fp_text value 22pF (at 7.5692 1.4859 90) (layer B.Fab)
      (effects (font (size 1 1) (thickness 0.15)) (justify mirror))
    )
    (fp_line (start -1 -0.62) (end -1 0.62) (layer B.Fab) (width 0.1))
    (fp_line (start 1 -0.62) (end -1 -0.62) (layer B.Fab) (width 0.1))
    (fp_line (start 1 0.62) (end 1 -0.62) (layer B.Fab) (width 0.1))
    (fp_line (start -1 0.62) (end 1 0.62) (layer B.Fab) (width 0.1))
    (fp_line (start 0.5 0.85) (end -0.5 0.85) (layer B.SilkS) (width 0.12))
    (fp_line (start -0.5 -0.85) (end 0.5 -0.85) (layer B.SilkS) (width 0.12))
    (fp_line (start -1.75 0.88) (end 1.75 0.88) (layer B.CrtYd) (width 0.05))
    (fp_line (start -1.75 0.88) (end -1.75 -0.87) (layer B.CrtYd) (width 0.05))
    (fp_line (start 1.75 -0.87) (end 1.75 0.88) (layer B.CrtYd) (width 0.05))
    (fp_line (start 1.75 -0.87) (end -1.75 -0.87) (layer B.CrtYd) (width 0.05))
    (fp_text user %R (at -12.17168 2.77876 90) (layer B.Fab)
      (effects (font (size 1 1) (thickness 0.15)) (justify mirror))
    )
    (pad 2 smd rect (at 1 0 90) (size 1 1.25) (layers B.Cu B.Paste B.Mask)
      (net 1 GND))
    (pad 1 smd rect (at -1 0 90) (size 1 1.25) (layers B.Cu B.Paste B.Mask)
      (net 5 "Net-(C6-Pad1)"))
    (model Capacitors_SMD.3dshapes/C_0805.wrl
      (at (xyz 0 0 0))
      (scale (xyz 1 1 1))
      (rotate (xyz 0 0 0))
    )
  )

  (module Capacitors_SMD:C_0805 (layer B.Cu) (tedit 58AA8463) (tstamp 5FC4D3FC)
    (at 143.39824 107.14228 270)
    (descr "Capacitor SMD 0805, reflow soldering, AVX (see smccp.pdf)")
    (tags "capacitor 0805")
    (path /5F0E2ED5)
    (attr smd)
    (fp_text reference C7 (at -0.04572 -1.6383 90) (layer B.SilkS)
      (effects (font (size 1 1) (thickness 0.15)) (justify mirror))
    )
    (fp_text value 22pF (at 9.32434 -0.39878 90) (layer B.Fab)
      (effects (font (size 1 1) (thickness 0.15)) (justify mirror))
    )
    (fp_line (start 1.75 -0.87) (end -1.75 -0.87) (layer B.CrtYd) (width 0.05))
    (fp_line (start 1.75 -0.87) (end 1.75 0.88) (layer B.CrtYd) (width 0.05))
    (fp_line (start -1.75 0.88) (end -1.75 -0.87) (layer B.CrtYd) (width 0.05))
    (fp_line (start -1.75 0.88) (end 1.75 0.88) (layer B.CrtYd) (width 0.05))
    (fp_line (start -0.5 -0.85) (end 0.5 -0.85) (layer B.SilkS) (width 0.12))
    (fp_line (start 0.5 0.85) (end -0.5 0.85) (layer B.SilkS) (width 0.12))
    (fp_line (start -1 0.62) (end 1 0.62) (layer B.Fab) (width 0.1))
    (fp_line (start 1 0.62) (end 1 -0.62) (layer B.Fab) (width 0.1))
    (fp_line (start 1 -0.62) (end -1 -0.62) (layer B.Fab) (width 0.1))
    (fp_line (start -1 -0.62) (end -1 0.62) (layer B.Fab) (width 0.1))
    (fp_text user %R (at 10.39368 3.76174 90) (layer B.Fab)
      (effects (font (size 1 1) (thickness 0.15)) (justify mirror))
    )
    (pad 1 smd rect (at -1 0 270) (size 1 1.25) (layers B.Cu B.Paste B.Mask)
      (net 6 "Net-(C7-Pad1)"))
    (pad 2 smd rect (at 1 0 270) (size 1 1.25) (layers B.Cu B.Paste B.Mask)
      (net 1 GND))
    (model Capacitors_SMD.3dshapes/C_0805.wrl
      (at (xyz 0 0 0))
      (scale (xyz 1 1 1))
      (rotate (xyz 0 0 0))
    )
  )

  (module Resistors_SMD:R_0805 (layer F.Cu) (tedit 58E0A804) (tstamp 5FC4D417)
    (at 131.83616 104.61244 180)
    (descr "Resistor SMD 0805, reflow soldering, Vishay (see dcrcw.pdf)")
    (tags "resistor 0805")
    (path /5F12D19F)
    (attr smd)
    (fp_text reference R1 (at -2.0066 0.10922 90) (layer F.SilkS)
      (effects (font (size 1 1) (thickness 0.15)))
    )
    (fp_text value 22 (at 2.02438 -11.30554) (layer F.Fab)
      (effects (font (size 1 1) (thickness 0.15)))
    )
    (fp_line (start 1.55 0.9) (end -1.55 0.9) (layer F.CrtYd) (width 0.05))
    (fp_line (start 1.55 0.9) (end 1.55 -0.9) (layer F.CrtYd) (width 0.05))
    (fp_line (start -1.55 -0.9) (end -1.55 0.9) (layer F.CrtYd) (width 0.05))
    (fp_line (start -1.55 -0.9) (end 1.55 -0.9) (layer F.CrtYd) (width 0.05))
    (fp_line (start -0.6 -0.88) (end 0.6 -0.88) (layer F.SilkS) (width 0.12))
    (fp_line (start 0.6 0.88) (end -0.6 0.88) (layer F.SilkS) (width 0.12))
    (fp_line (start -1 -0.62) (end 1 -0.62) (layer F.Fab) (width 0.1))
    (fp_line (start 1 -0.62) (end 1 0.62) (layer F.Fab) (width 0.1))
    (fp_line (start 1 0.62) (end -1 0.62) (layer F.Fab) (width 0.1))
    (fp_line (start -1 0.62) (end -1 -0.62) (layer F.Fab) (width 0.1))
    (fp_text user %R (at -4.05638 -13.16228) (layer F.Fab)
      (effects (font (size 0.5 0.5) (thickness 0.075)))
    )
    (pad 1 smd rect (at -0.95 0 180) (size 0.7 1.3) (layers F.Cu F.Paste F.Mask)
      (net 7 D+))
    (pad 2 smd rect (at 0.95 0 180) (size 0.7 1.3) (layers F.Cu F.Paste F.Mask)
      (net 8 "Net-(J1-Pad3)"))
    (model ${KISYS3DMOD}/Resistors_SMD.3dshapes/R_0805.wrl
      (at (xyz 0 0 0))
      (scale (xyz 1 1 1))
      (rotate (xyz 0 0 0))
    )
  )

  (module Resistors_SMD:R_0805 (layer F.Cu) (tedit 58E0A804) (tstamp 5FC4D428)
    (at 131.83616 106.53776 180)
    (descr "Resistor SMD 0805, reflow soldering, Vishay (see dcrcw.pdf)")
    (tags "resistor 0805")
    (path /5F12D8DD)
    (attr smd)
    (fp_text reference R2 (at -2.09804 -0.0889 90) (layer F.SilkS)
      (effects (font (size 1 1) (thickness 0.15)))
    )
    (fp_text value 22 (at -4.70408 -9.3853) (layer F.Fab)
      (effects (font (size 1 1) (thickness 0.15)))
    )
    (fp_line (start -1 0.62) (end -1 -0.62) (layer F.Fab) (width 0.1))
    (fp_line (start 1 0.62) (end -1 0.62) (layer F.Fab) (width 0.1))
    (fp_line (start 1 -0.62) (end 1 0.62) (layer F.Fab) (width 0.1))
    (fp_line (start -1 -0.62) (end 1 -0.62) (layer F.Fab) (width 0.1))
    (fp_line (start 0.6 0.88) (end -0.6 0.88) (layer F.SilkS) (width 0.12))
    (fp_line (start -0.6 -0.88) (end 0.6 -0.88) (layer F.SilkS) (width 0.12))
    (fp_line (start -1.55 -0.9) (end 1.55 -0.9) (layer F.CrtYd) (width 0.05))
    (fp_line (start -1.55 -0.9) (end -1.55 0.9) (layer F.CrtYd) (width 0.05))
    (fp_line (start 1.55 0.9) (end 1.55 -0.9) (layer F.CrtYd) (width 0.05))
    (fp_line (start 1.55 0.9) (end -1.55 0.9) (layer F.CrtYd) (width 0.05))
    (fp_text user %R (at -2.4511 -11.3538) (layer F.Fab)
      (effects (font (size 0.5 0.5) (thickness 0.075)))
    )
    (pad 2 smd rect (at 0.95 0 180) (size 0.7 1.3) (layers F.Cu F.Paste F.Mask)
      (net 9 "Net-(J1-Pad2)"))
    (pad 1 smd rect (at -0.95 0 180) (size 0.7 1.3) (layers F.Cu F.Paste F.Mask)
      (net 10 D-))
    (model ${KISYS3DMOD}/Resistors_SMD.3dshapes/R_0805.wrl
      (at (xyz 0 0 0))
      (scale (xyz 1 1 1))
      (rotate (xyz 0 0 0))
    )
  )

  (module Resistors_SMD:R_0805 (layer B.Cu) (tedit 58E0A804) (tstamp 5FC4D439)
    (at 137.57402 102.45852 90)
    (descr "Resistor SMD 0805, reflow soldering, Vishay (see dcrcw.pdf)")
    (tags "resistor 0805")
    (path /5F0E9425)
    (attr smd)
    (fp_text reference R3 (at 0.92964 1.62052 90) (layer B.SilkS)
      (effects (font (size 1 1) (thickness 0.15)) (justify mirror))
    )
    (fp_text value 1K0 (at 0 -1.75 90) (layer B.Fab)
      (effects (font (size 1 1) (thickness 0.15)) (justify mirror))
    )
    (fp_line (start -1 -0.62) (end -1 0.62) (layer B.Fab) (width 0.1))
    (fp_line (start 1 -0.62) (end -1 -0.62) (layer B.Fab) (width 0.1))
    (fp_line (start 1 0.62) (end 1 -0.62) (layer B.Fab) (width 0.1))
    (fp_line (start -1 0.62) (end 1 0.62) (layer B.Fab) (width 0.1))
    (fp_line (start 0.6 -0.88) (end -0.6 -0.88) (layer B.SilkS) (width 0.12))
    (fp_line (start -0.6 0.88) (end 0.6 0.88) (layer B.SilkS) (width 0.12))
    (fp_line (start -1.55 0.9) (end 1.55 0.9) (layer B.CrtYd) (width 0.05))
    (fp_line (start -1.55 0.9) (end -1.55 -0.9) (layer B.CrtYd) (width 0.05))
    (fp_line (start 1.55 -0.9) (end 1.55 0.9) (layer B.CrtYd) (width 0.05))
    (fp_line (start 1.55 -0.9) (end -1.55 -0.9) (layer B.CrtYd) (width 0.05))
    (fp_text user %R (at 0 0 90) (layer B.Fab)
      (effects (font (size 0.5 0.5) (thickness 0.075)) (justify mirror))
    )
    (pad 2 smd rect (at 0.95 0 90) (size 0.7 1.3) (layers B.Cu B.Paste B.Mask)
      (net 37 "Net-(R3-Pad2)"))
    (pad 1 smd rect (at -0.95 0 90) (size 0.7 1.3) (layers B.Cu B.Paste B.Mask)
      (net 1 GND))
    (model ${KISYS3DMOD}/Resistors_SMD.3dshapes/R_0805.wrl
      (at (xyz 0 0 0))
      (scale (xyz 1 1 1))
      (rotate (xyz 0 0 0))
    )
  )

  (module Crystals:Crystal_SMD_5032-2pin_5.0x3.2mm (layer B.Cu) (tedit 58CD2E9C) (tstamp 5FC4D454)
    (at 140.51788 105.36174 270)
    (descr "SMD Crystal SERIES SMD2520/2 http://www.icbase.com/File/PDF/HKC/HKC00061008.pdf, 5.0x3.2mm^2 package")
    (tags "SMD SMT crystal")
    (path /5F0DFD98)
    (attr smd)
    (fp_text reference Y1 (at 0.0381 0.0254 180) (layer B.SilkS)
      (effects (font (size 1 1) (thickness 0.15)) (justify mirror))
    )
    (fp_text value 16MHz (at 0 -2.8 90) (layer B.Fab)
      (effects (font (size 1 1) (thickness 0.15)) (justify mirror))
    )
    (fp_line (start -2.3 1.6) (end 2.3 1.6) (layer B.Fab) (width 0.1))
    (fp_line (start 2.3 1.6) (end 2.5 1.4) (layer B.Fab) (width 0.1))
    (fp_line (start 2.5 1.4) (end 2.5 -1.4) (layer B.Fab) (width 0.1))
    (fp_line (start 2.5 -1.4) (end 2.3 -1.6) (layer B.Fab) (width 0.1))
    (fp_line (start 2.3 -1.6) (end -2.3 -1.6) (layer B.Fab) (width 0.1))
    (fp_line (start -2.3 -1.6) (end -2.5 -1.4) (layer B.Fab) (width 0.1))
    (fp_line (start -2.5 -1.4) (end -2.5 1.4) (layer B.Fab) (width 0.1))
    (fp_line (start -2.5 1.4) (end -2.3 1.6) (layer B.Fab) (width 0.1))
    (fp_line (start -2.5 -0.6) (end -1.5 -1.6) (layer B.Fab) (width 0.1))
    (fp_line (start 2.7 1.8) (end -3.05 1.8) (layer B.SilkS) (width 0.12))
    (fp_line (start -3.05 1.8) (end -3.05 -1.8) (layer B.SilkS) (width 0.12))
    (fp_line (start -3.05 -1.8) (end 2.7 -1.8) (layer B.SilkS) (width 0.12))
    (fp_line (start -3.1 1.9) (end -3.1 -1.9) (layer B.CrtYd) (width 0.05))
    (fp_line (start -3.1 -1.9) (end 3.1 -1.9) (layer B.CrtYd) (width 0.05))
    (fp_line (start 3.1 -1.9) (end 3.1 1.9) (layer B.CrtYd) (width 0.05))
    (fp_line (start 3.1 1.9) (end -3.1 1.9) (layer B.CrtYd) (width 0.05))
    (fp_circle (center 0 0) (end 0.4 0) (layer B.Adhes) (width 0.1))
    (fp_circle (center 0 0) (end 0.333333 0) (layer B.Adhes) (width 0.133333))
    (fp_circle (center 0 0) (end 0.213333 0) (layer B.Adhes) (width 0.133333))
    (fp_circle (center 0 0) (end 0.093333 0) (layer B.Adhes) (width 0.186667))
    (fp_text user %R (at 12.03706 -1.2065 90) (layer B.Fab)
      (effects (font (size 1 1) (thickness 0.15)) (justify mirror))
    )
    (pad 2 smd rect (at 1.85 0 270) (size 2 2.4) (layers B.Cu B.Paste B.Mask)
      (net 6 "Net-(C7-Pad1)"))
    (pad 1 smd rect (at -1.85 0 270) (size 2 2.4) (layers B.Cu B.Paste B.Mask)
      (net 5 "Net-(C6-Pad1)"))
    (model ${KISYS3DMOD}/Crystals.3dshapes/Crystal_SMD_5032-2pin_5.0x3.2mm.wrl
      (at (xyz 0 0 0))
      (scale (xyz 0.393701 0.393701 0.393701))
      (rotate (xyz 0 0 0))
    )
  )

  (module Resistors_SMD:R_0805 (layer B.Cu) (tedit 58E0A804) (tstamp 5FDC6B9D)
    (at 133.2611 101.58984 90)
    (descr "Resistor SMD 0805, reflow soldering, Vishay (see dcrcw.pdf)")
    (tags "resistor 0805")
    (path /5FDC89E2)
    (attr smd)
    (fp_text reference R4 (at 0 1.65 90) (layer B.SilkS)
      (effects (font (size 1 1) (thickness 0.15)) (justify mirror))
    )
    (fp_text value 10K (at 0 -1.75 90) (layer B.Fab)
      (effects (font (size 1 1) (thickness 0.15)) (justify mirror))
    )
    (fp_line (start 1.55 -0.9) (end -1.55 -0.9) (layer B.CrtYd) (width 0.05))
    (fp_line (start 1.55 -0.9) (end 1.55 0.9) (layer B.CrtYd) (width 0.05))
    (fp_line (start -1.55 0.9) (end -1.55 -0.9) (layer B.CrtYd) (width 0.05))
    (fp_line (start -1.55 0.9) (end 1.55 0.9) (layer B.CrtYd) (width 0.05))
    (fp_line (start -0.6 0.88) (end 0.6 0.88) (layer B.SilkS) (width 0.12))
    (fp_line (start 0.6 -0.88) (end -0.6 -0.88) (layer B.SilkS) (width 0.12))
    (fp_line (start -1 0.62) (end 1 0.62) (layer B.Fab) (width 0.1))
    (fp_line (start 1 0.62) (end 1 -0.62) (layer B.Fab) (width 0.1))
    (fp_line (start 1 -0.62) (end -1 -0.62) (layer B.Fab) (width 0.1))
    (fp_line (start -1 -0.62) (end -1 0.62) (layer B.Fab) (width 0.1))
    (fp_text user %R (at 0 0 90) (layer B.Fab)
      (effects (font (size 0.5 0.5) (thickness 0.075)) (justify mirror))
    )
    (pad 2 smd rect (at 0.95 0 90) (size 0.7 1.3) (layers B.Cu B.Paste B.Mask)
      (net 34 RESET))
    (pad 1 smd rect (at -0.95 0 90) (size 0.7 1.3) (layers B.Cu B.Paste B.Mask)
      (net 2 Vcc))
    (model ${KISYS3DMOD}/Resistors_SMD.3dshapes/R_0805.wrl
      (at (xyz 0 0 0))
      (scale (xyz 1 1 1))
      (rotate (xyz 0 0 0))
    )
  )

  (gr_circle (center 149.61108 110.47984) (end 150.51024 110.29696) (layer B.SilkS) (width 0.12))
  (gr_text 1 (at 151.10714 110.74654 -180) (layer B.SilkS)
    (effects (font (size 1 1) (thickness 0.2)))
  )
  (gr_text "PWKeep 2.0\nAC3DN" (at 153.39314 105.58018 90) (layer B.SilkS)
    (effects (font (size 1 1) (thickness 0.15)) (justify mirror))
  )
  (gr_circle (center 136.099605 111.3536) (end 136.318045 111.4806) (layer F.SilkS) (width 0.12))
  (gr_line (start 123.99036 99.18192) (end 123.99772 111.85652) (layer Edge.Cuts) (width 0.05) (tstamp 5F0DA558))
  (gr_line (start 157.01316 99.18192) (end 157.02052 111.85652) (layer Edge.Cuts) (width 0.05) (tstamp 5F0DA540))
  (gr_line (start 123.99772 111.85652) (end 157.02052 111.85652) (layer Edge.Cuts) (width 0.05) (tstamp 5F0DA53C))
  (gr_line (start 123.99036 99.18192) (end 157.01316 99.18192) (layer Edge.Cuts) (width 0.05))

  (via (at 137.54608 103.41864) (size 0.8) (drill 0.4) (layers F.Cu B.Cu) (net 1))
  (via (at 149.62632 100.47732) (size 0.8) (drill 0.4) (layers F.Cu B.Cu) (net 1) (tstamp 5FC623FE))
  (via (at 125.4252 105.33888) (size 0.8) (drill 0.4) (layers F.Cu B.Cu) (net 1))
  (via (at 125.47092 109.87532) (size 0.8) (drill 0.4) (layers F.Cu B.Cu) (net 1) (tstamp 5F0DB4A0))
  (via (at 125.42012 101.01072) (size 0.8) (drill 0.4) (layers F.Cu B.Cu) (net 1) (tstamp 5F0DB4A7))
  (via (at 155.60294 100.76942) (size 0.8) (drill 0.4) (layers F.Cu B.Cu) (net 1))
  (via (at 155.66644 110.4773) (size 0.8) (drill 0.4) (layers F.Cu B.Cu) (net 1))
  (segment (start 130.64848 102.0016) (end 131.30276 102.65588) (width 0.25) (layer F.Cu) (net 1))
  (segment (start 128.8542 102.0016) (end 130.64848 102.0016) (width 0.25) (layer F.Cu) (net 1))
  (segment (start 136.46952 102.34208) (end 137.54608 103.41864) (width 0.25) (layer F.Cu) (net 1))
  (segment (start 135.5621 102.34208) (end 136.46952 102.34208) (width 0.25) (layer F.Cu) (net 1))
  (segment (start 127.322918 109.87532) (end 125.47092 109.87532) (width 0.25) (layer F.Cu) (net 1))
  (via (at 145.54708 107.12196) (size 0.8) (drill 0.4) (layers F.Cu B.Cu) (net 1))
  (segment (start 145.5672 107.14208) (end 145.54708 107.12196) (width 0.25) (layer F.Cu) (net 1))
  (segment (start 146.9621 107.14208) (end 145.5672 107.14208) (width 0.25) (layer F.Cu) (net 1))
  (via (at 145.26514 101.59238) (size 0.8) (drill 0.4) (layers F.Cu B.Cu) (net 1))
  (segment (start 145.2621 101.58934) (end 145.26514 101.59238) (width 0.25) (layer F.Cu) (net 1))
  (segment (start 145.2621 99.84208) (end 145.2621 101.58934) (width 0.25) (layer F.Cu) (net 1))
  (via (at 131.31546 102.82174) (size 0.8) (drill 0.4) (layers F.Cu B.Cu) (net 1))
  (segment (start 131.30276 102.80904) (end 131.31546 102.82174) (width 0.25) (layer F.Cu) (net 1))
  (segment (start 131.30276 102.65588) (end 131.30276 102.80904) (width 0.25) (layer F.Cu) (net 1))
  (segment (start 131.90224 103.40852) (end 137.57402 103.40852) (width 0.25) (layer B.Cu) (net 1))
  (segment (start 131.31546 102.82174) (end 131.90224 103.40852) (width 0.25) (layer B.Cu) (net 1))
  (segment (start 135.5621 108.74208) (end 136.737627 108.74208) (width 0.25) (layer F.Cu) (net 1))
  (via (at 137.05078 108.428927) (size 0.8) (drill 0.4) (layers F.Cu B.Cu) (net 1))
  (segment (start 137.55878 107.920927) (end 137.05078 108.428927) (width 0.25) (layer B.Cu) (net 1))
  (segment (start 136.737627 108.74208) (end 137.05078 108.428927) (width 0.25) (layer F.Cu) (net 1))
  (segment (start 137.55878 106.8545) (end 137.55878 107.920927) (width 0.25) (layer B.Cu) (net 1))
  (via (at 140.69314 109.70514) (size 0.8) (drill 0.4) (layers F.Cu B.Cu) (net 1))
  (segment (start 140.4621 109.93618) (end 140.69314 109.70514) (width 0.25) (layer F.Cu) (net 1))
  (segment (start 140.4621 111.24208) (end 140.4621 109.93618) (width 0.25) (layer F.Cu) (net 1))
  (via (at 144.9197 108.63326) (size 0.8) (drill 0.4) (layers F.Cu B.Cu) (net 1))
  (segment (start 144.42872 108.14228) (end 144.9197 108.63326) (width 0.25) (layer B.Cu) (net 1))
  (segment (start 143.39824 108.14228) (end 144.42872 108.14228) (width 0.25) (layer B.Cu) (net 1))
  (segment (start 155.32352 100.49) (end 155.60294 100.76942) (width 0.25) (layer F.Cu) (net 1))
  (segment (start 149.606 100.49) (end 155.32352 100.49) (width 0.25) (layer F.Cu) (net 1))
  (via (at 143.45158 101.2571) (size 0.8) (drill 0.4) (layers F.Cu B.Cu) (net 1))
  (segment (start 143.87246 109.6805) (end 144.9197 108.63326) (width 0.25) (layer B.Cu) (net 1))
  (segment (start 143.87246 109.82452) (end 143.87246 109.6805) (width 0.25) (layer B.Cu) (net 1))
  (segment (start 145.2621 99.84208) (end 145.2621 100.02216) (width 0.25) (layer F.Cu) (net 1))
  (segment (start 145.72994 100.49) (end 149.606 100.49) (width 0.25) (layer F.Cu) (net 1))
  (segment (start 145.2621 100.02216) (end 145.72994 100.49) (width 0.25) (layer F.Cu) (net 1))
  (segment (start 155.46324 108.43006) (end 155.46324 102.93096) (width 0.25) (layer F.Cu) (net 1))
  (segment (start 155.46324 100.90912) (end 155.60294 100.76942) (width 0.25) (layer F.Cu) (net 1))
  (segment (start 155.46324 102.93096) (end 155.46324 100.90912) (width 0.25) (layer F.Cu) (net 1))
  (segment (start 155.46324 110.2741) (end 155.66644 110.4773) (width 0.25) (layer F.Cu) (net 1))
  (segment (start 155.46324 108.43006) (end 155.46324 110.2741) (width 0.25) (layer F.Cu) (net 1))
  (segment (start 127.344199 109.896601) (end 127.643581 109.896601) (width 0.25) (layer F.Cu) (net 1))
  (segment (start 127.322918 109.87532) (end 127.344199 109.896601) (width 0.25) (layer F.Cu) (net 1))
  (segment (start 128.01016 110.26318) (end 131.17322 110.26318) (width 0.25) (layer F.Cu) (net 1))
  (segment (start 127.643581 109.896601) (end 128.01016 110.26318) (width 0.25) (layer F.Cu) (net 1))
  (segment (start 125.42012 101.01072) (end 126.40818 101.99878) (width 0.25) (layer F.Cu) (net 1))
  (segment (start 128.85138 101.99878) (end 128.8542 102.0016) (width 0.25) (layer F.Cu) (net 1))
  (segment (start 126.40818 101.99878) (end 128.85138 101.99878) (width 0.25) (layer F.Cu) (net 1))
  (via (at 133.24078 102.5525) (size 0.8) (drill 0.4) (layers F.Cu B.Cu) (net 2))
  (via (at 149.61108 108.4707) (size 0.8) (drill 0.4) (layers F.Cu B.Cu) (net 2) (tstamp 5FC62401))
  (segment (start 128.8542 109.0216) (end 129.228121 109.395521) (width 0.25) (layer F.Cu) (net 2))
  (segment (start 130.4148 109.0216) (end 131.17322 108.26318) (width 0.25) (layer F.Cu) (net 2))
  (segment (start 128.8542 109.0216) (end 130.4148 109.0216) (width 0.25) (layer F.Cu) (net 2))
  (segment (start 134.5621 109.54208) (end 135.5621 109.54208) (width 0.25) (layer F.Cu) (net 2))
  (segment (start 134.487099 101.807079) (end 134.487099 109.467079) (width 0.25) (layer F.Cu) (net 2))
  (segment (start 134.487099 109.467079) (end 134.5621 109.54208) (width 0.25) (layer F.Cu) (net 2))
  (segment (start 134.552099 101.742079) (end 134.487099 101.807079) (width 0.25) (layer F.Cu) (net 2))
  (segment (start 135.5621 101.63326) (end 135.453281 101.742079) (width 0.25) (layer F.Cu) (net 2))
  (segment (start 135.5621 101.54208) (end 135.5621 101.63326) (width 0.25) (layer F.Cu) (net 2))
  (segment (start 131.30276 100.65588) (end 131.32892 100.65588) (width 0.25) (layer F.Cu) (net 2))
  (segment (start 134.853841 101.742079) (end 134.552099 101.742079) (width 0.25) (layer F.Cu) (net 2))
  (segment (start 132.415119 101.742079) (end 134.853841 101.742079) (width 0.25) (layer F.Cu) (net 2))
  (segment (start 131.32892 100.65588) (end 132.415119 101.742079) (width 0.25) (layer F.Cu) (net 2))
  (segment (start 135.453281 101.742079) (end 134.853841 101.742079) (width 0.25) (layer F.Cu) (net 2))
  (segment (start 149.05808 107.94208) (end 149.606 108.49) (width 0.25) (layer F.Cu) (net 2))
  (segment (start 146.9621 107.94208) (end 149.05808 107.94208) (width 0.25) (layer F.Cu) (net 2))
  (segment (start 143.29836 109.277702) (end 143.29836 109.00582) (width 0.25) (layer F.Cu) (net 2))
  (segment (start 142.0621 110.513962) (end 143.29836 109.277702) (width 0.25) (layer F.Cu) (net 2))
  (segment (start 142.0621 111.24208) (end 142.0621 110.513962) (width 0.25) (layer F.Cu) (net 2))
  (segment (start 133.03758 108.26318) (end 133.0452 108.2708) (width 0.25) (layer F.Cu) (net 2))
  (segment (start 131.17322 108.26318) (end 133.03758 108.26318) (width 0.25) (layer F.Cu) (net 2))
  (segment (start 134.31648 109.54208) (end 135.5621 109.54208) (width 0.25) (layer F.Cu) (net 2))
  (segment (start 133.0452 108.2708) (end 134.31648 109.54208) (width 0.25) (layer F.Cu) (net 2))
  (segment (start 144.4621 99.84208) (end 144.4621 100.84208) (width 0.25) (layer F.Cu) (net 2))
  (segment (start 144.44472 100.85946) (end 144.44472 107.059878) (width 0.25) (layer F.Cu) (net 2))
  (segment (start 145.326922 107.94208) (end 146.9621 107.94208) (width 0.25) (layer F.Cu) (net 2))
  (segment (start 144.44472 107.059878) (end 145.326922 107.94208) (width 0.25) (layer F.Cu) (net 2))
  (segment (start 144.4621 100.84208) (end 144.44472 100.85946) (width 0.25) (layer F.Cu) (net 2))
  (segment (start 146.895259 107.875239) (end 146.9621 107.94208) (width 0.25) (layer F.Cu) (net 2))
  (segment (start 143.29836 109.00582) (end 144.428941 107.875239) (width 0.25) (layer F.Cu) (net 2))
  (segment (start 144.428941 107.875239) (end 146.895259 107.875239) (width 0.25) (layer F.Cu) (net 2))
  (segment (start 138.0621 110.434581) (end 138.0621 111.24208) (width 0.25) (layer F.Cu) (net 2))
  (segment (start 137.877141 110.249622) (end 138.0621 110.434581) (width 0.25) (layer F.Cu) (net 2))
  (segment (start 138.520337 108.910424) (end 137.877141 109.55362) (width 0.25) (layer F.Cu) (net 2))
  (segment (start 143.202964 108.910424) (end 138.520337 108.910424) (width 0.25) (layer F.Cu) (net 2))
  (segment (start 143.29836 109.00582) (end 143.202964 108.910424) (width 0.25) (layer F.Cu) (net 2))
  (segment (start 137.471102 109.54208) (end 137.877141 109.948119) (width 0.25) (layer F.Cu) (net 2))
  (segment (start 135.5621 109.54208) (end 137.471102 109.54208) (width 0.25) (layer F.Cu) (net 2))
  (segment (start 137.877141 109.948119) (end 137.877141 110.249622) (width 0.25) (layer F.Cu) (net 2))
  (segment (start 137.877141 109.55362) (end 137.877141 109.948119) (width 0.25) (layer F.Cu) (net 2))
  (segment (start 132.430359 101.742079) (end 133.24078 102.5525) (width 0.25) (layer F.Cu) (net 2))
  (segment (start 132.415119 101.742079) (end 132.430359 101.742079) (width 0.25) (layer F.Cu) (net 2))
  (segment (start 141.2621 111.24208) (end 141.2621 110.25294) (width 0.25) (layer F.Cu) (net 3))
  (via (at 141.847265 109.667775) (size 0.8) (drill 0.4) (layers F.Cu B.Cu) (net 3))
  (segment (start 141.2621 110.25294) (end 141.847265 109.667775) (width 0.25) (layer F.Cu) (net 3))
  (via (at 137.55878 104.8545) (size 0.8) (drill 0.4) (layers F.Cu B.Cu) (net 4))
  (segment (start 136.464625 107.94208) (end 137.55878 106.847925) (width 0.25) (layer F.Cu) (net 4))
  (segment (start 135.5621 107.94208) (end 136.464625 107.94208) (width 0.25) (layer F.Cu) (net 4))
  (segment (start 137.55878 106.847925) (end 137.55878 104.8545) (width 0.25) (layer F.Cu) (net 4))
  (segment (start 141.43748 104.43134) (end 140.51788 103.51174) (width 0.25) (layer B.Cu) (net 5))
  (segment (start 142.3872 103.51174) (end 143.39824 104.52278) (width 0.25) (layer B.Cu) (net 5))
  (segment (start 140.51788 103.51174) (end 142.3872 103.51174) (width 0.25) (layer B.Cu) (net 5))
  (segment (start 145.04848 104.52278) (end 145.54708 105.02138) (width 0.25) (layer B.Cu) (net 5))
  (via (at 145.54708 105.02138) (size 0.8) (drill 0.4) (layers F.Cu B.Cu) (net 5))
  (segment (start 143.39824 104.52278) (end 145.04848 104.52278) (width 0.25) (layer B.Cu) (net 5))
  (segment (start 146.06778 105.54208) (end 146.9621 105.54208) (width 0.25) (layer F.Cu) (net 5))
  (segment (start 145.54708 105.02138) (end 146.06778 105.54208) (width 0.25) (layer F.Cu) (net 5))
  (segment (start 141.41208 106.31754) (end 140.51788 107.21174) (width 0.25) (layer B.Cu) (net 6))
  (segment (start 142.32878 107.21174) (end 143.39824 106.14228) (width 0.25) (layer B.Cu) (net 6))
  (segment (start 140.51788 107.21174) (end 142.32878 107.21174) (width 0.25) (layer B.Cu) (net 6))
  (segment (start 145.487698 106.14228) (end 145.565285 106.064693) (width 0.25) (layer B.Cu) (net 6))
  (via (at 145.565285 106.064693) (size 0.8) (drill 0.4) (layers F.Cu B.Cu) (net 6))
  (segment (start 143.39824 106.14228) (end 145.487698 106.14228) (width 0.25) (layer B.Cu) (net 6))
  (segment (start 145.842672 106.34208) (end 146.9621 106.34208) (width 0.25) (layer F.Cu) (net 6))
  (segment (start 145.565285 106.064693) (end 145.842672 106.34208) (width 0.25) (layer F.Cu) (net 6))
  (segment (start 132.78616 104.63272) (end 132.78612 104.63276) (width 0.25) (layer F.Cu) (net 7))
  (segment (start 132.78616 104.61244) (end 132.78616 104.63272) (width 0.25) (layer F.Cu) (net 7))
  (via (at 132.78616 104.61244) (size 0.8) (drill 0.4) (layers F.Cu B.Cu) (net 7))
  (segment (start 138.881392 109.153937) (end 139.601781 109.874326) (width 0.25) (layer B.Cu) (net 7))
  (segment (start 132.78616 104.61244) (end 133.76676 105.59304) (width 0.25) (layer B.Cu) (net 7))
  (segment (start 133.76676 106.882999) (end 136.037698 109.153937) (width 0.25) (layer B.Cu) (net 7))
  (segment (start 139.6621 111.24208) (end 139.6621 109.934645) (width 0.25) (layer F.Cu) (net 7))
  (segment (start 136.037698 109.153937) (end 138.881392 109.153937) (width 0.25) (layer B.Cu) (net 7))
  (segment (start 139.6621 109.934645) (end 139.601781 109.874326) (width 0.25) (layer F.Cu) (net 7))
  (via (at 139.601781 109.874326) (size 0.8) (drill 0.4) (layers F.Cu B.Cu) (net 7))
  (segment (start 133.76676 105.59304) (end 133.76676 106.882999) (width 0.25) (layer B.Cu) (net 7))
  (segment (start 130.76932 104.4956) (end 130.88616 104.61244) (width 0.25) (layer F.Cu) (net 8))
  (segment (start 128.8542 104.4956) (end 130.76932 104.4956) (width 0.25) (layer F.Cu) (net 8))
  (segment (start 130.876 106.5276) (end 130.88616 106.53776) (width 0.25) (layer F.Cu) (net 9))
  (segment (start 128.8542 106.5276) (end 130.876 106.5276) (width 0.25) (layer F.Cu) (net 9))
  (via (at 132.785594 106.538243) (size 0.8) (drill 0.4) (layers F.Cu B.Cu) (net 10))
  (segment (start 132.786077 106.53776) (end 132.785594 106.538243) (width 0.25) (layer F.Cu) (net 10))
  (segment (start 132.78612 106.53776) (end 132.786077 106.53776) (width 0.25) (layer F.Cu) (net 10))
  (via (at 138.602142 109.901621) (size 0.8) (drill 0.4) (layers F.Cu B.Cu) (net 10))
  (segment (start 138.8621 111.24208) (end 138.8621 110.161579) (width 0.25) (layer F.Cu) (net 10))
  (segment (start 132.785594 106.538243) (end 136.148972 109.901621) (width 0.25) (layer B.Cu) (net 10))
  (segment (start 138.8621 110.161579) (end 138.602142 109.901621) (width 0.25) (layer F.Cu) (net 10))
  (segment (start 136.148972 109.901621) (end 138.602142 109.901621) (width 0.25) (layer B.Cu) (net 10))
  (segment (start 149.606 110.49) (end 149.606 110.49) (width 0.25) (layer F.Cu) (net 31) (tstamp 5FC6240A))
  (via (at 149.606 110.49) (size 0.8) (drill 0.4) (layers F.Cu B.Cu) (net 31) (tstamp 5FC6240D))
  (segment (start 148.79715 110.49) (end 148.670061 110.617089) (width 0.25) (layer F.Cu) (net 31))
  (segment (start 149.606 110.49) (end 148.79715 110.49) (width 0.25) (layer F.Cu) (net 31))
  (segment (start 145.887091 110.617089) (end 145.2621 111.24208) (width 0.25) (layer F.Cu) (net 31))
  (segment (start 148.670061 110.617089) (end 145.887091 110.617089) (width 0.25) (layer F.Cu) (net 31))
  (via (at 149.6187 106.46156) (size 0.8) (drill 0.4) (layers F.Cu B.Cu) (net 32) (tstamp 5FC62404))
  (via (at 145.55459 109.441437) (size 0.8) (drill 0.4) (layers F.Cu B.Cu) (net 32))
  (segment (start 143.6621 111.24208) (end 143.6621 110.24208) (width 0.25) (layer F.Cu) (net 32))
  (segment (start 149.6187 106.46156) (end 146.638823 109.441437) (width 0.25) (layer B.Cu) (net 32))
  (segment (start 143.6621 110.24208) (end 144.462743 109.441437) (width 0.25) (layer F.Cu) (net 32))
  (segment (start 144.462743 109.441437) (end 145.55459 109.441437) (width 0.25) (layer F.Cu) (net 32))
  (segment (start 146.638823 109.441437) (end 145.55459 109.441437) (width 0.25) (layer B.Cu) (net 32))
  (via (at 149.61108 104.4829) (size 0.8) (drill 0.4) (layers F.Cu B.Cu) (net 33) (tstamp 5FC62407))
  (segment (start 150.556001 105.427821) (end 149.61108 104.4829) (width 0.25) (layer F.Cu) (net 33))
  (segment (start 150.556001 108.946001) (end 150.556001 105.427821) (width 0.25) (layer F.Cu) (net 33))
  (segment (start 150.062001 109.440001) (end 150.556001 108.946001) (width 0.25) (layer F.Cu) (net 33))
  (segment (start 149.210739 109.440001) (end 150.062001 109.440001) (width 0.25) (layer F.Cu) (net 33))
  (segment (start 148.483661 110.167079) (end 149.210739 109.440001) (width 0.25) (layer F.Cu) (net 33))
  (segment (start 144.537101 110.167079) (end 148.483661 110.167079) (width 0.25) (layer F.Cu) (net 33))
  (segment (start 144.4621 110.24208) (end 144.537101 110.167079) (width 0.25) (layer F.Cu) (net 33))
  (segment (start 144.4621 111.24208) (end 144.4621 110.24208) (width 0.25) (layer F.Cu) (net 33))
  (via (at 149.606 102.47884) (size 0.8) (drill 0.4) (layers F.Cu B.Cu) (net 34) (tstamp 5FC62410))
  (via (at 148.37918 108.95584) (size 0.8) (drill 0.4) (layers F.Cu B.Cu) (net 34))
  (segment (start 148.16542 108.74208) (end 148.37918 108.95584) (width 0.25) (layer F.Cu) (net 34))
  (segment (start 146.9621 108.74208) (end 148.16542 108.74208) (width 0.25) (layer F.Cu) (net 34))
  (segment (start 148.37918 108.95584) (end 148.37918 108.629598) (width 0.25) (layer B.Cu) (net 34))
  (segment (start 148.37918 108.95584) (end 148.37918 108.40466) (width 0.25) (layer B.Cu) (net 34))
  (segment (start 148.37918 108.40466) (end 149.29104 107.4928) (width 0.25) (layer B.Cu) (net 34))
  (segment (start 149.29104 107.4928) (end 150.2283 107.4928) (width 0.25) (layer B.Cu) (net 34))
  (segment (start 150.2283 107.4928) (end 150.61692 107.10418) (width 0.25) (layer B.Cu) (net 34))
  (segment (start 150.61692 103.48976) (end 149.606 102.47884) (width 0.25) (layer B.Cu) (net 34))
  (segment (start 150.61692 107.10418) (end 150.61692 103.48976) (width 0.25) (layer B.Cu) (net 34))
  (segment (start 149.606 102.47884) (end 147.54352 100.41636) (width 0.25) (layer B.Cu) (net 34))
  (segment (start 133.48458 100.41636) (end 133.2611 100.63984) (width 0.25) (layer B.Cu) (net 34))
  (segment (start 147.54352 100.41636) (end 133.48458 100.41636) (width 0.25) (layer B.Cu) (net 34))
  (segment (start 151.258499 103.440001) (end 151.76754 102.93096) (width 0.25) (layer F.Cu) (net 35))
  (segment (start 148.260021 103.440001) (end 151.258499 103.440001) (width 0.25) (layer F.Cu) (net 35))
  (segment (start 147.9621 103.14208) (end 148.260021 103.440001) (width 0.25) (layer F.Cu) (net 35))
  (segment (start 146.9621 103.14208) (end 147.9621 103.14208) (width 0.25) (layer F.Cu) (net 35))
  (segment (start 151.76754 102.93096) (end 151.76754 108.43006) (width 0.25) (layer F.Cu) (net 35))
  (via (at 137.57402 101.50852) (size 0.8) (drill 0.4) (layers F.Cu B.Cu) (net 37))
  (segment (start 137.2621 101.1966) (end 137.57402 101.50852) (width 0.25) (layer F.Cu) (net 37))
  (segment (start 137.2621 99.84208) (end 137.2621 101.1966) (width 0.25) (layer F.Cu) (net 37))

  (zone (net 1) (net_name GND) (layer F.Cu) (tstamp 5FDC6CEE) (hatch edge 0.508)
    (connect_pads (clearance 0.508))
    (min_thickness 0.254)
    (fill yes (arc_segments 32) (thermal_gap 0.508) (thermal_bridge_width 0.508))
    (polygon
      (pts
        (xy 157.5308 112.06226) (xy 123.86056 112.09528) (xy 123.73356 98.93808) (xy 123.74372 98.94316) (xy 157.5308 98.95078)
      )
    )
    (filled_polygon
      (pts
        (xy 148.512223 99.852306) (xy 148.408832 100.077944) (xy 148.351447 100.319418) (xy 148.342274 100.567447) (xy 148.381665 100.812499)
        (xy 148.468107 101.045158) (xy 148.512223 101.127694) (xy 148.738352 101.178043) (xy 149.426395 100.49) (xy 149.412253 100.475858)
        (xy 149.591858 100.296253) (xy 149.606 100.310395) (xy 149.620143 100.296253) (xy 149.799748 100.475858) (xy 149.785605 100.49)
        (xy 150.473648 101.178043) (xy 150.699777 101.127694) (xy 150.803168 100.902056) (xy 150.860553 100.660582) (xy 150.869726 100.412553)
        (xy 150.830335 100.167501) (xy 150.743893 99.934842) (xy 150.699777 99.852306) (xy 150.653131 99.84192) (xy 156.353544 99.84192)
        (xy 156.354535 101.548248) (xy 156.337722 101.543148) (xy 156.21324 101.530888) (xy 155.74899 101.53396) (xy 155.59024 101.69271)
        (xy 155.59024 102.80396) (xy 155.61024 102.80396) (xy 155.61024 103.05796) (xy 155.59024 103.05796) (xy 155.59024 104.16921)
        (xy 155.74899 104.32796) (xy 156.21324 104.331032) (xy 156.337722 104.318772) (xy 156.35614 104.313185) (xy 156.357728 107.048317)
        (xy 156.337722 107.042248) (xy 156.21324 107.029988) (xy 155.74899 107.03306) (xy 155.59024 107.19181) (xy 155.59024 108.30306)
        (xy 155.61024 108.30306) (xy 155.61024 108.55706) (xy 155.59024 108.55706) (xy 155.59024 109.66831) (xy 155.74899 109.82706)
        (xy 156.21324 109.830132) (xy 156.337722 109.817872) (xy 156.359332 109.811317) (xy 156.360137 111.19652) (xy 150.649308 111.19652)
        (xy 150.722598 111.086834) (xy 150.817579 110.857529) (xy 150.866 110.614099) (xy 150.866 110.365901) (xy 150.817579 110.122471)
        (xy 150.722598 109.893166) (xy 150.706992 109.869811) (xy 150.790149 109.786655) (xy 150.893058 109.817872) (xy 151.01754 109.830132)
        (xy 152.51754 109.830132) (xy 152.642022 109.817872) (xy 152.76172 109.781562) (xy 152.872034 109.722597) (xy 152.968725 109.643245)
        (xy 153.048077 109.546554) (xy 153.107042 109.43624) (xy 153.143352 109.316542) (xy 153.155612 109.19206) (xy 154.075168 109.19206)
        (xy 154.087428 109.316542) (xy 154.123738 109.43624) (xy 154.182703 109.546554) (xy 154.262055 109.643245) (xy 154.358746 109.722597)
        (xy 154.46906 109.781562) (xy 154.588758 109.817872) (xy 154.71324 109.830132) (xy 155.17749 109.82706) (xy 155.33624 109.66831)
        (xy 155.33624 108.55706) (xy 154.23699 108.55706) (xy 154.07824 108.71581) (xy 154.075168 109.19206) (xy 153.155612 109.19206)
        (xy 153.155612 107.66806) (xy 154.075168 107.66806) (xy 154.07824 108.14431) (xy 154.23699 108.30306) (xy 155.33624 108.30306)
        (xy 155.33624 107.19181) (xy 155.17749 107.03306) (xy 154.71324 107.029988) (xy 154.588758 107.042248) (xy 154.46906 107.078558)
        (xy 154.358746 107.137523) (xy 154.262055 107.216875) (xy 154.182703 107.313566) (xy 154.123738 107.42388) (xy 154.087428 107.543578)
        (xy 154.075168 107.66806) (xy 153.155612 107.66806) (xy 153.143352 107.543578) (xy 153.107042 107.42388) (xy 153.048077 107.313566)
        (xy 152.968725 107.216875) (xy 152.872034 107.137523) (xy 152.76172 107.078558) (xy 152.642022 107.042248) (xy 152.52754 107.030973)
        (xy 152.52754 104.330047) (xy 152.642022 104.318772) (xy 152.76172 104.282462) (xy 152.872034 104.223497) (xy 152.968725 104.144145)
        (xy 153.048077 104.047454) (xy 153.107042 103.93714) (xy 153.143352 103.817442) (xy 153.155612 103.69296) (xy 154.075168 103.69296)
        (xy 154.087428 103.817442) (xy 154.123738 103.93714) (xy 154.182703 104.047454) (xy 154.262055 104.144145) (xy 154.358746 104.223497)
        (xy 154.46906 104.282462) (xy 154.588758 104.318772) (xy 154.71324 104.331032) (xy 155.17749 104.32796) (xy 155.33624 104.16921)
        (xy 155.33624 103.05796) (xy 154.23699 103.05796) (xy 154.07824 103.21671) (xy 154.075168 103.69296) (xy 153.155612 103.69296)
        (xy 153.155612 102.16896) (xy 154.075168 102.16896) (xy 154.07824 102.64521) (xy 154.23699 102.80396) (xy 155.33624 102.80396)
        (xy 155.33624 101.69271) (xy 155.17749 101.53396) (xy 154.71324 101.530888) (xy 154.588758 101.543148) (xy 154.46906 101.579458)
        (xy 154.358746 101.638423) (xy 154.262055 101.717775) (xy 154.182703 101.814466) (xy 154.123738 101.92478) (xy 154.087428 102.044478)
        (xy 154.075168 102.16896) (xy 153.155612 102.16896) (xy 153.143352 102.044478) (xy 153.107042 101.92478) (xy 153.048077 101.814466)
        (xy 152.968725 101.717775) (xy 152.872034 101.638423) (xy 152.76172 101.579458) (xy 152.642022 101.543148) (xy 152.51754 101.530888)
        (xy 151.01754 101.530888) (xy 150.893058 101.543148) (xy 150.77336 101.579458) (xy 150.663046 101.638423) (xy 150.591575 101.697077)
        (xy 150.584706 101.686797) (xy 150.409203 101.511294) (xy 150.279177 101.424413) (xy 150.294043 101.357648) (xy 149.606 100.669605)
        (xy 148.917957 101.357648) (xy 148.932823 101.424413) (xy 148.802797 101.511294) (xy 148.627294 101.686797) (xy 148.489402 101.893166)
        (xy 148.394421 102.122471) (xy 148.350172 102.344927) (xy 148.350172 102.06708) (xy 148.337912 101.942598) (xy 148.337755 101.94208)
        (xy 148.337912 101.941562) (xy 148.350172 101.81708) (xy 148.350172 101.26708) (xy 148.337912 101.142598) (xy 148.301602 101.0229)
        (xy 148.242637 100.912586) (xy 148.163285 100.815895) (xy 148.066594 100.736543) (xy 147.95628 100.677578) (xy 147.836582 100.641268)
        (xy 147.7121 100.629008) (xy 146.2121 100.629008) (xy 146.171036 100.633052) (xy 146.175164 100.588867) (xy 146.1721 100.12783)
        (xy 146.01335 99.96908) (xy 145.3891 99.96908) (xy 145.3891 101.06833) (xy 145.54785 101.22708) (xy 145.578219 101.224528)
        (xy 145.574028 101.26708) (xy 145.574028 101.81708) (xy 145.586288 101.941562) (xy 145.586445 101.94208) (xy 145.586288 101.942598)
        (xy 145.574028 102.06708) (xy 145.574028 102.61708) (xy 145.586288 102.741562) (xy 145.586445 102.74208) (xy 145.586288 102.742598)
        (xy 145.574028 102.86708) (xy 145.574028 103.41708) (xy 145.586288 103.541562) (xy 145.586445 103.54208) (xy 145.586288 103.542598)
        (xy 145.574028 103.66708) (xy 145.574028 103.98638) (xy 145.445141 103.98638) (xy 145.245182 104.026154) (xy 145.20472 104.042914)
        (xy 145.20472 101.023239) (xy 145.267637 100.946574) (xy 145.326602 100.83626) (xy 145.362912 100.716562) (xy 145.375172 100.59208)
        (xy 145.375172 99.84192) (xy 148.558869 99.84192)
      )
    )
    (filled_polygon
      (pts
        (xy 125.377032 100.146512) (xy 125.500282 100.444063) (xy 125.679213 100.711852) (xy 125.906948 100.939587) (xy 126.174737 101.118518)
        (xy 126.472288 101.241768) (xy 126.788167 101.3046) (xy 126.985219 101.3046) (xy 126.978388 101.327118) (xy 126.966128 101.4516)
        (xy 126.9692 101.71585) (xy 127.12795 101.8746) (xy 128.7272 101.8746) (xy 128.7272 100.97535) (xy 128.56845 100.8166)
        (xy 128.115881 100.815158) (xy 128.219187 100.711852) (xy 128.398118 100.444063) (xy 128.521368 100.146512) (xy 128.581955 99.84192)
        (xy 130.125557 99.84192) (xy 130.088258 99.9117) (xy 130.051948 100.031398) (xy 130.039688 100.15588) (xy 130.039688 100.813734)
        (xy 129.13995 100.8166) (xy 128.9812 100.97535) (xy 128.9812 101.8746) (xy 129.0012 101.8746) (xy 129.0012 102.1286)
        (xy 128.9812 102.1286) (xy 128.9812 103.02785) (xy 129.13995 103.1866) (xy 130.042997 103.189477) (xy 130.051948 103.280362)
        (xy 130.060189 103.307528) (xy 128.0842 103.307528) (xy 128.0842 103.188143) (xy 128.56845 103.1866) (xy 128.7272 103.02785)
        (xy 128.7272 102.1286) (xy 127.300505 102.1286) (xy 127.280267 102.120217) (xy 127.060988 102.0766) (xy 126.837412 102.0766)
        (xy 126.618133 102.120217) (xy 126.411576 102.205776) (xy 126.22568 102.329988) (xy 126.067588 102.48808) (xy 125.943376 102.673976)
        (xy 125.857817 102.880533) (xy 125.8142 103.099812) (xy 125.8142 103.323388) (xy 125.857817 103.542667) (xy 125.943376 103.749224)
        (xy 126.067588 103.93512) (xy 126.22568 104.093212) (xy 126.411576 104.217424) (xy 126.618133 104.302983) (xy 126.837412 104.3466)
        (xy 126.966128 104.3466) (xy 126.966128 105.0456) (xy 126.978388 105.170082) (xy 127.014698 105.28978) (xy 127.073663 105.400094)
        (xy 127.153015 105.496785) (xy 127.171067 105.5116) (xy 127.153015 105.526415) (xy 127.073663 105.623106) (xy 127.014698 105.73342)
        (xy 126.978388 105.853118) (xy 126.966128 105.9776) (xy 126.966128 106.6766) (xy 126.837412 106.6766) (xy 126.618133 106.720217)
        (xy 126.411576 106.805776) (xy 126.22568 106.929988) (xy 126.067588 107.08808) (xy 125.943376 107.273976) (xy 125.857817 107.480533)
        (xy 125.8142 107.699812) (xy 125.8142 107.923388) (xy 125.857817 108.142667) (xy 125.943376 108.349224) (xy 126.067588 108.53512)
        (xy 126.22568 108.693212) (xy 126.411576 108.817424) (xy 126.618133 108.902983) (xy 126.837412 108.9466) (xy 126.966128 108.9466)
        (xy 126.966128 109.5716) (xy 126.978388 109.696082) (xy 126.985219 109.7186) (xy 126.788167 109.7186) (xy 126.472288 109.781432)
        (xy 126.174737 109.904682) (xy 125.906948 110.083613) (xy 125.679213 110.311348) (xy 125.500282 110.579137) (xy 125.377032 110.876688)
        (xy 125.3142 111.192567) (xy 125.3142 111.19652) (xy 124.657336 111.19652) (xy 124.650743 99.84192) (xy 125.316445 99.84192)
      )
    )
    (filled_polygon
      (pts
        (xy 131.30022 110.13618) (xy 131.93633 110.13618) (xy 131.94395 110.1438) (xy 132.9182 110.1438) (xy 132.9182 110.1238)
        (xy 133.1722 110.1238) (xy 133.1722 110.1438) (xy 133.1922 110.1438) (xy 133.1922 110.3978) (xy 133.1722 110.3978)
        (xy 133.1722 110.4178) (xy 132.9182 110.4178) (xy 132.9182 110.3978) (xy 132.28209 110.3978) (xy 132.27447 110.39018)
        (xy 131.30022 110.39018) (xy 131.30022 110.41018) (xy 131.04622 110.41018) (xy 131.04622 110.39018) (xy 130.07197 110.39018)
        (xy 129.91322 110.54893) (xy 129.910148 110.76318) (xy 129.922408 110.887662) (xy 129.958718 111.00736) (xy 130.017683 111.117674)
        (xy 130.08239 111.19652) (xy 128.5842 111.19652) (xy 128.5842 111.192567) (xy 128.521368 110.876688) (xy 128.398118 110.579137)
        (xy 128.219187 110.311348) (xy 128.117511 110.209672) (xy 130.1042 110.209672) (xy 130.228682 110.197412) (xy 130.34838 110.161102)
        (xy 130.395005 110.13618) (xy 131.04622 110.13618) (xy 131.04622 110.11618) (xy 131.30022 110.11618)
      )
    )
    (filled_polygon
      (pts
        (xy 140.751098 109.689141) (xy 140.7221 109.712939) (xy 140.698302 109.741937) (xy 140.698301 109.741938) (xy 140.636781 109.816899)
        (xy 140.636781 109.772387) (xy 140.616499 109.670424) (xy 140.769815 109.670424)
      )
    )
    (filled_polygon
      (pts
        (xy 143.262618 101.217892) (xy 143.3871 101.230152) (xy 143.68472 101.230152) (xy 143.684721 107.022546) (xy 143.681044 107.059878)
        (xy 143.684721 107.097211) (xy 143.695718 107.208864) (xy 143.705243 107.240263) (xy 143.739174 107.352124) (xy 143.787271 107.442107)
        (xy 143.078955 108.150424) (xy 138.55767 108.150424) (xy 138.520337 108.146747) (xy 138.483004 108.150424) (xy 138.371351 108.161421)
        (xy 138.22809 108.204878) (xy 138.096061 108.27545) (xy 137.980336 108.370423) (xy 137.956537 108.399422) (xy 137.568012 108.787948)
        (xy 137.508435 108.78208) (xy 137.508424 108.78208) (xy 137.471102 108.778404) (xy 137.43378 108.78208) (xy 136.722081 108.78208)
        (xy 136.673341 108.74208) (xy 136.763285 108.668265) (xy 136.798471 108.625391) (xy 136.888901 108.577054) (xy 137.004626 108.482081)
        (xy 137.028429 108.453078) (xy 138.069784 107.411723) (xy 138.098781 107.387926) (xy 138.193754 107.272201) (xy 138.264326 107.140172)
        (xy 138.307783 106.996911) (xy 138.31878 106.885258) (xy 138.31878 106.885248) (xy 138.322456 106.847925) (xy 138.31878 106.810602)
        (xy 138.31878 105.558211) (xy 138.362717 105.514274) (xy 138.475985 105.344756) (xy 138.554006 105.156398) (xy 138.59378 104.956439)
        (xy 138.59378 104.752561) (xy 138.554006 104.552602) (xy 138.475985 104.364244) (xy 138.362717 104.194726) (xy 138.218554 104.050563)
        (xy 138.049036 103.937295) (xy 137.860678 103.859274) (xy 137.660719 103.8195) (xy 137.456841 103.8195) (xy 137.256882 103.859274)
        (xy 137.068524 103.937295) (xy 136.950172 104.016375) (xy 136.950172 103.66708) (xy 136.937912 103.542598) (xy 136.937755 103.54208)
        (xy 136.937912 103.541562) (xy 136.950172 103.41708) (xy 136.950172 102.86708) (xy 136.937912 102.742598) (xy 136.937554 102.741417)
        (xy 136.9471 102.62783) (xy 136.855017 102.535747) (xy 136.842637 102.512586) (xy 136.763285 102.415895) (xy 136.673341 102.34208)
        (xy 136.763285 102.268265) (xy 136.811412 102.209623) (xy 136.914246 102.312457) (xy 137.083764 102.425725) (xy 137.272122 102.503746)
        (xy 137.472081 102.54352) (xy 137.675959 102.54352) (xy 137.875918 102.503746) (xy 138.064276 102.425725) (xy 138.233794 102.312457)
        (xy 138.377957 102.168294) (xy 138.491225 101.998776) (xy 138.569246 101.810418) (xy 138.60902 101.610459) (xy 138.60902 101.406581)
        (xy 138.573663 101.228829) (xy 138.5871 101.230152) (xy 139.1371 101.230152) (xy 139.261582 101.217892) (xy 139.2621 101.217735)
        (xy 139.262618 101.217892) (xy 139.3871 101.230152) (xy 139.9371 101.230152) (xy 140.061582 101.217892) (xy 140.0621 101.217735)
        (xy 140.062618 101.217892) (xy 140.1871 101.230152) (xy 140.7371 101.230152) (xy 140.861582 101.217892) (xy 140.8621 101.217735)
        (xy 140.862618 101.217892) (xy 140.9871 101.230152) (xy 141.5371 101.230152) (xy 141.661582 101.217892) (xy 141.6621 101.217735)
        (xy 141.662618 101.217892) (xy 141.7871 101.230152) (xy 142.3371 101.230152) (xy 142.461582 101.217892) (xy 142.4621 101.217735)
        (xy 142.462618 101.217892) (xy 142.5871 101.230152) (xy 143.1371 101.230152) (xy 143.261582 101.217892) (xy 143.2621 101.217735)
      )
    )
    (filled_polygon
      (pts
        (xy 144.894816 108.6375) (xy 144.850879 108.681437) (xy 144.697545 108.681437) (xy 144.743743 108.635239) (xy 144.8982 108.635239)
      )
    )
    (filled_polygon
      (pts
        (xy 145.5771 107.115239) (xy 145.574883 107.115239) (xy 145.559337 107.099693) (xy 145.5771 107.099693)
      )
    )
    (filled_polygon
      (pts
        (xy 131.42976 102.52888) (xy 131.44976 102.52888) (xy 131.44976 102.78288) (xy 131.42976 102.78288) (xy 131.42976 102.80288)
        (xy 131.17576 102.80288) (xy 131.17576 102.78288) (xy 131.15576 102.78288) (xy 131.15576 102.52888) (xy 131.17576 102.52888)
        (xy 131.17576 102.50888) (xy 131.42976 102.50888)
      )
    )
  )
  (zone (net 1) (net_name GND) (layer B.Cu) (tstamp 5FDC6CEB) (hatch edge 0.508)
    (connect_pads (clearance 0.508))
    (min_thickness 0.254)
    (fill yes (arc_segments 32) (thermal_gap 0.508) (thermal_bridge_width 0.508))
    (polygon
      (pts
        (xy 157.56636 112.05464) (xy 123.83516 112.10036) (xy 123.73864 98.99396) (xy 123.75388 98.94824) (xy 157.5562 98.94824)
      )
    )
    (filled_polygon
      (pts
        (xy 156.360137 111.19652) (xy 150.363191 111.19652) (xy 150.409937 111.149774) (xy 150.523205 110.980256) (xy 150.601226 110.791898)
        (xy 150.641 110.591939) (xy 150.641 110.388061) (xy 150.601226 110.188102) (xy 150.523205 109.999744) (xy 150.409937 109.830226)
        (xy 150.265774 109.686063) (xy 150.096256 109.572795) (xy 149.907898 109.494774) (xy 149.837923 109.480855) (xy 149.912978 109.465926)
        (xy 150.101336 109.387905) (xy 150.270854 109.274637) (xy 150.415017 109.130474) (xy 150.528285 108.960956) (xy 150.606306 108.772598)
        (xy 150.64608 108.572639) (xy 150.64608 108.368761) (xy 150.606306 108.168802) (xy 150.60078 108.15546) (xy 150.652576 108.127774)
        (xy 150.768301 108.032801) (xy 150.792104 108.003797) (xy 151.127918 107.667983) (xy 151.156921 107.644181) (xy 151.251894 107.528456)
        (xy 151.322466 107.396427) (xy 151.365923 107.253166) (xy 151.37692 107.141513) (xy 151.37692 107.141505) (xy 151.380596 107.10418)
        (xy 151.37692 107.066855) (xy 151.37692 103.527085) (xy 151.380596 103.48976) (xy 151.37692 103.452435) (xy 151.37692 103.452427)
        (xy 151.365923 103.340774) (xy 151.322466 103.197513) (xy 151.251894 103.065484) (xy 151.156921 102.949759) (xy 151.127923 102.925961)
        (xy 150.641 102.439039) (xy 150.641 102.376901) (xy 150.601226 102.176942) (xy 150.523205 101.988584) (xy 150.409937 101.819066)
        (xy 150.265774 101.674903) (xy 150.096256 101.561635) (xy 149.907898 101.483614) (xy 149.707939 101.44384) (xy 149.645802 101.44384)
        (xy 148.107324 99.905363) (xy 148.083521 99.876359) (xy 148.041557 99.84192) (xy 156.353544 99.84192)
      )
    )
    (filled_polygon
      (pts
        (xy 125.377032 100.146512) (xy 125.500282 100.444063) (xy 125.679213 100.711852) (xy 125.906948 100.939587) (xy 126.174737 101.118518)
        (xy 126.472288 101.241768) (xy 126.788167 101.3046) (xy 127.110233 101.3046) (xy 127.426112 101.241768) (xy 127.723663 101.118518)
        (xy 127.991452 100.939587) (xy 128.219187 100.711852) (xy 128.398118 100.444063) (xy 128.521368 100.146512) (xy 128.581955 99.84192)
        (xy 132.157235 99.84192) (xy 132.080563 99.935346) (xy 132.021598 100.04566) (xy 131.985288 100.165358) (xy 131.973028 100.28984)
        (xy 131.973028 100.98984) (xy 131.985288 101.114322) (xy 132.021598 101.23402) (xy 132.080563 101.344334) (xy 132.159915 101.441025)
        (xy 132.256606 101.520377) (xy 132.36692 101.579342) (xy 132.401527 101.58984) (xy 132.36692 101.600338) (xy 132.256606 101.659303)
        (xy 132.159915 101.738655) (xy 132.080563 101.835346) (xy 132.021598 101.94566) (xy 131.985288 102.065358) (xy 131.973028 102.18984)
        (xy 131.973028 102.88984) (xy 131.985288 103.014322) (xy 132.021598 103.13402) (xy 132.080563 103.244334) (xy 132.159915 103.341025)
        (xy 132.256606 103.420377) (xy 132.36692 103.479342) (xy 132.486618 103.515652) (xy 132.6111 103.527912) (xy 132.891047 103.527912)
        (xy 132.938882 103.547726) (xy 133.138841 103.5875) (xy 133.342719 103.5875) (xy 133.542678 103.547726) (xy 133.590513 103.527912)
        (xy 133.9111 103.527912) (xy 134.035582 103.515652) (xy 134.15528 103.479342) (xy 134.265594 103.420377) (xy 134.362285 103.341025)
        (xy 134.441637 103.244334) (xy 134.500602 103.13402) (xy 134.536912 103.014322) (xy 134.549172 102.88984) (xy 134.549172 102.18984)
        (xy 134.536912 102.065358) (xy 134.500602 101.94566) (xy 134.441637 101.835346) (xy 134.362285 101.738655) (xy 134.265594 101.659303)
        (xy 134.15528 101.600338) (xy 134.120673 101.58984) (xy 134.15528 101.579342) (xy 134.265594 101.520377) (xy 134.362285 101.441025)
        (xy 134.441637 101.344334) (xy 134.500602 101.23402) (xy 134.518093 101.17636) (xy 136.285948 101.17636) (xy 136.285948 101.85852)
        (xy 136.298208 101.983002) (xy 136.334518 102.1027) (xy 136.393483 102.213014) (xy 136.472835 102.309705) (xy 136.569526 102.389057)
        (xy 136.67984 102.448022) (xy 136.714447 102.45852) (xy 136.67984 102.469018) (xy 136.569526 102.527983) (xy 136.472835 102.607335)
        (xy 136.393483 102.704026) (xy 136.334518 102.81434) (xy 136.298208 102.934038) (xy 136.285948 103.05852) (xy 136.28902 103.12277)
        (xy 136.44777 103.28152) (xy 137.44702 103.28152) (xy 137.44702 103.26152) (xy 137.70102 103.26152) (xy 137.70102 103.28152)
        (xy 137.72102 103.28152) (xy 137.72102 103.53552) (xy 137.70102 103.53552) (xy 137.70102 103.55552) (xy 137.44702 103.55552)
        (xy 137.44702 103.53552) (xy 136.44777 103.53552) (xy 136.28902 103.69427) (xy 136.285948 103.75852) (xy 136.298208 103.883002)
        (xy 136.334518 104.0027) (xy 136.368161 104.06564) (xy 136.344278 104.11032) (xy 136.307968 104.230018) (xy 136.295708 104.3545)
        (xy 136.295708 105.3545) (xy 136.307968 105.478982) (xy 136.344278 105.59868) (xy 136.403243 105.708994) (xy 136.482595 105.805685)
        (xy 136.542076 105.8545) (xy 136.482595 105.903315) (xy 136.403243 106.000006) (xy 136.344278 106.11032) (xy 136.307968 106.230018)
        (xy 136.295708 106.3545) (xy 136.29878 106.56875) (xy 136.45753 106.7275) (xy 137.43178 106.7275) (xy 137.43178 106.7075)
        (xy 137.68578 106.7075) (xy 137.68578 106.7275) (xy 137.70578 106.7275) (xy 137.70578 106.9815) (xy 137.68578 106.9815)
        (xy 137.68578 107.83075) (xy 137.84453 107.9895) (xy 138.18378 107.992572) (xy 138.308262 107.980312) (xy 138.42796 107.944002)
        (xy 138.538274 107.885037) (xy 138.634965 107.805685) (xy 138.679808 107.751043) (xy 138.679808 108.21174) (xy 138.692068 108.336222)
        (xy 138.709576 108.393937) (xy 136.3525 108.393937) (xy 135.313063 107.3545) (xy 136.295708 107.3545) (xy 136.307968 107.478982)
        (xy 136.344278 107.59868) (xy 136.403243 107.708994) (xy 136.482595 107.805685) (xy 136.579286 107.885037) (xy 136.6896 107.944002)
        (xy 136.809298 107.980312) (xy 136.93378 107.992572) (xy 137.27303 107.9895) (xy 137.43178 107.83075) (xy 137.43178 106.9815)
        (xy 136.45753 106.9815) (xy 136.29878 107.14025) (xy 136.295708 107.3545) (xy 135.313063 107.3545) (xy 134.52676 106.568198)
        (xy 134.52676 105.630363) (xy 134.530436 105.59304) (xy 134.52676 105.555717) (xy 134.52676 105.555707) (xy 134.515763 105.444054)
        (xy 134.472306 105.300793) (xy 134.401734 105.168764) (xy 134.306761 105.053039) (xy 134.277764 105.029242) (xy 133.82116 104.572638)
        (xy 133.82116 104.510501) (xy 133.781386 104.310542) (xy 133.703365 104.122184) (xy 133.590097 103.952666) (xy 133.445934 103.808503)
        (xy 133.276416 103.695235) (xy 133.088058 103.617214) (xy 132.888099 103.57744) (xy 132.684221 103.57744) (xy 132.484262 103.617214)
        (xy 132.295904 103.695235) (xy 132.126386 103.808503) (xy 131.982223 103.952666) (xy 131.868955 104.122184) (xy 131.790934 104.310542)
        (xy 131.75116 104.510501) (xy 131.75116 104.714379) (xy 131.790934 104.914338) (xy 131.868955 105.102696) (xy 131.982223 105.272214)
        (xy 132.126386 105.416377) (xy 132.295904 105.529645) (xy 132.405941 105.575224) (xy 132.295338 105.621038) (xy 132.12582 105.734306)
        (xy 131.981657 105.878469) (xy 131.868389 106.047987) (xy 131.790368 106.236345) (xy 131.750594 106.436304) (xy 131.750594 106.640182)
        (xy 131.790368 106.840141) (xy 131.868389 107.028499) (xy 131.981657 107.198017) (xy 132.12582 107.34218) (xy 132.295338 107.455448)
        (xy 132.483696 107.533469) (xy 132.683655 107.573243) (xy 132.745793 107.573243) (xy 135.585173 110.412624) (xy 135.608971 110.441622)
        (xy 135.724696 110.536595) (xy 135.856725 110.607167) (xy 135.999986 110.650624) (xy 136.111639 110.661621) (xy 136.111647 110.661621)
        (xy 136.148972 110.665297) (xy 136.186297 110.661621) (xy 137.898431 110.661621) (xy 137.942368 110.705558) (xy 138.111886 110.818826)
        (xy 138.300244 110.896847) (xy 138.500203 110.936621) (xy 138.704081 110.936621) (xy 138.90404 110.896847) (xy 139.092398 110.818826)
        (xy 139.124935 110.797086) (xy 139.299883 110.869552) (xy 139.499842 110.909326) (xy 139.70372 110.909326) (xy 139.903679 110.869552)
        (xy 140.092037 110.791531) (xy 140.261555 110.678263) (xy 140.405718 110.5341) (xy 140.518986 110.364582) (xy 140.597007 110.176224)
        (xy 140.636781 109.976265) (xy 140.636781 109.772387) (xy 140.597007 109.572428) (xy 140.518986 109.38407) (xy 140.405718 109.214552)
        (xy 140.261555 109.070389) (xy 140.092037 108.957121) (xy 139.903679 108.8791) (xy 139.756437 108.849812) (xy 140.839365 108.849812)
        (xy 140.782958 108.95534) (xy 140.746648 109.075038) (xy 140.734388 109.19952) (xy 140.734388 110.44952) (xy 140.746648 110.574002)
        (xy 140.782958 110.6937) (xy 140.841923 110.804014) (xy 140.921275 110.900705) (xy 141.017966 110.980057) (xy 141.12828 111.039022)
        (xy 141.247978 111.075332) (xy 141.37246 111.087592) (xy 142.37246 111.087592) (xy 142.496942 111.075332) (xy 142.61664 111.039022)
        (xy 142.726954 110.980057) (xy 142.823645 110.900705) (xy 142.87246 110.841224) (xy 142.921275 110.900705) (xy 143.017966 110.980057)
        (xy 143.12828 111.039022) (xy 143.247978 111.075332) (xy 143.37246 111.087592) (xy 143.58671 111.08452) (xy 143.74546 110.92577)
        (xy 143.74546 109.95152) (xy 143.72546 109.95152) (xy 143.72546 109.69752) (xy 143.74546 109.69752) (xy 143.74546 109.67752)
        (xy 143.99946 109.67752) (xy 143.99946 109.69752) (xy 144.01946 109.69752) (xy 144.01946 109.95152) (xy 143.99946 109.95152)
        (xy 143.99946 110.92577) (xy 144.15821 111.08452) (xy 144.37246 111.087592) (xy 144.496942 111.075332) (xy 144.61664 111.039022)
        (xy 144.726954 110.980057) (xy 144.823645 110.900705) (xy 144.902997 110.804014) (xy 144.961962 110.6937) (xy 144.998272 110.574002)
        (xy 145.010532 110.44952) (xy 145.009377 110.321921) (xy 145.064334 110.358642) (xy 145.252692 110.436663) (xy 145.452651 110.476437)
        (xy 145.656529 110.476437) (xy 145.856488 110.436663) (xy 146.044846 110.358642) (xy 146.214364 110.245374) (xy 146.258301 110.201437)
        (xy 146.601501 110.201437) (xy 146.638823 110.205113) (xy 146.676145 110.201437) (xy 146.676156 110.201437) (xy 146.787809 110.19044)
        (xy 146.93107 110.146983) (xy 147.063099 110.076411) (xy 147.178824 109.981438) (xy 147.202627 109.952434) (xy 147.560905 109.594156)
        (xy 147.575243 109.615614) (xy 147.719406 109.759777) (xy 147.888924 109.873045) (xy 148.077282 109.951066) (xy 148.277241 109.99084)
        (xy 148.481119 109.99084) (xy 148.681078 109.951066) (xy 148.736721 109.928018) (xy 148.688795 109.999744) (xy 148.610774 110.188102)
        (xy 148.571 110.388061) (xy 148.571 110.591939) (xy 148.610774 110.791898) (xy 148.688795 110.980256) (xy 148.802063 111.149774)
        (xy 148.848809 111.19652) (xy 128.5842 111.19652) (xy 128.5842 111.192567) (xy 128.521368 110.876688) (xy 128.398118 110.579137)
        (xy 128.219187 110.311348) (xy 127.991452 110.083613) (xy 127.723663 109.904682) (xy 127.426112 109.781432) (xy 127.110233 109.7186)
        (xy 126.788167 109.7186) (xy 126.472288 109.781432) (xy 126.174737 109.904682) (xy 125.906948 110.083613) (xy 125.679213 110.311348)
        (xy 125.500282 110.579137) (xy 125.377032 110.876688) (xy 125.3142 111.192567) (xy 125.3142 111.19652) (xy 124.657336 111.19652)
        (xy 124.655306 107.699812) (xy 125.8142 107.699812) (xy 125.8142 107.923388) (xy 125.857817 108.142667) (xy 125.943376 108.349224)
        (xy 126.067588 108.53512) (xy 126.22568 108.693212) (xy 126.411576 108.817424) (xy 126.618133 108.902983) (xy 126.837412 108.9466)
        (xy 127.060988 108.9466) (xy 127.280267 108.902983) (xy 127.486824 108.817424) (xy 127.67272 108.693212) (xy 127.830812 108.53512)
        (xy 127.955024 108.349224) (xy 128.040583 108.142667) (xy 128.0842 107.923388) (xy 128.0842 107.699812) (xy 128.040583 107.480533)
        (xy 127.955024 107.273976) (xy 127.830812 107.08808) (xy 127.67272 106.929988) (xy 127.486824 106.805776) (xy 127.280267 106.720217)
        (xy 127.060988 106.6766) (xy 126.837412 106.6766) (xy 126.618133 106.720217) (xy 126.411576 106.805776) (xy 126.22568 106.929988)
        (xy 126.067588 107.08808) (xy 125.943376 107.273976) (xy 125.857817 107.480533) (xy 125.8142 107.699812) (xy 124.655306 107.699812)
        (xy 124.652635 103.099812) (xy 125.8142 103.099812) (xy 125.8142 103.323388) (xy 125.857817 103.542667) (xy 125.943376 103.749224)
        (xy 126.067588 103.93512) (xy 126.22568 104.093212) (xy 126.411576 104.217424) (xy 126.618133 104.302983) (xy 126.837412 104.3466)
        (xy 127.060988 104.3466) (xy 127.280267 104.302983) (xy 127.486824 104.217424) (xy 127.67272 104.093212) (xy 127.830812 103.93512)
        (xy 127.955024 103.749224) (xy 128.040583 103.542667) (xy 128.0842 103.323388) (xy 128.0842 103.099812) (xy 128.040583 102.880533)
        (xy 127.955024 102.673976) (xy 127.830812 102.48808) (xy 127.67272 102.329988) (xy 127.486824 102.205776) (xy 127.280267 102.120217)
        (xy 127.060988 102.0766) (xy 126.837412 102.0766) (xy 126.618133 102.120217) (xy 126.411576 102.205776) (xy 126.22568 102.329988)
        (xy 126.067588 102.48808) (xy 125.943376 102.673976) (xy 125.857817 102.880533) (xy 125.8142 103.099812) (xy 124.652635 103.099812)
        (xy 124.650743 99.84192) (xy 125.316445 99.84192)
      )
    )
    (filled_polygon
      (pts
        (xy 148.571 102.518642) (xy 148.571 102.580779) (xy 148.610774 102.780738) (xy 148.688795 102.969096) (xy 148.802063 103.138614)
        (xy 148.946226 103.282777) (xy 149.115744 103.396045) (xy 149.304102 103.474066) (xy 149.340848 103.481375) (xy 149.309182 103.487674)
        (xy 149.120824 103.565695) (xy 148.951306 103.678963) (xy 148.807143 103.823126) (xy 148.693875 103.992644) (xy 148.615854 104.181002)
        (xy 148.57608 104.380961) (xy 148.57608 104.584839) (xy 148.615854 104.784798) (xy 148.693875 104.973156) (xy 148.807143 105.142674)
        (xy 148.951306 105.286837) (xy 149.120824 105.400105) (xy 149.298758 105.473808) (xy 149.128444 105.544355) (xy 148.958926 105.657623)
        (xy 148.814763 105.801786) (xy 148.701495 105.971304) (xy 148.623474 106.159662) (xy 148.5837 106.359621) (xy 148.5837 106.421757)
        (xy 146.324022 108.681437) (xy 146.258301 108.681437) (xy 146.214364 108.6375) (xy 146.044846 108.524232) (xy 145.856488 108.446211)
        (xy 145.656529 108.406437) (xy 145.452651 108.406437) (xy 145.252692 108.446211) (xy 145.064334 108.524232) (xy 144.894816 108.6375)
        (xy 144.80186 108.730456) (xy 144.726954 108.668983) (xy 144.661191 108.633831) (xy 144.65824 108.42803) (xy 144.49949 108.26928)
        (xy 143.52524 108.26928) (xy 143.52524 108.28928) (xy 143.27124 108.28928) (xy 143.27124 108.26928) (xy 143.25124 108.26928)
        (xy 143.25124 108.01528) (xy 143.27124 108.01528) (xy 143.27124 107.99528) (xy 143.52524 107.99528) (xy 143.52524 108.01528)
        (xy 144.49949 108.01528) (xy 144.65824 107.85653) (xy 144.661312 107.64228) (xy 144.649052 107.517798) (xy 144.612742 107.3981)
        (xy 144.553777 107.287786) (xy 144.474425 107.191095) (xy 144.414944 107.14228) (xy 144.474425 107.093465) (xy 144.553777 106.996774)
        (xy 144.604286 106.90228) (xy 144.955872 106.90228) (xy 145.075029 106.981898) (xy 145.263387 107.059919) (xy 145.463346 107.099693)
        (xy 145.667224 107.099693) (xy 145.867183 107.059919) (xy 146.055541 106.981898) (xy 146.225059 106.86863) (xy 146.369222 106.724467)
        (xy 146.48249 106.554949) (xy 146.560511 106.366591) (xy 146.600285 106.166632) (xy 146.600285 105.962754) (xy 146.560511 105.762795)
        (xy 146.48249 105.574437) (xy 146.452406 105.529414) (xy 146.464285 105.511636) (xy 146.542306 105.323278) (xy 146.58208 105.123319)
        (xy 146.58208 104.919441) (xy 146.542306 104.719482) (xy 146.464285 104.531124) (xy 146.351017 104.361606) (xy 146.206854 104.217443)
        (xy 146.037336 104.104175) (xy 145.848978 104.026154) (xy 145.649019 103.98638) (xy 145.591436 103.98638) (xy 145.588481 103.982779)
        (xy 145.472756 103.887806) (xy 145.340727 103.817234) (xy 145.197466 103.773777) (xy 145.085813 103.76278) (xy 145.085802 103.76278)
        (xy 145.04848 103.759104) (xy 145.011158 103.76278) (xy 144.604286 103.76278) (xy 144.553777 103.668286) (xy 144.474425 103.571595)
        (xy 144.414944 103.52278) (xy 144.474425 103.473965) (xy 144.553777 103.377274) (xy 144.612742 103.26696) (xy 144.649052 103.147262)
        (xy 144.661312 103.02278) (xy 144.65824 102.80853) (xy 144.49949 102.64978) (xy 143.52524 102.64978) (xy 143.52524 102.66978)
        (xy 143.27124 102.66978) (xy 143.27124 102.64978) (xy 143.25124 102.64978) (xy 143.25124 102.39578) (xy 143.27124 102.39578)
        (xy 143.27124 101.54653) (xy 143.52524 101.54653) (xy 143.52524 102.39578) (xy 144.49949 102.39578) (xy 144.65824 102.23703)
        (xy 144.661312 102.02278) (xy 144.649052 101.898298) (xy 144.612742 101.7786) (xy 144.553777 101.668286) (xy 144.474425 101.571595)
        (xy 144.377734 101.492243) (xy 144.26742 101.433278) (xy 144.147722 101.396968) (xy 144.02324 101.384708) (xy 143.68399 101.38778)
        (xy 143.52524 101.54653) (xy 143.27124 101.54653) (xy 143.11249 101.38778) (xy 142.77324 101.384708) (xy 142.648758 101.396968)
        (xy 142.52906 101.433278) (xy 142.418746 101.492243) (xy 142.322055 101.571595) (xy 142.242703 101.668286) (xy 142.183738 101.7786)
        (xy 142.147428 101.898298) (xy 142.135168 102.02278) (xy 142.135312 102.032855) (xy 142.072374 101.981203) (xy 141.96206 101.922238)
        (xy 141.842362 101.885928) (xy 141.71788 101.873668) (xy 139.31788 101.873668) (xy 139.193398 101.885928) (xy 139.0737 101.922238)
        (xy 138.963386 101.981203) (xy 138.866695 102.060555) (xy 138.787343 102.157246) (xy 138.728378 102.26756) (xy 138.692068 102.387258)
        (xy 138.679808 102.51174) (xy 138.679808 102.612944) (xy 138.675205 102.607335) (xy 138.578514 102.527983) (xy 138.4682 102.469018)
        (xy 138.433593 102.45852) (xy 138.4682 102.448022) (xy 138.578514 102.389057) (xy 138.675205 102.309705) (xy 138.754557 102.213014)
        (xy 138.813522 102.1027) (xy 138.849832 101.983002) (xy 138.862092 101.85852) (xy 138.862092 101.17636) (xy 147.228719 101.17636)
      )
    )
  )
)
