EESchema Schematic File Version 4
EELAYER 30 0
EELAYER END
$Descr A4 11693 8268
encoding utf-8
Sheet 1 1
Title "PWKeep"
Date "2020-07-14"
Rev "2.0"
Comp ""
Comment1 ""
Comment2 ""
Comment3 "Uses AtMega32U4-AU package."
Comment4 "A USB device to remember passwords."
$EndDescr
$Comp
L MCU_Microchip_ATmega:ATmega32U4-MU U1
U 1 1 5F0DBBA8
P 6850 3900
F 0 "U1" H 7300 5700 50  0000 C CNN
F 1 "ATmega32U4-MU" V 6850 3950 50  0000 C CNN
F 2 "Housings_QFP:TQFP-44_10x10mm_Pitch0.8mm" H 6850 3900 50  0001 C CIN
F 3 "http://ww1.microchip.com/downloads/en/DeviceDoc/Atmel-7766-8-bit-AVR-ATmega16U4-32U4_Datasheet.pdf" H 6850 3900 50  0001 C CNN
	1    6850 3900
	1    0    0    -1  
$EndComp
$Comp
L power:GND #PWR0101
U 1 1 5F0DEF9B
P 6850 5850
F 0 "#PWR0101" H 6850 5600 50  0001 C CNN
F 1 "GND" H 6855 5677 50  0000 C CNN
F 2 "" H 6850 5850 50  0001 C CNN
F 3 "" H 6850 5850 50  0001 C CNN
	1    6850 5850
	1    0    0    -1  
$EndComp
Wire Wire Line
	6850 5700 6850 5800
Wire Wire Line
	6750 5700 6750 5800
Wire Wire Line
	6750 5800 6850 5800
Connection ~ 6850 5800
Wire Wire Line
	6850 5800 6850 5850
$Comp
L Device:Crystal Y1
U 1 1 5F0DFD98
P 5450 2700
F 0 "Y1" V 5404 2831 50  0000 L CNN
F 1 "16MHz" V 5495 2831 50  0000 L CNN
F 2 "Crystals:Crystal_SMD_5032-2pin_5.0x3.2mm" H 5450 2700 50  0001 C CNN
F 3 "~" H 5450 2700 50  0001 C CNN
	1    5450 2700
	0    1    1    0   
$EndComp
Wire Wire Line
	5450 2550 6000 2550
Wire Wire Line
	6000 2550 6000 2600
Wire Wire Line
	6000 2600 6250 2600
Wire Wire Line
	5450 2850 6000 2850
Wire Wire Line
	6000 2850 6000 2800
Wire Wire Line
	6000 2800 6250 2800
$Comp
L Device:C_Small C6
U 1 1 5F0E2751
P 5100 2550
F 0 "C6" V 4950 2550 50  0000 C CNN
F 1 "22pF" V 4850 2550 50  0000 C CNN
F 2 "Capacitors_SMD:C_0805" H 5100 2550 50  0001 C CNN
F 3 "~" H 5100 2550 50  0001 C CNN
	1    5100 2550
	0    1    1    0   
$EndComp
$Comp
L Device:C_Small C7
U 1 1 5F0E2ED5
P 5100 2850
F 0 "C7" V 5250 2850 50  0000 C CNN
F 1 "22pF" V 5350 2850 50  0000 C CNN
F 2 "Capacitors_SMD:C_0805" H 5100 2850 50  0001 C CNN
F 3 "~" H 5100 2850 50  0001 C CNN
	1    5100 2850
	0    1    1    0   
$EndComp
Wire Wire Line
	5200 2550 5450 2550
Connection ~ 5450 2550
Wire Wire Line
	5200 2850 5450 2850
Connection ~ 5450 2850
$Comp
L power:GND #PWR0102
U 1 1 5F0E36E8
P 4750 2950
F 0 "#PWR0102" H 4750 2700 50  0001 C CNN
F 1 "GND" H 4755 2777 50  0000 C CNN
F 2 "" H 4750 2950 50  0001 C CNN
F 3 "" H 4750 2950 50  0001 C CNN
	1    4750 2950
	1    0    0    -1  
$EndComp
Wire Wire Line
	5000 2550 4750 2550
Wire Wire Line
	4750 2550 4750 2850
Wire Wire Line
	5000 2850 4750 2850
Connection ~ 4750 2850
Wire Wire Line
	4750 2850 4750 2950
$Comp
L Device:C_Small C5
U 1 1 5F0E4C10
P 5650 3150
F 0 "C5" H 5800 3100 50  0000 C CNN
F 1 "0.1uF" H 5850 3200 50  0000 C CNN
F 2 "Capacitors_SMD:C_0805" H 5650 3150 50  0001 C CNN
F 3 "~" H 5650 3150 50  0001 C CNN
	1    5650 3150
	-1   0    0    1   
$EndComp
Wire Wire Line
	5650 3000 5650 3050
$Comp
L power:GND #PWR0103
U 1 1 5F0E5ADC
P 5650 3300
F 0 "#PWR0103" H 5650 3050 50  0001 C CNN
F 1 "GND" H 5655 3127 50  0000 C CNN
F 2 "" H 5650 3300 50  0001 C CNN
F 3 "" H 5650 3300 50  0001 C CNN
	1    5650 3300
	1    0    0    -1  
$EndComp
Wire Wire Line
	5650 3250 5650 3300
Text GLabel 6150 3200 0    50   Input ~ 0
Vcc
Wire Wire Line
	6150 3200 6250 3200
Wire Wire Line
	5650 3000 6250 3000
Text GLabel 6150 3400 0    50   Input ~ 0
D+
Text GLabel 6150 3500 0    50   Input ~ 0
D-
Wire Wire Line
	6150 3400 6250 3400
Wire Wire Line
	6150 3500 6250 3500
$Comp
L Device:C_Small C4
U 1 1 5F0E807F
P 5650 3850
F 0 "C4" H 5800 3800 50  0000 C CNN
F 1 "1uF" H 5800 3900 50  0000 C CNN
F 2 "Capacitors_SMD:C_0805" H 5650 3850 50  0001 C CNN
F 3 "~" H 5650 3850 50  0001 C CNN
	1    5650 3850
	-1   0    0    1   
$EndComp
Wire Wire Line
	5650 3750 5650 3700
Wire Wire Line
	5650 3700 6250 3700
$Comp
L power:GND #PWR0104
U 1 1 5F0E89DF
P 5650 4000
F 0 "#PWR0104" H 5650 3750 50  0001 C CNN
F 1 "GND" H 5655 3827 50  0000 C CNN
F 2 "" H 5650 4000 50  0001 C CNN
F 3 "" H 5650 4000 50  0001 C CNN
	1    5650 4000
	1    0    0    -1  
$EndComp
Wire Wire Line
	5650 3950 5650 4000
$Comp
L Device:R_Small R3
U 1 1 5F0E9425
P 7850 4500
F 0 "R3" V 7654 4500 50  0000 C CNN
F 1 "1K0" V 7745 4500 50  0000 C CNN
F 2 "Resistors_SMD:R_0805" H 7850 4500 50  0001 C CNN
F 3 "~" H 7850 4500 50  0001 C CNN
	1    7850 4500
	0    1    1    0   
$EndComp
$Comp
L power:GND #PWR0105
U 1 1 5F0EA141
P 8100 4550
F 0 "#PWR0105" H 8100 4300 50  0001 C CNN
F 1 "GND" H 8105 4377 50  0000 C CNN
F 2 "" H 8100 4550 50  0001 C CNN
F 3 "" H 8100 4550 50  0001 C CNN
	1    8100 4550
	1    0    0    -1  
$EndComp
Wire Wire Line
	7450 4500 7750 4500
Wire Wire Line
	7950 4500 8100 4500
Wire Wire Line
	8100 4500 8100 4550
$Comp
L Switch:SW_SPST SW1
U 1 1 5F0EB50C
P 8650 4050
F 0 "SW1" V 8700 4350 50  0000 R CNN
F 1 "SW_SPST" V 8600 4500 50  0000 R CNN
F 2 "PWKeep:Button" H 8650 4050 50  0001 C CNN
F 3 "~" H 8650 4050 50  0001 C CNN
	1    8650 4050
	0    1    -1   0   
$EndComp
$Comp
L power:GND #PWR0106
U 1 1 5F0F8C80
P 8650 4300
F 0 "#PWR0106" H 8650 4050 50  0001 C CNN
F 1 "GND" H 8655 4127 50  0000 C CNN
F 2 "" H 8650 4300 50  0001 C CNN
F 3 "" H 8650 4300 50  0001 C CNN
	1    8650 4300
	1    0    0    -1  
$EndComp
NoConn ~ 7450 2400
NoConn ~ 7450 2800
NoConn ~ 7450 2900
NoConn ~ 7450 3000
NoConn ~ 7450 3100
NoConn ~ 7450 3300
NoConn ~ 7450 3400
NoConn ~ 7450 3700
NoConn ~ 7450 3600
NoConn ~ 7450 3900
NoConn ~ 7450 4000
NoConn ~ 7450 4100
NoConn ~ 7450 4200
NoConn ~ 7450 4300
NoConn ~ 7450 4600
NoConn ~ 7450 4800
NoConn ~ 7450 4900
NoConn ~ 7450 5000
NoConn ~ 7450 5100
NoConn ~ 7450 5200
NoConn ~ 7450 5300
$Comp
L Device:C_Small C3
U 1 1 5F102CD1
P 7000 1600
F 0 "C3" V 6850 1600 50  0000 C CNN
F 1 "0.1uF" V 6750 1600 50  0000 C CNN
F 2 "Capacitors_SMD:C_0805" H 7000 1600 50  0001 C CNN
F 3 "~" H 7000 1600 50  0001 C CNN
	1    7000 1600
	0    -1   -1   0   
$EndComp
$Comp
L Device:C_Small C2
U 1 1 5F10309D
P 7000 1350
F 0 "C2" V 7150 1350 50  0000 C CNN
F 1 "0.1uF" V 7250 1350 50  0000 C CNN
F 2 "Capacitors_SMD:C_0805" H 7000 1350 50  0001 C CNN
F 3 "~" H 7000 1350 50  0001 C CNN
	1    7000 1350
	0    -1   -1   0   
$EndComp
$Comp
L power:GND #PWR0107
U 1 1 5F103F49
P 7550 1400
F 0 "#PWR0107" H 7550 1150 50  0001 C CNN
F 1 "GND" H 7555 1227 50  0000 C CNN
F 2 "" H 7550 1400 50  0001 C CNN
F 3 "" H 7550 1400 50  0001 C CNN
	1    7550 1400
	1    0    0    -1  
$EndComp
Wire Wire Line
	7100 1350 7100 1600
Wire Wire Line
	7100 1350 7550 1350
Wire Wire Line
	7550 1350 7550 1400
Connection ~ 7100 1350
Wire Wire Line
	6900 1350 6850 1350
Wire Wire Line
	6850 1350 6850 1600
Wire Wire Line
	6850 1600 6900 1600
Wire Wire Line
	6750 2100 6750 2000
Wire Wire Line
	6750 2000 6850 2000
Wire Wire Line
	6850 2000 6850 2100
Wire Wire Line
	6850 2000 6950 2000
Wire Wire Line
	6950 2000 6950 2100
Connection ~ 6850 2000
Text GLabel 6650 900  0    50   Input ~ 0
Vcc
Wire Wire Line
	6650 900  6850 900 
Wire Wire Line
	6850 900  6850 1350
Connection ~ 6850 1350
Wire Wire Line
	6850 1600 6850 2000
Connection ~ 6850 1600
$Comp
L PWKeep-rescue:USB_A-Connector J1
U 1 1 5F12BF1B
P 1350 1650
F 0 "J1" H 1407 2117 50  0000 C CNN
F 1 "USB_A" H 1407 2026 50  0000 C CNN
F 2 "PWKeep:USB_A" H 1500 1600 50  0001 C CNN
F 3 " ~" H 1500 1600 50  0001 C CNN
	1    1350 1650
	1    0    0    -1  
$EndComp
$Comp
L Device:R_Small R1
U 1 1 5F12D19F
P 1900 1650
F 0 "R1" V 1800 1650 50  0000 C CNN
F 1 "22" V 1900 1650 50  0000 C CNN
F 2 "Resistors_SMD:R_0805" H 1900 1650 50  0001 C CNN
F 3 "~" H 1900 1650 50  0001 C CNN
	1    1900 1650
	0    1    1    0   
$EndComp
$Comp
L Device:R_Small R2
U 1 1 5F12D8DD
P 1900 1750
F 0 "R2" V 2000 1750 50  0000 C CNN
F 1 "22" V 1900 1750 50  0000 C CNN
F 2 "Resistors_SMD:R_0805" H 1900 1750 50  0001 C CNN
F 3 "~" H 1900 1750 50  0001 C CNN
	1    1900 1750
	0    1    1    0   
$EndComp
Text GLabel 2150 1650 2    50   Input ~ 0
D+
Text GLabel 2150 1750 2    50   Input ~ 0
D-
Wire Wire Line
	1650 1650 1800 1650
Wire Wire Line
	2000 1650 2150 1650
Wire Wire Line
	1650 1750 1800 1750
Wire Wire Line
	2000 1750 2150 1750
$Comp
L power:GND #PWR0108
U 1 1 5F1336A6
P 1350 2150
F 0 "#PWR0108" H 1350 1900 50  0001 C CNN
F 1 "GND" H 1355 1977 50  0000 C CNN
F 2 "" H 1350 2150 50  0001 C CNN
F 3 "" H 1350 2150 50  0001 C CNN
	1    1350 2150
	1    0    0    -1  
$EndComp
Wire Wire Line
	1350 2050 1350 2100
Wire Wire Line
	1250 2050 1250 2100
Wire Wire Line
	1250 2100 1350 2100
Connection ~ 1350 2100
Wire Wire Line
	1350 2100 1350 2150
$Comp
L Device:C_Small C1
U 1 1 5F1360CE
P 2700 1600
F 0 "C1" H 2550 1600 50  0000 C CNN
F 1 "1uF" H 2550 1700 50  0000 C CNN
F 2 "Capacitors_SMD:C_0805" H 2700 1600 50  0001 C CNN
F 3 "~" H 2700 1600 50  0001 C CNN
	1    2700 1600
	-1   0    0    1   
$EndComp
Wire Wire Line
	1650 1450 2700 1450
Wire Wire Line
	2700 1450 2700 1500
Text GLabel 3000 1450 2    50   Input ~ 0
Vcc
Wire Wire Line
	2700 1450 3000 1450
Connection ~ 2700 1450
$Comp
L power:GND #PWR0109
U 1 1 5F139B9C
P 2700 1750
F 0 "#PWR0109" H 2700 1500 50  0001 C CNN
F 1 "GND" H 2705 1577 50  0000 C CNN
F 2 "" H 2700 1750 50  0001 C CNN
F 3 "" H 2700 1750 50  0001 C CNN
	1    2700 1750
	1    0    0    -1  
$EndComp
Wire Wire Line
	2700 1700 2700 1750
$Comp
L Connector:Conn_01x06_Female J2
U 1 1 5F36996C
P 2250 3300
F 0 "J2" H 2278 3276 50  0000 L CNN
F 1 "Conn_01x06_Female" H 2278 3185 50  0000 L CNN
F 2 "PWKeep:ICSP_Pogo" H 2250 3300 50  0001 C CNN
F 3 "~" H 2250 3300 50  0001 C CNN
	1    2250 3300
	1    0    0    -1  
$EndComp
Wire Notes Line
	950  1000 3350 1000
Wire Notes Line
	3350 1000 3350 2500
Wire Notes Line
	3350 2500 950  2500
Wire Notes Line
	950  2500 950  1000
Text Notes 950  2600 0    50   ~ 0
USB & Power
Text GLabel 1750 3500 0    50   Input ~ 0
RESET
Wire Wire Line
	1750 3500 2050 3500
$Comp
L power:GND #PWR0110
U 1 1 5F37934F
P 1750 3650
F 0 "#PWR0110" H 1750 3400 50  0001 C CNN
F 1 "GND" H 1755 3477 50  0000 C CNN
F 2 "" H 1750 3650 50  0001 C CNN
F 3 "" H 1750 3650 50  0001 C CNN
	1    1750 3650
	1    0    0    -1  
$EndComp
Wire Wire Line
	1750 3650 1750 3600
Wire Wire Line
	1750 3600 2050 3600
Text GLabel 1750 3400 0    50   Input ~ 0
MOSI
Text GLabel 1750 3300 0    50   Input ~ 0
SCK
Text GLabel 1750 3200 0    50   Input ~ 0
Vcc
Text GLabel 1750 3100 0    50   Input ~ 0
MISO
Wire Wire Line
	1750 3100 2050 3100
Wire Wire Line
	1750 3200 2050 3200
Wire Wire Line
	1750 3300 2050 3300
Wire Wire Line
	1750 3400 2050 3400
Text GLabel 6150 2400 0    50   Input ~ 0
RESET
Wire Wire Line
	6150 2400 6250 2400
Text GLabel 7650 2700 2    50   Input ~ 0
MISO
Text GLabel 7650 2500 2    50   Input ~ 0
SCK
Text GLabel 7650 2600 2    50   Input ~ 0
MOSI
Wire Wire Line
	7450 2500 7650 2500
Wire Wire Line
	7450 2600 7650 2600
Wire Wire Line
	7450 2700 7650 2700
Wire Notes Line
	950  2900 3150 2900
Wire Notes Line
	3150 2900 3150 4000
Wire Notes Line
	3150 4000 950  4000
Wire Notes Line
	950  4000 950  2900
Text Notes 950  4100 0    50   ~ 0
ICSP
Wire Wire Line
	8650 4250 8650 4300
Wire Wire Line
	8650 3850 8650 3800
Wire Wire Line
	7450 3800 8650 3800
$Comp
L power:GND #PWR0111
U 1 1 5FC4FFAC
P 1150 4850
F 0 "#PWR0111" H 1150 4600 50  0001 C CNN
F 1 "GND" H 1155 4677 50  0000 C CNN
F 2 "" H 1150 4850 50  0001 C CNN
F 3 "" H 1150 4850 50  0001 C CNN
	1    1150 4850
	1    0    0    -1  
$EndComp
Text GLabel 1700 4900 2    50   Input ~ 0
Vcc
$Comp
L power:PWR_FLAG #FLG0101
U 1 1 5FC50DDF
P 1150 4750
F 0 "#FLG0101" H 1150 4825 50  0001 C CNN
F 1 "PWR_FLAG" H 1150 4923 50  0000 C CNN
F 2 "" H 1150 4750 50  0001 C CNN
F 3 "~" H 1150 4750 50  0001 C CNN
	1    1150 4750
	1    0    0    -1  
$EndComp
$Comp
L power:PWR_FLAG #FLG0102
U 1 1 5FC5163A
P 1650 4750
F 0 "#FLG0102" H 1650 4825 50  0001 C CNN
F 1 "PWR_FLAG" H 1650 4923 50  0000 C CNN
F 2 "" H 1650 4750 50  0001 C CNN
F 3 "~" H 1650 4750 50  0001 C CNN
	1    1650 4750
	1    0    0    -1  
$EndComp
Wire Wire Line
	1700 4900 1650 4900
Wire Wire Line
	1650 4900 1650 4750
Wire Wire Line
	1150 4850 1150 4750
Text GLabel 6150 1350 0    50   Input ~ 0
RESET
$Comp
L Device:R_Small R4
U 1 1 5FDC89E2
P 6400 1350
F 0 "R4" V 6204 1350 50  0000 C CNN
F 1 "10K" V 6295 1350 50  0000 C CNN
F 2 "Resistors_SMD:R_0805" H 6400 1350 50  0001 C CNN
F 3 "~" H 6400 1350 50  0001 C CNN
	1    6400 1350
	0    1    1    0   
$EndComp
Wire Wire Line
	6150 1350 6300 1350
Wire Wire Line
	6500 1350 6850 1350
$EndSCHEMATC
