EESchema Schematic File Version 4
EELAYER 30 0
EELAYER END
$Descr A4 11693 8268
encoding utf-8
Sheet 1 1
Title "Digital Power Meter 1.1"
Date "2020-01-19"
Rev ""
Comp ""
Comment1 "From QEX, May/June 2013."
Comment2 ""
Comment3 ""
Comment4 ""
$EndDescr
$Comp
L Connector:USB_B_Micro J1
U 1 1 5E23F22B
P 1050 3100
F 0 "J1" H 900 3450 50  0000 C CNN
F 1 "USB_B_Micro" V 750 3100 50  0000 C CNN
F 2 "Connectors:USB_Mini-B" H 1200 3050 50  0001 C CNN
F 3 "~" H 1200 3050 50  0001 C CNN
	1    1050 3100
	1    0    0    -1  
$EndComp
$Comp
L Connector:Conn_Coaxial J2
U 1 1 5E2423BD
P 4500 1300
F 0 "J2" H 4600 1275 50  0000 L CNN
F 1 "BNC" H 4600 1184 50  0000 L CNN
F 2 "DigitalPowerMeter:BNC_Socket_Tyco-AMP_largepads" H 4500 1300 50  0001 C CNN
F 3 " ~" H 4500 1300 50  0001 C CNN
	1    4500 1300
	1    0    0    -1  
$EndComp
$Comp
L Reference_Voltage:MCP1541-TT U2
U 1 1 5E243429
P 6100 1200
F 0 "U2" H 6400 1450 50  0000 R CNN
F 1 "MCP1541-TT" V 5950 1450 50  0000 R CNN
F 2 "TO_SOT_Packages_SMD:SOT-23" H 6125 950 50  0001 L CIN
F 3 "http://ww1.microchip.com/downloads/en/devicedoc/21653b.pdf" H 6100 1200 50  0001 C CIN
	1    6100 1200
	-1   0    0    -1  
$EndComp
$Comp
L power:GND #PWR0101
U 1 1 5E24638F
P 4500 1650
F 0 "#PWR0101" H 4500 1400 50  0001 C CNN
F 1 "GND" H 4505 1477 50  0000 C CNN
F 2 "" H 4500 1650 50  0001 C CNN
F 3 "" H 4500 1650 50  0001 C CNN
	1    4500 1650
	1    0    0    -1  
$EndComp
Wire Wire Line
	4500 1500 4500 1650
$Comp
L power:GND #PWR0102
U 1 1 5E2469FD
P 1050 3550
F 0 "#PWR0102" H 1050 3300 50  0001 C CNN
F 1 "GND" H 1055 3377 50  0000 C CNN
F 2 "" H 1050 3550 50  0001 C CNN
F 3 "" H 1050 3550 50  0001 C CNN
	1    1050 3550
	1    0    0    -1  
$EndComp
Wire Wire Line
	1050 3500 1050 3550
Wire Wire Line
	950  3500 950  3550
Wire Wire Line
	950  3550 1050 3550
Connection ~ 1050 3550
NoConn ~ 1350 3300
$Comp
L power:GND #PWR0103
U 1 1 5E247535
P 6100 1600
F 0 "#PWR0103" H 6100 1350 50  0001 C CNN
F 1 "GND" H 6105 1427 50  0000 C CNN
F 2 "" H 6100 1600 50  0001 C CNN
F 3 "" H 6100 1600 50  0001 C CNN
	1    6100 1600
	1    0    0    -1  
$EndComp
Wire Wire Line
	6100 1500 6100 1550
$Comp
L Device:C_Small C6
U 1 1 5E248FE1
P 5650 1350
F 0 "C6" H 5450 1350 50  0000 L CNN
F 1 "100nF" H 5350 1250 50  0000 L CNN
F 2 "Capacitors_SMD:C_0805" H 5650 1350 50  0001 C CNN
F 3 "~" H 5650 1350 50  0001 C CNN
	1    5650 1350
	1    0    0    -1  
$EndComp
Wire Wire Line
	5650 1450 5650 1550
Wire Wire Line
	5650 1550 6100 1550
Connection ~ 6100 1550
Wire Wire Line
	5700 1200 5650 1200
Wire Wire Line
	5650 1200 5650 1250
$Comp
L Device:C_Small C7
U 1 1 5E24A3AC
P 6400 1200
F 0 "C7" H 6492 1246 50  0000 L CNN
F 1 "1nF" H 6492 1155 50  0000 L CNN
F 2 "Capacitors_SMD:C_0805" H 6400 1200 50  0001 C CNN
F 3 "~" H 6400 1200 50  0001 C CNN
	1    6400 1200
	1    0    0    -1  
$EndComp
Wire Wire Line
	6100 900  6400 900 
Wire Wire Line
	6400 900  6400 1100
Wire Wire Line
	6100 1550 6400 1550
Wire Wire Line
	6400 1550 6400 1300
Text GLabel 6100 800  1    50   Input ~ 0
Vcc
Wire Wire Line
	6100 800  6100 900 
Connection ~ 6100 900 
Text GLabel 5500 1200 0    50   Input ~ 0
Aref
Wire Wire Line
	5500 1200 5650 1200
Connection ~ 5650 1200
Text GLabel 7750 2800 0    50   Input ~ 0
Aref
$Comp
L DigitalPowerMeter:AD8307 U1
U 1 1 5E253AE1
P 1950 1550
F 0 "U1" H 1700 1900 50  0000 C CNN
F 1 "AD8307" H 1950 1250 50  0000 C CNN
F 2 "Housings_SOIC:SOIC-8-1EP_3.9x4.9mm_Pitch1.27mm" H 1950 1550 50  0001 C CNN
F 3 "" H 1950 1550 50  0001 C CNN
	1    1950 1550
	1    0    0    -1  
$EndComp
$Comp
L Device:C_Small C2
U 1 1 5E25B5D3
P 3100 1300
F 0 "C2" V 2850 1250 50  0000 L CNN
F 1 "10nF" V 2950 1200 50  0000 L CNN
F 2 "Capacitors_SMD:C_0805" H 3100 1300 50  0001 C CNN
F 3 "~" H 3100 1300 50  0001 C CNN
	1    3100 1300
	0    1    1    0   
$EndComp
$Comp
L Device:C_Small C5
U 1 1 5E25BEE7
P 2650 1950
F 0 "C5" H 2742 1996 50  0000 L CNN
F 1 "100nF" H 2742 1905 50  0000 L CNN
F 2 "Capacitors_SMD:C_0805" H 2650 1950 50  0001 C CNN
F 3 "~" H 2650 1950 50  0001 C CNN
	1    2650 1950
	1    0    0    -1  
$EndComp
NoConn ~ 2450 1750
Wire Wire Line
	2450 1600 2650 1600
Wire Wire Line
	2450 1450 2650 1450
Wire Wire Line
	2650 1450 2650 1600
Connection ~ 2650 1600
Wire Wire Line
	2450 1300 3000 1300
Wire Wire Line
	4000 900  4000 1300
Wire Wire Line
	3900 900  4000 900 
Wire Wire Line
	3600 900  3600 1300
Wire Wire Line
	4000 1600 4000 1650
$Comp
L power:GND #PWR0104
U 1 1 5E25ED92
P 4000 1650
F 0 "#PWR0104" H 4000 1400 50  0001 C CNN
F 1 "GND" H 4005 1477 50  0000 C CNN
F 2 "" H 4000 1650 50  0001 C CNN
F 3 "" H 4000 1650 50  0001 C CNN
	1    4000 1650
	1    0    0    -1  
$EndComp
Connection ~ 4000 1300
Wire Wire Line
	4000 1300 3900 1300
Wire Wire Line
	4000 1400 4000 1300
$Comp
L Device:C_Small C1
U 1 1 5E25BC5D
P 3800 900
F 0 "C1" V 3550 850 50  0000 L CNN
F 1 "15" V 3650 850 50  0000 L CNN
F 2 "Capacitors_SMD:C_0805" H 3800 900 50  0001 C CNN
F 3 "~" H 3800 900 50  0001 C CNN
	1    3800 900 
	0    1    1    0   
$EndComp
$Comp
L Device:R_Small R1
U 1 1 5E25B3EA
P 4000 1500
F 0 "R1" H 3900 1450 50  0000 R CNN
F 1 "51" H 3900 1550 50  0000 R CNN
F 2 "Resistors_SMD:R_0805" H 4000 1500 50  0001 C CNN
F 3 "~" H 4000 1500 50  0001 C CNN
	1    4000 1500
	-1   0    0    1   
$EndComp
$Comp
L Device:R_Small R2
U 1 1 5E259BF6
P 3800 1300
F 0 "R2" V 3604 1300 50  0000 C CNN
F 1 "470" V 3695 1300 50  0000 C CNN
F 2 "Resistors_SMD:R_0805" H 3800 1300 50  0001 C CNN
F 3 "~" H 3800 1300 50  0001 C CNN
	1    3800 1300
	0    1    1    0   
$EndComp
$Comp
L Device:L L1
U 1 1 5E24E461
P 3350 1300
F 0 "L1" V 3300 1350 50  0000 R CNN
F 1 "1t, 1/8\"" V 3200 1450 50  0000 R CNN
F 2 "Inductors_SMD:L_Wuerth_MAPI-4030" H 3350 1300 50  0001 C CNN
F 3 "~" H 3350 1300 50  0001 C CNN
	1    3350 1300
	0    -1   -1   0   
$EndComp
Wire Wire Line
	3600 1300 3700 1300
Wire Wire Line
	3600 900  3700 900 
Wire Wire Line
	4000 1300 4300 1300
$Comp
L power:GND #PWR0105
U 1 1 5E268593
P 2650 2100
F 0 "#PWR0105" H 2650 1850 50  0001 C CNN
F 1 "GND" H 2655 1927 50  0000 C CNN
F 2 "" H 2650 2100 50  0001 C CNN
F 3 "" H 2650 2100 50  0001 C CNN
	1    2650 2100
	1    0    0    -1  
$EndComp
Wire Wire Line
	2650 2050 2650 2100
NoConn ~ 1450 1600
$Comp
L Device:C_Small C4
U 1 1 5E26A2AF
P 1350 1950
F 0 "C4" H 1442 1996 50  0000 L CNN
F 1 "2.2nF" H 1442 1905 50  0000 L CNN
F 2 "Capacitors_SMD:C_0805" H 1350 1950 50  0001 C CNN
F 3 "~" H 1350 1950 50  0001 C CNN
	1    1350 1950
	1    0    0    -1  
$EndComp
$Comp
L Device:C_Small C3
U 1 1 5E26A550
P 1250 1300
F 0 "C3" V 1000 1250 50  0000 L CNN
F 1 "100nF" V 1100 1200 50  0000 L CNN
F 2 "Capacitors_SMD:C_0805" H 1250 1300 50  0001 C CNN
F 3 "~" H 1250 1300 50  0001 C CNN
	1    1250 1300
	0    1    1    0   
$EndComp
Wire Wire Line
	1450 1300 1350 1300
$Comp
L power:GND #PWR0106
U 1 1 5E26CD4E
P 1050 1300
F 0 "#PWR0106" H 1050 1050 50  0001 C CNN
F 1 "GND" V 1055 1172 50  0000 R CNN
F 2 "" H 1050 1300 50  0001 C CNN
F 3 "" H 1050 1300 50  0001 C CNN
	1    1050 1300
	0    1    1    0   
$EndComp
Wire Wire Line
	1050 1300 1100 1300
Wire Wire Line
	1450 1750 1350 1750
Wire Wire Line
	1350 1750 1350 1850
$Comp
L power:GND #PWR0107
U 1 1 5E26E1A3
P 1350 2100
F 0 "#PWR0107" H 1350 1850 50  0001 C CNN
F 1 "GND" H 1355 1927 50  0000 C CNN
F 2 "" H 1350 2100 50  0001 C CNN
F 3 "" H 1350 2100 50  0001 C CNN
	1    1350 2100
	1    0    0    -1  
$EndComp
Wire Wire Line
	1350 2050 1350 2100
Wire Wire Line
	1100 1450 1100 1300
Wire Wire Line
	1100 1450 1450 1450
Connection ~ 1100 1300
Wire Wire Line
	1100 1300 1150 1300
Text GLabel 950  1750 0    50   Input ~ 0
F0
Wire Wire Line
	950  1750 1350 1750
Connection ~ 1350 1750
Text GLabel 2850 1600 2    50   Input ~ 0
Vcc
Wire Wire Line
	2650 1600 2850 1600
$Comp
L Display_Character:RC1602A U4
U 1 1 5E299427
P 1600 5450
F 0 "U4" H 1350 6100 50  0000 C CNN
F 1 "RC1602A" V 1600 5500 50  0000 C CNN
F 2 "Displays:WC1602A" H 1700 4650 50  0001 C CNN
F 3 "http://www.raystar-optronics.com/down.php?ProID=18" H 1700 5350 50  0001 C CNN
	1    1600 5450
	1    0    0    -1  
$EndComp
Connection ~ 3600 1300
Wire Wire Line
	3500 1300 3600 1300
Wire Notes Line
	600  2350 4850 2350
Wire Notes Line
	4850 550  600  550 
Text Notes 600  2450 0    50   ~ 0
Input and Log Detector
Wire Notes Line
	600  550  600  2350
Wire Notes Line
	4850 550  4850 2350
$Comp
L Connector:AVR-ISP-6 J3
U 1 1 5E2419C9
P 5700 2950
F 0 "J3" H 6000 3400 50  0000 R CNN
F 1 "ISP" H 5600 3000 50  0000 R CNN
F 2 "Connectors_IDC:IDC-Header_2x03_Pitch2.54mm_Straight" V 5450 3000 50  0001 C CNN
F 3 " ~" H 4425 2400 50  0001 C CNN
	1    5700 2950
	1    0    0    -1  
$EndComp
Text GLabel 5450 2300 0    50   Input ~ 0
Vcc
$Comp
L power:GND #PWR0108
U 1 1 5E24311C
P 5600 3400
F 0 "#PWR0108" H 5600 3150 50  0001 C CNN
F 1 "GND" H 5605 3227 50  0000 C CNN
F 2 "" H 5600 3400 50  0001 C CNN
F 3 "" H 5600 3400 50  0001 C CNN
	1    5600 3400
	1    0    0    -1  
$EndComp
Wire Wire Line
	5600 3350 5600 3400
Wire Wire Line
	5450 2300 5600 2300
Wire Wire Line
	5600 2300 5600 2450
Text GLabel 6300 3050 2    50   Input ~ 0
RESET
Wire Wire Line
	6100 3050 6300 3050
Text GLabel 6300 2850 2    50   Input ~ 0
B2
Wire Wire Line
	6100 2850 6300 2850
Text GLabel 6300 2750 2    50   Input ~ 0
B3
Wire Wire Line
	6300 2750 6100 2750
Text GLabel 6300 2950 2    50   Input ~ 0
B1
Wire Wire Line
	6100 2950 6300 2950
Wire Notes Line
	5150 2150 6750 2150
Wire Notes Line
	6750 2150 6750 3700
Wire Notes Line
	6750 3700 5150 3700
Wire Notes Line
	5150 3700 5150 2150
Text Notes 5150 3800 0    50   ~ 0
In-circuit Serial Programmer
$Comp
L Device:R_Small R10
U 1 1 5E24D5C0
P 1600 3100
F 0 "R10" V 1700 3250 50  0000 R CNN
F 1 "22" V 1700 3050 50  0000 R CNN
F 2 "Resistors_SMD:R_0805" H 1600 3100 50  0001 C CNN
F 3 "~" H 1600 3100 50  0001 C CNN
	1    1600 3100
	0    -1   -1   0   
$EndComp
$Comp
L Device:C_Small C9
U 1 1 5E24E86F
P 3100 3100
F 0 "C9" H 3192 3146 50  0000 L CNN
F 1 "1uF" H 3192 3055 50  0000 L CNN
F 2 "Capacitors_SMD:C_0805" H 3100 3100 50  0001 C CNN
F 3 "~" H 3100 3100 50  0001 C CNN
	1    3100 3100
	1    0    0    -1  
$EndComp
$Comp
L Device:R_Small R12
U 1 1 5E24EC69
P 3600 3100
F 0 "R12" H 3500 3050 50  0000 R CNN
F 1 "1K0" H 3500 3150 50  0000 R CNN
F 2 "Resistors_SMD:R_0805" H 3600 3100 50  0001 C CNN
F 3 "~" H 3600 3100 50  0001 C CNN
	1    3600 3100
	-1   0    0    1   
$EndComp
$Comp
L Device:LED_ALT D1
U 1 1 5E24F4CF
P 3600 3350
F 0 "D1" V 3639 3233 50  0000 R CNN
F 1 "Yellow" V 3548 3233 50  0000 R CNN
F 2 "LEDs:LED_1206" H 3600 3350 50  0001 C CNN
F 3 "~" H 3600 3350 50  0001 C CNN
	1    3600 3350
	0    -1   -1   0   
$EndComp
$Comp
L Device:R_Small R11
U 1 1 5E252DB7
P 1600 3200
F 0 "R11" V 1500 3350 50  0000 R CNN
F 1 "22" V 1500 3150 50  0000 R CNN
F 2 "Resistors_SMD:R_0805" H 1600 3200 50  0001 C CNN
F 3 "~" H 1600 3200 50  0001 C CNN
	1    1600 3200
	0    -1   -1   0   
$EndComp
Text GLabel 1850 3100 2    50   Input ~ 0
D+
Text GLabel 1850 3200 2    50   Input ~ 0
D-
Wire Wire Line
	1700 3100 1850 3100
Wire Wire Line
	1700 3200 1850 3200
Wire Wire Line
	1350 3100 1500 3100
Wire Wire Line
	1350 3200 1500 3200
Text GLabel 8950 2950 0    50   Input ~ 0
D+
Text GLabel 8950 3050 0    50   Input ~ 0
D-
Wire Wire Line
	8950 2950 9100 2950
Wire Wire Line
	8950 3050 9100 3050
Wire Wire Line
	1350 2900 2600 2900
Wire Wire Line
	3100 2900 3100 3000
Wire Wire Line
	2600 3000 2600 2900
Connection ~ 2600 2900
Wire Wire Line
	2600 2900 3100 2900
$Comp
L power:GND #PWR0109
U 1 1 5E269FF9
P 2600 3500
F 0 "#PWR0109" H 2600 3250 50  0001 C CNN
F 1 "GND" H 2605 3327 50  0000 C CNN
F 2 "" H 2600 3500 50  0001 C CNN
F 3 "" H 2600 3500 50  0001 C CNN
	1    2600 3500
	1    0    0    -1  
$EndComp
Wire Wire Line
	2600 3350 2600 3200
Wire Wire Line
	2600 3350 3100 3350
Wire Wire Line
	3100 3350 3100 3200
Connection ~ 2600 3350
Text GLabel 4150 2900 2    50   Input ~ 0
Vcc
Wire Wire Line
	3100 2900 3600 2900
Connection ~ 3100 2900
Wire Wire Line
	3600 3000 3600 2900
Connection ~ 3600 2900
Wire Wire Line
	3600 2900 4150 2900
$Comp
L power:GND #PWR0110
U 1 1 5E28937C
P 3600 3500
F 0 "#PWR0110" H 3600 3250 50  0001 C CNN
F 1 "GND" H 3605 3327 50  0000 C CNN
F 2 "" H 3600 3500 50  0001 C CNN
F 3 "" H 3600 3500 50  0001 C CNN
	1    3600 3500
	1    0    0    -1  
$EndComp
Wire Notes Line
	600  2600 4450 2600
Wire Notes Line
	4450 2600 4450 3850
Wire Notes Line
	4450 3850 600  3850
Wire Notes Line
	600  3850 600  2600
Text Notes 600  3950 0    50   ~ 0
USB Data & Power
Wire Notes Line
	5150 550  6750 550 
Wire Notes Line
	6750 550  6750 1900
Wire Notes Line
	6750 1900 5150 1900
Wire Notes Line
	5150 1900 5150 550 
Text Notes 5150 2000 0    50   ~ 0
Voltage Reference
$Comp
L power:GND #PWR0111
U 1 1 5E2BC097
P 9600 5500
F 0 "#PWR0111" H 9600 5250 50  0001 C CNN
F 1 "GND" H 9605 5327 50  0000 C CNN
F 2 "" H 9600 5500 50  0001 C CNN
F 3 "" H 9600 5500 50  0001 C CNN
	1    9600 5500
	1    0    0    -1  
$EndComp
Wire Wire Line
	9600 5250 9600 5400
Wire Wire Line
	9700 5250 9700 5400
Wire Wire Line
	9700 5400 9600 5400
Connection ~ 9600 5400
Wire Wire Line
	9600 5400 9600 5500
Text GLabel 9600 1150 1    50   Input ~ 0
Vcc
Wire Wire Line
	9600 1150 9600 1550
Wire Wire Line
	9600 1550 9700 1550
Wire Wire Line
	9800 1550 9800 1650
Connection ~ 9600 1550
Wire Wire Line
	9600 1550 9600 1650
Wire Wire Line
	9700 1550 9700 1650
Connection ~ 9700 1550
Wire Wire Line
	9700 1550 9800 1550
$Comp
L Device:C_Small C12
U 1 1 5E2C7BFD
P 10250 1050
F 0 "C12" V 10150 1100 50  0000 L CNN
F 1 "100nF" V 10150 800 50  0000 L CNN
F 2 "Capacitors_SMD:C_0805" H 10250 1050 50  0001 C CNN
F 3 "~" H 10250 1050 50  0001 C CNN
	1    10250 1050
	0    1    1    0   
$EndComp
$Comp
L Device:C_Small C13
U 1 1 5E2D12F5
P 10250 1300
F 0 "C13" V 10150 1350 50  0000 L CNN
F 1 "100nF" V 10150 1050 50  0000 L CNN
F 2 "Capacitors_SMD:C_0805" H 10250 1300 50  0001 C CNN
F 3 "~" H 10250 1300 50  0001 C CNN
	1    10250 1300
	0    1    1    0   
$EndComp
$Comp
L Device:C_Small C14
U 1 1 5E2D1637
P 10250 1550
F 0 "C14" V 10150 1600 50  0000 L CNN
F 1 "100nF" V 10150 1300 50  0000 L CNN
F 2 "Capacitors_SMD:C_0805" H 10250 1550 50  0001 C CNN
F 3 "~" H 10250 1550 50  0001 C CNN
	1    10250 1550
	0    1    1    0   
$EndComp
$Comp
L power:GND #PWR0112
U 1 1 5E2D65F8
P 10600 1300
F 0 "#PWR0112" H 10600 1050 50  0001 C CNN
F 1 "GND" V 10605 1172 50  0000 R CNN
F 2 "" H 10600 1300 50  0001 C CNN
F 3 "" H 10600 1300 50  0001 C CNN
	1    10600 1300
	0    -1   -1   0   
$EndComp
Wire Wire Line
	10350 1300 10500 1300
Wire Wire Line
	10350 1050 10500 1050
Wire Wire Line
	10500 1050 10500 1300
Connection ~ 10500 1300
Wire Wire Line
	10500 1300 10600 1300
Wire Wire Line
	10500 1300 10500 1550
Wire Wire Line
	10500 1550 10350 1550
Wire Wire Line
	10150 1550 9950 1550
Connection ~ 9800 1550
Wire Wire Line
	10150 1050 9950 1050
Wire Wire Line
	9950 1050 9950 1300
Connection ~ 9950 1550
Wire Wire Line
	9950 1550 9800 1550
Wire Wire Line
	9950 1300 10150 1300
Connection ~ 9950 1300
Wire Wire Line
	9950 1300 9950 1550
$Comp
L DigitalPowerMeter-rescue:ATmega32U4-AU-DigitalPowerMeter U3
U 1 1 5E2F53B2
P 9700 3450
F 0 "U3" H 9250 5200 50  0000 C CNN
F 1 "ATmega32U4-AU" V 9700 3450 50  0000 C CNN
F 2 "Housings_QFP:LQFP-44_10x10mm_Pitch0.8mm" H 9700 3450 50  0001 C CIN
F 3 "http://ww1.microchip.com/downloads/en/DeviceDoc/Atmel-7766-8-bit-AVR-ATmega16U4-32U4_Datasheet.pdf" H 9700 3450 50  0001 C CNN
	1    9700 3450
	1    0    0    -1  
$EndComp
Text GLabel 8500 800  1    50   Input ~ 0
Vcc
$Comp
L Device:R_Small R13
U 1 1 5E2FE71B
P 8500 1000
F 0 "R13" H 8400 950 50  0000 R CNN
F 1 "1K0" H 8400 1050 50  0000 R CNN
F 2 "Resistors_SMD:R_0805" H 8500 1000 50  0001 C CNN
F 3 "~" H 8500 1000 50  0001 C CNN
	1    8500 1000
	-1   0    0    1   
$EndComp
$Comp
L Switch:SW_Push SW1
U 1 1 5E2FF961
P 8500 1400
F 0 "SW1" V 8450 1700 50  0000 R CNN
F 1 "Reset" V 8350 1750 50  0000 R CNN
F 2 "DigitalPowerMeter:Switch" H 8500 1600 50  0001 C CNN
F 3 "~" H 8500 1600 50  0001 C CNN
	1    8500 1400
	0    -1   1    0   
$EndComp
$Comp
L power:GND #PWR0113
U 1 1 5E3059A9
P 8500 1650
F 0 "#PWR0113" H 8500 1400 50  0001 C CNN
F 1 "GND" H 8505 1477 50  0000 C CNN
F 2 "" H 8500 1650 50  0001 C CNN
F 3 "" H 8500 1650 50  0001 C CNN
	1    8500 1650
	1    0    0    -1  
$EndComp
Wire Wire Line
	8500 800  8500 900 
Wire Wire Line
	8500 1100 8500 1200
Wire Wire Line
	8500 1600 8500 1650
Text GLabel 8950 1200 2    50   Input ~ 0
RESET
Connection ~ 8500 1200
$Comp
L Device:Crystal Y1
U 1 1 5E316996
P 8500 2250
F 0 "Y1" V 8454 2381 50  0000 L CNN
F 1 "16Mhz" V 8545 2381 50  0000 L CNN
F 2 "Crystals:Crystal_SMD_0603-2pin_6.0x3.5mm" H 8500 2250 50  0001 C CNN
F 3 "~" H 8500 2250 50  0001 C CNN
	1    8500 2250
	0    1    1    0   
$EndComp
$Comp
L Device:C_Small C10
U 1 1 5E318B44
P 8100 2050
F 0 "C10" V 8000 2100 50  0000 L CNN
F 1 "22" V 8000 1900 50  0000 L CNN
F 2 "Capacitors_SMD:C_0805" H 8100 2050 50  0001 C CNN
F 3 "~" H 8100 2050 50  0001 C CNN
	1    8100 2050
	0    1    1    0   
$EndComp
$Comp
L Device:C_Small C11
U 1 1 5E318EB4
P 8100 2450
F 0 "C11" V 8000 2500 50  0000 L CNN
F 1 "22" V 8000 2300 50  0000 L CNN
F 2 "Capacitors_SMD:C_0805" H 8100 2450 50  0001 C CNN
F 3 "~" H 8100 2450 50  0001 C CNN
	1    8100 2450
	0    1    1    0   
$EndComp
Wire Wire Line
	8200 2050 8500 2050
Wire Wire Line
	8500 2050 8500 2100
Wire Wire Line
	8200 2450 8500 2450
Wire Wire Line
	8500 2450 8500 2400
Wire Wire Line
	8000 2050 7850 2050
Wire Wire Line
	7850 2050 7850 2250
Wire Wire Line
	7850 2450 8000 2450
$Comp
L power:GND #PWR0114
U 1 1 5E323A86
P 7650 2350
F 0 "#PWR0114" H 7650 2100 50  0001 C CNN
F 1 "GND" H 7655 2177 50  0000 C CNN
F 2 "" H 7650 2350 50  0001 C CNN
F 3 "" H 7650 2350 50  0001 C CNN
	1    7650 2350
	1    0    0    -1  
$EndComp
Wire Wire Line
	7850 2250 7650 2250
Wire Wire Line
	7650 2250 7650 2350
Connection ~ 7850 2250
Wire Wire Line
	7850 2250 7850 2450
Wire Wire Line
	8500 2050 8850 2050
Wire Wire Line
	8850 2050 8850 2150
Wire Wire Line
	8850 2150 9100 2150
Connection ~ 8500 2050
Wire Wire Line
	8500 2450 8850 2450
Wire Wire Line
	8850 2450 8850 2350
Wire Wire Line
	8850 2350 9100 2350
Connection ~ 8500 2450
Text GLabel 8950 2750 0    50   Input ~ 0
Vcc
Wire Wire Line
	9100 2750 8950 2750
$Comp
L Device:C_Small C18
U 1 1 5E3812E0
P 8750 3500
F 0 "C18" H 8842 3546 50  0000 L CNN
F 1 "1uF" H 8842 3455 50  0000 L CNN
F 2 "Capacitors_SMD:C_0805" H 8750 3500 50  0001 C CNN
F 3 "~" H 8750 3500 50  0001 C CNN
	1    8750 3500
	1    0    0    -1  
$EndComp
$Comp
L power:GND #PWR0115
U 1 1 5E3860D7
P 8750 4150
F 0 "#PWR0115" H 8750 3900 50  0001 C CNN
F 1 "GND" H 8755 3977 50  0000 C CNN
F 2 "" H 8750 4150 50  0001 C CNN
F 3 "" H 8750 4150 50  0001 C CNN
	1    8750 4150
	1    0    0    -1  
$EndComp
Wire Wire Line
	8750 3600 8750 3750
Wire Wire Line
	9000 4050 8750 4050
Connection ~ 8750 4050
Wire Wire Line
	8750 4050 8750 4150
Wire Wire Line
	9000 3900 8750 3900
Connection ~ 8750 3900
Wire Wire Line
	8750 3900 8750 4050
Wire Wire Line
	9000 3750 8750 3750
Connection ~ 8750 3750
Wire Wire Line
	8750 3750 8750 3900
$Comp
L Device:C_Small C16
U 1 1 5E398F62
P 8100 4850
F 0 "C16" H 8192 4896 50  0000 L CNN
F 1 "100nF" H 8192 4805 50  0000 L CNN
F 2 "Capacitors_SMD:C_0805" H 8100 4850 50  0001 C CNN
F 3 "~" H 8100 4850 50  0001 C CNN
	1    8100 4850
	1    0    0    -1  
$EndComp
$Comp
L Device:C_Small C17
U 1 1 5E399CE2
P 8550 4850
F 0 "C17" H 8642 4896 50  0000 L CNN
F 1 "100nF" H 8642 4805 50  0000 L CNN
F 2 "Capacitors_SMD:C_0805" H 8550 4850 50  0001 C CNN
F 3 "~" H 8550 4850 50  0001 C CNN
	1    8550 4850
	1    0    0    -1  
$EndComp
Wire Wire Line
	9000 4450 9000 4600
Text GLabel 8350 4400 1    50   Input ~ 0
Vcc
Wire Wire Line
	9000 4600 8550 4600
Wire Wire Line
	8350 4600 8350 4400
Connection ~ 9000 4600
Wire Wire Line
	8350 4600 8100 4600
Wire Wire Line
	8100 4600 8100 4750
Connection ~ 8350 4600
Wire Wire Line
	8550 4750 8550 4600
Connection ~ 8550 4600
Wire Wire Line
	8550 4600 8350 4600
$Comp
L power:GND #PWR0116
U 1 1 5E3CA015
P 8350 5200
F 0 "#PWR0116" H 8350 4950 50  0001 C CNN
F 1 "GND" H 8355 5027 50  0000 C CNN
F 2 "" H 8350 5200 50  0001 C CNN
F 3 "" H 8350 5200 50  0001 C CNN
	1    8350 5200
	1    0    0    -1  
$EndComp
Wire Wire Line
	8100 4950 8100 5100
Wire Wire Line
	8100 5100 8350 5100
Wire Wire Line
	8350 5100 8350 5200
Wire Wire Line
	8550 4950 8550 5100
Wire Wire Line
	8550 5100 8350 5100
Connection ~ 8350 5100
Wire Wire Line
	9100 3250 8750 3250
Wire Wire Line
	8750 3250 8750 3400
$Comp
L Device:C_Small C15
U 1 1 5E3F40BC
P 8050 3050
F 0 "C15" H 8142 3096 50  0000 L CNN
F 1 "100nF" H 8142 3005 50  0000 L CNN
F 2 "Capacitors_SMD:C_0805" H 8050 3050 50  0001 C CNN
F 3 "~" H 8050 3050 50  0001 C CNN
	1    8050 3050
	1    0    0    -1  
$EndComp
$Comp
L power:GND #PWR0117
U 1 1 5E3F4626
P 8050 3250
F 0 "#PWR0117" H 8050 3000 50  0001 C CNN
F 1 "GND" H 8055 3077 50  0000 C CNN
F 2 "" H 8050 3250 50  0001 C CNN
F 3 "" H 8050 3250 50  0001 C CNN
	1    8050 3250
	1    0    0    -1  
$EndComp
Wire Wire Line
	8400 2550 8400 2800
Wire Wire Line
	8400 2800 8050 2800
Wire Wire Line
	8400 2550 9100 2550
Wire Wire Line
	7750 2800 8050 2800
Connection ~ 8050 2800
Wire Wire Line
	8050 3150 8050 3250
Wire Wire Line
	8050 2800 8050 2950
Text GLabel 10500 1950 2    50   Input ~ 0
B0
Text GLabel 10500 2050 2    50   Input ~ 0
B1
Text GLabel 10500 2150 2    50   Input ~ 0
B2
Text GLabel 10500 2250 2    50   Input ~ 0
B3
Text GLabel 10500 2350 2    50   Input ~ 0
B4
Text GLabel 10500 2450 2    50   Input ~ 0
B5
Text GLabel 10500 2550 2    50   Input ~ 0
B6
Text GLabel 10500 2650 2    50   Input ~ 0
B7
Wire Wire Line
	10300 1950 10500 1950
Wire Wire Line
	10300 2050 10500 2050
Wire Wire Line
	10300 2150 10500 2150
Wire Wire Line
	10300 2250 10500 2250
Wire Wire Line
	10300 2350 10500 2350
Wire Wire Line
	10300 2450 10500 2450
Wire Wire Line
	10300 2550 10500 2550
Wire Wire Line
	10300 2650 10500 2650
Text GLabel 10500 2850 2    50   Input ~ 0
C6
Text GLabel 10500 2950 2    50   Input ~ 0
C7
Text GLabel 10500 3150 2    50   Input ~ 0
D0
Text GLabel 10500 3250 2    50   Input ~ 0
D1
Text GLabel 10500 3350 2    50   Input ~ 0
D2
Text GLabel 10500 3450 2    50   Input ~ 0
D3
Text GLabel 10500 3550 2    50   Input ~ 0
D4
Text GLabel 10500 3650 2    50   Input ~ 0
D5
Text GLabel 10500 3750 2    50   Input ~ 0
D6
Text GLabel 10500 3850 2    50   Input ~ 0
D7
Wire Wire Line
	10300 2850 10500 2850
Wire Wire Line
	10300 2950 10500 2950
Wire Wire Line
	10300 3150 10500 3150
Wire Wire Line
	10300 3250 10500 3250
Wire Wire Line
	10300 3350 10500 3350
Wire Wire Line
	10300 3450 10500 3450
Wire Wire Line
	10300 3550 10500 3550
Wire Wire Line
	10300 3650 10500 3650
Wire Wire Line
	10300 3750 10500 3750
Wire Wire Line
	10300 3850 10500 3850
Text GLabel 10500 4050 2    50   Input ~ 0
E2
Text GLabel 10500 4150 2    50   Input ~ 0
E6
Wire Wire Line
	10300 4050 10500 4050
Wire Wire Line
	10300 4150 10500 4150
Text GLabel 10500 4450 2    50   Input ~ 0
F1
Text GLabel 10500 4550 2    50   Input ~ 0
F4
Text GLabel 10500 4650 2    50   Input ~ 0
F5
Text GLabel 10500 4750 2    50   Input ~ 0
F6
Text GLabel 10500 4850 2    50   Input ~ 0
F7
Wire Wire Line
	10300 4350 10500 4350
Wire Wire Line
	10300 4450 10500 4450
Wire Wire Line
	10300 4550 10500 4550
Wire Wire Line
	10300 4650 10500 4650
Wire Wire Line
	10300 4750 10500 4750
Wire Wire Line
	10300 4850 10500 4850
Wire Notes Line
	7400 550  11050 550 
Wire Notes Line
	11050 550  11050 5850
Wire Notes Line
	11050 5850 7400 5850
Wire Notes Line
	7400 5850 7400 550 
Text Notes 7400 5950 0    50   ~ 0
Microcontroller
Wire Wire Line
	2600 3500 2600 3350
Wire Wire Line
	2650 1600 2650 1850
Wire Wire Line
	6100 1600 6100 1550
Text GLabel 1000 4950 0    50   Input ~ 0
B4
Wire Wire Line
	1000 4950 1200 4950
$Comp
L power:GND #PWR0118
U 1 1 5E43B745
P 1600 6200
F 0 "#PWR0118" H 1600 5950 50  0001 C CNN
F 1 "GND" H 1605 6027 50  0000 C CNN
F 2 "" H 1600 6200 50  0001 C CNN
F 3 "" H 1600 6200 50  0001 C CNN
	1    1600 6200
	1    0    0    -1  
$EndComp
Wire Wire Line
	1600 6150 1600 6200
$Comp
L Device:R_Small R16
U 1 1 5E45FF67
P 2600 6350
F 0 "R16" H 2500 6400 50  0000 R CNN
F 1 "10R" H 2500 6300 50  0000 R CNN
F 2 "Resistors_SMD:R_0805" H 2600 6350 50  0001 C CNN
F 3 "~" H 2600 6350 50  0001 C CNN
	1    2600 6350
	1    0    0    -1  
$EndComp
Wire Wire Line
	2600 6250 2600 6150
$Comp
L power:GND #PWR0119
U 1 1 5E468676
P 2600 6550
F 0 "#PWR0119" H 2600 6300 50  0001 C CNN
F 1 "GND" H 2605 6377 50  0000 C CNN
F 2 "" H 2600 6550 50  0001 C CNN
F 3 "" H 2600 6550 50  0001 C CNN
	1    2600 6550
	1    0    0    -1  
$EndComp
Wire Wire Line
	2600 6450 2600 6550
$Comp
L Device:R_Small R17
U 1 1 5E4703BD
P 3100 5950
F 0 "R17" V 3000 6000 50  0000 R CNN
F 1 "15K" V 3200 6000 50  0000 R CNN
F 2 "Resistors_SMD:R_0805" H 3100 5950 50  0001 C CNN
F 3 "~" H 3100 5950 50  0001 C CNN
	1    3100 5950
	0    1    1    0   
$EndComp
Wire Wire Line
	2900 5950 3000 5950
Text GLabel 1000 5150 0    50   Input ~ 0
B6
Wire Wire Line
	1000 5150 1200 5150
Text GLabel 1000 5050 0    50   Input ~ 0
B5
Wire Wire Line
	1200 5050 1000 5050
NoConn ~ 1200 5250
NoConn ~ 1200 5350
NoConn ~ 1200 5450
NoConn ~ 1200 5550
Text GLabel 1000 5650 0    50   Input ~ 0
B3
Text GLabel 1000 5750 0    50   Input ~ 0
B0
Text GLabel 1000 5850 0    50   Input ~ 0
B1
Text GLabel 1000 5950 0    50   Input ~ 0
B2
Wire Wire Line
	1000 5650 1200 5650
Wire Wire Line
	1000 5750 1200 5750
Wire Wire Line
	1200 5850 1000 5850
Wire Wire Line
	1000 5950 1200 5950
Text GLabel 1600 4550 1    50   Input ~ 0
Vcc
Wire Wire Line
	1600 4550 1600 4750
Text GLabel 2150 5750 2    50   Input ~ 0
Vcc
Wire Wire Line
	2600 5650 2600 5750
$Comp
L Device:CP1_Small C19
U 1 1 5E52604B
P 3000 5050
F 0 "C19" H 3091 5096 50  0000 L CNN
F 1 "10uF" H 3091 5005 50  0000 L CNN
F 2 "Capacitors_SMD:CP_Elec_6.3x5.8" H 3000 5050 50  0001 C CNN
F 3 "~" H 3000 5050 50  0001 C CNN
	1    3000 5050
	1    0    0    -1  
$EndComp
$Comp
L power:GND #PWR0120
U 1 1 5E526AB1
P 5650 5450
F 0 "#PWR0120" H 5650 5200 50  0001 C CNN
F 1 "GND" V 5650 5250 50  0000 C CNN
F 2 "" H 5650 5450 50  0001 C CNN
F 3 "" H 5650 5450 50  0001 C CNN
	1    5650 5450
	1    0    0    -1  
$EndComp
Wire Wire Line
	2000 5750 2150 5750
Wire Wire Line
	2000 5650 2600 5650
$Comp
L Device:R_Small R14
U 1 1 5E55C015
P 2800 5050
F 0 "R14" H 2750 5100 50  0000 R CNN
F 1 "10K" H 2750 5000 50  0000 R CNN
F 2 "Resistors_SMD:R_0805" H 2800 5050 50  0001 C CNN
F 3 "~" H 2800 5050 50  0001 C CNN
	1    2800 5050
	1    0    0    -1  
$EndComp
$Comp
L Device:R_Small R15
U 1 1 5E55CB56
P 2500 4850
F 0 "R15" V 2300 4900 50  0000 R CNN
F 1 "1K0" V 2400 4900 50  0000 R CNN
F 2 "Resistors_SMD:R_0805" H 2500 4850 50  0001 C CNN
F 3 "~" H 2500 4850 50  0001 C CNN
	1    2500 4850
	0    1    1    0   
$EndComp
Wire Wire Line
	2800 5150 2800 5250
Wire Wire Line
	2800 5250 2900 5250
Wire Wire Line
	3000 5250 3000 5150
$Comp
L power:GND #PWR0121
U 1 1 5E56650E
P 2900 5300
F 0 "#PWR0121" H 2900 5050 50  0001 C CNN
F 1 "GND" H 2905 5127 50  0000 C CNN
F 2 "" H 2900 5300 50  0001 C CNN
F 3 "" H 2900 5300 50  0001 C CNN
	1    2900 5300
	1    0    0    -1  
$EndComp
Wire Wire Line
	2900 5300 2900 5250
Connection ~ 2900 5250
Wire Wire Line
	2900 5250 3000 5250
Wire Wire Line
	3000 4850 3000 4950
Wire Wire Line
	2800 4950 2800 4850
Wire Wire Line
	2800 4850 3000 4850
Connection ~ 3000 4850
Wire Wire Line
	2150 4850 2150 5250
Wire Wire Line
	2150 5250 2000 5250
Text GLabel 5950 4850 2    50   Input ~ 0
D2
$Comp
L Device:C_Small C22
U 1 1 5E6369EB
P 5750 5100
F 0 "C22" V 5700 4900 50  0000 L CNN
F 1 "10nF" V 5600 4850 50  0000 L CNN
F 2 "Capacitors_SMD:C_0805" H 5750 5100 50  0001 C CNN
F 3 "~" H 5750 5100 50  0001 C CNN
	1    5750 5100
	0    -1   -1   0   
$EndComp
$Comp
L Device:C_Small C20
U 1 1 5E66365A
P 5100 5250
F 0 "C20" V 5000 5250 50  0000 L CNN
F 1 "10nF" V 4900 5250 50  0000 L CNN
F 2 "Capacitors_SMD:C_0805" H 5100 5250 50  0001 C CNN
F 3 "~" H 5100 5250 50  0001 C CNN
	1    5100 5250
	0    -1   -1   0   
$EndComp
$Comp
L Device:C_Small C21
U 1 1 5E6639E1
P 5300 5250
F 0 "C21" V 5200 5150 50  0000 L CNN
F 1 "10nF" V 5100 5100 50  0000 L CNN
F 2 "Capacitors_SMD:C_0805" H 5300 5250 50  0001 C CNN
F 3 "~" H 5300 5250 50  0001 C CNN
	1    5300 5250
	0    -1   -1   0   
$EndComp
$Comp
L power:GND #PWR0122
U 1 1 5E663CBA
P 5200 5450
F 0 "#PWR0122" H 5200 5200 50  0001 C CNN
F 1 "GND" V 5205 5322 50  0000 R CNN
F 2 "" H 5200 5450 50  0001 C CNN
F 3 "" H 5200 5450 50  0001 C CNN
	1    5200 5450
	1    0    0    -1  
$EndComp
Connection ~ 5200 5250
Text GLabel 5500 5650 3    50   Input ~ 0
D1
Text GLabel 4850 5250 0    50   Input ~ 0
D0
Text Notes 4150 6150 0    50   ~ 0
Rotary Encoder
Wire Notes Line
	600  4200 3850 4200
Wire Notes Line
	3850 4200 3850 6950
Wire Notes Line
	3850 6950 600  6950
Wire Notes Line
	600  6950 600  4200
Text Notes 600  7050 0    50   ~ 0
1602 LCD Display
Text GLabel 3400 4850 2    50   Input ~ 0
C6
Text GLabel 3450 5950 2    50   Input ~ 0
C7
Wire Wire Line
	3200 5950 3450 5950
Text GLabel 4700 6950 1    50   Input ~ 0
B7
Wire Wire Line
	4700 6950 4700 7100
NoConn ~ 4700 7100
Text GLabel 4900 6950 1    50   Input ~ 0
D3
Text GLabel 5000 6950 1    50   Input ~ 0
D4
Text GLabel 5100 6950 1    50   Input ~ 0
D5
Text GLabel 5200 6950 1    50   Input ~ 0
D6
Text GLabel 5300 6950 1    50   Input ~ 0
D7
Wire Wire Line
	4900 6950 4900 7100
Wire Wire Line
	5000 6950 5000 7100
Wire Wire Line
	5100 6950 5100 7100
Wire Wire Line
	5200 6950 5200 7100
Wire Wire Line
	5300 6950 5300 7100
NoConn ~ 4900 7100
NoConn ~ 5000 7100
NoConn ~ 5100 7100
NoConn ~ 5200 7100
NoConn ~ 5300 7100
Text GLabel 5500 6950 1    50   Input ~ 0
E2
Text GLabel 5600 6950 1    50   Input ~ 0
E6
Wire Wire Line
	5500 6950 5500 7100
Wire Wire Line
	5600 6950 5600 7100
NoConn ~ 5500 7100
NoConn ~ 5600 7100
Text GLabel 5800 6950 1    50   Input ~ 0
F1
Text GLabel 5900 6950 1    50   Input ~ 0
F4
Text GLabel 6000 6950 1    50   Input ~ 0
F5
Text GLabel 6100 6950 1    50   Input ~ 0
F6
Text GLabel 6200 6950 1    50   Input ~ 0
F7
Wire Wire Line
	5800 6950 5800 7100
Wire Wire Line
	5900 6950 5900 7100
Wire Wire Line
	6000 6950 6000 7100
Wire Wire Line
	6100 6950 6100 7100
Wire Wire Line
	6200 7100 6200 6950
NoConn ~ 5800 7100
NoConn ~ 5900 7100
NoConn ~ 6000 7100
NoConn ~ 6100 7100
NoConn ~ 6200 7100
Text GLabel 10500 4350 2    50   Input ~ 0
F0
Wire Notes Line
	4550 7300 4550 6650
Wire Notes Line
	4550 6650 6350 6650
Wire Notes Line
	6350 6650 6350 7300
Wire Notes Line
	6350 7300 4550 7300
Text Notes 5000 7400 2    50   ~ 0
Unused pins
Wire Wire Line
	3000 4850 3400 4850
Wire Wire Line
	2150 4850 2400 4850
Wire Wire Line
	2600 4850 2800 4850
Connection ~ 2800 4850
$Comp
L Device:CP1_Small C8
U 1 1 5E24E200
P 2600 3100
F 0 "C8" H 2691 3146 50  0000 L CNN
F 1 "10uF" H 2691 3055 50  0000 L CNN
F 2 "Capacitors_SMD:C_0805" H 2600 3100 50  0001 C CNN
F 3 "~" H 2600 3100 50  0001 C CNN
	1    2600 3100
	1    0    0    -1  
$EndComp
Wire Wire Line
	8500 1200 8750 1200
Wire Wire Line
	8750 1950 8750 1200
Wire Wire Line
	8750 1950 9100 1950
Connection ~ 8750 1200
Wire Wire Line
	8750 1200 8950 1200
Wire Notes Line
	6750 4200 6750 6050
Wire Notes Line
	6750 6050 4150 6050
Wire Notes Line
	4150 6050 4150 4200
$Comp
L Connector_Generic:Conn_01x05 J4
U 1 1 5E4DF8AB
P 5400 4600
F 0 "J4" V 5272 4880 50  0000 L CNN
F 1 "RE_Conn" V 5363 4880 50  0000 L CNN
F 2 "DigitalPowerMeter:Conn_RE_Switch" H 5400 4600 50  0001 C CNN
F 3 "~" H 5400 4600 50  0001 C CNN
	1    5400 4600
	0    -1   -1   0   
$EndComp
Wire Wire Line
	5200 5250 5200 5450
Wire Wire Line
	5400 4800 5400 5250
Wire Wire Line
	5200 5250 5200 5000
Wire Wire Line
	5200 5000 5300 5000
Wire Wire Line
	5300 5000 5300 4800
Wire Wire Line
	5000 4900 5200 4900
Wire Wire Line
	5200 4900 5200 4800
Wire Wire Line
	5000 4900 5000 5250
Wire Wire Line
	5500 4800 5500 5100
Wire Wire Line
	5500 5100 5650 5100
Wire Wire Line
	5650 5100 5650 5450
Connection ~ 5650 5100
Wire Wire Line
	5600 4800 5600 4850
Wire Wire Line
	5600 4850 5850 4850
Wire Wire Line
	5850 5100 5850 4850
Connection ~ 5850 4850
Wire Wire Line
	5850 4850 5950 4850
Wire Wire Line
	5400 5250 5500 5250
Connection ~ 5400 5250
Wire Wire Line
	4850 5250 5000 5250
Connection ~ 5000 5250
Wire Notes Line
	4150 4200 6750 4200
Wire Wire Line
	5500 5250 5500 5650
$Comp
L DigitalPowerMeter:PZT2222A Q1
U 1 1 5E544032
P 2700 5950
F 0 "Q1" H 2891 5996 50  0000 L CNN
F 1 "PZT2222A" H 2891 5905 50  0000 L CNN
F 2 "DigitalPowerMeter:SOT-23-2222A" H 2900 5875 50  0001 L CIN
F 3 "http://www.fairchildsemi.com/ds/PN/PN2222A.pdf" H 2700 5950 50  0001 L CNN
	1    2700 5950
	-1   0    0    -1  
$EndComp
$EndSCHEMATC
