(export (version "E")
  (design
    (source "/home/r-w/gitlab/kicad-projects/ESP32_Pico_D4_Breakout/ESP32_Pico_D4_Breakout.kicad_sch")
    (date "Sun 17 Sep 2023 10:09:56")
    (tool "Eeschema 7.0.7-7.0.7~ubuntu22.04.1")
    (sheet (number "1") (name "/") (tstamps "/")
      (title_block
        (title "ESP32-Pico-D4 Breakout")
        (company)
        (rev "1.0")
        (date "2023-09-16")
        (source "ESP32_Pico_D4_Breakout.kicad_sch")
        (comment (number "1") (value ""))
        (comment (number "2") (value ""))
        (comment (number "3") (value ""))
        (comment (number "4") (value ""))
        (comment (number "5") (value ""))
        (comment (number "6") (value ""))
        (comment (number "7") (value ""))
        (comment (number "8") (value ""))
        (comment (number "9") (value "")))))
  (components
    (comp (ref "C1")
      (value "10uF")
      (footprint "Capacitor_SMD:C_0805_2012Metric")
      (libsource (lib "Device") (part "C_Small") (description "Unpolarized capacitor, small symbol"))
      (property (name "Sheetname") (value ""))
      (property (name "Sheetfile") (value "ESP32_Pico_D4_Breakout.kicad_sch"))
      (property (name "ki_description") (value "Unpolarized capacitor, small symbol"))
      (property (name "ki_keywords") (value "capacitor cap"))
      (sheetpath (names "/") (tstamps "/"))
      (tstamps "ed0b62d8-889a-4396-ab1c-9fc11c7fccc9"))
    (comp (ref "C2")
      (value "10uF")
      (footprint "Capacitor_SMD:C_0805_2012Metric")
      (libsource (lib "Device") (part "C_Small") (description "Unpolarized capacitor, small symbol"))
      (property (name "Sheetname") (value ""))
      (property (name "Sheetfile") (value "ESP32_Pico_D4_Breakout.kicad_sch"))
      (property (name "ki_description") (value "Unpolarized capacitor, small symbol"))
      (property (name "ki_keywords") (value "capacitor cap"))
      (sheetpath (names "/") (tstamps "/"))
      (tstamps "032d409e-5230-4c96-a806-a3a5399c424c"))
    (comp (ref "C3")
      (value "1uF")
      (footprint "Capacitor_SMD:C_0805_2012Metric")
      (libsource (lib "Device") (part "C_Small") (description "Unpolarized capacitor, small symbol"))
      (property (name "Sheetname") (value ""))
      (property (name "Sheetfile") (value "ESP32_Pico_D4_Breakout.kicad_sch"))
      (property (name "ki_description") (value "Unpolarized capacitor, small symbol"))
      (property (name "ki_keywords") (value "capacitor cap"))
      (sheetpath (names "/") (tstamps "/"))
      (tstamps "eac97623-ee8f-417c-93ed-bd16bc57904e"))
    (comp (ref "C4")
      (value "1uF")
      (footprint "Capacitor_SMD:C_0805_2012Metric")
      (libsource (lib "Device") (part "C_Small") (description "Unpolarized capacitor, small symbol"))
      (property (name "Sheetname") (value ""))
      (property (name "Sheetfile") (value "ESP32_Pico_D4_Breakout.kicad_sch"))
      (property (name "ki_description") (value "Unpolarized capacitor, small symbol"))
      (property (name "ki_keywords") (value "capacitor cap"))
      (sheetpath (names "/") (tstamps "/"))
      (tstamps "426154ac-6eee-42eb-a86f-7444106105a4"))
    (comp (ref "C5")
      (value "1uF")
      (footprint "Capacitor_SMD:C_0805_2012Metric")
      (libsource (lib "Device") (part "C_Small") (description "Unpolarized capacitor, small symbol"))
      (property (name "Sheetname") (value ""))
      (property (name "Sheetfile") (value "ESP32_Pico_D4_Breakout.kicad_sch"))
      (property (name "ki_description") (value "Unpolarized capacitor, small symbol"))
      (property (name "ki_keywords") (value "capacitor cap"))
      (sheetpath (names "/") (tstamps "/"))
      (tstamps "8efa499e-3396-4fa7-9be8-ee39f569226c"))
    (comp (ref "C6")
      (value "1uF")
      (footprint "Capacitor_SMD:C_0805_2012Metric")
      (libsource (lib "Device") (part "C_Small") (description "Unpolarized capacitor, small symbol"))
      (property (name "Sheetname") (value ""))
      (property (name "Sheetfile") (value "ESP32_Pico_D4_Breakout.kicad_sch"))
      (property (name "ki_description") (value "Unpolarized capacitor, small symbol"))
      (property (name "ki_keywords") (value "capacitor cap"))
      (sheetpath (names "/") (tstamps "/"))
      (tstamps "59e7bb20-85d5-44ff-aa48-08a714dd477f"))
    (comp (ref "C7")
      (value "1uF")
      (footprint "Capacitor_SMD:C_0805_2012Metric")
      (libsource (lib "Device") (part "C_Small") (description "Unpolarized capacitor, small symbol"))
      (property (name "Sheetname") (value ""))
      (property (name "Sheetfile") (value "ESP32_Pico_D4_Breakout.kicad_sch"))
      (property (name "ki_description") (value "Unpolarized capacitor, small symbol"))
      (property (name "ki_keywords") (value "capacitor cap"))
      (sheetpath (names "/") (tstamps "/"))
      (tstamps "6b4db7f6-e0e5-4222-8920-81aee43b45f1"))
    (comp (ref "D1")
      (value "red")
      (footprint "LED_SMD:LED_0805_2012Metric_Pad1.15x1.40mm_HandSolder")
      (libsource (lib "Device") (part "LED") (description "Light emitting diode"))
      (property (name "Sheetname") (value ""))
      (property (name "Sheetfile") (value "ESP32_Pico_D4_Breakout.kicad_sch"))
      (property (name "ki_description") (value "Light emitting diode"))
      (property (name "ki_keywords") (value "LED diode"))
      (sheetpath (names "/") (tstamps "/"))
      (tstamps "5210b5e6-baa9-4364-aca9-3a2fac549860"))
    (comp (ref "J1")
      (value "Conn_01x19_Pin")
      (footprint "Global:Conn_1_19")
      (libsource (lib "Connector") (part "Conn_01x19_Pin") (description "Generic connector, single row, 01x19, script generated"))
      (property (name "Sheetname") (value ""))
      (property (name "Sheetfile") (value "ESP32_Pico_D4_Breakout.kicad_sch"))
      (property (name "ki_description") (value "Generic connector, single row, 01x19, script generated"))
      (property (name "ki_keywords") (value "connector"))
      (sheetpath (names "/") (tstamps "/"))
      (tstamps "81522ee7-1a28-42da-9868-85ac9d3e43de"))
    (comp (ref "J2")
      (value "Conn_01x19_Pin")
      (footprint "Global:Conn_1_19")
      (libsource (lib "Connector") (part "Conn_01x19_Pin") (description "Generic connector, single row, 01x19, script generated"))
      (property (name "Sheetname") (value ""))
      (property (name "Sheetfile") (value "ESP32_Pico_D4_Breakout.kicad_sch"))
      (property (name "ki_description") (value "Generic connector, single row, 01x19, script generated"))
      (property (name "ki_keywords") (value "connector"))
      (sheetpath (names "/") (tstamps "/"))
      (tstamps "673b728b-c7fb-443b-b497-4d30e04ab218"))
    (comp (ref "R1")
      (value "100K")
      (footprint "Resistor_SMD:R_0805_2012Metric_Pad1.20x1.40mm_HandSolder")
      (libsource (lib "Device") (part "R_Small") (description "Resistor, small symbol"))
      (property (name "Sheetname") (value ""))
      (property (name "Sheetfile") (value "ESP32_Pico_D4_Breakout.kicad_sch"))
      (property (name "ki_description") (value "Resistor, small symbol"))
      (property (name "ki_keywords") (value "R resistor"))
      (sheetpath (names "/") (tstamps "/"))
      (tstamps "3a31f608-b391-4ca3-9131-4bd6817fd639"))
    (comp (ref "R2")
      (value "10K")
      (footprint "Resistor_SMD:R_0805_2012Metric_Pad1.20x1.40mm_HandSolder")
      (libsource (lib "Device") (part "R_Small") (description "Resistor, small symbol"))
      (property (name "Sheetname") (value ""))
      (property (name "Sheetfile") (value "ESP32_Pico_D4_Breakout.kicad_sch"))
      (property (name "ki_description") (value "Resistor, small symbol"))
      (property (name "ki_keywords") (value "R resistor"))
      (sheetpath (names "/") (tstamps "/"))
      (tstamps "bacf72a1-c4d0-442f-8815-cc657b5aadf2"))
    (comp (ref "R3")
      (value "330")
      (footprint "Resistor_SMD:R_0805_2012Metric_Pad1.20x1.40mm_HandSolder")
      (libsource (lib "Device") (part "R_Small") (description "Resistor, small symbol"))
      (property (name "Sheetname") (value ""))
      (property (name "Sheetfile") (value "ESP32_Pico_D4_Breakout.kicad_sch"))
      (property (name "ki_description") (value "Resistor, small symbol"))
      (property (name "ki_keywords") (value "R resistor"))
      (sheetpath (names "/") (tstamps "/"))
      (tstamps "196b2ff8-44b3-49d9-a364-36f6a8c6e5db"))
    (comp (ref "SW1")
      (value "Reset")
      (footprint "Global:Switch_4x4")
      (libsource (lib "Switch") (part "SW_Push") (description "Push button switch, generic, two pins"))
      (property (name "Sheetname") (value ""))
      (property (name "Sheetfile") (value "ESP32_Pico_D4_Breakout.kicad_sch"))
      (property (name "ki_description") (value "Push button switch, generic, two pins"))
      (property (name "ki_keywords") (value "switch normally-open pushbutton push-button"))
      (sheetpath (names "/") (tstamps "/"))
      (tstamps "77cf4a95-ac1e-460e-a75b-7e5d9aedd6a6"))
    (comp (ref "SW2")
      (value "Boot")
      (footprint "Global:Switch_4x4")
      (libsource (lib "Switch") (part "SW_Push") (description "Push button switch, generic, two pins"))
      (property (name "Sheetname") (value ""))
      (property (name "Sheetfile") (value "ESP32_Pico_D4_Breakout.kicad_sch"))
      (property (name "ki_description") (value "Push button switch, generic, two pins"))
      (property (name "ki_keywords") (value "switch normally-open pushbutton push-button"))
      (sheetpath (names "/") (tstamps "/"))
      (tstamps "f0573313-287b-49f1-a9f2-7ba63da5fe9d"))
    (comp (ref "U1")
      (value "ESP32-PICO-D4")
      (footprint "Package_DFN_QFN:QFN-48-1EP_7x7mm_P0.5mm_EP5.3x5.3mm")
      (datasheet "https://www.espressif.com/sites/default/files/documentation/esp32-pico-d4_datasheet_en.pdf")
      (libsource (lib "RF_Module") (part "ESP32-PICO-D4") (description "RF Module, ESP32 SoC, Wi-Fi 802.11b/g/n, Bluetooth, BLE, 32-bit, 2.7-3.6V, external antenna, QFN-48"))
      (property (name "Sheetname") (value ""))
      (property (name "Sheetfile") (value "ESP32_Pico_D4_Breakout.kicad_sch"))
      (property (name "ki_description") (value "RF Module, ESP32 SoC, Wi-Fi 802.11b/g/n, Bluetooth, BLE, 32-bit, 2.7-3.6V, external antenna, QFN-48"))
      (property (name "ki_keywords") (value "RF Radio BT ESP ESP32 Espressif external antenna"))
      (sheetpath (names "/") (tstamps "/"))
      (tstamps "6423e54e-1172-4c08-8a2b-4b8ab1e858bb"))
    (comp (ref "U2")
      (value "SPX3819M5-L-3-3")
      (footprint "Package_TO_SOT_SMD:SOT-23-5")
      (datasheet "https://www.exar.com/content/document.ashx?id=22106&languageid=1033&type=Datasheet&partnumber=SPX3819&filename=SPX3819.pdf&part=SPX3819")
      (libsource (lib "Regulator_Linear") (part "SPX3819M5-L-3-3") (description "500mA Low drop-out regulator, Fixed Output 3.3V, SOT-23-5"))
      (property (name "Sheetname") (value ""))
      (property (name "Sheetfile") (value "ESP32_Pico_D4_Breakout.kicad_sch"))
      (property (name "ki_description") (value "500mA Low drop-out regulator, Fixed Output 3.3V, SOT-23-5"))
      (property (name "ki_keywords") (value "REGULATOR LDO 3.3V"))
      (sheetpath (names "/") (tstamps "/"))
      (tstamps "ed3a7626-63e2-462b-8dad-4f1a87634009"))
    (comp (ref "U3")
      (value "~")
      (footprint "Global:ESP32_PCB_Antenna")
      (libsource (lib "Global") (part "ESP_F_Antenna") (description ""))
      (property (name "Sheetname") (value ""))
      (property (name "Sheetfile") (value "ESP32_Pico_D4_Breakout.kicad_sch"))
      (sheetpath (names "/") (tstamps "/"))
      (tstamps "cd366207-439f-461a-aa3b-71926ba70fc3")))
  (libparts
    (libpart (lib "Connector") (part "Conn_01x19_Pin")
      (description "Generic connector, single row, 01x19, script generated")
      (docs "~")
      (footprints
        (fp "Connector*:*_1x??_*"))
      (fields
        (field (name "Reference") "J")
        (field (name "Value") "Conn_01x19_Pin")
        (field (name "Datasheet") "~"))
      (pins
        (pin (num "1") (name "Pin_1") (type "passive"))
        (pin (num "2") (name "Pin_2") (type "passive"))
        (pin (num "3") (name "Pin_3") (type "passive"))
        (pin (num "4") (name "Pin_4") (type "passive"))
        (pin (num "5") (name "Pin_5") (type "passive"))
        (pin (num "6") (name "Pin_6") (type "passive"))
        (pin (num "7") (name "Pin_7") (type "passive"))
        (pin (num "8") (name "Pin_8") (type "passive"))
        (pin (num "9") (name "Pin_9") (type "passive"))
        (pin (num "10") (name "Pin_10") (type "passive"))
        (pin (num "11") (name "Pin_11") (type "passive"))
        (pin (num "12") (name "Pin_12") (type "passive"))
        (pin (num "13") (name "Pin_13") (type "passive"))
        (pin (num "14") (name "Pin_14") (type "passive"))
        (pin (num "15") (name "Pin_15") (type "passive"))
        (pin (num "16") (name "Pin_16") (type "passive"))
        (pin (num "17") (name "Pin_17") (type "passive"))
        (pin (num "18") (name "Pin_18") (type "passive"))
        (pin (num "19") (name "Pin_19") (type "passive"))))
    (libpart (lib "Device") (part "C_Small")
      (description "Unpolarized capacitor, small symbol")
      (docs "~")
      (footprints
        (fp "C_*"))
      (fields
        (field (name "Reference") "C")
        (field (name "Value") "C_Small")
        (field (name "Datasheet") "~"))
      (pins
        (pin (num "1") (name "") (type "passive"))
        (pin (num "2") (name "") (type "passive"))))
    (libpart (lib "Device") (part "LED")
      (description "Light emitting diode")
      (docs "~")
      (footprints
        (fp "LED*")
        (fp "LED_SMD:*")
        (fp "LED_THT:*"))
      (fields
        (field (name "Reference") "D")
        (field (name "Value") "LED")
        (field (name "Datasheet") "~"))
      (pins
        (pin (num "1") (name "K") (type "passive"))
        (pin (num "2") (name "A") (type "passive"))))
    (libpart (lib "Device") (part "R_Small")
      (description "Resistor, small symbol")
      (docs "~")
      (footprints
        (fp "R_*"))
      (fields
        (field (name "Reference") "R")
        (field (name "Value") "R_Small")
        (field (name "Datasheet") "~"))
      (pins
        (pin (num "1") (name "") (type "passive"))
        (pin (num "2") (name "") (type "passive"))))
    (libpart (lib "Global") (part "ESP_F_Antenna")
      (fields
        (field (name "Reference") "U"))
      (pins
        (pin (num "1") (name "Ant") (type "input"))
        (pin (num "2") (name "GND") (type "bidirectional"))))
    (libpart (lib "RF_Module") (part "ESP32-PICO-D4")
      (description "RF Module, ESP32 SoC, Wi-Fi 802.11b/g/n, Bluetooth, BLE, 32-bit, 2.7-3.6V, external antenna, QFN-48")
      (docs "https://www.espressif.com/sites/default/files/documentation/esp32-pico-d4_datasheet_en.pdf")
      (footprints
        (fp "QFN*1EP*7x7mm*P0.5mm*"))
      (fields
        (field (name "Reference") "U")
        (field (name "Value") "ESP32-PICO-D4")
        (field (name "Footprint") "Package_DFN_QFN:QFN-48-1EP_7x7mm_P0.5mm_EP5.3x5.3mm")
        (field (name "Datasheet") "https://www.espressif.com/sites/default/files/documentation/esp32-pico-d4_datasheet_en.pdf"))
      (pins
        (pin (num "1") (name "VDDA") (type "power_in"))
        (pin (num "2") (name "LNA_IN") (type "bidirectional"))
        (pin (num "3") (name "VDDA3P3") (type "power_in"))
        (pin (num "4") (name "VDDA3P3") (type "passive"))
        (pin (num "5") (name "SENSOR_VP") (type "input"))
        (pin (num "6") (name "SENSOR_CAPP") (type "input"))
        (pin (num "7") (name "SENSOR_CAPN") (type "input"))
        (pin (num "8") (name "SENSOR_VN") (type "input"))
        (pin (num "9") (name "EN") (type "input"))
        (pin (num "10") (name "IO34") (type "input"))
        (pin (num "11") (name "IO35") (type "input"))
        (pin (num "12") (name "IO32") (type "bidirectional"))
        (pin (num "13") (name "IO33") (type "bidirectional"))
        (pin (num "14") (name "IO25") (type "bidirectional"))
        (pin (num "15") (name "IO26") (type "bidirectional"))
        (pin (num "16") (name "IO27") (type "bidirectional"))
        (pin (num "17") (name "IO14") (type "bidirectional"))
        (pin (num "18") (name "IO12") (type "bidirectional"))
        (pin (num "19") (name "VDD3P3_RTC") (type "power_in"))
        (pin (num "20") (name "IO13") (type "bidirectional"))
        (pin (num "21") (name "IO15") (type "bidirectional"))
        (pin (num "22") (name "IO2") (type "bidirectional"))
        (pin (num "23") (name "IO0") (type "bidirectional"))
        (pin (num "24") (name "IO4") (type "bidirectional"))
        (pin (num "25") (name "IO16") (type "bidirectional"))
        (pin (num "26") (name "VDD_SDIO") (type "power_out"))
        (pin (num "27") (name "IO17") (type "bidirectional"))
        (pin (num "28") (name "SD2/IO9") (type "bidirectional"))
        (pin (num "29") (name "SD3/IO10") (type "bidirectional"))
        (pin (num "30") (name "CMD") (type "bidirectional"))
        (pin (num "31") (name "CLK") (type "bidirectional"))
        (pin (num "32") (name "SD0") (type "bidirectional"))
        (pin (num "33") (name "SD1") (type "bidirectional"))
        (pin (num "34") (name "IO5") (type "bidirectional"))
        (pin (num "35") (name "IO18") (type "bidirectional"))
        (pin (num "36") (name "IO23") (type "bidirectional"))
        (pin (num "37") (name "VDD3P3_CPU") (type "power_in"))
        (pin (num "38") (name "IO19") (type "bidirectional"))
        (pin (num "39") (name "IO22") (type "bidirectional"))
        (pin (num "40") (name "U0RXD/IO3") (type "bidirectional"))
        (pin (num "41") (name "U0TXD/IO1") (type "bidirectional"))
        (pin (num "42") (name "IO21") (type "bidirectional"))
        (pin (num "43") (name "VDDA") (type "passive"))
        (pin (num "44") (name "XTAL_N_NC") (type "no_connect"))
        (pin (num "45") (name "XTAL_P_NC") (type "no_connect"))
        (pin (num "46") (name "VDDA") (type "passive"))
        (pin (num "47") (name "CAP2_NC") (type "no_connect"))
        (pin (num "48") (name "CAP1_NC") (type "no_connect"))
        (pin (num "49") (name "GND") (type "power_in"))))
    (libpart (lib "Regulator_Linear") (part "SPX3819M5-L-3-3")
      (description "500mA Low drop-out regulator, Fixed Output 3.3V, SOT-23-5")
      (docs "https://www.exar.com/content/document.ashx?id=22106&languageid=1033&type=Datasheet&partnumber=SPX3819&filename=SPX3819.pdf&part=SPX3819")
      (footprints
        (fp "SOT?23*"))
      (fields
        (field (name "Reference") "U")
        (field (name "Value") "SPX3819M5-L-3-3")
        (field (name "Footprint") "Package_TO_SOT_SMD:SOT-23-5")
        (field (name "Datasheet") "https://www.exar.com/content/document.ashx?id=22106&languageid=1033&type=Datasheet&partnumber=SPX3819&filename=SPX3819.pdf&part=SPX3819"))
      (pins
        (pin (num "1") (name "IN") (type "power_in"))
        (pin (num "2") (name "GND") (type "power_in"))
        (pin (num "3") (name "EN") (type "input"))
        (pin (num "4") (name "BP") (type "input"))
        (pin (num "5") (name "OUT") (type "power_out"))))
    (libpart (lib "Switch") (part "SW_Push")
      (description "Push button switch, generic, two pins")
      (docs "~")
      (fields
        (field (name "Reference") "SW")
        (field (name "Value") "SW_Push")
        (field (name "Datasheet") "~"))
      (pins
        (pin (num "1") (name "1") (type "passive"))
        (pin (num "2") (name "2") (type "passive")))))
  (libraries
    (library (logical "Connector")
      (uri "/usr/share/kicad/symbols//Connector.kicad_sym"))
    (library (logical "Device")
      (uri "/usr/share/kicad/symbols//Device.kicad_sym"))
    (library (logical "Global")
      (uri "/home/r-w/gitlab/Global.kicad_sym"))
    (library (logical "RF_Module")
      (uri "/usr/share/kicad/symbols//RF_Module.kicad_sym"))
    (library (logical "Regulator_Linear")
      (uri "/usr/share/kicad/symbols//Regulator_Linear.kicad_sym"))
    (library (logical "Switch")
      (uri "/usr/share/kicad/symbols//Switch.kicad_sym")))
  (nets
    (net (code "1") (name "3.3v")
      (node (ref "C2") (pin "2") (pintype "passive"))
      (node (ref "C3") (pin "2") (pintype "passive"))
      (node (ref "C4") (pin "2") (pintype "passive"))
      (node (ref "C5") (pin "2") (pintype "passive"))
      (node (ref "C6") (pin "2") (pintype "passive"))
      (node (ref "J2") (pin "19") (pinfunction "Pin_19") (pintype "passive"))
      (node (ref "R2") (pin "1") (pintype "passive"))
      (node (ref "R3") (pin "1") (pintype "passive"))
      (node (ref "U1") (pin "1") (pinfunction "VDDA") (pintype "power_in"))
      (node (ref "U1") (pin "19") (pinfunction "VDD3P3_RTC") (pintype "power_in"))
      (node (ref "U1") (pin "26") (pinfunction "VDD_SDIO") (pintype "power_out"))
      (node (ref "U1") (pin "3") (pinfunction "VDDA3P3") (pintype "power_in"))
      (node (ref "U1") (pin "37") (pinfunction "VDD3P3_CPU") (pintype "power_in"))
      (node (ref "U1") (pin "4") (pinfunction "VDDA3P3") (pintype "passive"))
      (node (ref "U1") (pin "43") (pinfunction "VDDA") (pintype "passive"))
      (node (ref "U1") (pin "46") (pinfunction "VDDA") (pintype "passive"))
      (node (ref "U2") (pin "5") (pinfunction "OUT") (pintype "power_out")))
    (net (code "2") (name "5v")
      (node (ref "C1") (pin "2") (pintype "passive"))
      (node (ref "J1") (pin "1") (pinfunction "Pin_1") (pintype "passive"))
      (node (ref "R1") (pin "2") (pintype "passive"))
      (node (ref "U2") (pin "1") (pinfunction "IN") (pintype "power_in")))
    (net (code "3") (name "CLK")
      (node (ref "U1") (pin "31") (pinfunction "CLK") (pintype "bidirectional")))
    (net (code "4") (name "CMD")
      (node (ref "U1") (pin "30") (pinfunction "CMD") (pintype "bidirectional")))
    (net (code "5") (name "EN")
      (node (ref "C7") (pin "2") (pintype "passive"))
      (node (ref "R2") (pin "2") (pintype "passive"))
      (node (ref "SW1") (pin "2") (pinfunction "2") (pintype "passive"))
      (node (ref "U1") (pin "9") (pinfunction "EN") (pintype "input")))
    (net (code "6") (name "GND")
      (node (ref "C1") (pin "1") (pintype "passive"))
      (node (ref "C2") (pin "1") (pintype "passive"))
      (node (ref "C3") (pin "1") (pintype "passive"))
      (node (ref "C4") (pin "1") (pintype "passive"))
      (node (ref "C5") (pin "1") (pintype "passive"))
      (node (ref "C6") (pin "1") (pintype "passive"))
      (node (ref "C7") (pin "1") (pintype "passive"))
      (node (ref "D1") (pin "1") (pinfunction "K") (pintype "passive"))
      (node (ref "J1") (pin "2") (pinfunction "Pin_2") (pintype "passive"))
      (node (ref "SW1") (pin "1") (pinfunction "1") (pintype "passive"))
      (node (ref "SW2") (pin "1") (pinfunction "1") (pintype "passive"))
      (node (ref "U1") (pin "49") (pinfunction "GND") (pintype "power_in"))
      (node (ref "U2") (pin "2") (pinfunction "GND") (pintype "power_in"))
      (node (ref "U3") (pin "2") (pinfunction "GND") (pintype "bidirectional")))
    (net (code "7") (name "IO0")
      (node (ref "SW2") (pin "2") (pinfunction "2") (pintype "passive"))
      (node (ref "U1") (pin "23") (pinfunction "IO0") (pintype "bidirectional")))
    (net (code "8") (name "IO2")
      (node (ref "U1") (pin "22") (pinfunction "IO2") (pintype "bidirectional")))
    (net (code "9") (name "IO4")
      (node (ref "U1") (pin "24") (pinfunction "IO4") (pintype "bidirectional")))
    (net (code "10") (name "IO5")
      (node (ref "U1") (pin "34") (pinfunction "IO5") (pintype "bidirectional")))
    (net (code "11") (name "IO9")
      (node (ref "U1") (pin "28") (pinfunction "SD2/IO9") (pintype "bidirectional")))
    (net (code "12") (name "IO10")
      (node (ref "U1") (pin "29") (pinfunction "SD3/IO10") (pintype "bidirectional")))
    (net (code "13") (name "IO12")
      (node (ref "U1") (pin "18") (pinfunction "IO12") (pintype "bidirectional")))
    (net (code "14") (name "IO13")
      (node (ref "U1") (pin "20") (pinfunction "IO13") (pintype "bidirectional")))
    (net (code "15") (name "IO14")
      (node (ref "U1") (pin "17") (pinfunction "IO14") (pintype "bidirectional")))
    (net (code "16") (name "IO15")
      (node (ref "U1") (pin "21") (pinfunction "IO15") (pintype "bidirectional")))
    (net (code "17") (name "IO16")
      (node (ref "U1") (pin "25") (pinfunction "IO16") (pintype "bidirectional")))
    (net (code "18") (name "IO17")
      (node (ref "U1") (pin "27") (pinfunction "IO17") (pintype "bidirectional")))
    (net (code "19") (name "IO18")
      (node (ref "U1") (pin "35") (pinfunction "IO18") (pintype "bidirectional")))
    (net (code "20") (name "IO19")
      (node (ref "U1") (pin "38") (pinfunction "IO19") (pintype "bidirectional")))
    (net (code "21") (name "IO21")
      (node (ref "U1") (pin "42") (pinfunction "IO21") (pintype "bidirectional")))
    (net (code "22") (name "IO22")
      (node (ref "U1") (pin "39") (pinfunction "IO22") (pintype "bidirectional")))
    (net (code "23") (name "IO23")
      (node (ref "U1") (pin "36") (pinfunction "IO23") (pintype "bidirectional")))
    (net (code "24") (name "IO25")
      (node (ref "U1") (pin "14") (pinfunction "IO25") (pintype "bidirectional")))
    (net (code "25") (name "IO26")
      (node (ref "U1") (pin "15") (pinfunction "IO26") (pintype "bidirectional")))
    (net (code "26") (name "IO27")
      (node (ref "U1") (pin "16") (pinfunction "IO27") (pintype "bidirectional")))
    (net (code "27") (name "IO32")
      (node (ref "U1") (pin "12") (pinfunction "IO32") (pintype "bidirectional")))
    (net (code "28") (name "IO33")
      (node (ref "U1") (pin "13") (pinfunction "IO33") (pintype "bidirectional")))
    (net (code "29") (name "IO34")
      (node (ref "U1") (pin "10") (pinfunction "IO34") (pintype "input")))
    (net (code "30") (name "IO35")
      (node (ref "U1") (pin "11") (pinfunction "IO35") (pintype "input")))
    (net (code "31") (name "Net-(D1-A)")
      (node (ref "D1") (pin "2") (pinfunction "A") (pintype "passive"))
      (node (ref "R3") (pin "2") (pintype "passive")))
    (net (code "32") (name "Net-(U1-LNA_IN)")
      (node (ref "U1") (pin "2") (pinfunction "LNA_IN") (pintype "bidirectional"))
      (node (ref "U3") (pin "1") (pinfunction "Ant") (pintype "input")))
    (net (code "33") (name "Net-(U2-EN)")
      (node (ref "R1") (pin "1") (pintype "passive"))
      (node (ref "U2") (pin "3") (pinfunction "EN") (pintype "input")))
    (net (code "34") (name "RX")
      (node (ref "U1") (pin "40") (pinfunction "U0RXD/IO3") (pintype "bidirectional")))
    (net (code "35") (name "SCN")
      (node (ref "U1") (pin "7") (pinfunction "SENSOR_CAPN") (pintype "input")))
    (net (code "36") (name "SCP")
      (node (ref "U1") (pin "6") (pinfunction "SENSOR_CAPP") (pintype "input")))
    (net (code "37") (name "SD0")
      (node (ref "U1") (pin "32") (pinfunction "SD0") (pintype "bidirectional")))
    (net (code "38") (name "SD1")
      (node (ref "U1") (pin "33") (pinfunction "SD1") (pintype "bidirectional")))
    (net (code "39") (name "SVN")
      (node (ref "U1") (pin "8") (pinfunction "SENSOR_VN") (pintype "input")))
    (net (code "40") (name "SVP")
      (node (ref "U1") (pin "5") (pinfunction "SENSOR_VP") (pintype "input")))
    (net (code "41") (name "TX")
      (node (ref "U1") (pin "41") (pinfunction "U0TXD/IO1") (pintype "bidirectional")))
    (net (code "42") (name "unconnected-(J1-Pin_3-Pad3)")
      (node (ref "J1") (pin "3") (pinfunction "Pin_3") (pintype "passive")))
    (net (code "43") (name "unconnected-(J1-Pin_4-Pad4)")
      (node (ref "J1") (pin "4") (pinfunction "Pin_4") (pintype "passive")))
    (net (code "44") (name "unconnected-(J1-Pin_5-Pad5)")
      (node (ref "J1") (pin "5") (pinfunction "Pin_5") (pintype "passive")))
    (net (code "45") (name "unconnected-(J1-Pin_6-Pad6)")
      (node (ref "J1") (pin "6") (pinfunction "Pin_6") (pintype "passive")))
    (net (code "46") (name "unconnected-(J1-Pin_7-Pad7)")
      (node (ref "J1") (pin "7") (pinfunction "Pin_7") (pintype "passive")))
    (net (code "47") (name "unconnected-(J1-Pin_8-Pad8)")
      (node (ref "J1") (pin "8") (pinfunction "Pin_8") (pintype "passive")))
    (net (code "48") (name "unconnected-(J1-Pin_9-Pad9)")
      (node (ref "J1") (pin "9") (pinfunction "Pin_9") (pintype "passive")))
    (net (code "49") (name "unconnected-(J1-Pin_10-Pad10)")
      (node (ref "J1") (pin "10") (pinfunction "Pin_10") (pintype "passive")))
    (net (code "50") (name "unconnected-(J1-Pin_11-Pad11)")
      (node (ref "J1") (pin "11") (pinfunction "Pin_11") (pintype "passive")))
    (net (code "51") (name "unconnected-(J1-Pin_12-Pad12)")
      (node (ref "J1") (pin "12") (pinfunction "Pin_12") (pintype "passive")))
    (net (code "52") (name "unconnected-(J1-Pin_13-Pad13)")
      (node (ref "J1") (pin "13") (pinfunction "Pin_13") (pintype "passive")))
    (net (code "53") (name "unconnected-(J1-Pin_14-Pad14)")
      (node (ref "J1") (pin "14") (pinfunction "Pin_14") (pintype "passive")))
    (net (code "54") (name "unconnected-(J1-Pin_15-Pad15)")
      (node (ref "J1") (pin "15") (pinfunction "Pin_15") (pintype "passive")))
    (net (code "55") (name "unconnected-(J1-Pin_16-Pad16)")
      (node (ref "J1") (pin "16") (pinfunction "Pin_16") (pintype "passive")))
    (net (code "56") (name "unconnected-(J1-Pin_17-Pad17)")
      (node (ref "J1") (pin "17") (pinfunction "Pin_17") (pintype "passive")))
    (net (code "57") (name "unconnected-(J1-Pin_18-Pad18)")
      (node (ref "J1") (pin "18") (pinfunction "Pin_18") (pintype "passive")))
    (net (code "58") (name "unconnected-(J1-Pin_19-Pad19)")
      (node (ref "J1") (pin "19") (pinfunction "Pin_19") (pintype "passive")))
    (net (code "59") (name "unconnected-(J2-Pin_1-Pad1)")
      (node (ref "J2") (pin "1") (pinfunction "Pin_1") (pintype "passive")))
    (net (code "60") (name "unconnected-(J2-Pin_2-Pad2)")
      (node (ref "J2") (pin "2") (pinfunction "Pin_2") (pintype "passive")))
    (net (code "61") (name "unconnected-(J2-Pin_3-Pad3)")
      (node (ref "J2") (pin "3") (pinfunction "Pin_3") (pintype "passive")))
    (net (code "62") (name "unconnected-(J2-Pin_4-Pad4)")
      (node (ref "J2") (pin "4") (pinfunction "Pin_4") (pintype "passive")))
    (net (code "63") (name "unconnected-(J2-Pin_5-Pad5)")
      (node (ref "J2") (pin "5") (pinfunction "Pin_5") (pintype "passive")))
    (net (code "64") (name "unconnected-(J2-Pin_6-Pad6)")
      (node (ref "J2") (pin "6") (pinfunction "Pin_6") (pintype "passive")))
    (net (code "65") (name "unconnected-(J2-Pin_7-Pad7)")
      (node (ref "J2") (pin "7") (pinfunction "Pin_7") (pintype "passive")))
    (net (code "66") (name "unconnected-(J2-Pin_8-Pad8)")
      (node (ref "J2") (pin "8") (pinfunction "Pin_8") (pintype "passive")))
    (net (code "67") (name "unconnected-(J2-Pin_9-Pad9)")
      (node (ref "J2") (pin "9") (pinfunction "Pin_9") (pintype "passive")))
    (net (code "68") (name "unconnected-(J2-Pin_10-Pad10)")
      (node (ref "J2") (pin "10") (pinfunction "Pin_10") (pintype "passive")))
    (net (code "69") (name "unconnected-(J2-Pin_11-Pad11)")
      (node (ref "J2") (pin "11") (pinfunction "Pin_11") (pintype "passive")))
    (net (code "70") (name "unconnected-(J2-Pin_12-Pad12)")
      (node (ref "J2") (pin "12") (pinfunction "Pin_12") (pintype "passive")))
    (net (code "71") (name "unconnected-(J2-Pin_13-Pad13)")
      (node (ref "J2") (pin "13") (pinfunction "Pin_13") (pintype "passive")))
    (net (code "72") (name "unconnected-(J2-Pin_14-Pad14)")
      (node (ref "J2") (pin "14") (pinfunction "Pin_14") (pintype "passive")))
    (net (code "73") (name "unconnected-(J2-Pin_15-Pad15)")
      (node (ref "J2") (pin "15") (pinfunction "Pin_15") (pintype "passive")))
    (net (code "74") (name "unconnected-(J2-Pin_16-Pad16)")
      (node (ref "J2") (pin "16") (pinfunction "Pin_16") (pintype "passive")))
    (net (code "75") (name "unconnected-(J2-Pin_17-Pad17)")
      (node (ref "J2") (pin "17") (pinfunction "Pin_17") (pintype "passive")))
    (net (code "76") (name "unconnected-(J2-Pin_18-Pad18)")
      (node (ref "J2") (pin "18") (pinfunction "Pin_18") (pintype "passive")))
    (net (code "77") (name "unconnected-(U1-CAP1_NC-Pad48)")
      (node (ref "U1") (pin "48") (pinfunction "CAP1_NC") (pintype "no_connect")))
    (net (code "78") (name "unconnected-(U1-CAP2_NC-Pad47)")
      (node (ref "U1") (pin "47") (pinfunction "CAP2_NC") (pintype "no_connect")))
    (net (code "79") (name "unconnected-(U1-XTAL_N_NC-Pad44)")
      (node (ref "U1") (pin "44") (pinfunction "XTAL_N_NC") (pintype "no_connect")))
    (net (code "80") (name "unconnected-(U1-XTAL_P_NC-Pad45)")
      (node (ref "U1") (pin "45") (pinfunction "XTAL_P_NC") (pintype "no_connect")))
    (net (code "81") (name "unconnected-(U2-BP-Pad4)")
      (node (ref "U2") (pin "4") (pinfunction "BP") (pintype "input+no_connect")))))