(kicad_sch (version 20211123) (generator eeschema)

  (uuid 8286c627-ef2d-4dc3-87c9-3d8d839247b8)

  (paper "A4")

  (title_block
    (title "Breakout board for an ESP-12E/F, 5v input")
    (date "2022-05-24")
    (rev "1.1")
  )

  (lib_symbols
    (symbol "Connector_Generic:Conn_01x09" (pin_names (offset 1.016) hide) (in_bom yes) (on_board yes)
      (property "Reference" "J" (id 0) (at 0 12.7 0)
        (effects (font (size 1.27 1.27)))
      )
      (property "Value" "Conn_01x09" (id 1) (at 0 -12.7 0)
        (effects (font (size 1.27 1.27)))
      )
      (property "Footprint" "" (id 2) (at 0 0 0)
        (effects (font (size 1.27 1.27)) hide)
      )
      (property "Datasheet" "~" (id 3) (at 0 0 0)
        (effects (font (size 1.27 1.27)) hide)
      )
      (property "ki_keywords" "connector" (id 4) (at 0 0 0)
        (effects (font (size 1.27 1.27)) hide)
      )
      (property "ki_description" "Generic connector, single row, 01x09, script generated (kicad-library-utils/schlib/autogen/connector/)" (id 5) (at 0 0 0)
        (effects (font (size 1.27 1.27)) hide)
      )
      (property "ki_fp_filters" "Connector*:*_1x??_*" (id 6) (at 0 0 0)
        (effects (font (size 1.27 1.27)) hide)
      )
      (symbol "Conn_01x09_1_1"
        (rectangle (start -1.27 -10.033) (end 0 -10.287)
          (stroke (width 0.1524) (type default) (color 0 0 0 0))
          (fill (type none))
        )
        (rectangle (start -1.27 -7.493) (end 0 -7.747)
          (stroke (width 0.1524) (type default) (color 0 0 0 0))
          (fill (type none))
        )
        (rectangle (start -1.27 -4.953) (end 0 -5.207)
          (stroke (width 0.1524) (type default) (color 0 0 0 0))
          (fill (type none))
        )
        (rectangle (start -1.27 -2.413) (end 0 -2.667)
          (stroke (width 0.1524) (type default) (color 0 0 0 0))
          (fill (type none))
        )
        (rectangle (start -1.27 0.127) (end 0 -0.127)
          (stroke (width 0.1524) (type default) (color 0 0 0 0))
          (fill (type none))
        )
        (rectangle (start -1.27 2.667) (end 0 2.413)
          (stroke (width 0.1524) (type default) (color 0 0 0 0))
          (fill (type none))
        )
        (rectangle (start -1.27 5.207) (end 0 4.953)
          (stroke (width 0.1524) (type default) (color 0 0 0 0))
          (fill (type none))
        )
        (rectangle (start -1.27 7.747) (end 0 7.493)
          (stroke (width 0.1524) (type default) (color 0 0 0 0))
          (fill (type none))
        )
        (rectangle (start -1.27 10.287) (end 0 10.033)
          (stroke (width 0.1524) (type default) (color 0 0 0 0))
          (fill (type none))
        )
        (rectangle (start -1.27 11.43) (end 1.27 -11.43)
          (stroke (width 0.254) (type default) (color 0 0 0 0))
          (fill (type background))
        )
        (pin passive line (at -5.08 10.16 0) (length 3.81)
          (name "Pin_1" (effects (font (size 1.27 1.27))))
          (number "1" (effects (font (size 1.27 1.27))))
        )
        (pin passive line (at -5.08 7.62 0) (length 3.81)
          (name "Pin_2" (effects (font (size 1.27 1.27))))
          (number "2" (effects (font (size 1.27 1.27))))
        )
        (pin passive line (at -5.08 5.08 0) (length 3.81)
          (name "Pin_3" (effects (font (size 1.27 1.27))))
          (number "3" (effects (font (size 1.27 1.27))))
        )
        (pin passive line (at -5.08 2.54 0) (length 3.81)
          (name "Pin_4" (effects (font (size 1.27 1.27))))
          (number "4" (effects (font (size 1.27 1.27))))
        )
        (pin passive line (at -5.08 0 0) (length 3.81)
          (name "Pin_5" (effects (font (size 1.27 1.27))))
          (number "5" (effects (font (size 1.27 1.27))))
        )
        (pin passive line (at -5.08 -2.54 0) (length 3.81)
          (name "Pin_6" (effects (font (size 1.27 1.27))))
          (number "6" (effects (font (size 1.27 1.27))))
        )
        (pin passive line (at -5.08 -5.08 0) (length 3.81)
          (name "Pin_7" (effects (font (size 1.27 1.27))))
          (number "7" (effects (font (size 1.27 1.27))))
        )
        (pin passive line (at -5.08 -7.62 0) (length 3.81)
          (name "Pin_8" (effects (font (size 1.27 1.27))))
          (number "8" (effects (font (size 1.27 1.27))))
        )
        (pin passive line (at -5.08 -10.16 0) (length 3.81)
          (name "Pin_9" (effects (font (size 1.27 1.27))))
          (number "9" (effects (font (size 1.27 1.27))))
        )
      )
    )
    (symbol "Device:C_Small" (pin_numbers hide) (pin_names (offset 0.254) hide) (in_bom yes) (on_board yes)
      (property "Reference" "C" (id 0) (at 0.254 1.778 0)
        (effects (font (size 1.27 1.27)) (justify left))
      )
      (property "Value" "C_Small" (id 1) (at 0.254 -2.032 0)
        (effects (font (size 1.27 1.27)) (justify left))
      )
      (property "Footprint" "" (id 2) (at 0 0 0)
        (effects (font (size 1.27 1.27)) hide)
      )
      (property "Datasheet" "~" (id 3) (at 0 0 0)
        (effects (font (size 1.27 1.27)) hide)
      )
      (property "ki_keywords" "capacitor cap" (id 4) (at 0 0 0)
        (effects (font (size 1.27 1.27)) hide)
      )
      (property "ki_description" "Unpolarized capacitor, small symbol" (id 5) (at 0 0 0)
        (effects (font (size 1.27 1.27)) hide)
      )
      (property "ki_fp_filters" "C_*" (id 6) (at 0 0 0)
        (effects (font (size 1.27 1.27)) hide)
      )
      (symbol "C_Small_0_1"
        (polyline
          (pts
            (xy -1.524 -0.508)
            (xy 1.524 -0.508)
          )
          (stroke (width 0.3302) (type default) (color 0 0 0 0))
          (fill (type none))
        )
        (polyline
          (pts
            (xy -1.524 0.508)
            (xy 1.524 0.508)
          )
          (stroke (width 0.3048) (type default) (color 0 0 0 0))
          (fill (type none))
        )
      )
      (symbol "C_Small_1_1"
        (pin passive line (at 0 2.54 270) (length 2.032)
          (name "~" (effects (font (size 1.27 1.27))))
          (number "1" (effects (font (size 1.27 1.27))))
        )
        (pin passive line (at 0 -2.54 90) (length 2.032)
          (name "~" (effects (font (size 1.27 1.27))))
          (number "2" (effects (font (size 1.27 1.27))))
        )
      )
    )
    (symbol "Device:R_Small" (pin_numbers hide) (pin_names (offset 0.254) hide) (in_bom yes) (on_board yes)
      (property "Reference" "R" (id 0) (at 0.762 0.508 0)
        (effects (font (size 1.27 1.27)) (justify left))
      )
      (property "Value" "R_Small" (id 1) (at 0.762 -1.016 0)
        (effects (font (size 1.27 1.27)) (justify left))
      )
      (property "Footprint" "" (id 2) (at 0 0 0)
        (effects (font (size 1.27 1.27)) hide)
      )
      (property "Datasheet" "~" (id 3) (at 0 0 0)
        (effects (font (size 1.27 1.27)) hide)
      )
      (property "ki_keywords" "R resistor" (id 4) (at 0 0 0)
        (effects (font (size 1.27 1.27)) hide)
      )
      (property "ki_description" "Resistor, small symbol" (id 5) (at 0 0 0)
        (effects (font (size 1.27 1.27)) hide)
      )
      (property "ki_fp_filters" "R_*" (id 6) (at 0 0 0)
        (effects (font (size 1.27 1.27)) hide)
      )
      (symbol "R_Small_0_1"
        (rectangle (start -0.762 1.778) (end 0.762 -1.778)
          (stroke (width 0.2032) (type default) (color 0 0 0 0))
          (fill (type none))
        )
      )
      (symbol "R_Small_1_1"
        (pin passive line (at 0 2.54 270) (length 0.762)
          (name "~" (effects (font (size 1.27 1.27))))
          (number "1" (effects (font (size 1.27 1.27))))
        )
        (pin passive line (at 0 -2.54 90) (length 0.762)
          (name "~" (effects (font (size 1.27 1.27))))
          (number "2" (effects (font (size 1.27 1.27))))
        )
      )
    )
    (symbol "RF_Module:ESP-12E" (in_bom yes) (on_board yes)
      (property "Reference" "U" (id 0) (at -12.7 19.05 0)
        (effects (font (size 1.27 1.27)) (justify left))
      )
      (property "Value" "ESP-12E" (id 1) (at 12.7 19.05 0)
        (effects (font (size 1.27 1.27)) (justify right))
      )
      (property "Footprint" "RF_Module:ESP-12E" (id 2) (at 0 0 0)
        (effects (font (size 1.27 1.27)) hide)
      )
      (property "Datasheet" "http://wiki.ai-thinker.com/_media/esp8266/esp8266_series_modules_user_manual_v1.1.pdf" (id 3) (at -8.89 2.54 0)
        (effects (font (size 1.27 1.27)) hide)
      )
      (property "ki_keywords" "802.11 Wi-Fi" (id 4) (at 0 0 0)
        (effects (font (size 1.27 1.27)) hide)
      )
      (property "ki_description" "802.11 b/g/n Wi-Fi Module" (id 5) (at 0 0 0)
        (effects (font (size 1.27 1.27)) hide)
      )
      (property "ki_fp_filters" "ESP?12*" (id 6) (at 0 0 0)
        (effects (font (size 1.27 1.27)) hide)
      )
      (symbol "ESP-12E_0_1"
        (rectangle (start -12.7 17.78) (end 12.7 -15.24)
          (stroke (width 0.254) (type default) (color 0 0 0 0))
          (fill (type background))
        )
      )
      (symbol "ESP-12E_1_1"
        (pin input line (at -15.24 15.24 0) (length 2.54)
          (name "~{RST}" (effects (font (size 1.27 1.27))))
          (number "1" (effects (font (size 1.27 1.27))))
        )
        (pin bidirectional line (at -15.24 -2.54 0) (length 2.54)
          (name "MISO" (effects (font (size 1.27 1.27))))
          (number "10" (effects (font (size 1.27 1.27))))
        )
        (pin bidirectional line (at -15.24 -5.08 0) (length 2.54)
          (name "GPIO9" (effects (font (size 1.27 1.27))))
          (number "11" (effects (font (size 1.27 1.27))))
        )
        (pin bidirectional line (at -15.24 -7.62 0) (length 2.54)
          (name "GPIO10" (effects (font (size 1.27 1.27))))
          (number "12" (effects (font (size 1.27 1.27))))
        )
        (pin bidirectional line (at -15.24 -10.16 0) (length 2.54)
          (name "MOSI" (effects (font (size 1.27 1.27))))
          (number "13" (effects (font (size 1.27 1.27))))
        )
        (pin bidirectional line (at -15.24 -12.7 0) (length 2.54)
          (name "SCLK" (effects (font (size 1.27 1.27))))
          (number "14" (effects (font (size 1.27 1.27))))
        )
        (pin power_in line (at 0 -17.78 90) (length 2.54)
          (name "GND" (effects (font (size 1.27 1.27))))
          (number "15" (effects (font (size 1.27 1.27))))
        )
        (pin bidirectional line (at 15.24 -7.62 180) (length 2.54)
          (name "GPIO15" (effects (font (size 1.27 1.27))))
          (number "16" (effects (font (size 1.27 1.27))))
        )
        (pin bidirectional line (at 15.24 10.16 180) (length 2.54)
          (name "GPIO2" (effects (font (size 1.27 1.27))))
          (number "17" (effects (font (size 1.27 1.27))))
        )
        (pin bidirectional line (at 15.24 15.24 180) (length 2.54)
          (name "GPIO0" (effects (font (size 1.27 1.27))))
          (number "18" (effects (font (size 1.27 1.27))))
        )
        (pin bidirectional line (at 15.24 5.08 180) (length 2.54)
          (name "GPIO4" (effects (font (size 1.27 1.27))))
          (number "19" (effects (font (size 1.27 1.27))))
        )
        (pin input line (at -15.24 5.08 0) (length 2.54)
          (name "ADC" (effects (font (size 1.27 1.27))))
          (number "2" (effects (font (size 1.27 1.27))))
        )
        (pin bidirectional line (at 15.24 2.54 180) (length 2.54)
          (name "GPIO5" (effects (font (size 1.27 1.27))))
          (number "20" (effects (font (size 1.27 1.27))))
        )
        (pin bidirectional line (at 15.24 7.62 180) (length 2.54)
          (name "GPIO3/RXD" (effects (font (size 1.27 1.27))))
          (number "21" (effects (font (size 1.27 1.27))))
        )
        (pin bidirectional line (at 15.24 12.7 180) (length 2.54)
          (name "GPIO1/TXD" (effects (font (size 1.27 1.27))))
          (number "22" (effects (font (size 1.27 1.27))))
        )
        (pin input line (at -15.24 10.16 0) (length 2.54)
          (name "EN" (effects (font (size 1.27 1.27))))
          (number "3" (effects (font (size 1.27 1.27))))
        )
        (pin bidirectional line (at 15.24 -10.16 180) (length 2.54)
          (name "GPIO16" (effects (font (size 1.27 1.27))))
          (number "4" (effects (font (size 1.27 1.27))))
        )
        (pin bidirectional line (at 15.24 -5.08 180) (length 2.54)
          (name "GPIO14" (effects (font (size 1.27 1.27))))
          (number "5" (effects (font (size 1.27 1.27))))
        )
        (pin bidirectional line (at 15.24 0 180) (length 2.54)
          (name "GPIO12" (effects (font (size 1.27 1.27))))
          (number "6" (effects (font (size 1.27 1.27))))
        )
        (pin bidirectional line (at 15.24 -2.54 180) (length 2.54)
          (name "GPIO13" (effects (font (size 1.27 1.27))))
          (number "7" (effects (font (size 1.27 1.27))))
        )
        (pin power_in line (at 0 20.32 270) (length 2.54)
          (name "VCC" (effects (font (size 1.27 1.27))))
          (number "8" (effects (font (size 1.27 1.27))))
        )
        (pin input line (at -15.24 0 0) (length 2.54)
          (name "CS0" (effects (font (size 1.27 1.27))))
          (number "9" (effects (font (size 1.27 1.27))))
        )
      )
    )
    (symbol "Regulator_Linear:SPX3819M5-L-3-3" (pin_names (offset 0.254)) (in_bom yes) (on_board yes)
      (property "Reference" "U" (id 0) (at -3.81 5.715 0)
        (effects (font (size 1.27 1.27)))
      )
      (property "Value" "SPX3819M5-L-3-3" (id 1) (at 0 5.715 0)
        (effects (font (size 1.27 1.27)) (justify left))
      )
      (property "Footprint" "Package_TO_SOT_SMD:SOT-23-5" (id 2) (at 0 8.255 0)
        (effects (font (size 1.27 1.27)) hide)
      )
      (property "Datasheet" "https://www.exar.com/content/document.ashx?id=22106&languageid=1033&type=Datasheet&partnumber=SPX3819&filename=SPX3819.pdf&part=SPX3819" (id 3) (at 0 0 0)
        (effects (font (size 1.27 1.27)) hide)
      )
      (property "ki_keywords" "REGULATOR LDO 3.3V" (id 4) (at 0 0 0)
        (effects (font (size 1.27 1.27)) hide)
      )
      (property "ki_description" "500mA Low drop-out regulator, Fixed Output 3.3V, SOT-23-5" (id 5) (at 0 0 0)
        (effects (font (size 1.27 1.27)) hide)
      )
      (property "ki_fp_filters" "SOT?23*" (id 6) (at 0 0 0)
        (effects (font (size 1.27 1.27)) hide)
      )
      (symbol "SPX3819M5-L-3-3_0_1"
        (rectangle (start -5.08 4.445) (end 5.08 -5.08)
          (stroke (width 0.254) (type default) (color 0 0 0 0))
          (fill (type background))
        )
      )
      (symbol "SPX3819M5-L-3-3_1_1"
        (pin power_in line (at -7.62 2.54 0) (length 2.54)
          (name "IN" (effects (font (size 1.27 1.27))))
          (number "1" (effects (font (size 1.27 1.27))))
        )
        (pin power_in line (at 0 -7.62 90) (length 2.54)
          (name "GND" (effects (font (size 1.27 1.27))))
          (number "2" (effects (font (size 1.27 1.27))))
        )
        (pin input line (at -7.62 0 0) (length 2.54)
          (name "EN" (effects (font (size 1.27 1.27))))
          (number "3" (effects (font (size 1.27 1.27))))
        )
        (pin input line (at 7.62 0 180) (length 2.54)
          (name "BP" (effects (font (size 1.27 1.27))))
          (number "4" (effects (font (size 1.27 1.27))))
        )
        (pin power_out line (at 7.62 2.54 180) (length 2.54)
          (name "OUT" (effects (font (size 1.27 1.27))))
          (number "5" (effects (font (size 1.27 1.27))))
        )
      )
    )
    (symbol "power:GND" (power) (pin_names (offset 0)) (in_bom yes) (on_board yes)
      (property "Reference" "#PWR" (id 0) (at 0 -6.35 0)
        (effects (font (size 1.27 1.27)) hide)
      )
      (property "Value" "GND" (id 1) (at 0 -3.81 0)
        (effects (font (size 1.27 1.27)))
      )
      (property "Footprint" "" (id 2) (at 0 0 0)
        (effects (font (size 1.27 1.27)) hide)
      )
      (property "Datasheet" "" (id 3) (at 0 0 0)
        (effects (font (size 1.27 1.27)) hide)
      )
      (property "ki_keywords" "power-flag" (id 4) (at 0 0 0)
        (effects (font (size 1.27 1.27)) hide)
      )
      (property "ki_description" "Power symbol creates a global label with name \"GND\" , ground" (id 5) (at 0 0 0)
        (effects (font (size 1.27 1.27)) hide)
      )
      (symbol "GND_0_1"
        (polyline
          (pts
            (xy 0 0)
            (xy 0 -1.27)
            (xy 1.27 -1.27)
            (xy 0 -2.54)
            (xy -1.27 -1.27)
            (xy 0 -1.27)
          )
          (stroke (width 0) (type default) (color 0 0 0 0))
          (fill (type none))
        )
      )
      (symbol "GND_1_1"
        (pin power_in line (at 0 0 270) (length 0) hide
          (name "GND" (effects (font (size 1.27 1.27))))
          (number "1" (effects (font (size 1.27 1.27))))
        )
      )
    )
    (symbol "power:PWR_FLAG" (power) (pin_numbers hide) (pin_names (offset 0) hide) (in_bom yes) (on_board yes)
      (property "Reference" "#FLG" (id 0) (at 0 1.905 0)
        (effects (font (size 1.27 1.27)) hide)
      )
      (property "Value" "PWR_FLAG" (id 1) (at 0 3.81 0)
        (effects (font (size 1.27 1.27)))
      )
      (property "Footprint" "" (id 2) (at 0 0 0)
        (effects (font (size 1.27 1.27)) hide)
      )
      (property "Datasheet" "~" (id 3) (at 0 0 0)
        (effects (font (size 1.27 1.27)) hide)
      )
      (property "ki_keywords" "power-flag" (id 4) (at 0 0 0)
        (effects (font (size 1.27 1.27)) hide)
      )
      (property "ki_description" "Special symbol for telling ERC where power comes from" (id 5) (at 0 0 0)
        (effects (font (size 1.27 1.27)) hide)
      )
      (symbol "PWR_FLAG_0_0"
        (pin power_out line (at 0 0 90) (length 0)
          (name "pwr" (effects (font (size 1.27 1.27))))
          (number "1" (effects (font (size 1.27 1.27))))
        )
      )
      (symbol "PWR_FLAG_0_1"
        (polyline
          (pts
            (xy 0 0)
            (xy 0 1.27)
            (xy -1.016 1.905)
            (xy 0 2.54)
            (xy 1.016 1.905)
            (xy 0 1.27)
          )
          (stroke (width 0) (type default) (color 0 0 0 0))
          (fill (type none))
        )
      )
    )
  )

  (junction (at 137.414 137.033) (diameter 0) (color 0 0 0 0)
    (uuid 05147568-d68e-4ff4-b38e-344434070444)
  )
  (junction (at 99.187 137.16) (diameter 0) (color 0 0 0 0)
    (uuid 123ef2d4-df35-4b90-b871-9c37fcd0cad9)
  )
  (junction (at 99.187 139.573) (diameter 0) (color 0 0 0 0)
    (uuid 9fcd9f93-f88e-478e-b8ce-e6953aa29d9a)
  )
  (junction (at 142.748 137.033) (diameter 0) (color 0 0 0 0)
    (uuid b73c423d-0fc5-452d-b79a-0eb12fdfbb3e)
  )
  (junction (at 142.748 147.193) (diameter 0) (color 0 0 0 0)
    (uuid c37570fa-3541-4de2-bddf-873ef67cb653)
  )

  (no_connect (at 128.016 139.573) (uuid 34454794-d393-48a1-bca6-2e8321ca888c))
  (no_connect (at 132.715 103.505) (uuid a6447d60-0de7-4c82-9a64-72998c9f6d5c))
  (no_connect (at 132.715 100.965) (uuid a6447d60-0de7-4c82-9a64-72998c9f6d5d))
  (no_connect (at 132.715 90.805) (uuid a6447d60-0de7-4c82-9a64-72998c9f6d5e))
  (no_connect (at 132.715 93.345) (uuid a6447d60-0de7-4c82-9a64-72998c9f6d5f))
  (no_connect (at 132.715 95.885) (uuid a6447d60-0de7-4c82-9a64-72998c9f6d60))
  (no_connect (at 132.715 98.425) (uuid a6447d60-0de7-4c82-9a64-72998c9f6d61))

  (wire (pts (xy 198.12 88.265) (xy 200.025 88.265))
    (stroke (width 0) (type default) (color 0 0 0 0))
    (uuid 00741b78-e1f2-47f5-9ec5-682c954e7e77)
  )
  (wire (pts (xy 198.12 85.725) (xy 200.025 85.725))
    (stroke (width 0) (type default) (color 0 0 0 0))
    (uuid 0325771c-e00b-4fa3-bbd1-cbae0bf36e14)
  )
  (wire (pts (xy 98.425 90.17) (xy 102.87 90.17))
    (stroke (width 0) (type default) (color 0 0 0 0))
    (uuid 08209590-274c-4ab5-b4a2-796aa95ddead)
  )
  (wire (pts (xy 128.016 137.033) (xy 137.414 137.033))
    (stroke (width 0) (type default) (color 0 0 0 0))
    (uuid 0b8ef7dd-ad77-48bc-ae67-91da8aa751c8)
  )
  (wire (pts (xy 98.425 100.33) (xy 102.87 100.33))
    (stroke (width 0) (type default) (color 0 0 0 0))
    (uuid 0d735845-78c9-4f3d-bfe3-958742c812c3)
  )
  (wire (pts (xy 98.425 80.01) (xy 102.87 80.01))
    (stroke (width 0) (type default) (color 0 0 0 0))
    (uuid 18bd4038-2207-4353-ba07-287e774f512f)
  )
  (wire (pts (xy 137.414 145.542) (xy 137.414 147.193))
    (stroke (width 0) (type default) (color 0 0 0 0))
    (uuid 1d203c3d-dc32-4df2-93b1-dacaf79738dc)
  )
  (wire (pts (xy 198.12 90.805) (xy 200.025 90.805))
    (stroke (width 0) (type default) (color 0 0 0 0))
    (uuid 288888a6-4ba4-4710-a5b9-fc5848f2604b)
  )
  (wire (pts (xy 198.12 100.965) (xy 200.025 100.965))
    (stroke (width 0) (type default) (color 0 0 0 0))
    (uuid 2cbc335f-fb60-477d-8827-a87baefe95cd)
  )
  (wire (pts (xy 99.187 147.066) (xy 99.187 148.463))
    (stroke (width 0) (type default) (color 0 0 0 0))
    (uuid 2dbab28f-17fe-492b-8d3c-d7f86eb169d5)
  )
  (wire (pts (xy 98.425 87.63) (xy 102.87 87.63))
    (stroke (width 0) (type default) (color 0 0 0 0))
    (uuid 3695e612-6705-4af7-bbee-18a72ebbd51f)
  )
  (wire (pts (xy 131.064 75.565) (xy 132.715 75.565))
    (stroke (width 0) (type default) (color 0 0 0 0))
    (uuid 36dbb246-0d7b-4a9c-8833-ee33ec4975c9)
  )
  (wire (pts (xy 198.12 80.645) (xy 200.025 80.645))
    (stroke (width 0) (type default) (color 0 0 0 0))
    (uuid 3760d22b-3ef9-4dc7-b087-c694293bd12c)
  )
  (wire (pts (xy 142.748 147.193) (xy 142.748 148.844))
    (stroke (width 0) (type default) (color 0 0 0 0))
    (uuid 39f30a8a-189a-4ad2-83cb-95ebbd3c2623)
  )
  (wire (pts (xy 163.195 100.965) (xy 165.735 100.965))
    (stroke (width 0) (type default) (color 0 0 0 0))
    (uuid 3ade656d-fc4f-4c80-ad65-21e244d458d8)
  )
  (wire (pts (xy 163.195 75.565) (xy 165.735 75.565))
    (stroke (width 0) (type default) (color 0 0 0 0))
    (uuid 3b6354d6-3a73-4427-8346-70cd40b53e88)
  )
  (wire (pts (xy 142.748 137.033) (xy 137.414 137.033))
    (stroke (width 0) (type default) (color 0 0 0 0))
    (uuid 3ba6841c-470b-453f-8faf-4225ebb1c304)
  )
  (wire (pts (xy 198.12 93.345) (xy 200.025 93.345))
    (stroke (width 0) (type default) (color 0 0 0 0))
    (uuid 41345b37-6c7a-42cb-9569-503896b9f412)
  )
  (wire (pts (xy 259.3848 135.0518) (xy 259.4102 136.779))
    (stroke (width 0) (type default) (color 0 0 0 0))
    (uuid 413b8471-19f7-494c-b0ac-62da12558dea)
  )
  (wire (pts (xy 98.425 95.25) (xy 102.87 95.25))
    (stroke (width 0) (type default) (color 0 0 0 0))
    (uuid 42955bba-f0d9-48c5-b5fa-60f9f774ccd4)
  )
  (wire (pts (xy 163.195 85.725) (xy 165.735 85.725))
    (stroke (width 0) (type default) (color 0 0 0 0))
    (uuid 4c9ac1db-b1a1-46bb-926a-24e43c725ed7)
  )
  (wire (pts (xy 163.195 95.885) (xy 165.735 95.885))
    (stroke (width 0) (type default) (color 0 0 0 0))
    (uuid 4f6b254d-683f-4421-917d-fcad3ee27169)
  )
  (wire (pts (xy 98.425 85.09) (xy 102.87 85.09))
    (stroke (width 0) (type default) (color 0 0 0 0))
    (uuid 546a0c72-0df2-45e4-87f6-4fc0589d99a3)
  )
  (wire (pts (xy 163.195 78.105) (xy 165.735 78.105))
    (stroke (width 0) (type default) (color 0 0 0 0))
    (uuid 586886e9-66fb-494e-9fa2-93b19914edc0)
  )
  (wire (pts (xy 163.195 88.265) (xy 165.735 88.265))
    (stroke (width 0) (type default) (color 0 0 0 0))
    (uuid 60d2aaca-7364-40ec-9b25-faa6ede5e78c)
  )
  (wire (pts (xy 142.748 145.542) (xy 142.748 147.193))
    (stroke (width 0) (type default) (color 0 0 0 0))
    (uuid 6237fa9b-03fa-4e96-bf32-008b6e13fc60)
  )
  (wire (pts (xy 163.195 83.185) (xy 165.735 83.185))
    (stroke (width 0) (type default) (color 0 0 0 0))
    (uuid 65da0125-f803-4b55-aa6f-dafe01db92d9)
  )
  (wire (pts (xy 198.12 83.185) (xy 200.025 83.185))
    (stroke (width 0) (type default) (color 0 0 0 0))
    (uuid 670ecca1-1a9d-482f-b166-045cdb55dfc3)
  )
  (wire (pts (xy 98.425 82.55) (xy 102.87 82.55))
    (stroke (width 0) (type default) (color 0 0 0 0))
    (uuid 673c2010-4188-4b93-99e0-71a043ce8605)
  )
  (wire (pts (xy 105.537 139.573) (xy 99.187 139.573))
    (stroke (width 0) (type default) (color 0 0 0 0))
    (uuid 6a25ce21-7db6-4e18-8e39-78a5cb727cfa)
  )
  (wire (pts (xy 112.776 137.033) (xy 99.187 137.033))
    (stroke (width 0) (type default) (color 0 0 0 0))
    (uuid 6dccbb01-e371-4583-8a1e-942d662c4c70)
  )
  (wire (pts (xy 198.12 98.425) (xy 200.025 98.425))
    (stroke (width 0) (type default) (color 0 0 0 0))
    (uuid 6f076c5f-6b05-4119-a45c-c6e6e4c73a53)
  )
  (wire (pts (xy 99.187 137.033) (xy 99.187 137.16))
    (stroke (width 0) (type default) (color 0 0 0 0))
    (uuid 70b8dc0f-a090-4a08-ba8b-7ffb38765b53)
  )
  (wire (pts (xy 163.195 90.805) (xy 165.735 90.805))
    (stroke (width 0) (type default) (color 0 0 0 0))
    (uuid 764e94c1-c7f7-43b1-9450-4fc01d78d9fc)
  )
  (wire (pts (xy 272.288 134.493) (xy 272.288 136.017))
    (stroke (width 0) (type default) (color 0 0 0 0))
    (uuid 7b7fccb0-48e0-439f-8dac-14ced85d4dfc)
  )
  (wire (pts (xy 147.955 68.961) (xy 147.955 70.485))
    (stroke (width 0) (type default) (color 0 0 0 0))
    (uuid 812c4979-0b25-44fb-a188-8f29363e962c)
  )
  (wire (pts (xy 137.414 137.033) (xy 137.414 140.462))
    (stroke (width 0) (type default) (color 0 0 0 0))
    (uuid 866dc5fb-8cc7-44ed-b593-4156c80d3778)
  )
  (wire (pts (xy 131.064 85.725) (xy 132.715 85.725))
    (stroke (width 0) (type default) (color 0 0 0 0))
    (uuid 8b82b497-9c37-46b5-a7b8-2e7376736495)
  )
  (wire (pts (xy 198.12 95.885) (xy 200.025 95.885))
    (stroke (width 0) (type default) (color 0 0 0 0))
    (uuid 8da8c06c-dab3-4697-a082-d93fc8d573e1)
  )
  (wire (pts (xy 137.414 147.193) (xy 142.748 147.193))
    (stroke (width 0) (type default) (color 0 0 0 0))
    (uuid 9066cf35-46d0-4a84-a918-af2624256429)
  )
  (wire (pts (xy 99.187 139.573) (xy 99.187 141.986))
    (stroke (width 0) (type default) (color 0 0 0 0))
    (uuid 958ff06a-2ffc-4f0c-bb2e-628a83ff7ac9)
  )
  (wire (pts (xy 99.187 137.16) (xy 99.187 139.573))
    (stroke (width 0) (type default) (color 0 0 0 0))
    (uuid a4259ff2-51d7-4ac1-bbfb-cb11b981bbc2)
  )
  (wire (pts (xy 98.425 92.71) (xy 102.87 92.71))
    (stroke (width 0) (type default) (color 0 0 0 0))
    (uuid a808f0b5-2709-4326-8832-b41482430da3)
  )
  (wire (pts (xy 163.195 93.345) (xy 165.735 93.345))
    (stroke (width 0) (type default) (color 0 0 0 0))
    (uuid aca0c188-5ca6-4eb3-90ae-fc1b361c2fba)
  )
  (wire (pts (xy 142.748 137.033) (xy 145.542 137.033))
    (stroke (width 0) (type default) (color 0 0 0 0))
    (uuid b2589545-327b-4623-a911-9a5d8c4281bc)
  )
  (wire (pts (xy 93.218 137.16) (xy 99.187 137.16))
    (stroke (width 0) (type default) (color 0 0 0 0))
    (uuid c3b3246d-4c2b-4365-8f2f-5fb91b9dbe4e)
  )
  (wire (pts (xy 110.617 139.573) (xy 112.776 139.573))
    (stroke (width 0) (type default) (color 0 0 0 0))
    (uuid d29453e6-a270-4606-92a7-5556c0863d0c)
  )
  (wire (pts (xy 142.748 140.462) (xy 142.748 137.033))
    (stroke (width 0) (type default) (color 0 0 0 0))
    (uuid d4a14589-758f-414a-8b43-a41d5ffa79a6)
  )
  (wire (pts (xy 98.425 97.79) (xy 102.87 97.79))
    (stroke (width 0) (type default) (color 0 0 0 0))
    (uuid db8290a7-5c88-4a9d-a97a-1920a89d3bb1)
  )
  (wire (pts (xy 120.396 147.193) (xy 120.396 148.463))
    (stroke (width 0) (type default) (color 0 0 0 0))
    (uuid df1fd38e-4c07-4b93-9c90-7f6c95ffcfa9)
  )
  (wire (pts (xy 163.195 98.425) (xy 165.735 98.425))
    (stroke (width 0) (type default) (color 0 0 0 0))
    (uuid e26948c1-f5c5-4f74-8c9e-c6c6d0448a8f)
  )
  (wire (pts (xy 131.064 80.645) (xy 132.715 80.645))
    (stroke (width 0) (type default) (color 0 0 0 0))
    (uuid eaff2463-fa5d-451b-b25c-db1cc6f1f7ee)
  )
  (wire (pts (xy 163.195 80.645) (xy 165.735 80.645))
    (stroke (width 0) (type default) (color 0 0 0 0))
    (uuid f48d3446-078a-4cc3-8323-bb9b7fb62f01)
  )
  (wire (pts (xy 147.955 108.585) (xy 147.955 109.728))
    (stroke (width 0) (type default) (color 0 0 0 0))
    (uuid f63a8c94-c12a-4d65-8fce-6393fec5d533)
  )

  (global_label "5v" (shape input) (at 272.288 136.017 270) (fields_autoplaced)
    (effects (font (size 1.27 1.27)) (justify right))
    (uuid 0d3af812-8245-40a8-91b0-a9f9ec85cd79)
    (property "Intersheet References" "${INTERSHEET_REFS}" (id 0) (at 272.2086 140.6072 90)
      (effects (font (size 1.27 1.27)) (justify right) hide)
    )
  )
  (global_label "D13" (shape input) (at 165.735 93.345 0) (fields_autoplaced)
    (effects (font (size 1.27 1.27)) (justify left))
    (uuid 133eab70-a456-4473-bf50-819eff4fea9f)
    (property "Intersheet References" "${INTERSHEET_REFS}" (id 0) (at 171.8371 93.2656 0)
      (effects (font (size 1.27 1.27)) (justify left) hide)
    )
  )
  (global_label "RST" (shape input) (at 102.87 80.01 0) (fields_autoplaced)
    (effects (font (size 1.27 1.27)) (justify left))
    (uuid 17afc496-47e3-452d-b882-d6e4adc387df)
    (property "Intersheet References" "${INTERSHEET_REFS}" (id 0) (at 108.7302 79.9306 0)
      (effects (font (size 1.27 1.27)) (justify left) hide)
    )
  )
  (global_label "3.3v" (shape input) (at 145.542 137.033 0) (fields_autoplaced)
    (effects (font (size 1.27 1.27)) (justify left))
    (uuid 1c46ee1d-8cd8-44ed-b03c-9a2c653ec6ae)
    (property "Intersheet References" "${INTERSHEET_REFS}" (id 0) (at 151.9465 136.9536 0)
      (effects (font (size 1.27 1.27)) (justify left) hide)
    )
  )
  (global_label "D5" (shape input) (at 198.12 85.725 180) (fields_autoplaced)
    (effects (font (size 1.27 1.27)) (justify right))
    (uuid 1e382d73-0384-49fd-830b-8192b7004d65)
    (property "Intersheet References" "${INTERSHEET_REFS}" (id 0) (at 193.2274 85.6456 0)
      (effects (font (size 1.27 1.27)) (justify right) hide)
    )
  )
  (global_label "D0" (shape input) (at 165.735 75.565 0) (fields_autoplaced)
    (effects (font (size 1.27 1.27)) (justify left))
    (uuid 23ae95c1-0dbd-4745-bcd0-37a898bca5c0)
    (property "Intersheet References" "${INTERSHEET_REFS}" (id 0) (at 170.6276 75.4856 0)
      (effects (font (size 1.27 1.27)) (justify left) hide)
    )
  )
  (global_label "D16" (shape input) (at 102.87 87.63 0) (fields_autoplaced)
    (effects (font (size 1.27 1.27)) (justify left))
    (uuid 2ed4e0f1-16b8-4ab7-8efb-69a4af1e3b8a)
    (property "Intersheet References" "${INTERSHEET_REFS}" (id 0) (at 108.9721 87.5506 0)
      (effects (font (size 1.27 1.27)) (justify left) hide)
    )
  )
  (global_label "TX{slash}D1" (shape input) (at 165.735 78.105 0) (fields_autoplaced)
    (effects (font (size 1.27 1.27)) (justify left))
    (uuid 2ff3eb07-2cae-4ced-9099-aadbeab4ce19)
    (property "Intersheet References" "${INTERSHEET_REFS}" (id 0) (at 174.1352 78.0256 0)
      (effects (font (size 1.27 1.27)) (justify left) hide)
    )
  )
  (global_label "D15" (shape input) (at 198.12 95.885 180) (fields_autoplaced)
    (effects (font (size 1.27 1.27)) (justify right))
    (uuid 47ed8ac7-b2e6-48c1-ac3b-1038249527eb)
    (property "Intersheet References" "${INTERSHEET_REFS}" (id 0) (at 192.0179 95.8056 0)
      (effects (font (size 1.27 1.27)) (justify right) hide)
    )
  )
  (global_label "3.3v" (shape input) (at 147.955 68.961 90) (fields_autoplaced)
    (effects (font (size 1.27 1.27)) (justify left))
    (uuid 5488d845-5bf2-4d95-b50d-ea66fabb47a2)
    (property "Intersheet References" "${INTERSHEET_REFS}" (id 0) (at 147.8756 62.5565 90)
      (effects (font (size 1.27 1.27)) (justify left) hide)
    )
  )
  (global_label "5v" (shape input) (at 198.12 100.965 180) (fields_autoplaced)
    (effects (font (size 1.27 1.27)) (justify right))
    (uuid 5547e75b-2cc1-4354-b8f5-d4a760c0af89)
    (property "Intersheet References" "${INTERSHEET_REFS}" (id 0) (at 193.5298 100.8856 0)
      (effects (font (size 1.27 1.27)) (justify right) hide)
    )
  )
  (global_label "D2" (shape input) (at 198.12 93.345 180) (fields_autoplaced)
    (effects (font (size 1.27 1.27)) (justify right))
    (uuid 5c752226-2346-4ad9-834b-adafec384107)
    (property "Intersheet References" "${INTERSHEET_REFS}" (id 0) (at 193.2274 93.2656 0)
      (effects (font (size 1.27 1.27)) (justify right) hide)
    )
  )
  (global_label "ADC" (shape input) (at 131.064 85.725 180) (fields_autoplaced)
    (effects (font (size 1.27 1.27)) (justify right))
    (uuid 643c7502-7f37-4b66-9a0f-ce55b0f93bb0)
    (property "Intersheet References" "${INTERSHEET_REFS}" (id 0) (at 125.0223 85.6456 0)
      (effects (font (size 1.27 1.27)) (justify right) hide)
    )
  )
  (global_label "GND" (shape input) (at 198.12 98.425 180) (fields_autoplaced)
    (effects (font (size 1.27 1.27)) (justify right))
    (uuid 6a86be30-d5f5-448d-a8e6-88b886be0668)
    (property "Intersheet References" "${INTERSHEET_REFS}" (id 0) (at 191.8364 98.3456 0)
      (effects (font (size 1.27 1.27)) (justify right) hide)
    )
  )
  (global_label "GND" (shape input) (at 147.955 109.728 270) (fields_autoplaced)
    (effects (font (size 1.27 1.27)) (justify right))
    (uuid 72ec0dd3-5eb0-4e26-9e7d-765ffc86165d)
    (property "Intersheet References" "${INTERSHEET_REFS}" (id 0) (at 147.8756 116.0116 90)
      (effects (font (size 1.27 1.27)) (justify right) hide)
    )
  )
  (global_label "RX{slash}D3" (shape input) (at 198.12 83.185 180) (fields_autoplaced)
    (effects (font (size 1.27 1.27)) (justify right))
    (uuid 7f58f743-07b5-431b-a7bc-c79fa09e927e)
    (property "Intersheet References" "${INTERSHEET_REFS}" (id 0) (at 189.4174 83.1056 0)
      (effects (font (size 1.27 1.27)) (justify right) hide)
    )
  )
  (global_label "RST" (shape input) (at 131.064 75.565 180) (fields_autoplaced)
    (effects (font (size 1.27 1.27)) (justify right))
    (uuid 87081a15-6df3-4035-9982-bf2e0b0bd572)
    (property "Intersheet References" "${INTERSHEET_REFS}" (id 0) (at 125.2038 75.4856 0)
      (effects (font (size 1.27 1.27)) (justify right) hide)
    )
  )
  (global_label "ADC" (shape input) (at 102.87 82.55 0) (fields_autoplaced)
    (effects (font (size 1.27 1.27)) (justify left))
    (uuid 8b1b399c-7974-4127-9238-d118aabc3bdd)
    (property "Intersheet References" "${INTERSHEET_REFS}" (id 0) (at 108.9117 82.4706 0)
      (effects (font (size 1.27 1.27)) (justify left) hide)
    )
  )
  (global_label "D15" (shape input) (at 165.735 98.425 0) (fields_autoplaced)
    (effects (font (size 1.27 1.27)) (justify left))
    (uuid 8dba626e-4e42-4323-97a7-ab39de1c2577)
    (property "Intersheet References" "${INTERSHEET_REFS}" (id 0) (at 171.8371 98.3456 0)
      (effects (font (size 1.27 1.27)) (justify left) hide)
    )
  )
  (global_label "EN" (shape input) (at 131.064 80.645 180) (fields_autoplaced)
    (effects (font (size 1.27 1.27)) (justify right))
    (uuid 93b03d26-4275-406e-b877-ca0122c50703)
    (property "Intersheet References" "${INTERSHEET_REFS}" (id 0) (at 126.1714 80.5656 0)
      (effects (font (size 1.27 1.27)) (justify right) hide)
    )
  )
  (global_label "D13" (shape input) (at 102.87 95.25 0) (fields_autoplaced)
    (effects (font (size 1.27 1.27)) (justify left))
    (uuid 974b8cd9-a1f3-42e4-82a2-fd730bb0e79a)
    (property "Intersheet References" "${INTERSHEET_REFS}" (id 0) (at 108.9721 95.1706 0)
      (effects (font (size 1.27 1.27)) (justify left) hide)
    )
  )
  (global_label "D12" (shape input) (at 102.87 92.71 0) (fields_autoplaced)
    (effects (font (size 1.27 1.27)) (justify left))
    (uuid 996dfe5a-d475-452b-9035-68c832a2b874)
    (property "Intersheet References" "${INTERSHEET_REFS}" (id 0) (at 108.9721 92.6306 0)
      (effects (font (size 1.27 1.27)) (justify left) hide)
    )
  )
  (global_label "RX{slash}D3" (shape input) (at 165.735 83.185 0) (fields_autoplaced)
    (effects (font (size 1.27 1.27)) (justify left))
    (uuid a5002256-dd8b-44d1-ae75-ac6cef4116e8)
    (property "Intersheet References" "${INTERSHEET_REFS}" (id 0) (at 174.4376 83.1056 0)
      (effects (font (size 1.27 1.27)) (justify left) hide)
    )
  )
  (global_label "EN" (shape input) (at 102.87 85.09 0) (fields_autoplaced)
    (effects (font (size 1.27 1.27)) (justify left))
    (uuid a8c6b1ee-2f53-46f4-a4b6-f4a0edde65c0)
    (property "Intersheet References" "${INTERSHEET_REFS}" (id 0) (at 107.7626 85.0106 0)
      (effects (font (size 1.27 1.27)) (justify left) hide)
    )
  )
  (global_label "D2" (shape input) (at 165.735 80.645 0) (fields_autoplaced)
    (effects (font (size 1.27 1.27)) (justify left))
    (uuid b2227840-cfe5-4a14-be7b-3e4659e32b8a)
    (property "Intersheet References" "${INTERSHEET_REFS}" (id 0) (at 170.6276 80.5656 0)
      (effects (font (size 1.27 1.27)) (justify left) hide)
    )
  )
  (global_label "D12" (shape input) (at 165.735 90.805 0) (fields_autoplaced)
    (effects (font (size 1.27 1.27)) (justify left))
    (uuid b914a4bb-5906-4983-a2a1-34d313ee3521)
    (property "Intersheet References" "${INTERSHEET_REFS}" (id 0) (at 171.8371 90.7256 0)
      (effects (font (size 1.27 1.27)) (justify left) hide)
    )
  )
  (global_label "D14" (shape input) (at 102.87 90.17 0) (fields_autoplaced)
    (effects (font (size 1.27 1.27)) (justify left))
    (uuid bd31049c-902c-4b95-81b1-dedeef67f0eb)
    (property "Intersheet References" "${INTERSHEET_REFS}" (id 0) (at 108.9721 90.0906 0)
      (effects (font (size 1.27 1.27)) (justify left) hide)
    )
  )
  (global_label "D14" (shape input) (at 165.735 95.885 0) (fields_autoplaced)
    (effects (font (size 1.27 1.27)) (justify left))
    (uuid c7844800-314a-49fc-a18c-a4227e016031)
    (property "Intersheet References" "${INTERSHEET_REFS}" (id 0) (at 171.8371 95.8056 0)
      (effects (font (size 1.27 1.27)) (justify left) hide)
    )
  )
  (global_label "TX{slash}D1" (shape input) (at 198.12 80.645 180) (fields_autoplaced)
    (effects (font (size 1.27 1.27)) (justify right))
    (uuid cccef9f4-b7c2-4ae4-8379-70053c23d625)
    (property "Intersheet References" "${INTERSHEET_REFS}" (id 0) (at 189.7198 80.5656 0)
      (effects (font (size 1.27 1.27)) (justify right) hide)
    )
  )
  (global_label "D4" (shape input) (at 198.12 88.265 180) (fields_autoplaced)
    (effects (font (size 1.27 1.27)) (justify right))
    (uuid cd941f02-0d87-4443-995e-7ca9ddf7ad3a)
    (property "Intersheet References" "${INTERSHEET_REFS}" (id 0) (at 193.2274 88.1856 0)
      (effects (font (size 1.27 1.27)) (justify right) hide)
    )
  )
  (global_label "3.3v" (shape input) (at 102.87 97.79 0) (fields_autoplaced)
    (effects (font (size 1.27 1.27)) (justify left))
    (uuid dd11ffcf-ef9c-4eb2-afe2-623e22b41493)
    (property "Intersheet References" "${INTERSHEET_REFS}" (id 0) (at 109.2745 97.7106 0)
      (effects (font (size 1.27 1.27)) (justify left) hide)
    )
  )
  (global_label "GND" (shape input) (at 102.87 100.33 0) (fields_autoplaced)
    (effects (font (size 1.27 1.27)) (justify left))
    (uuid ee3385a4-1512-40b5-a4fd-f520e9f48b2a)
    (property "Intersheet References" "${INTERSHEET_REFS}" (id 0) (at 109.1536 100.4094 0)
      (effects (font (size 1.27 1.27)) (justify left) hide)
    )
  )
  (global_label "5v" (shape input) (at 93.218 137.16 180) (fields_autoplaced)
    (effects (font (size 1.27 1.27)) (justify right))
    (uuid f63af665-9bc6-4372-8d7e-35f11b5f37a8)
    (property "Intersheet References" "${INTERSHEET_REFS}" (id 0) (at 88.6278 137.0806 0)
      (effects (font (size 1.27 1.27)) (justify right) hide)
    )
  )
  (global_label "D5" (shape input) (at 165.735 88.265 0) (fields_autoplaced)
    (effects (font (size 1.27 1.27)) (justify left))
    (uuid f7549f78-4dea-4504-80b6-48089f8acf43)
    (property "Intersheet References" "${INTERSHEET_REFS}" (id 0) (at 170.6276 88.1856 0)
      (effects (font (size 1.27 1.27)) (justify left) hide)
    )
  )
  (global_label "D4" (shape input) (at 165.735 85.725 0) (fields_autoplaced)
    (effects (font (size 1.27 1.27)) (justify left))
    (uuid f823095b-077d-44f9-a608-0057e4d11129)
    (property "Intersheet References" "${INTERSHEET_REFS}" (id 0) (at 170.6276 85.6456 0)
      (effects (font (size 1.27 1.27)) (justify left) hide)
    )
  )
  (global_label "D0" (shape input) (at 198.12 90.805 180) (fields_autoplaced)
    (effects (font (size 1.27 1.27)) (justify right))
    (uuid fe0faa1b-2013-4cb6-b0d3-22a7aca399db)
    (property "Intersheet References" "${INTERSHEET_REFS}" (id 0) (at 193.2274 90.7256 0)
      (effects (font (size 1.27 1.27)) (justify right) hide)
    )
  )
  (global_label "D16" (shape input) (at 165.735 100.965 0) (fields_autoplaced)
    (effects (font (size 1.27 1.27)) (justify left))
    (uuid ffcbd8ba-d84a-4252-8748-11f92b6c0143)
    (property "Intersheet References" "${INTERSHEET_REFS}" (id 0) (at 171.8371 100.8856 0)
      (effects (font (size 1.27 1.27)) (justify left) hide)
    )
  )

  (symbol (lib_id "power:GND") (at 259.4102 136.779 0) (unit 1)
    (in_bom yes) (on_board yes) (fields_autoplaced)
    (uuid 02a4e9c6-607b-4045-93bf-ae0dd751924c)
    (property "Reference" "#PWR0104" (id 0) (at 259.4102 143.129 0)
      (effects (font (size 1.27 1.27)) hide)
    )
    (property "Value" "GND" (id 1) (at 259.4102 141.986 0))
    (property "Footprint" "" (id 2) (at 259.4102 136.779 0)
      (effects (font (size 1.27 1.27)) hide)
    )
    (property "Datasheet" "" (id 3) (at 259.4102 136.779 0)
      (effects (font (size 1.27 1.27)) hide)
    )
    (pin "1" (uuid c7cfaad8-1b61-4a76-b76b-2e79a671f3a0))
  )

  (symbol (lib_id "power:PWR_FLAG") (at 259.3848 135.0518 0) (unit 1)
    (in_bom yes) (on_board yes) (fields_autoplaced)
    (uuid 18099cbe-46d4-4bdc-b398-0f145bac3b35)
    (property "Reference" "#FLG0102" (id 0) (at 259.3848 133.1468 0)
      (effects (font (size 1.27 1.27)) hide)
    )
    (property "Value" "PWR_FLAG" (id 1) (at 259.3848 129.54 0))
    (property "Footprint" "" (id 2) (at 259.3848 135.0518 0)
      (effects (font (size 1.27 1.27)) hide)
    )
    (property "Datasheet" "~" (id 3) (at 259.3848 135.0518 0)
      (effects (font (size 1.27 1.27)) hide)
    )
    (pin "1" (uuid a6490b7f-8c30-4276-a449-411a536ce0bf))
  )

  (symbol (lib_id "Device:C_Small") (at 99.187 144.526 0) (unit 1)
    (in_bom yes) (on_board yes)
    (uuid 24ccb924-98db-4d4f-b3dc-76ac867f85d0)
    (property "Reference" "C1" (id 0) (at 93.345 143.383 0)
      (effects (font (size 1.27 1.27)) (justify left))
    )
    (property "Value" "10uF" (id 1) (at 93.091 146.304 0)
      (effects (font (size 1.27 1.27)) (justify left))
    )
    (property "Footprint" "Capacitor_SMD:C_0805_2012Metric" (id 2) (at 99.187 144.526 0)
      (effects (font (size 1.27 1.27)) hide)
    )
    (property "Datasheet" "~" (id 3) (at 99.187 144.526 0)
      (effects (font (size 1.27 1.27)) hide)
    )
    (pin "1" (uuid c06c2a82-4a32-4bec-911f-5f59311dc665))
    (pin "2" (uuid 39110be1-18b5-4c3f-89d1-bd5e8c546179))
  )

  (symbol (lib_id "Device:C_Small") (at 137.414 143.002 0) (unit 1)
    (in_bom yes) (on_board yes)
    (uuid 73667752-1211-4d54-9520-aa786f3bf389)
    (property "Reference" "C2" (id 0) (at 131.445 142.113 0)
      (effects (font (size 1.27 1.27)) (justify left))
    )
    (property "Value" "10uF" (id 1) (at 130.81 144.78 0)
      (effects (font (size 1.27 1.27)) (justify left))
    )
    (property "Footprint" "Capacitor_SMD:C_0805_2012Metric" (id 2) (at 137.414 143.002 0)
      (effects (font (size 1.27 1.27)) hide)
    )
    (property "Datasheet" "~" (id 3) (at 137.414 143.002 0)
      (effects (font (size 1.27 1.27)) hide)
    )
    (pin "1" (uuid b9944d3e-e8e2-4ce9-a805-60068f10f106))
    (pin "2" (uuid f7e05bb9-26e8-4ecb-b71f-3ced69a5def2))
  )

  (symbol (lib_id "power:GND") (at 142.748 148.844 0) (unit 1)
    (in_bom yes) (on_board yes) (fields_autoplaced)
    (uuid 737b9d84-5158-4f0c-9b8d-c8a1b5928b21)
    (property "Reference" "#PWR0103" (id 0) (at 142.748 155.194 0)
      (effects (font (size 1.27 1.27)) hide)
    )
    (property "Value" "GND" (id 1) (at 142.748 154.051 0))
    (property "Footprint" "" (id 2) (at 142.748 148.844 0)
      (effects (font (size 1.27 1.27)) hide)
    )
    (property "Datasheet" "" (id 3) (at 142.748 148.844 0)
      (effects (font (size 1.27 1.27)) hide)
    )
    (pin "1" (uuid d278a3e6-fabc-48f1-ad17-c6fbd3c6e609))
  )

  (symbol (lib_id "RF_Module:ESP-12E") (at 147.955 90.805 0) (unit 1)
    (in_bom yes) (on_board yes)
    (uuid 7fef8204-884e-4a9c-a4e0-49e41c2209a9)
    (property "Reference" "U1" (id 0) (at 135.509 71.755 0)
      (effects (font (size 1.27 1.27)) (justify left))
    )
    (property "Value" "ESP-12E" (id 1) (at 143.129 89.154 0)
      (effects (font (size 1.27 1.27)) (justify left))
    )
    (property "Footprint" "RF_Module:ESP-12E" (id 2) (at 147.955 90.805 0)
      (effects (font (size 1.27 1.27)) hide)
    )
    (property "Datasheet" "http://wiki.ai-thinker.com/_media/esp8266/esp8266_series_modules_user_manual_v1.1.pdf" (id 3) (at 139.065 88.265 0)
      (effects (font (size 1.27 1.27)) hide)
    )
    (pin "1" (uuid 96587b43-236a-4386-a5bb-88c317bc300e))
    (pin "10" (uuid 58dfc1d7-d5e9-4586-9132-a71acfb2e1d5))
    (pin "11" (uuid 1e65638b-67b1-4349-bcc3-ab47c92c15b2))
    (pin "12" (uuid b002de1a-8149-447c-828b-49585138046f))
    (pin "13" (uuid ea74955e-6f45-4f69-bbaa-44305679d55b))
    (pin "14" (uuid 060fd24b-0d78-4608-b765-e2020e078b09))
    (pin "15" (uuid 0c888d49-0b78-4298-a4f3-eed1585b5b39))
    (pin "16" (uuid b5c3761a-f47d-41aa-98ef-6d4c736cd8bd))
    (pin "17" (uuid b6469a59-97d8-4252-bf3a-6d5ed0d0f8ab))
    (pin "18" (uuid 0c336c2a-2f5d-406f-b059-7ce17fe9c0c9))
    (pin "19" (uuid e362b44b-e65a-4dbe-ba94-055c0976f2a0))
    (pin "2" (uuid e233c608-9110-4cb6-a51c-37739da5095a))
    (pin "20" (uuid 5ce8bf9b-aec8-4d47-8ef0-3f0a03d51818))
    (pin "21" (uuid 21d839c3-395b-40be-96f4-d04f2d8f72d2))
    (pin "22" (uuid a74b2b59-7967-4437-af9f-ab54e7851c6a))
    (pin "3" (uuid 2a300044-1bbd-473f-a4b0-25919ea953c4))
    (pin "4" (uuid b087f0e4-3548-46fe-be92-87a802368d80))
    (pin "5" (uuid df1eab61-788f-464e-b68d-e48881a0cbd9))
    (pin "6" (uuid bc50d64c-7b91-4e7c-8f6e-b133cf5cb84c))
    (pin "7" (uuid 3f001b27-105d-4d45-9de0-225b8f1059e2))
    (pin "8" (uuid 4c517672-9b4c-4341-b7b5-35eeafe27b1a))
    (pin "9" (uuid 92941927-671a-4289-8117-d2691359c50d))
  )

  (symbol (lib_id "Connector_Generic:Conn_01x09") (at 205.105 90.805 0) (unit 1)
    (in_bom yes) (on_board yes)
    (uuid 9f173208-6401-4cdd-8a7e-1e54c9c12dc6)
    (property "Reference" "J2" (id 0) (at 199.39 73.66 0)
      (effects (font (size 1.27 1.27)) (justify left))
    )
    (property "Value" "Conn_01x09" (id 1) (at 199.39 76.2 0)
      (effects (font (size 1.27 1.27)) (justify left))
    )
    (property "Footprint" "Global:Conn_1x9" (id 2) (at 205.105 90.805 0)
      (effects (font (size 1.27 1.27)) hide)
    )
    (property "Datasheet" "~" (id 3) (at 205.105 90.805 0)
      (effects (font (size 1.27 1.27)) hide)
    )
    (pin "1" (uuid 478e7e51-d9b7-46e4-8d83-b055805e49d7))
    (pin "2" (uuid 970ac6d5-4efb-46d9-9ba0-ac6a247ed97b))
    (pin "3" (uuid 6a4015d8-ef59-4a5b-ba16-34eb529960e5))
    (pin "4" (uuid d3b26c5c-906b-4801-9eaf-9e9b67e36f28))
    (pin "5" (uuid d32ef6e1-5ef8-49df-821b-9d121a619326))
    (pin "6" (uuid f1d84059-ad4c-4cfd-bfed-1ca88e61b7d2))
    (pin "7" (uuid c9861fb3-143e-4ad5-9744-c2e29b48cc5d))
    (pin "8" (uuid 3df44d49-f5e9-4339-9cef-7757713748ef))
    (pin "9" (uuid 247a1049-daf5-46b0-86c8-e3945b94c610))
  )

  (symbol (lib_id "Connector_Generic:Conn_01x09") (at 93.345 90.17 180) (unit 1)
    (in_bom yes) (on_board yes) (fields_autoplaced)
    (uuid b51f6278-a4d5-4d0b-8bc2-4a75331e40d5)
    (property "Reference" "J1" (id 0) (at 93.345 73.66 0))
    (property "Value" "Conn_01x09" (id 1) (at 93.345 76.2 0))
    (property "Footprint" "Global:Conn_1x9" (id 2) (at 93.345 90.17 0)
      (effects (font (size 1.27 1.27)) hide)
    )
    (property "Datasheet" "~" (id 3) (at 93.345 90.17 0)
      (effects (font (size 1.27 1.27)) hide)
    )
    (pin "1" (uuid 7fccd081-24a0-4d64-a674-e4f39a95e853))
    (pin "2" (uuid 513986e6-02fe-4667-becf-531aaf4496b4))
    (pin "3" (uuid c494d2f0-8ece-4a3f-920e-329eb564f1d1))
    (pin "4" (uuid 9d514ff2-202a-44ef-8605-0ebf7dc40c7a))
    (pin "5" (uuid f23994e3-8809-47f9-baba-ecaf72e4ca9d))
    (pin "6" (uuid 6e651516-d2c7-4b37-a4a8-2479103f7ef1))
    (pin "7" (uuid 9c5d94f7-8f84-4e16-ad54-64f803f791de))
    (pin "8" (uuid d8467c4d-2328-4c08-9a65-191822ee3259))
    (pin "9" (uuid b41eece8-0cd6-4cf4-9456-0e92b59145a9))
  )

  (symbol (lib_id "power:PWR_FLAG") (at 272.288 134.493 0) (unit 1)
    (in_bom yes) (on_board yes) (fields_autoplaced)
    (uuid b725723e-3bee-4204-b2b0-a844515abebd)
    (property "Reference" "#FLG0101" (id 0) (at 272.288 132.588 0)
      (effects (font (size 1.27 1.27)) hide)
    )
    (property "Value" "PWR_FLAG" (id 1) (at 272.288 129.794 0))
    (property "Footprint" "" (id 2) (at 272.288 134.493 0)
      (effects (font (size 1.27 1.27)) hide)
    )
    (property "Datasheet" "~" (id 3) (at 272.288 134.493 0)
      (effects (font (size 1.27 1.27)) hide)
    )
    (pin "1" (uuid 670ed447-0962-4937-9810-9516633ff046))
  )

  (symbol (lib_id "Device:R_Small") (at 108.077 139.573 90) (unit 1)
    (in_bom yes) (on_board yes)
    (uuid c6e147db-d6d8-4f46-9910-9aa09a61d2d0)
    (property "Reference" "R1" (id 0) (at 109.728 141.859 90))
    (property "Value" "100K" (id 1) (at 105.41 141.859 90))
    (property "Footprint" "Resistor_SMD:R_0805_2012Metric" (id 2) (at 108.077 139.573 0)
      (effects (font (size 1.27 1.27)) hide)
    )
    (property "Datasheet" "~" (id 3) (at 108.077 139.573 0)
      (effects (font (size 1.27 1.27)) hide)
    )
    (pin "1" (uuid 18022f65-e9d6-48b2-be88-6f518dda0a5a))
    (pin "2" (uuid 6d162c7d-f703-4601-8c15-1b5550fbb0d8))
  )

  (symbol (lib_id "power:GND") (at 99.187 148.463 0) (unit 1)
    (in_bom yes) (on_board yes) (fields_autoplaced)
    (uuid c6fd550b-56b6-49f8-9704-f679668d71fe)
    (property "Reference" "#PWR0102" (id 0) (at 99.187 154.813 0)
      (effects (font (size 1.27 1.27)) hide)
    )
    (property "Value" "GND" (id 1) (at 99.187 153.67 0))
    (property "Footprint" "" (id 2) (at 99.187 148.463 0)
      (effects (font (size 1.27 1.27)) hide)
    )
    (property "Datasheet" "" (id 3) (at 99.187 148.463 0)
      (effects (font (size 1.27 1.27)) hide)
    )
    (pin "1" (uuid 9d905fe5-ba0b-4bbe-8edd-f2314c88d0dc))
  )

  (symbol (lib_id "Device:C_Small") (at 142.748 143.002 0) (unit 1)
    (in_bom yes) (on_board yes)
    (uuid de5c7c0b-b888-44fb-9da8-13195eb46ae0)
    (property "Reference" "C3" (id 0) (at 145.669 141.986 0)
      (effects (font (size 1.27 1.27)) (justify left))
    )
    (property "Value" "1uF" (id 1) (at 145.669 144.907 0)
      (effects (font (size 1.27 1.27)) (justify left))
    )
    (property "Footprint" "Capacitor_SMD:C_0805_2012Metric" (id 2) (at 142.748 143.002 0)
      (effects (font (size 1.27 1.27)) hide)
    )
    (property "Datasheet" "~" (id 3) (at 142.748 143.002 0)
      (effects (font (size 1.27 1.27)) hide)
    )
    (pin "1" (uuid 5f592154-02ae-4238-8024-4cc09b159644))
    (pin "2" (uuid 62768b33-894f-48cc-84a8-bcc02ff92087))
  )

  (symbol (lib_id "power:GND") (at 120.396 148.463 0) (unit 1)
    (in_bom yes) (on_board yes) (fields_autoplaced)
    (uuid e03f2f37-bea7-455c-bc67-128ac2df788b)
    (property "Reference" "#PWR0101" (id 0) (at 120.396 154.813 0)
      (effects (font (size 1.27 1.27)) hide)
    )
    (property "Value" "GND" (id 1) (at 120.396 153.67 0))
    (property "Footprint" "" (id 2) (at 120.396 148.463 0)
      (effects (font (size 1.27 1.27)) hide)
    )
    (property "Datasheet" "" (id 3) (at 120.396 148.463 0)
      (effects (font (size 1.27 1.27)) hide)
    )
    (pin "1" (uuid fdb8929b-e350-4000-be5c-3dd2977b031c))
  )

  (symbol (lib_id "Regulator_Linear:SPX3819M5-L-3-3") (at 120.396 139.573 0) (unit 1)
    (in_bom yes) (on_board yes)
    (uuid f60d7d21-7423-44d9-a47e-c996501f7d69)
    (property "Reference" "U2" (id 0) (at 116.459 133.858 0))
    (property "Value" "SPX3819M5-L-3-3" (id 1) (at 120.7262 131.5466 0))
    (property "Footprint" "Package_TO_SOT_SMD:SOT-23-5" (id 2) (at 120.396 131.318 0)
      (effects (font (size 1.27 1.27)) hide)
    )
    (property "Datasheet" "https://www.exar.com/content/document.ashx?id=22106&languageid=1033&type=Datasheet&partnumber=SPX3819&filename=SPX3819.pdf&part=SPX3819" (id 3) (at 120.396 139.573 0)
      (effects (font (size 1.27 1.27)) hide)
    )
    (pin "1" (uuid 31c7b749-873a-4526-8796-01c98ab1c50a))
    (pin "2" (uuid d48d88b4-3991-428f-8120-e7858ac086c2))
    (pin "3" (uuid e8c23d9b-6cb0-467d-a74d-84183baf8cb0))
    (pin "4" (uuid 2f0ae6c9-2682-4aab-aaf9-3c0e30a26172))
    (pin "5" (uuid 7b9bb9fc-99df-4c82-aea7-af75dd8d0b58))
  )

  (sheet_instances
    (path "/" (page "1"))
  )

  (symbol_instances
    (path "/b725723e-3bee-4204-b2b0-a844515abebd"
      (reference "#FLG0101") (unit 1) (value "PWR_FLAG") (footprint "")
    )
    (path "/18099cbe-46d4-4bdc-b398-0f145bac3b35"
      (reference "#FLG0102") (unit 1) (value "PWR_FLAG") (footprint "")
    )
    (path "/e03f2f37-bea7-455c-bc67-128ac2df788b"
      (reference "#PWR0101") (unit 1) (value "GND") (footprint "")
    )
    (path "/c6fd550b-56b6-49f8-9704-f679668d71fe"
      (reference "#PWR0102") (unit 1) (value "GND") (footprint "")
    )
    (path "/737b9d84-5158-4f0c-9b8d-c8a1b5928b21"
      (reference "#PWR0103") (unit 1) (value "GND") (footprint "")
    )
    (path "/02a4e9c6-607b-4045-93bf-ae0dd751924c"
      (reference "#PWR0104") (unit 1) (value "GND") (footprint "")
    )
    (path "/24ccb924-98db-4d4f-b3dc-76ac867f85d0"
      (reference "C1") (unit 1) (value "10uF") (footprint "Capacitor_SMD:C_0805_2012Metric")
    )
    (path "/73667752-1211-4d54-9520-aa786f3bf389"
      (reference "C2") (unit 1) (value "10uF") (footprint "Capacitor_SMD:C_0805_2012Metric")
    )
    (path "/de5c7c0b-b888-44fb-9da8-13195eb46ae0"
      (reference "C3") (unit 1) (value "1uF") (footprint "Capacitor_SMD:C_0805_2012Metric")
    )
    (path "/b51f6278-a4d5-4d0b-8bc2-4a75331e40d5"
      (reference "J1") (unit 1) (value "Conn_01x09") (footprint "Global:Conn_1x9")
    )
    (path "/9f173208-6401-4cdd-8a7e-1e54c9c12dc6"
      (reference "J2") (unit 1) (value "Conn_01x09") (footprint "Global:Conn_1x9")
    )
    (path "/c6e147db-d6d8-4f46-9910-9aa09a61d2d0"
      (reference "R1") (unit 1) (value "100K") (footprint "Resistor_SMD:R_0805_2012Metric")
    )
    (path "/7fef8204-884e-4a9c-a4e0-49e41c2209a9"
      (reference "U1") (unit 1) (value "ESP-12E") (footprint "RF_Module:ESP-12E")
    )
    (path "/f60d7d21-7423-44d9-a47e-c996501f7d69"
      (reference "U2") (unit 1) (value "SPX3819M5-L-3-3") (footprint "Package_TO_SOT_SMD:SOT-23-5")
    )
  )
)
