(kicad_pcb (version 20221018) (generator pcbnew)

  (general
    (thickness 1.6)
  )

  (paper "A4")
  (layers
    (0 "F.Cu" signal)
    (31 "B.Cu" signal)
    (32 "B.Adhes" user "B.Adhesive")
    (33 "F.Adhes" user "F.Adhesive")
    (34 "B.Paste" user)
    (35 "F.Paste" user)
    (36 "B.SilkS" user "B.Silkscreen")
    (37 "F.SilkS" user "F.Silkscreen")
    (38 "B.Mask" user)
    (39 "F.Mask" user)
    (40 "Dwgs.User" user "User.Drawings")
    (41 "Cmts.User" user "User.Comments")
    (42 "Eco1.User" user "User.Eco1")
    (43 "Eco2.User" user "User.Eco2")
    (44 "Edge.Cuts" user)
    (45 "Margin" user)
    (46 "B.CrtYd" user "B.Courtyard")
    (47 "F.CrtYd" user "F.Courtyard")
    (48 "B.Fab" user)
    (49 "F.Fab" user)
    (50 "User.1" user)
    (51 "User.2" user)
    (52 "User.3" user)
    (53 "User.4" user)
    (54 "User.5" user)
    (55 "User.6" user)
    (56 "User.7" user)
    (57 "User.8" user)
    (58 "User.9" user)
  )

  (setup
    (pad_to_mask_clearance 0)
    (pcbplotparams
      (layerselection 0x00010fc_ffffffff)
      (plot_on_all_layers_selection 0x0000000_00000000)
      (disableapertmacros false)
      (usegerberextensions false)
      (usegerberattributes true)
      (usegerberadvancedattributes true)
      (creategerberjobfile true)
      (dashed_line_dash_ratio 12.000000)
      (dashed_line_gap_ratio 3.000000)
      (svgprecision 4)
      (plotframeref false)
      (viasonmask false)
      (mode 1)
      (useauxorigin false)
      (hpglpennumber 1)
      (hpglpenspeed 20)
      (hpglpendiameter 15.000000)
      (dxfpolygonmode true)
      (dxfimperialunits true)
      (dxfusepcbnewfont true)
      (psnegative false)
      (psa4output false)
      (plotreference true)
      (plotvalue true)
      (plotinvisibletext false)
      (sketchpadsonfab false)
      (subtractmaskfromsilk false)
      (outputformat 1)
      (mirror false)
      (drillshape 0)
      (scaleselection 1)
      (outputdirectory "gerbers/")
    )
  )

  (net 0 "")
  (net 1 "Net-(J1-Pin_1)")
  (net 2 "Net-(J1-Pin_2)")
  (net 3 "Net-(J1-Pin_3)")
  (net 4 "Net-(J1-Pin_4)")
  (net 5 "Net-(J1-Pin_5)")
  (net 6 "Net-(J1-Pin_6)")
  (net 7 "Net-(J1-Pin_7)")
  (net 8 "Net-(J1-Pin_8)")
  (net 9 "Net-(J1-Pin_9)")
  (net 10 "Net-(J1-Pin_10)")
  (net 11 "Net-(J1-Pin_11)")
  (net 12 "Net-(J1-Pin_12)")
  (net 13 "Net-(J2-Pin_1)")
  (net 14 "Net-(J2-Pin_2)")
  (net 15 "Net-(J2-Pin_3)")
  (net 16 "Net-(J2-Pin_4)")
  (net 17 "Net-(J2-Pin_5)")
  (net 18 "Net-(J2-Pin_6)")
  (net 19 "Net-(J2-Pin_7)")
  (net 20 "Net-(J2-Pin_8)")
  (net 21 "Net-(J2-Pin_9)")
  (net 22 "Net-(J2-Pin_10)")
  (net 23 "Net-(J2-Pin_11)")
  (net 24 "Net-(J2-Pin_12)")

  (footprint "Connector_PinHeader_2.54mm:PinHeader_1x12_P2.54mm_Vertical" (layer "F.Cu")
    (tstamp 4fd96265-5d5e-4a42-bab5-556f029d8d73)
    (at 147.32 69.85)
    (descr "Through hole straight pin header, 1x12, 2.54mm pitch, single row")
    (tags "Through hole pin header THT 1x12 2.54mm single row")
    (property "Sheetfile" "pca8575_breakout.kicad_sch")
    (property "Sheetname" "")
    (property "ki_description" "Generic connector, single row, 01x12, script generated")
    (property "ki_keywords" "connector")
    (path "/0efd6a44-822b-405a-8ad4-95f895b99b95")
    (attr through_hole)
    (fp_text reference "J1" (at -0.29 -7.04) (layer "F.SilkS")
        (effects (font (size 1 1) (thickness 0.15)))
      (tstamp e6b69ae1-331d-4f77-8433-310739cabc8c)
    )
    (fp_text value "Conn_01x12_Pin" (at -8.89 33.02) (layer "F.Fab")
        (effects (font (size 1 1) (thickness 0.15)))
      (tstamp e31b416c-68d5-4309-817b-a2cc7ef39c37)
    )
    (fp_text user "${REFERENCE}" (at 0 13.97 90) (layer "F.Fab")
        (effects (font (size 1 1) (thickness 0.15)))
      (tstamp 8e7e7e31-bc6c-4205-9bc4-69dea6ee9e9b)
    )
    (fp_line (start -1.33 -1.33) (end 0 -1.33)
      (stroke (width 0.12) (type solid)) (layer "F.SilkS") (tstamp 4a3541aa-67bf-41ac-bd29-32fecb6cb106))
    (fp_line (start -1.33 0) (end -1.33 -1.33)
      (stroke (width 0.12) (type solid)) (layer "F.SilkS") (tstamp 45852819-961f-4fc8-8919-b93a16988ece))
    (fp_line (start -1.33 1.27) (end -1.33 29.27)
      (stroke (width 0.12) (type solid)) (layer "F.SilkS") (tstamp 858ac611-4145-4c10-9829-3636d8b3f5b6))
    (fp_line (start -1.33 1.27) (end 1.33 1.27)
      (stroke (width 0.12) (type solid)) (layer "F.SilkS") (tstamp e02a92a6-14e8-4e50-89d3-e40bca5e4f1e))
    (fp_line (start -1.33 29.27) (end 1.33 29.27)
      (stroke (width 0.12) (type solid)) (layer "F.SilkS") (tstamp 112aa1e2-6b42-4c5b-8d4f-9b832b929168))
    (fp_line (start 1.33 1.27) (end 1.33 29.27)
      (stroke (width 0.12) (type solid)) (layer "F.SilkS") (tstamp 945ca15c-0836-49b6-8f31-dad13b59a519))
    (fp_line (start -1.8 -1.8) (end -1.8 29.75)
      (stroke (width 0.05) (type solid)) (layer "F.CrtYd") (tstamp 17f49a13-48b7-4bcc-a1a5-42da0d754b01))
    (fp_line (start -1.8 29.75) (end 1.8 29.75)
      (stroke (width 0.05) (type solid)) (layer "F.CrtYd") (tstamp b744e687-ad14-4927-88fa-2b39df37449e))
    (fp_line (start 1.8 -1.8) (end -1.8 -1.8)
      (stroke (width 0.05) (type solid)) (layer "F.CrtYd") (tstamp f753143a-2bd5-4efc-82d4-89debb18c7a4))
    (fp_line (start 1.8 29.75) (end 1.8 -1.8)
      (stroke (width 0.05) (type solid)) (layer "F.CrtYd") (tstamp 337d1c2b-b8b1-4112-a632-42e00fdeade3))
    (fp_line (start -1.27 -0.635) (end -0.635 -1.27)
      (stroke (width 0.1) (type solid)) (layer "F.Fab") (tstamp 19a78efe-3286-445e-b575-56d2450a27f9))
    (fp_line (start -1.27 29.21) (end -1.27 -0.635)
      (stroke (width 0.1) (type solid)) (layer "F.Fab") (tstamp f812f65a-8418-48d4-9da4-fd6fa90276e4))
    (fp_line (start -0.635 -1.27) (end 1.27 -1.27)
      (stroke (width 0.1) (type solid)) (layer "F.Fab") (tstamp 616b7181-a773-462e-bd3b-954475a4fae5))
    (fp_line (start 1.27 -1.27) (end 1.27 29.21)
      (stroke (width 0.1) (type solid)) (layer "F.Fab") (tstamp 5149af30-9de6-40a5-ac6c-b8170f2df7be))
    (fp_line (start 1.27 29.21) (end -1.27 29.21)
      (stroke (width 0.1) (type solid)) (layer "F.Fab") (tstamp 3810e169-94b5-4f16-a081-da3c71b2703f))
    (pad "1" thru_hole rect (at 0 0) (size 1.7 1.7) (drill 1) (layers "*.Cu" "*.Mask")
      (net 1 "Net-(J1-Pin_1)") (pinfunction "Pin_1") (pintype "passive") (tstamp 66f0d5af-0159-423f-9b41-68426fce18ea))
    (pad "2" thru_hole oval (at 0 2.54) (size 1.7 1.7) (drill 1) (layers "*.Cu" "*.Mask")
      (net 2 "Net-(J1-Pin_2)") (pinfunction "Pin_2") (pintype "passive") (tstamp 0aea6e85-f1f8-4f5b-97b8-4b9fef68e479))
    (pad "3" thru_hole oval (at 0 5.08) (size 1.7 1.7) (drill 1) (layers "*.Cu" "*.Mask")
      (net 3 "Net-(J1-Pin_3)") (pinfunction "Pin_3") (pintype "passive") (tstamp 26b16f7c-f34f-46d2-b123-ce2c1da174da))
    (pad "4" thru_hole oval (at 0 7.62) (size 1.7 1.7) (drill 1) (layers "*.Cu" "*.Mask")
      (net 4 "Net-(J1-Pin_4)") (pinfunction "Pin_4") (pintype "passive") (tstamp 51df14a8-c950-4964-a417-73529c793e8e))
    (pad "5" thru_hole oval (at 0 10.16) (size 1.7 1.7) (drill 1) (layers "*.Cu" "*.Mask")
      (net 5 "Net-(J1-Pin_5)") (pinfunction "Pin_5") (pintype "passive") (tstamp 838c44d6-ef85-493d-93a7-52cf97862df6))
    (pad "6" thru_hole oval (at 0 12.7) (size 1.7 1.7) (drill 1) (layers "*.Cu" "*.Mask")
      (net 6 "Net-(J1-Pin_6)") (pinfunction "Pin_6") (pintype "passive") (tstamp 6f48a3bd-97de-4a1f-9030-da88a850c71b))
    (pad "7" thru_hole oval (at 0 15.24) (size 1.7 1.7) (drill 1) (layers "*.Cu" "*.Mask")
      (net 7 "Net-(J1-Pin_7)") (pinfunction "Pin_7") (pintype "passive") (tstamp fb53db77-6b19-4bae-8039-37a0c01e0f4d))
    (pad "8" thru_hole oval (at 0 17.78) (size 1.7 1.7) (drill 1) (layers "*.Cu" "*.Mask")
      (net 8 "Net-(J1-Pin_8)") (pinfunction "Pin_8") (pintype "passive") (tstamp a85fdbd8-d96b-43bf-8ad0-106fd4728693))
    (pad "9" thru_hole oval (at 0 20.32) (size 1.7 1.7) (drill 1) (layers "*.Cu" "*.Mask")
      (net 9 "Net-(J1-Pin_9)") (pinfunction "Pin_9") (pintype "passive") (tstamp 202666a8-ddbd-4952-aac2-cad4c0558699))
    (pad "10" thru_hole oval (at 0 22.86) (size 1.7 1.7) (drill 1) (layers "*.Cu" "*.Mask")
      (net 10 "Net-(J1-Pin_10)") (pinfunction "Pin_10") (pintype "passive") (tstamp cc85322d-6aa3-4f30-8a9d-e5ceb8531341))
    (pad "11" thru_hole oval (at 0 25.4) (size 1.7 1.7) (drill 1) (layers "*.Cu" "*.Mask")
      (net 11 "Net-(J1-Pin_11)") (pinfunction "Pin_11") (pintype "passive") (tstamp e93681d4-810e-4386-94fc-535e6a215931))
    (pad "12" thru_hole oval (at 0 27.94) (size 1.7 1.7) (drill 1) (layers "*.Cu" "*.Mask")
      (net 12 "Net-(J1-Pin_12)") (pinfunction "Pin_12") (pintype "passive") (tstamp 523cca1a-ed16-43d5-bb9b-5368cbedfcd8))
    (model "${KICAD6_3DMODEL_DIR}/Connector_PinHeader_2.54mm.3dshapes/PinHeader_1x12_P2.54mm_Vertical.wrl"
      (offset (xyz 0 0 0))
      (scale (xyz 1 1 1))
      (rotate (xyz 0 0 0))
    )
  )

  (footprint "Global:TSSOP24_4.4" (layer "F.Cu")
    (tstamp 728dc211-bd47-478e-b693-f3803844bf58)
    (at 153.74 84.06)
    (property "Sheetfile" "pca8575_breakout.kicad_sch")
    (property "Sheetname" "")
    (path "/bbba6065-05f7-4df6-a76b-3737aa92d43a")
    (attr smd)
    (fp_text reference "U1" (at 0.25 -5 unlocked) (layer "F.SilkS")
        (effects (font (size 1 1) (thickness 0.1)))
      (tstamp 7682d081-9904-4006-ad1f-c600be7933b8)
    )
    (fp_text value "~" (at 0 5.25 unlocked) (layer "F.Fab")
        (effects (font (size 1 1) (thickness 0.15)))
      (tstamp 4f7622b6-a9c2-465b-b382-1d0b8fd0c512)
    )
    (fp_text user "${REFERENCE}" (at 0 7 unlocked) (layer "F.Fab")
        (effects (font (size 1 1) (thickness 0.15)))
      (tstamp 14dd3dab-af84-40a4-971d-ab46a9eb7b44)
    )
    (fp_line (start -2.75 -4.25) (end 2.5 -4.25)
      (stroke (width 0.1) (type default)) (layer "F.SilkS") (tstamp a74564df-2d8e-48db-a4f8-ccabd1c83f22))
    (fp_line (start -2.75 -4) (end -2.75 -4.25)
      (stroke (width 0.1) (type default)) (layer "F.SilkS") (tstamp dde49994-eeee-4c44-8063-388081596516))
    (fp_line (start -2.75 4) (end -2.75 3.75)
      (stroke (width 0.1) (type default)) (layer "F.SilkS") (tstamp 148c7d5a-7627-4199-9583-7493b41f3ae7))
    (fp_line (start 2.5 -4.25) (end 2.5 -4)
      (stroke (width 0.1) (type default)) (layer "F.SilkS") (tstamp f0c384ed-c768-433e-a177-5f56f6b8c297))
    (fp_line (start 2.5 3.75) (end 2.5 4)
      (stroke (width 0.1) (type default)) (layer "F.SilkS") (tstamp 991f19c1-862f-4d46-811a-7fbe26d944c7))
    (fp_line (start 2.5 4) (end -2.75 4)
      (stroke (width 0.1) (type default)) (layer "F.SilkS") (tstamp dd45f496-5fc9-468d-a1fe-05d612b130e7))
    (fp_circle (center -3.25 -4.5) (end -3 -4.25)
      (stroke (width 0.1) (type default)) (fill none) (layer "F.SilkS") (tstamp 2548c6f9-57b4-4f3e-b152-23033dfe069a))
    (pad "1" smd rect (at -3.05 -3.75) (size 1.45 0.25) (layers "F.Cu" "F.Paste" "F.Mask")
      (net 1 "Net-(J1-Pin_1)") (pinfunction "INT") (pintype "input") (thermal_bridge_angle 45) (tstamp 0cf55236-dcc5-4e8c-9588-d86e67317dd1))
    (pad "2" smd rect (at -3.05 -3.1) (size 1.45 0.25) (layers "F.Cu" "F.Paste" "F.Mask")
      (net 2 "Net-(J1-Pin_2)") (pinfunction "AD1") (pintype "input") (thermal_bridge_angle 45) (tstamp 6be6e87c-32a9-4ae0-89e6-cd108d11dbe7))
    (pad "3" smd rect (at -3.05 -2.45 180) (size 1.45 0.25) (layers "F.Cu" "F.Paste" "F.Mask")
      (net 3 "Net-(J1-Pin_3)") (pinfunction "AD2") (pintype "input") (thermal_bridge_angle 45) (tstamp 758bd0f9-e0af-4ce2-995d-bc2225080c19))
    (pad "4" smd rect (at -3.05 -1.8) (size 1.45 0.25) (layers "F.Cu" "F.Paste" "F.Mask")
      (net 4 "Net-(J1-Pin_4)") (pinfunction "P00") (pintype "bidirectional") (thermal_bridge_angle 45) (tstamp 9c046ef2-f97e-4228-9a90-9f84533c2eaa))
    (pad "5" smd rect (at -3.05 -1.15) (size 1.45 0.25) (layers "F.Cu" "F.Paste" "F.Mask")
      (net 5 "Net-(J1-Pin_5)") (pinfunction "P01") (pintype "bidirectional") (thermal_bridge_angle 45) (tstamp 82fc4237-d4c7-4a1a-a0ed-81c854958dc0))
    (pad "6" smd rect (at -3.05 -0.5) (size 1.45 0.25) (layers "F.Cu" "F.Paste" "F.Mask")
      (net 6 "Net-(J1-Pin_6)") (pinfunction "P02") (pintype "bidirectional") (thermal_bridge_angle 45) (tstamp d39902fe-e84e-48bb-8ffb-70268bbf78e6))
    (pad "7" smd rect (at -3.05 0.15 180) (size 1.45 0.25) (layers "F.Cu" "F.Paste" "F.Mask")
      (net 7 "Net-(J1-Pin_7)") (pinfunction "P03") (pintype "bidirectional") (thermal_bridge_angle 45) (tstamp 4479d5c4-621f-412e-9103-987910b77b7b))
    (pad "8" smd rect (at -3.05 0.8) (size 1.45 0.25) (layers "F.Cu" "F.Paste" "F.Mask")
      (net 8 "Net-(J1-Pin_8)") (pinfunction "P04") (pintype "bidirectional") (thermal_bridge_angle 45) (tstamp b093585b-de00-4bbf-9b52-4283cff9c3cd))
    (pad "9" smd rect (at -3.05 1.45) (size 1.45 0.25) (layers "F.Cu" "F.Paste" "F.Mask")
      (net 9 "Net-(J1-Pin_9)") (pinfunction "P05") (pintype "bidirectional") (thermal_bridge_angle 45) (tstamp 3da98d41-6221-495b-b7f6-c3c81828e171))
    (pad "10" smd rect (at -3.05 2.1) (size 1.45 0.25) (layers "F.Cu" "F.Paste" "F.Mask")
      (net 10 "Net-(J1-Pin_10)") (pinfunction "P06") (pintype "bidirectional") (thermal_bridge_angle 45) (tstamp ec0f15af-40dc-4aa5-b871-be950575375f))
    (pad "11" smd rect (at -3.05 2.75) (size 1.45 0.25) (layers "F.Cu" "F.Paste" "F.Mask")
      (net 11 "Net-(J1-Pin_11)") (pinfunction "P07") (pintype "bidirectional") (thermal_bridge_angle 45) (tstamp cdb1363b-55b7-4ab3-9a98-738585f97b2a))
    (pad "12" smd rect (at -3.05 3.4) (size 1.45 0.25) (layers "F.Cu" "F.Paste" "F.Mask")
      (net 12 "Net-(J1-Pin_12)") (pinfunction "Vss") (pintype "power_in") (thermal_bridge_angle 45) (tstamp f17e077a-eb9a-4f03-a1dc-7b68dc731ed0))
    (pad "13" smd rect (at 2.9 3.4) (size 1.45 0.25) (layers "F.Cu" "F.Paste" "F.Mask")
      (net 13 "Net-(J2-Pin_1)") (pinfunction "P10") (pintype "power_in") (thermal_bridge_angle 45) (tstamp 707daacd-c85a-40b2-b6d2-115209f9f4fc))
    (pad "14" smd rect (at 2.9 2.75) (size 1.45 0.25) (layers "F.Cu" "F.Paste" "F.Mask")
      (net 14 "Net-(J2-Pin_2)") (pinfunction "P11") (pintype "bidirectional") (thermal_bridge_angle 45) (tstamp 8334bd30-71cb-4d31-984d-9722bc3c2354))
    (pad "15" smd rect (at 2.9 2.1) (size 1.45 0.25) (layers "F.Cu" "F.Paste" "F.Mask")
      (net 15 "Net-(J2-Pin_3)") (pinfunction "P12") (pintype "bidirectional") (thermal_bridge_angle 45) (tstamp c05434d8-febb-4065-b700-2187a0cb3aa0))
    (pad "16" smd rect (at 2.9 1.45) (size 1.45 0.25) (layers "F.Cu" "F.Paste" "F.Mask")
      (net 16 "Net-(J2-Pin_4)") (pinfunction "P13") (pintype "bidirectional") (thermal_bridge_angle 45) (tstamp 9403ada2-3b3f-44ff-9e1a-2f7124de5d3c))
    (pad "17" smd rect (at 2.9 0.8) (size 1.45 0.25) (layers "F.Cu" "F.Paste" "F.Mask")
      (net 17 "Net-(J2-Pin_5)") (pinfunction "P14") (pintype "bidirectional") (thermal_bridge_angle 45) (tstamp eebb8f73-e448-4d76-8327-ee58c55fd771))
    (pad "18" smd rect (at 2.9 0.15 180) (size 1.45 0.25) (layers "F.Cu" "F.Paste" "F.Mask")
      (net 18 "Net-(J2-Pin_6)") (pinfunction "P15") (pintype "bidirectional") (thermal_bridge_angle 45) (tstamp f391ee42-0791-42c4-b7f2-2794dbc45181))
    (pad "19" smd rect (at 2.9 -0.5) (size 1.45 0.25) (layers "F.Cu" "F.Paste" "F.Mask")
      (net 19 "Net-(J2-Pin_7)") (pinfunction "P16") (pintype "bidirectional") (thermal_bridge_angle 45) (tstamp 4caae315-dd51-43cb-ad29-b8a61f790dbd))
    (pad "20" smd rect (at 2.9 -1.15) (size 1.45 0.25) (layers "F.Cu" "F.Paste" "F.Mask")
      (net 20 "Net-(J2-Pin_8)") (pinfunction "P17") (pintype "bidirectional") (thermal_bridge_angle 45) (tstamp c41e29f5-47f2-4cb4-a60c-f6683e3dc156))
    (pad "21" smd rect (at 2.9 -1.8) (size 1.45 0.25) (layers "F.Cu" "F.Paste" "F.Mask")
      (net 21 "Net-(J2-Pin_9)") (pinfunction "AD0") (pintype "input") (thermal_bridge_angle 45) (tstamp 6cadad0e-1f49-42e8-9a92-9b788a924aa3))
    (pad "22" smd rect (at 2.9 -2.45 180) (size 1.45 0.25) (layers "F.Cu" "F.Paste" "F.Mask")
      (net 22 "Net-(J2-Pin_10)") (pinfunction "SCL") (pintype "bidirectional") (thermal_bridge_angle 45) (tstamp db1f1068-88d8-43c8-ad17-6399fdf8e4da))
    (pad "23" smd rect (at 2.9 -3.1) (size 1.45 0.25) (layers "F.Cu" "F.Paste" "F.Mask")
      (net 23 "Net-(J2-Pin_11)") (pinfunction "SDA") (pintype "bidirectional") (thermal_bridge_angle 45) (tstamp f6d2f8d5-f3d4-4f95-99b6-37a1b46971b7))
    (pad "24" smd rect (at 2.9 -3.75) (size 1.45 0.25) (layers "F.Cu" "F.Paste" "F.Mask")
      (net 24 "Net-(J2-Pin_12)") (pinfunction "Vdd") (pintype "power_in") (thermal_bridge_angle 45) (tstamp 1cd74816-844f-4821-8cf7-cb9caa872c1d))
  )

  (footprint "Connector_PinHeader_2.54mm:PinHeader_1x12_P2.54mm_Vertical" (layer "F.Cu")
    (tstamp e0b5cf5e-e777-43af-9f60-fbfe72c5f70a)
    (at 160.02 97.79 180)
    (descr "Through hole straight pin header, 1x12, 2.54mm pitch, single row")
    (tags "Through hole pin header THT 1x12 2.54mm single row")
    (property "Sheetfile" "pca8575_breakout.kicad_sch")
    (property "Sheetname" "")
    (property "ki_description" "Generic connector, single row, 01x12, script generated")
    (property "ki_keywords" "connector")
    (path "/71e8c02b-2ef5-4a6c-a8ac-7128ebbd67e5")
    (attr through_hole)
    (fp_text reference "J2" (at -8.32 -3.39) (layer "F.SilkS")
        (effects (font (size 1 1) (thickness 0.15)))
      (tstamp ffa7236d-ba48-4b64-b7cd-0c6a8fe84836)
    )
    (fp_text value "Conn_01x12_Pin" (at -17.78 31.75) (layer "F.Fab")
        (effects (font (size 1 1) (thickness 0.15)))
      (tstamp da8b671a-930b-4ea8-b0f9-4ed44e98a03a)
    )
    (fp_text user "${REFERENCE}" (at 0 13.97 90) (layer "F.Fab")
        (effects (font (size 1 1) (thickness 0.15)))
      (tstamp 8b22c216-8eee-4f97-92b4-abb638e061ad)
    )
    (fp_line (start -1.33 -1.33) (end 0 -1.33)
      (stroke (width 0.12) (type solid)) (layer "F.SilkS") (tstamp 7b3f3a2f-3264-44fe-b1b1-2ab89979ccde))
    (fp_line (start -1.33 0) (end -1.33 -1.33)
      (stroke (width 0.12) (type solid)) (layer "F.SilkS") (tstamp bff13f48-b7c5-45a5-aeb5-5f9998108627))
    (fp_line (start -1.33 1.27) (end -1.33 29.27)
      (stroke (width 0.12) (type solid)) (layer "F.SilkS") (tstamp c5c4f49a-7631-40e9-921a-2b2a4da5477e))
    (fp_line (start -1.33 1.27) (end 1.33 1.27)
      (stroke (width 0.12) (type solid)) (layer "F.SilkS") (tstamp e6985faa-7214-4f5d-a570-e63176ada915))
    (fp_line (start -1.33 29.27) (end 1.33 29.27)
      (stroke (width 0.12) (type solid)) (layer "F.SilkS") (tstamp a60ffd6f-00cc-4701-a34b-8c8753cbec90))
    (fp_line (start 1.33 1.27) (end 1.33 29.27)
      (stroke (width 0.12) (type solid)) (layer "F.SilkS") (tstamp 9beb20b4-4519-4896-9276-528b2c080821))
    (fp_line (start -1.8 -1.8) (end -1.8 29.75)
      (stroke (width 0.05) (type solid)) (layer "F.CrtYd") (tstamp 1e1ceb10-7f98-49b8-bc22-3efdcc8621ae))
    (fp_line (start -1.8 29.75) (end 1.8 29.75)
      (stroke (width 0.05) (type solid)) (layer "F.CrtYd") (tstamp 9f588466-12b6-4d01-901c-ffd828d68183))
    (fp_line (start 1.8 -1.8) (end -1.8 -1.8)
      (stroke (width 0.05) (type solid)) (layer "F.CrtYd") (tstamp 58f75fb1-1ad3-4b08-b1a0-8006582f1024))
    (fp_line (start 1.8 29.75) (end 1.8 -1.8)
      (stroke (width 0.05) (type solid)) (layer "F.CrtYd") (tstamp 75860192-b992-4557-b89a-ca655e106e4d))
    (fp_line (start -1.27 -0.635) (end -0.635 -1.27)
      (stroke (width 0.1) (type solid)) (layer "F.Fab") (tstamp 82708a7f-4f6a-4966-a17f-d71d8d0f237b))
    (fp_line (start -1.27 29.21) (end -1.27 -0.635)
      (stroke (width 0.1) (type solid)) (layer "F.Fab") (tstamp 968b3131-8abf-48e6-98a8-82393a883f6a))
    (fp_line (start -0.635 -1.27) (end 1.27 -1.27)
      (stroke (width 0.1) (type solid)) (layer "F.Fab") (tstamp e92158ba-f7a1-4e84-bb97-4428c1bc7f4c))
    (fp_line (start 1.27 -1.27) (end 1.27 29.21)
      (stroke (width 0.1) (type solid)) (layer "F.Fab") (tstamp 8a69a877-6d87-4eb3-9404-4525592d1f6b))
    (fp_line (start 1.27 29.21) (end -1.27 29.21)
      (stroke (width 0.1) (type solid)) (layer "F.Fab") (tstamp 575e8723-2824-405e-ba70-ddd38ca9fc54))
    (pad "1" thru_hole rect (at 0 0 180) (size 1.7 1.7) (drill 1) (layers "*.Cu" "*.Mask")
      (net 13 "Net-(J2-Pin_1)") (pinfunction "Pin_1") (pintype "passive") (tstamp 93b33bb1-0aae-491a-85f0-c82dbff58912))
    (pad "2" thru_hole oval (at 0 2.54 180) (size 1.7 1.7) (drill 1) (layers "*.Cu" "*.Mask")
      (net 14 "Net-(J2-Pin_2)") (pinfunction "Pin_2") (pintype "passive") (tstamp 6fb27e12-9b60-43ef-8a84-c0bb88ca6409))
    (pad "3" thru_hole oval (at 0 5.08 180) (size 1.7 1.7) (drill 1) (layers "*.Cu" "*.Mask")
      (net 15 "Net-(J2-Pin_3)") (pinfunction "Pin_3") (pintype "passive") (tstamp 44c9b57a-2b20-4bf7-93c1-91f203dc20bc))
    (pad "4" thru_hole oval (at 0 7.62 180) (size 1.7 1.7) (drill 1) (layers "*.Cu" "*.Mask")
      (net 16 "Net-(J2-Pin_4)") (pinfunction "Pin_4") (pintype "passive") (tstamp 364d2496-42f4-468b-9dd9-d5ff7597e305))
    (pad "5" thru_hole oval (at 0 10.16 180) (size 1.7 1.7) (drill 1) (layers "*.Cu" "*.Mask")
      (net 17 "Net-(J2-Pin_5)") (pinfunction "Pin_5") (pintype "passive") (tstamp e17a93e3-d2a8-4368-a6d8-5f277baaec36))
    (pad "6" thru_hole oval (at 0 12.7 180) (size 1.7 1.7) (drill 1) (layers "*.Cu" "*.Mask")
      (net 18 "Net-(J2-Pin_6)") (pinfunction "Pin_6") (pintype "passive") (tstamp c422c54b-e9da-4edb-be8e-2b5c83191848))
    (pad "7" thru_hole oval (at 0 15.24 180) (size 1.7 1.7) (drill 1) (layers "*.Cu" "*.Mask")
      (net 19 "Net-(J2-Pin_7)") (pinfunction "Pin_7") (pintype "passive") (tstamp d12d216f-5d39-46ca-8ec7-b1e7484bb505))
    (pad "8" thru_hole oval (at 0 17.78 180) (size 1.7 1.7) (drill 1) (layers "*.Cu" "*.Mask")
      (net 20 "Net-(J2-Pin_8)") (pinfunction "Pin_8") (pintype "passive") (tstamp 931d3012-0da4-4c6a-a15b-588c7054d70e))
    (pad "9" thru_hole oval (at 0 20.32 180) (size 1.7 1.7) (drill 1) (layers "*.Cu" "*.Mask")
      (net 21 "Net-(J2-Pin_9)") (pinfunction "Pin_9") (pintype "passive") (tstamp fbacdc42-546d-44fd-9378-cfbe1246456a))
    (pad "10" thru_hole oval (at 0 22.86 180) (size 1.7 1.7) (drill 1) (layers "*.Cu" "*.Mask")
      (net 22 "Net-(J2-Pin_10)") (pinfunction "Pin_10") (pintype "passive") (tstamp 23db6dc3-96a0-42b0-aef8-8743816ca2cb))
    (pad "11" thru_hole oval (at 0 25.4 180) (size 1.7 1.7) (drill 1) (layers "*.Cu" "*.Mask")
      (net 23 "Net-(J2-Pin_11)") (pinfunction "Pin_11") (pintype "passive") (tstamp 9ae36207-6f45-44ce-b957-ddadfd50712f))
    (pad "12" thru_hole oval (at 0 27.94 180) (size 1.7 1.7) (drill 1) (layers "*.Cu" "*.Mask")
      (net 24 "Net-(J2-Pin_12)") (pinfunction "Pin_12") (pintype "passive") (tstamp 61999597-cd8b-4807-84f9-630e858f334c))
    (model "${KICAD6_3DMODEL_DIR}/Connector_PinHeader_2.54mm.3dshapes/PinHeader_1x12_P2.54mm_Vertical.wrl"
      (offset (xyz 0 0 0))
      (scale (xyz 1 1 1))
      (rotate (xyz 0 0 0))
    )
  )

  (gr_circle (center 153.9 67.29) (end 155.45 69.06)
    (stroke (width 0.15) (type default)) (fill none) (layer "F.SilkS") (tstamp 5baf2194-c3b4-4eea-b945-3cc8f8158b53))
  (gr_rect (start 144.78 67.31) (end 162.56 100.33)
    (stroke (width 0.1) (type default)) (fill none) (layer "Edge.Cuts") (tstamp 07f3803d-c3fb-4dee-853c-96f54aa9c6c2))
  (gr_text "TSSOP24_4.4wide\nBreakout 1.0" (at 156.21 83.82 90) (layer "B.SilkS") (tstamp f07ba2cc-d657-4a75-9d23-444b3b14e5b0)
    (effects (font (size 1.5 1.5) (thickness 0.3) bold) (justify bottom mirror))
  )
  (gr_text "2" (at 148.54 73.01) (layer "F.SilkS") (tstamp 0255ac60-c78f-4043-87d4-664f80a26b0e)
    (effects (font (size 1 1) (thickness 0.15)) (justify left bottom))
  )
  (gr_text "13" (at 156.81 98.58) (layer "F.SilkS") (tstamp 0340ab6a-c46f-42d6-87b2-869d6a226f5e)
    (effects (font (size 1 1) (thickness 0.15)) (justify left bottom))
  )
  (gr_text "10" (at 148.52 93.25) (layer "F.SilkS") (tstamp 13b5613d-d9bb-406d-9683-72434e235c81)
    (effects (font (size 1 1) (thickness 0.15)) (justify left bottom))
  )
  (gr_text "1" (at 148.54 70.4) (layer "F.SilkS") (tstamp 14829ae0-9a38-4994-8ef9-34bc04c5e0b3)
    (effects (font (size 1 1) (thickness 0.15)) (justify left bottom))
  )
  (gr_text "23" (at 156.78 73.08) (layer "F.SilkS") (tstamp 1c6eb068-28df-4d97-9673-55dac19490c1)
    (effects (font (size 1 1) (thickness 0.15)) (justify left bottom))
  )
  (gr_text "21" (at 156.79 78.15) (layer "F.SilkS") (tstamp 1d79ba48-6482-4a37-a40e-e2b68c4631a5)
    (effects (font (size 1 1) (thickness 0.15)) (justify left bottom))
  )
  (gr_text "8" (at 148.55 88.05) (layer "F.SilkS") (tstamp 3211479b-9a64-4ead-8a99-ee107a228ab3)
    (effects (font (size 1 1) (thickness 0.15)) (justify left bottom))
  )
  (gr_text "22" (at 156.79 75.59) (layer "F.SilkS") (tstamp 53aff360-f7ee-429c-aafa-188c33f681a2)
    (effects (font (size 1 1) (thickness 0.15)) (justify left bottom))
  )
  (gr_text "19" (at 157.11 83.18) (layer "F.SilkS") (tstamp 5913eee4-27a2-4c2e-a901-8b29d18a8e81)
    (effects (font (size 1 1) (thickness 0.15)) (justify left bottom))
  )
  (gr_text "11" (at 148.5 95.72) (layer "F.SilkS") (tstamp 6f5a21fb-2bf3-41d6-ac5a-c0c680b28331)
    (effects (font (size 1 1) (thickness 0.15)) (justify left bottom))
  )
  (gr_text "6" (at 148.55 83.05) (layer "F.SilkS") (tstamp 711a84bb-c525-4b38-af9e-cb85c3a8ae24)
    (effects (font (size 1 1) (thickness 0.15)) (justify left bottom))
  )
  (gr_text "15" (at 156.79 93.36) (layer "F.SilkS") (tstamp 71b8ca38-7e3d-4ec1-9993-0d4d287b7adf)
    (effects (font (size 1 1) (thickness 0.15)) (justify left bottom))
  )
  (gr_text "TSSOP24_4.4" (at 154.94 91.44 90) (layer "F.SilkS") (tstamp 7d81c363-7067-451e-88ac-a5377ce27760)
    (effects (font (size 1.5 1.5) (thickness 0.3) bold) (justify left bottom))
  )
  (gr_text "20" (at 157.11 80.67) (layer "F.SilkS") (tstamp 8457403b-66a3-44d5-b6cb-bf2046db0f39)
    (effects (font (size 1 1) (thickness 0.15)) (justify left bottom))
  )
  (gr_text "17" (at 157.12 88.31) (layer "F.SilkS") (tstamp a5169d73-e26f-434f-af15-63e41edca4e0)
    (effects (font (size 1 1) (thickness 0.15)) (justify left bottom))
  )
  (gr_text "5" (at 148.53 80.53) (layer "F.SilkS") (tstamp a7022d93-ce9d-4999-aabd-49acc9e6d36e)
    (effects (font (size 1 1) (thickness 0.15)) (justify left bottom))
  )
  (gr_text "16" (at 156.79 90.87) (layer "F.SilkS") (tstamp a7911ce8-1b23-46af-ae18-f3c870ce58b2)
    (effects (font (size 1 1) (thickness 0.15)) (justify left bottom))
  )
  (gr_text "3" (at 148.59 75.57) (layer "F.SilkS") (tstamp aaa1a3bf-3661-43f1-ae25-acb223e5eb99)
    (effects (font (size 1 1) (thickness 0.15)) (justify left bottom))
  )
  (gr_text "24" (at 156.73 70.58) (layer "F.SilkS") (tstamp b9abf956-e278-4de9-882f-1340cdb69995)
    (effects (font (size 1 1) (thickness 0.15)) (justify left bottom))
  )
  (gr_text "18" (at 157.08 85.71) (layer "F.SilkS") (tstamp c3d1fcb0-e979-4529-9a2f-61e4e3331ef8)
    (effects (font (size 1 1) (thickness 0.15)) (justify left bottom))
  )
  (gr_text "9" (at 148.55 90.72) (layer "F.SilkS") (tstamp cc725ae9-1c3f-48ad-ae3e-099ee419d68e)
    (effects (font (size 1 1) (thickness 0.15)) (justify left bottom))
  )
  (gr_text "4" (at 148.52 78.13) (layer "F.SilkS") (tstamp d2cc401e-0eb7-423c-8817-614746b360be)
    (effects (font (size 1 1) (thickness 0.15)) (justify left bottom))
  )
  (gr_text "12" (at 148.53 98.34) (layer "F.SilkS") (tstamp db31ecd6-7896-4fe3-9753-4361033af7b6)
    (effects (font (size 1 1) (thickness 0.15)) (justify left bottom))
  )
  (gr_text "7" (at 148.56 85.65) (layer "F.SilkS") (tstamp f07f393f-6841-4205-a61c-e04ab1590da0)
    (effects (font (size 1 1) (thickness 0.15)) (justify left bottom))
  )
  (gr_text "14" (at 156.75 96.1) (layer "F.SilkS") (tstamp f86a734c-8605-4d39-b4a3-88b8924625f6)
    (effects (font (size 1 1) (thickness 0.15)) (justify left bottom))
  )

  (segment (start 150.69 73.22) (end 150.69 80.31) (width 0.25) (layer "F.Cu") (net 1) (tstamp 253d56b5-e71a-4ffe-9ba4-d5b05c5d0d50))
  (segment (start 147.32 69.85) (end 150.69 73.22) (width 0.25) (layer "F.Cu") (net 1) (tstamp 7019d93b-33cf-4c61-88f7-222896a433b9))
  (segment (start 147.32 72.39) (end 149.64 74.71) (width 0.25) (layer "F.Cu") (net 2) (tstamp 069ec9dc-164c-4619-be98-fc65db028328))
  (segment (start 149.64 80.885) (end 149.715 80.96) (width 0.25) (layer "F.Cu") (net 2) (tstamp 2b610cc1-e1e3-4946-b042-0fb73592bf2c))
  (segment (start 149.64 74.71) (end 149.64 80.885) (width 0.25) (layer "F.Cu") (net 2) (tstamp c0199ec5-ad0a-4631-aee1-275aa56569ef))
  (segment (start 149.715 80.96) (end 150.69 80.96) (width 0.25) (layer "F.Cu") (net 2) (tstamp e241aa50-d6bd-4ba1-bf83-549676421bf5))
  (segment (start 147.32 74.93) (end 149.19 76.8) (width 0.25) (layer "F.Cu") (net 3) (tstamp 2e4f4ae4-ade6-42b9-870b-41b22fcb7c5b))
  (segment (start 149.715 81.61) (end 150.69 81.61) (width 0.25) (layer "F.Cu") (net 3) (tstamp 59f38d6b-aa3c-4f32-99b2-0d9625c76792))
  (segment (start 149.19 76.8) (end 149.19 81.085) (width 0.25) (layer "F.Cu") (net 3) (tstamp 844aa04d-854c-4f28-bcf3-d3861b61a515))
  (segment (start 149.19 81.085) (end 149.715 81.61) (width 0.25) (layer "F.Cu") (net 3) (tstamp cbe6d502-2514-43d7-8256-c0c903829837))
  (segment (start 149.64 82.26) (end 150.69 82.26) (width 0.25) (layer "F.Cu") (net 4) (tstamp 50b1af45-ebec-41cf-9c32-77f39af325a3))
  (segment (start 147.32 77.47) (end 148.74 78.89) (width 0.25) (layer "F.Cu") (net 4) (tstamp cc337fe8-e5e2-4614-ac9c-729658b303e1))
  (segment (start 148.74 81.36) (end 149.64 82.26) (width 0.25) (layer "F.Cu") (net 4) (tstamp d6f27f91-5ebe-4d5a-82be-41e509d4964d))
  (segment (start 148.74 78.89) (end 148.74 81.36) (width 0.25) (layer "F.Cu") (net 4) (tstamp ddfd236f-dabe-408c-9847-b08651c1b1eb))
  (segment (start 147.32 80.01) (end 147.32 80.576396) (width 0.25) (layer "F.Cu") (net 5) (tstamp 619c019b-9c70-4f67-9b91-7350c9155b5c))
  (segment (start 149.653604 82.91) (end 150.69 82.91) (width 0.25) (layer "F.Cu") (net 5) (tstamp 6e868ecd-2ee8-424a-a743-1d00a590338b))
  (segment (start 147.32 80.576396) (end 149.653604 82.91) (width 0.25) (layer "F.Cu") (net 5) (tstamp c5b7fa83-f43f-45fb-8b52-0c80ea2f3e60))
  (segment (start 148.33 83.56) (end 150.69 83.56) (width 0.25) (layer "F.Cu") (net 6) (tstamp 38122064-429a-43bb-a2c8-76f5dc7e0ce8))
  (segment (start 147.32 82.55) (end 148.33 83.56) (width 0.25) (layer "F.Cu") (net 6) (tstamp 804aa5b0-7c79-4701-b49e-5c4c460394e5))
  (segment (start 148.2 84.21) (end 150.69 84.21) (width 0.25) (layer "F.Cu") (net 7) (tstamp 853d7ead-57d0-43f5-9317-47d7ca7d6704))
  (segment (start 147.32 85.09) (end 148.2 84.21) (width 0.25) (layer "F.Cu") (net 7) (tstamp bf05e343-f1b3-4403-a728-de1a6cbbea9c))
  (segment (start 149.623604 84.86) (end 150.69 84.86) (width 0.25) (layer "F.Cu") (net 8) (tstamp 414ea847-de72-4b45-b43f-583eb94c17be))
  (segment (start 147.32 87.63) (end 147.32 86.993604) (width 0.25) (layer "F.Cu") (net 8) (tstamp a4a4152b-7ac4-48e7-bd4c-62d885ff8268))
  (segment (start 147.32 87.163604) (end 149.623604 84.86) (width 0.25) (layer "F.Cu") (net 8) (tstamp bd952d20-ca4b-4162-9d54-2bee0b82fd63))
  (segment (start 147.32 87.63) (end 147.32 87.163604) (width 0.25) (layer "F.Cu") (net 8) (tstamp f40a34db-1c1f-407f-bb14-cfab16c8208f))
  (segment (start 149.61 85.51) (end 150.69 85.51) (width 0.25) (layer "F.Cu") (net 9) (tstamp 25f0eee8-e793-4581-abff-9e743569d9c4))
  (segment (start 147.32 90.17) (end 148.74 88.75) (width 0.25) (layer "F.Cu") (net 9) (tstamp 4253a87d-7a75-4b91-b58d-2d100b33e884))
  (segment (start 148.74 86.38) (end 149.61 85.51) (width 0.25) (layer "F.Cu") (net 9) (tstamp b0e621da-6c2a-4bbf-b447-b6fb3a4c7852))
  (segment (start 148.74 88.75) (end 148.74 86.38) (width 0.25) (layer "F.Cu") (net 9) (tstamp e43c573b-f8fe-4f74-827e-cefc4ee6da9c))
  (segment (start 149.19 90.84) (end 149.19 86.6) (width 0.25) (layer "F.Cu") (net 10) (tstamp 4c9e297c-59f5-4912-b024-636b3dc96637))
  (segment (start 147.32 92.71) (end 149.19 90.84) (width 0.25) (layer "F.Cu") (net 10) (tstamp 703fb024-27b9-4794-9c1b-79e67eb55438))
  (segment (start 149.19 86.6) (end 149.63 86.16) (width 0.25) (layer "F.Cu") (net 10) (tstamp 8d7d2d67-beb2-40e0-8d14-fbd9fb5d87f0))
  (segment (start 149.63 86.16) (end 150.69 86.16) (width 0.25) (layer "F.Cu") (net 10) (tstamp b532c274-19cd-495f-8f12-d077260e6574))
  (segment (start 147.32 95.25) (end 149.64 92.93) (width 0.25) (layer "F.Cu") (net 11) (tstamp 077b6364-1830-46d5-8d6d-984b900ae2c9))
  (segment (start 149.64 86.87) (end 149.7 86.81) (width 0.25) (layer "F.Cu") (net 11) (tstamp 4552ba60-3954-4e0b-a1c2-98a59282e414))
  (segment (start 149.64 92.93) (end 149.64 86.87) (width 0.25) (layer "F.Cu") (net 11) (tstamp 697b5dbf-19f0-419d-bb46-e6d99856300f))
  (segment (start 149.7 86.81) (end 150.69 86.81) (width 0.25) (layer "F.Cu") (net 11) (tstamp e4d63b42-70b3-4fe1-9c9f-e7cd8fc42783))
  (segment (start 147.32 97.79) (end 150.69 94.42) (width 0.25) (layer "F.Cu") (net 12) (tstamp 81686bb2-99ce-4a13-9ebc-ca4bf4e1cc58))
  (segment (start 150.69 94.42) (end 150.69 87.46) (width 0.25) (layer "F.Cu") (net 12) (tstamp 8ccd2076-087d-46d8-b9b6-e670acb68bb0))
  (segment (start 156.64 94.41) (end 156.64 87.46) (width 0.25) (layer "F.Cu") (net 13) (tstamp 3d496f31-cdc3-458c-8d39-9c57b3bfaf82))
  (segment (start 160.02 97.79) (end 156.64 94.41) (width 0.25) (layer "F.Cu") (net 13) (tstamp 8cf6817f-8661-48d4-8e09-c3875a3cb501))
  (segment (start 160.02 95.25) (end 157.69 92.92) (width 0.25) (layer "F.Cu") (net 14) (tstamp 338c3b38-907b-4a20-b84b-2b92e72e92d7))
  (segment (start 157.69 87.08) (end 157.42 86.81) (width 0.25) (layer "F.Cu") (net 14) (tstamp 4d2c06ce-9309-4919-b7b8-08eec1788158))
  (segment (start 157.69 92.92) (end 157.69 87.08) (width 0.25) (layer "F.Cu") (net 14) (tstamp b5179d5c-15bf-471c-8d88-c4ed664073a3))
  (segment (start 157.42 86.81) (end 156.64 86.81) (width 0.25) (layer "F.Cu") (net 14) (tstamp bce872c6-8b2c-4bd3-8178-e1522de3dd30))
  (segment (start 158.14 86.43) (end 157.87 86.16) (width 0.25) (layer "F.Cu") (net 15) (tstamp 018eff06-e905-43a4-a6c1-ef8ab672465d))
  (segment (start 160.02 92.71) (end 158.14 90.83) (width 0.25) (layer "F.Cu") (net 15) (tstamp 1e043520-1030-4e41-b736-23c07e873fb9))
  (segment (start 157.87 86.16) (end 156.64 86.16) (width 0.25) (layer "F.Cu") (net 15) (tstamp 91296ce8-62a8-44d4-affb-0d9a232d8898))
  (segment (start 158.14 90.83) (end 158.14 86.43) (width 0.25) (layer "F.Cu") (net 15) (tstamp a8a92b73-3139-4f1b-a923-a741b47ddd74))
  (segment (start 160.02 87.265) (end 157.615 84.86) (width 0.25) (layer "F.Cu") (net 17) (tstamp 1439b714-28c3-45a0-9842-dd96b20e608f))
  (segment (start 160.02 87.63) (end 160.02 87.265) (width 0.25) (layer "F.Cu") (net 17) (tstamp 2d23b9b4-abd7-4b34-aae9-6db4df879f4b))
  (segment (start 157.615 84.86) (end 156.64 84.86) (width 0.25) (layer "F.Cu") (net 17) (tstamp efc93d4b-891b-4fe2-88f4-0e4c2ef6944d))
  (segment (start 159.14 84.21) (end 156.64 84.21) (width 0.25) (layer "F.Cu") (net 18) (tstamp 20e60e34-a523-49cf-9f97-8af9df48ce78))
  (segment (start 160.02 85.09) (end 159.14 84.21) (width 0.25) (layer "F.Cu") (net 18) (tstamp 8bb8d530-e53a-4a01-b1de-48cb4e6eb1b1))
  (segment (start 159.01 83.56) (end 156.64 83.56) (width 0.25) (layer "F.Cu") (net 19) (tstamp 9790930a-8087-4269-b672-797fdf24ad97))
  (segment (start 160.02 82.55) (end 159.01 83.56) (width 0.25) (layer "F.Cu") (net 19) (tstamp c3865b34-66f2-40bb-bcec-d8342ca192a7))
  (segment (start 160.02 80.01) (end 160.02 80.888299) (width 0.25) (layer "F.Cu") (net 20) (tstamp 2021cd1b-0c8b-412b-9d82-5498f7727683))
  (segment (start 157.998299 82.91) (end 156.64 82.91) (width 0.25) (layer "F.Cu") (net 20) (tstamp 333c14ba-6aba-4d3b-8308-e1f874d0518f))
  (segment (start 160.02 80.888299) (end 157.998299 82.91) (width 0.25) (layer "F.Cu") (net 20) (tstamp f8f7e54f-7f1d-48dd-bab4-f14330b6985f))
  (segment (start 160.02 77.47) (end 158.59 78.9) (width 0.25) (layer "F.Cu") (net 21) (tstamp 74cce8b4-f9bc-4157-930e-20bff977c57c))
  (segment (start 158.59 78.9) (end 158.59 81.271396) (width 0.25) (layer "F.Cu") (net 21) (tstamp 8c3a4255-7d76-4010-8774-5e73b11dbea5))
  (segment (start 158.59 81.271396) (end 157.601396 82.26) (width 0.25) (layer "F.Cu") (net 21) (tstamp a53e3a56-fd26-46a9-8f6a-94adedafb667))
  (segment (start 157.601396 82.26) (end 156.64 82.26) (width 0.25) (layer "F.Cu") (net 21) (tstamp e9c069c2-f97c-4bea-ab51-615dcfd7c561))
  (segment (start 160.02 74.93) (end 158.14 76.81) (width 0.25) (layer "F.Cu") (net 22) (tstamp 005a7455-11c9-4a8d-a50c-8152d0ef7091))
  (segment (start 158.14 81.085) (end 157.615 81.61) (width 0.25) (layer "F.Cu") (net 22) (tstamp 80e07796-c6be-46ba-979a-ea9d2b8ec40b))
  (segment (start 157.615 81.61) (end 156.64 81.61) (width 0.25) (layer "F.Cu") (net 22) (tstamp 83013c83-a29b-4cfc-ac72-0960ab2c7869))
  (segment (start 158.14 76.81) (end 158.14 81.085) (width 0.25) (layer "F.Cu") (net 22) (tstamp ce5882bf-0c64-4a5c-a7f9-ac094eec8e8d))
  (segment (start 157.69 80.82) (end 157.55 80.96) (width 0.25) (layer "F.Cu") (net 23) (tstamp 01704852-8ec2-4e68-915f-b081248937f5))
  (segment (start 160.02 72.39) (end 157.69 74.72) (width 0.25) (layer "F.Cu") (net 23) (tstamp 75859503-0528-4744-a455-1b163a4edad7))
  (segment (start 157.69 74.72) (end 157.69 80.82) (width 0.25) (layer "F.Cu") (net 23) (tstamp 77f08038-fac0-45b7-a60e-ec99ab8f57ea))
  (segment (start 157.55 80.96) (end 156.64 80.96) (width 0.25) (layer "F.Cu") (net 23) (tstamp d55d601a-0421-4b90-8375-9a097f743f88))
  (segment (start 156.64 73.23) (end 156.64 80.31) (width 0.25) (layer "F.Cu") (net 24) (tstamp 8e3564c8-4d82-478b-b406-b6a54808eaf3))
  (segment (start 160.02 69.85) (end 156.64 73.23) (width 0.25) (layer "F.Cu") (net 24) (tstamp aa88d9c9-d70a-42ee-9963-92091dc53297))

)
