EESchema Schematic File Version 4
EELAYER 30 0
EELAYER END
$Descr A4 11693 8268
encoding utf-8
Sheet 1 1
Title "Kappa"
Date ""
Rev "1.2"
Comp ""
Comment1 "Inspired by the Adafruit Feather 32U4 schematic"
Comment2 "Uses the Arduino Micro board pinouts"
Comment3 "Uses USB-C connector"
Comment4 "An AtMega32U4-MU 3.3volts microcontroller"
$EndDescr
$Comp
L Kappa:ATmega32U4-AU U3
U 1 1 5E601BD0
P 8200 3650
F 0 "U3" H 7750 5400 50  0000 C CNN
F 1 "ATmega32U4-MU" V 8200 3650 50  0000 C CNN
F 2 "Housings_DFN_QFN:QFN-44-1EP_7x7mm_Pitch0.5mm" H 8200 3650 50  0001 C CIN
F 3 "http://ww1.microchip.com/downloads/en/DeviceDoc/Atmel-7766-8-bit-AVR-ATmega16U4-32U4_Datasheet.pdf" H 8200 3650 50  0001 C CNN
	1    8200 3650
	1    0    0    -1  
$EndComp
Wire Wire Line
	7600 4000 7500 4000
Wire Wire Line
	7500 4000 7500 4100
Wire Wire Line
	7500 4100 7600 4100
Wire Wire Line
	7600 4200 7500 4200
Wire Wire Line
	7500 4200 7500 4100
Connection ~ 7500 4100
Wire Wire Line
	7300 4100 7500 4100
Wire Wire Line
	8100 5450 8100 5550
Wire Wire Line
	8100 5550 8200 5550
Wire Wire Line
	8200 5550 8200 5450
$Comp
L power:GND #PWR017
U 1 1 5E605996
P 8200 5600
F 0 "#PWR017" H 8200 5350 50  0001 C CNN
F 1 "GND" H 8205 5427 50  0000 C CNN
F 2 "" H 8200 5600 50  0001 C CNN
F 3 "" H 8200 5600 50  0001 C CNN
	1    8200 5600
	1    0    0    -1  
$EndComp
Wire Wire Line
	8200 5600 8200 5550
Connection ~ 8200 5550
Text GLabel 8200 1350 1    50   Input ~ 0
V3.3
Text GLabel 7200 4900 0    50   Input ~ 0
V3.3
$Comp
L power:GND #PWR015
U 1 1 5E60785E
P 7300 3750
F 0 "#PWR015" H 7300 3500 50  0001 C CNN
F 1 "GND" H 7305 3577 50  0000 C CNN
F 2 "" H 7300 3750 50  0001 C CNN
F 3 "" H 7300 3750 50  0001 C CNN
	1    7300 3750
	1    0    0    -1  
$EndComp
Wire Wire Line
	7300 3700 7300 3750
Text GLabel 7200 3150 0    50   Input ~ 0
D+
Text GLabel 7200 3250 0    50   Input ~ 0
D-
Wire Wire Line
	7200 3150 7600 3150
Wire Wire Line
	7200 3250 7600 3250
Text GLabel 7200 2950 0    50   Input ~ 0
Vbus
Wire Wire Line
	7200 2950 7600 2950
$Comp
L Device:Crystal Y1
U 1 1 5E60ACBF
P 7050 2450
F 0 "Y1" V 7004 2581 50  0000 L CNN
F 1 "8MHz" V 7095 2581 50  0000 L CNN
F 2 "Crystals:Crystal_SMD_0603-2pin_6.0x3.5mm" H 7050 2450 50  0001 C CNN
F 3 "~" H 7050 2450 50  0001 C CNN
	1    7050 2450
	0    1    1    0   
$EndComp
Wire Wire Line
	7050 2300 7400 2300
Wire Wire Line
	7400 2300 7400 2350
Wire Wire Line
	7400 2350 7600 2350
Wire Wire Line
	7050 2600 7400 2600
Wire Wire Line
	7400 2600 7400 2550
Wire Wire Line
	7400 2550 7600 2550
$Comp
L Device:C_Small C9
U 1 1 5E60CF8A
P 6650 2300
F 0 "C9" V 6600 2400 50  0000 C CNN
F 1 "22pF" V 6700 2450 50  0000 C CNN
F 2 "Capacitors_SMD:C_0805" H 6650 2300 50  0001 C CNN
F 3 "~" H 6650 2300 50  0001 C CNN
	1    6650 2300
	0    1    1    0   
$EndComp
$Comp
L Device:C_Small C10
U 1 1 5E60D85E
P 6650 2600
F 0 "C10" V 6600 2700 50  0000 C CNN
F 1 "22pF" V 6700 2750 50  0000 C CNN
F 2 "Capacitors_SMD:C_0805" H 6650 2600 50  0001 C CNN
F 3 "~" H 6650 2600 50  0001 C CNN
	1    6650 2600
	0    1    1    0   
$EndComp
Wire Wire Line
	6550 2300 6450 2300
Wire Wire Line
	6450 2300 6450 2450
Wire Wire Line
	6450 2600 6550 2600
Wire Wire Line
	6750 2300 7050 2300
Connection ~ 7050 2300
Wire Wire Line
	7050 2600 6750 2600
Connection ~ 7050 2600
$Comp
L power:GND #PWR012
U 1 1 5E60F90D
P 6250 2550
F 0 "#PWR012" H 6250 2300 50  0001 C CNN
F 1 "GND" H 6255 2377 50  0000 C CNN
F 2 "" H 6250 2550 50  0001 C CNN
F 3 "" H 6250 2550 50  0001 C CNN
	1    6250 2550
	1    0    0    -1  
$EndComp
Wire Wire Line
	6250 2550 6250 2450
Wire Wire Line
	6250 2450 6450 2450
Connection ~ 6450 2450
Wire Wire Line
	6450 2450 6450 2600
Text GLabel 7200 2150 0    50   Input ~ 0
Reset
Wire Wire Line
	7200 2150 7600 2150
Wire Wire Line
	7200 4900 7500 4900
Wire Wire Line
	7600 4600 7500 4600
Wire Wire Line
	7500 4600 7500 4900
Connection ~ 7500 4900
Wire Wire Line
	7500 4900 7600 4900
$Comp
L power:GND #PWR01
U 1 1 5E6154F2
P 1300 2550
F 0 "#PWR01" H 1300 2300 50  0001 C CNN
F 1 "GND" H 1305 2377 50  0000 C CNN
F 2 "" H 1300 2550 50  0001 C CNN
F 3 "" H 1300 2550 50  0001 C CNN
	1    1300 2550
	1    0    0    -1  
$EndComp
Text GLabel 2300 950  2    50   Input ~ 0
Vbus
$Comp
L Device:C_Small C6
U 1 1 5E625DD4
P 7500 5100
F 0 "C6" H 7350 5150 50  0000 C CNN
F 1 "0.1uF" H 7350 5050 50  0000 C CNN
F 2 "Capacitors_SMD:C_0805" H 7500 5100 50  0001 C CNN
F 3 "~" H 7500 5100 50  0001 C CNN
	1    7500 5100
	1    0    0    -1  
$EndComp
Wire Wire Line
	7500 5000 7500 4900
$Comp
L power:GND #PWR016
U 1 1 5E62774E
P 7500 5300
F 0 "#PWR016" H 7500 5050 50  0001 C CNN
F 1 "GND" H 7505 5127 50  0000 C CNN
F 2 "" H 7500 5300 50  0001 C CNN
F 3 "" H 7500 5300 50  0001 C CNN
	1    7500 5300
	1    0    0    -1  
$EndComp
Wire Wire Line
	7500 5200 7500 5300
$Comp
L Device:C_Small C4
U 1 1 5E62AAA0
P 8800 1500
F 0 "C4" V 8550 1500 50  0000 C CNN
F 1 "0.1uF" V 8650 1500 50  0000 C CNN
F 2 "Capacitors_SMD:C_0805" H 8800 1500 50  0001 C CNN
F 3 "~" H 8800 1500 50  0001 C CNN
	1    8800 1500
	0    1    1    0   
$EndComp
$Comp
L Device:C_Small C5
U 1 1 5E62AEDF
P 8800 1700
F 0 "C5" V 9050 1700 50  0000 C CNN
F 1 "0.1uF" V 8950 1700 50  0000 C CNN
F 2 "Capacitors_SMD:C_0805" H 8800 1700 50  0001 C CNN
F 3 "~" H 8800 1700 50  0001 C CNN
	1    8800 1700
	0    1    1    0   
$EndComp
Wire Wire Line
	8200 1350 8200 1500
Connection ~ 8200 1500
Wire Wire Line
	8700 1700 8300 1700
Wire Wire Line
	8200 1500 8200 1700
Connection ~ 8200 1700
Wire Wire Line
	8200 1700 8200 1850
Wire Wire Line
	8300 1850 8300 1700
Connection ~ 8300 1700
Wire Wire Line
	8200 1500 8700 1500
Wire Wire Line
	8900 1500 9000 1500
Wire Wire Line
	9000 1500 9000 1600
Wire Wire Line
	9000 1700 8900 1700
$Comp
L power:GND #PWR018
U 1 1 5E63E85E
P 9200 1700
F 0 "#PWR018" H 9200 1450 50  0001 C CNN
F 1 "GND" H 9205 1527 50  0000 C CNN
F 2 "" H 9200 1700 50  0001 C CNN
F 3 "" H 9200 1700 50  0001 C CNN
	1    9200 1700
	1    0    0    -1  
$EndComp
Wire Wire Line
	9000 1600 9200 1600
Wire Wire Line
	9200 1600 9200 1700
Connection ~ 9000 1600
Wire Wire Line
	9000 1600 9000 1700
$Comp
L Device:LED_Small D1
U 1 1 5E67CCDF
P 3500 1600
F 0 "D1" V 3546 1532 50  0000 R CNN
F 1 "Power" V 3455 1532 50  0000 R CNN
F 2 "LEDs:LED_0805" V 3500 1600 50  0001 C CNN
F 3 "~" V 3500 1600 50  0001 C CNN
	1    3500 1600
	0    -1   -1   0   
$EndComp
$Comp
L Device:R_Small R5
U 1 1 5E67CEEF
P 3500 1300
F 0 "R5" V 3600 1300 50  0000 C CNN
F 1 "1K0" V 3500 1300 39  0000 C CNN
F 2 "Resistors_SMD:R_0805" H 3500 1300 50  0001 C CNN
F 3 "~" H 3500 1300 50  0001 C CNN
	1    3500 1300
	-1   0    0    1   
$EndComp
$Comp
L power:GND #PWR02
U 1 1 5E69696A
P 3500 1850
F 0 "#PWR02" H 3500 1600 50  0001 C CNN
F 1 "GND" H 3505 1677 50  0000 C CNN
F 2 "" H 3500 1850 50  0001 C CNN
F 3 "" H 3500 1850 50  0001 C CNN
	1    3500 1850
	1    0    0    -1  
$EndComp
$Comp
L Regulator_Linear:SPX3819M5-L-3-3 U2
U 1 1 5E6B50CE
P 1950 3850
F 0 "U2" H 1800 4100 50  0000 C CNN
F 1 "SPX3819M5-L-3-3" H 2000 4200 50  0000 C CNN
F 2 "TO_SOT_Packages_SMD:SOT-23-5" H 1950 4175 50  0001 C CNN
F 3 "https://www.exar.com/content/document.ashx?id=22106&languageid=1033&type=Datasheet&partnumber=SPX3819&filename=SPX3819.pdf&part=SPX3819" H 1950 3850 50  0001 C CNN
	1    1950 3850
	1    0    0    -1  
$EndComp
$Comp
L power:GND #PWR06
U 1 1 5E6B7B8D
P 1950 4200
F 0 "#PWR06" H 1950 3950 50  0001 C CNN
F 1 "GND" H 1955 4027 50  0000 C CNN
F 2 "" H 1950 4200 50  0001 C CNN
F 3 "" H 1950 4200 50  0001 C CNN
	1    1950 4200
	1    0    0    -1  
$EndComp
Wire Wire Line
	1950 4150 1950 4200
$Comp
L Device:R_Small R7
U 1 1 5E6BC8E1
P 1450 3850
F 0 "R7" V 1350 3850 50  0000 C CNN
F 1 "100K" V 1450 3850 39  0000 C CNN
F 2 "Resistors_SMD:R_0805" H 1450 3850 50  0001 C CNN
F 3 "~" H 1450 3850 50  0001 C CNN
	1    1450 3850
	0    -1   -1   0   
$EndComp
Wire Wire Line
	1550 3850 1650 3850
Wire Wire Line
	1350 3850 1200 3850
Wire Wire Line
	1650 3750 1200 3750
Connection ~ 1200 3750
Wire Wire Line
	1200 3750 1200 3850
$Comp
L Device:C_Small C1
U 1 1 5E6C6E89
P 1200 4000
F 0 "C1" H 1292 4046 50  0000 L CNN
F 1 "10uF" H 1292 3955 50  0000 L CNN
F 2 "Capacitors_SMD:C_0805" H 1200 4000 50  0001 C CNN
F 3 "~" H 1200 4000 50  0001 C CNN
	1    1200 4000
	-1   0    0    -1  
$EndComp
$Comp
L power:GND #PWR03
U 1 1 5E6CAB52
P 1200 4200
F 0 "#PWR03" H 1200 3950 50  0001 C CNN
F 1 "GND" H 1205 4027 50  0000 C CNN
F 2 "" H 1200 4200 50  0001 C CNN
F 3 "" H 1200 4200 50  0001 C CNN
	1    1200 4200
	1    0    0    -1  
$EndComp
Wire Wire Line
	1200 3850 1200 3900
Connection ~ 1200 3850
Wire Wire Line
	1200 4100 1200 4200
Text GLabel 950  3750 0    50   Input ~ 0
Vbus
Wire Wire Line
	950  3750 1200 3750
NoConn ~ 2250 3850
$Comp
L Device:C_Small C2
U 1 1 5E6DF2E9
P 2500 3950
F 0 "C2" H 2550 4000 50  0000 L CNN
F 1 "10uF" H 2550 3900 50  0000 L CNN
F 2 "Capacitors_SMD:C_0805" H 2500 3950 50  0001 C CNN
F 3 "~" H 2500 3950 50  0001 C CNN
	1    2500 3950
	-1   0    0    -1  
$EndComp
$Comp
L Device:C_Small C3
U 1 1 5E6DF90B
P 2700 3950
F 0 "C3" H 2792 3996 50  0000 L CNN
F 1 "1uF" H 2792 3905 50  0000 L CNN
F 2 "Capacitors_SMD:C_0805" H 2700 3950 50  0001 C CNN
F 3 "~" H 2700 3950 50  0001 C CNN
	1    2700 3950
	1    0    0    -1  
$EndComp
Wire Wire Line
	2250 3750 2500 3750
Wire Wire Line
	2700 3750 2700 3850
Wire Wire Line
	2500 3850 2500 3750
Connection ~ 2500 3750
Wire Wire Line
	2500 3750 2700 3750
Text GLabel 2700 3550 1    50   Input ~ 0
V3.3
Wire Wire Line
	2700 3550 2700 3750
Connection ~ 2700 3750
Wire Wire Line
	2500 4050 2500 4150
Wire Wire Line
	2500 4150 2700 4150
Wire Wire Line
	2700 4150 2700 4050
$Comp
L power:GND #PWR08
U 1 1 5E6F1E60
P 2700 4200
F 0 "#PWR08" H 2700 3950 50  0001 C CNN
F 1 "GND" H 2705 4027 50  0000 C CNN
F 2 "" H 2700 4200 50  0001 C CNN
F 3 "" H 2700 4200 50  0001 C CNN
	1    2700 4200
	1    0    0    -1  
$EndComp
Wire Wire Line
	2700 4150 2700 4200
Connection ~ 2700 4150
Wire Notes Line
	3050 4600 600  4600
Wire Notes Line
	600  4600 600  3000
Text Notes 2450 3100 0    39   ~ 0
Power Management
Wire Notes Line
	3150 2100 3150 600 
Text Notes 3450 700  0    39   ~ 0
Power indication
Text GLabel 9050 2650 2    50   Input ~ 0
D9
Wire Wire Line
	8800 2650 9050 2650
Text GLabel 9050 2250 2    50   Input ~ 0
D15|SCK
Text GLabel 9050 2350 2    50   Input ~ 0
D16|MOSI
Text GLabel 9050 2450 2    50   Input ~ 0
D14|MISO
Wire Wire Line
	8800 2250 9050 2250
Wire Wire Line
	8800 2350 9050 2350
Wire Wire Line
	8800 2450 9050 2450
Text GLabel 1250 5550 0    50   Input ~ 0
A1
Text GLabel 3000 6650 2    50   Input ~ 0
D17|SS
Text GLabel 7200 2750 0    50   Input ~ 0
Aref
Text GLabel 9050 5050 2    50   Input ~ 0
A0
Wire Wire Line
	8800 5050 9050 5050
Text GLabel 3000 6450 2    50   Input ~ 0
D0
Text GLabel 9050 4950 2    50   Input ~ 0
A1
Wire Wire Line
	8800 4950 9050 4950
Text GLabel 3000 6350 2    50   Input ~ 0
Reset
Text GLabel 9050 4850 2    50   Input ~ 0
A2
Wire Wire Line
	8800 4850 9050 4850
Text GLabel 9050 4750 2    50   Input ~ 0
A3
Wire Wire Line
	8800 4750 9050 4750
Text GLabel 9050 4650 2    50   Input ~ 0
A4
Wire Wire Line
	8800 4650 9050 4650
Text GLabel 3000 6050 2    50   Input ~ 0
D3|SCL
Text GLabel 9050 4550 2    50   Input ~ 0
A5
Wire Wire Line
	8800 4550 9050 4550
Text GLabel 3000 5950 2    50   Input ~ 0
D4
Text GLabel 1250 5150 0    50   Input ~ 0
D13
Text GLabel 9050 3650 2    50   Input ~ 0
D1
Wire Wire Line
	8800 3650 9050 3650
Text GLabel 9050 3150 2    50   Input ~ 0
D13
Wire Wire Line
	8800 3150 9050 3150
Text GLabel 9050 3950 2    50   Input ~ 0
D12
Wire Wire Line
	8800 3950 9050 3950
Text GLabel 9050 2850 2    50   Input ~ 0
D11
Wire Wire Line
	8800 2850 9050 2850
Text GLabel 9050 2750 2    50   Input ~ 0
D10
Wire Wire Line
	8800 2750 9050 2750
Text GLabel 9050 4050 2    50   Input ~ 0
D6
Wire Wire Line
	8800 4050 9050 4050
Text GLabel 9050 3050 2    50   Input ~ 0
D5
Wire Wire Line
	8800 3050 9050 3050
Text GLabel 9050 3550 2    50   Input ~ 0
D0
Wire Wire Line
	8800 3550 9050 3550
Text GLabel 1250 5850 0    50   Input ~ 0
A4
Wire Wire Line
	1250 5950 1500 5950
Text GLabel 9050 3750 2    50   Input ~ 0
D4
Wire Wire Line
	8800 3750 9050 3750
Text GLabel 1250 5750 0    50   Input ~ 0
A3
Wire Wire Line
	1250 5850 1500 5850
Text GLabel 1250 5950 0    50   Input ~ 0
A5
Wire Wire Line
	1250 5750 1500 5750
Text GLabel 1250 6250 0    50   Input ~ 0
Vbus
Wire Wire Line
	1250 6250 1500 6250
Text GLabel 9050 2550 2    50   Input ~ 0
D8
Wire Wire Line
	8800 2550 9050 2550
Text GLabel 9050 4350 2    50   Input ~ 0
D7
Wire Wire Line
	9050 4350 8800 4350
Text Notes 2950 4800 0    50   ~ 0
Board Connectors
$Comp
L Switch:SW_SPST SW1
U 1 1 5EE5C678
P 4500 1600
F 0 "SW1" V 4400 1800 50  0000 R CNN
F 1 "SPST" V 4500 2000 50  0001 R CNN
F 2 "Kappa:Switch" H 4500 1600 50  0001 C CNN
F 3 "~" H 4500 1600 50  0001 C CNN
	1    4500 1600
	0    -1   1    0   
$EndComp
$Comp
L power:GND #PWR05
U 1 1 5EE5CA98
P 4500 2050
F 0 "#PWR05" H 4500 1800 50  0001 C CNN
F 1 "GND" H 4505 1877 50  0000 C CNN
F 2 "" H 4500 2050 50  0001 C CNN
F 3 "" H 4500 2050 50  0001 C CNN
	1    4500 2050
	1    0    0    -1  
$EndComp
Text GLabel 4650 1300 2    50   Input ~ 0
Reset
Text GLabel 4500 900  1    50   Input ~ 0
V3.3
Wire Wire Line
	4500 2000 4500 2050
Wire Wire Line
	4500 1200 4500 1300
Wire Wire Line
	4500 1000 4500 900 
Wire Wire Line
	4650 1300 4500 1300
Connection ~ 4500 1300
Wire Wire Line
	4500 1300 4500 1400
Wire Wire Line
	3500 1700 3500 1850
Wire Wire Line
	3500 1400 3500 1500
Text GLabel 3500 1000 1    50   Input ~ 0
Vbus
Wire Wire Line
	3500 1000 3500 1200
Wire Notes Line
	3150 600  3950 600 
Wire Notes Line
	3950 600  3950 2100
Wire Notes Line
	3950 2100 3150 2100
Wire Notes Line
	4100 600  5050 600 
Text Notes 4850 700  0    39   ~ 0
Reset
Wire Wire Line
	3000 6450 2750 6450
Wire Wire Line
	3000 6350 2750 6350
Wire Wire Line
	3000 6150 2750 6150
Wire Wire Line
	3000 6050 2750 6050
Wire Wire Line
	3000 5950 2750 5950
Wire Wire Line
	1500 5550 1250 5550
Wire Wire Line
	2750 6650 3000 6650
Text GLabel 3000 5650 2    50   Input ~ 0
D7
Wire Wire Line
	3000 5650 2750 5650
Text GLabel 3000 6550 2    50   Input ~ 0
D1
Wire Wire Line
	2750 6550 3000 6550
$Comp
L power:GND #PWR010
U 1 1 5F0C1259
P 700 6500
F 0 "#PWR010" H 700 6250 50  0001 C CNN
F 1 "GND" H 705 6327 50  0000 C CNN
F 2 "" H 700 6500 50  0001 C CNN
F 3 "" H 700 6500 50  0001 C CNN
	1    700  6500
	1    0    0    -1  
$EndComp
Wire Wire Line
	1250 5150 1500 5150
Text GLabel 3000 6150 2    50   Input ~ 0
D2|SDA
Text GLabel 2300 1650 2    50   Input ~ 0
D+
Text GLabel 2300 1450 2    50   Input ~ 0
D-
$Comp
L Device:R_Small R4
U 1 1 5F440EB1
P 2100 1650
F 0 "R4" V 2000 1650 50  0000 C CNN
F 1 "22R" V 2100 1650 39  0000 C CNN
F 2 "Resistors_SMD:R_0805" H 2100 1650 50  0001 C CNN
F 3 "~" H 2100 1650 50  0001 C CNN
	1    2100 1650
	0    -1   -1   0   
$EndComp
$Comp
L Device:R_Small R3
U 1 1 5F44A7CA
P 2100 1450
F 0 "R3" V 2000 1450 50  0000 C CNN
F 1 "22R" V 2100 1450 39  0000 C CNN
F 2 "Resistors_SMD:R_0805" H 2100 1450 50  0001 C CNN
F 3 "~" H 2100 1450 50  0001 C CNN
	1    2100 1450
	0    -1   -1   0   
$EndComp
Wire Wire Line
	1900 1450 2000 1450
Wire Wire Line
	1900 1650 2000 1650
Wire Wire Line
	2200 1450 2300 1450
Wire Wire Line
	2200 1650 2300 1650
Wire Wire Line
	1900 950  2300 950 
$Comp
L Device:R_Small R1
U 1 1 5F48361D
P 2100 1150
F 0 "R1" V 2200 1150 50  0000 C CNN
F 1 "5K1" V 2100 1150 39  0000 C CNN
F 2 "Resistors_SMD:R_0805" H 2100 1150 50  0001 C CNN
F 3 "~" H 2100 1150 50  0001 C CNN
	1    2100 1150
	0    -1   -1   0   
$EndComp
$Comp
L Device:R_Small R2
U 1 1 5F484271
P 2100 1250
F 0 "R2" V 2000 1250 50  0000 C CNN
F 1 "5K1" V 2100 1250 39  0000 C CNN
F 2 "Resistors_SMD:R_0805" H 2100 1250 50  0001 C CNN
F 3 "~" H 2100 1250 50  0001 C CNN
	1    2100 1250
	0    -1   -1   0   
$EndComp
Wire Wire Line
	1900 1150 2000 1150
Wire Wire Line
	1900 1250 2000 1250
$Comp
L power:GND #PWR020
U 1 1 5F4AAF4C
P 2750 1300
F 0 "#PWR020" H 2750 1050 50  0001 C CNN
F 1 "GND" H 2755 1127 50  0000 C CNN
F 2 "" H 2750 1300 50  0001 C CNN
F 3 "" H 2750 1300 50  0001 C CNN
	1    2750 1300
	1    0    0    -1  
$EndComp
Wire Wire Line
	2200 1250 2750 1250
Wire Wire Line
	2750 1250 2750 1300
Wire Wire Line
	2200 1150 2750 1150
Wire Wire Line
	2750 1150 2750 1250
Connection ~ 2750 1250
Text Notes 2700 700  0    50   ~ 0
USB C
Wire Wire Line
	1300 2450 1300 2500
$Comp
L Kappa:USB_C_Plug_USB2.0 J1
U 1 1 5F45B4CD
P 1300 1550
F 0 "J1" H 950 2300 50  0000 C CNN
F 1 "USB_C_Plug_USB2.0" V 850 1600 50  0000 C CNN
F 2 "Kappa:USBC_16P" H 1450 1550 50  0001 C CNN
F 3 "https://www.usb.org/sites/default/files/documents/usb_type-c.zip" H 1450 1550 50  0001 C CNN
	1    1300 1550
	1    0    0    -1  
$EndComp
Wire Notes Line
	600  600  600  2900
Wire Notes Line
	600  2900 3000 2900
Wire Notes Line
	3000 2900 3000 600 
Wire Notes Line
	600  600  3000 600 
Wire Wire Line
	1000 2450 1000 2500
Wire Wire Line
	1000 2500 1300 2500
Connection ~ 1300 2500
Wire Wire Line
	1300 2500 1300 2550
$Comp
L Device:R_Small R6
U 1 1 5EE5CFB8
P 4500 1100
F 0 "R6" V 4600 1100 50  0000 C CNN
F 1 "10K" V 4500 1100 39  0000 C CNN
F 2 "Resistors_SMD:R_0805" H 4500 1100 50  0001 C CNN
F 3 "~" H 4500 1100 50  0001 C CNN
	1    4500 1100
	-1   0    0    1   
$EndComp
Text GLabel 9050 2150 2    50   Input ~ 0
D17|SS
Wire Wire Line
	8800 2150 9050 2150
$Comp
L power:GND #PWR0102
U 1 1 5F4981D4
P 10000 4350
F 0 "#PWR0102" H 10000 4100 50  0001 C CNN
F 1 "GND" H 10005 4177 50  0000 C CNN
F 2 "" H 10000 4350 50  0001 C CNN
F 3 "" H 10000 4350 50  0001 C CNN
	1    10000 4350
	1    0    0    -1  
$EndComp
$Comp
L Device:C_Small C7
U 1 1 5E606B1C
P 7300 3600
F 0 "C7" H 7392 3646 50  0000 L CNN
F 1 "1.0uF" H 7392 3555 50  0000 L CNN
F 2 "Capacitors_SMD:C_0805" H 7300 3600 50  0001 C CNN
F 3 "~" H 7300 3600 50  0001 C CNN
	1    7300 3600
	1    0    0    -1  
$EndComp
Wire Wire Line
	7300 3500 7300 3450
Wire Wire Line
	7300 3450 7600 3450
$Comp
L Connector:Conn_01x17_Male J3
U 1 1 5F4E4FD8
P 2550 5950
F 0 "J3" H 2700 6900 50  0000 C CNN
F 1 "Conn_01x17_Male" V 2450 5950 50  0000 C CNN
F 2 "Kappa:Connector_1x17" H 2550 5950 50  0001 C CNN
F 3 "~" H 2550 5950 50  0001 C CNN
	1    2550 5950
	1    0    0    -1  
$EndComp
$Comp
L Connector:Conn_01x17_Male J2
U 1 1 5F4E9393
P 1700 5950
F 0 "J2" H 1900 5000 50  0000 R CNN
F 1 "Conn_01x17_Male" V 1600 6300 50  0000 R CNN
F 2 "Kappa:Connector_1x17" H 1700 5950 50  0001 C CNN
F 3 "~" H 1700 5950 50  0001 C CNN
	1    1700 5950
	-1   0    0    1   
$EndComp
Text GLabel 1250 5250 0    50   Input ~ 0
V3.3
Wire Wire Line
	1250 5250 1500 5250
Text GLabel 1250 5350 0    50   Input ~ 0
Aref
Wire Wire Line
	1250 5350 1500 5350
Text GLabel 1250 5450 0    50   Input ~ 0
A0
Wire Wire Line
	1500 5450 1250 5450
Text GLabel 1250 6350 0    50   Input ~ 0
Reset
Wire Wire Line
	1250 6350 1500 6350
Text GLabel 1250 6650 0    50   Input ~ 0
D14|MISO
Wire Wire Line
	1250 6650 1500 6650
Text GLabel 1250 6750 0    50   Input ~ 0
D15|SCK
Wire Wire Line
	1250 6750 1500 6750
Text GLabel 3000 5150 2    50   Input ~ 0
D12
Wire Wire Line
	2750 5150 3000 5150
Text GLabel 3000 5250 2    50   Input ~ 0
D11
Wire Wire Line
	2750 5250 3000 5250
$Comp
L power:GND #PWR0101
U 1 1 5F6342A9
P 3450 6300
F 0 "#PWR0101" H 3450 6050 50  0001 C CNN
F 1 "GND" H 3455 6127 50  0000 C CNN
F 2 "" H 3450 6300 50  0001 C CNN
F 3 "" H 3450 6300 50  0001 C CNN
	1    3450 6300
	1    0    0    -1  
$EndComp
Text GLabel 3000 5550 2    50   Input ~ 0
D8
Wire Wire Line
	2750 5550 3000 5550
Text GLabel 3000 6750 2    50   Input ~ 0
D16|MOSI
Wire Wire Line
	2750 6750 3000 6750
Wire Notes Line
	3650 4700 3650 6950
Wire Notes Line
	3650 6950 600  6950
Wire Notes Line
	600  6950 600  4700
Wire Notes Line
	600  4700 3650 4700
Wire Notes Line
	2400 4900 2400 5150
Wire Notes Line
	2400 5150 1850 5150
Wire Notes Line
	1850 5150 1850 4900
Wire Notes Line
	1850 4900 2400 4900
Text Notes 2050 5050 0    50   ~ 0
USB
Text GLabel 9050 3350 2    50   Input ~ 0
D3|SCL
Wire Wire Line
	8800 3350 9050 3350
Text GLabel 9050 3450 2    50   Input ~ 0
D2|SDA
Wire Wire Line
	8800 3450 9050 3450
NoConn ~ 8800 3850
$Comp
L Device:R_Small R8
U 1 1 5F70085A
P 9650 4250
F 0 "R8" V 9750 4250 50  0000 C CNN
F 1 "10K" V 9650 4250 39  0000 C CNN
F 2 "Resistors_SMD:R_0805" H 9650 4250 50  0001 C CNN
F 3 "~" H 9650 4250 50  0001 C CNN
	1    9650 4250
	0    -1   -1   0   
$EndComp
Wire Wire Line
	8800 4250 9550 4250
Wire Wire Line
	9750 4250 10000 4250
Wire Wire Line
	10000 4250 10000 4350
Wire Wire Line
	8300 1700 8200 1700
$Comp
L Device:R_Small R9
U 1 1 60A346C5
P 4500 1900
F 0 "R9" V 4600 1900 50  0000 C CNN
F 1 "1K0" V 4500 1900 39  0000 C CNN
F 2 "Resistors_SMD:R_0805" H 4500 1900 50  0001 C CNN
F 3 "~" H 4500 1900 50  0001 C CNN
	1    4500 1900
	-1   0    0    1   
$EndComp
Wire Notes Line
	4100 2350 5050 2350
Wire Notes Line
	4100 600  4100 2350
Wire Notes Line
	5050 600  5050 2350
Text GLabel 1250 5650 0    50   Input ~ 0
A2
Wire Wire Line
	1250 5650 1500 5650
NoConn ~ 1500 6050
Text GLabel 3000 5350 2    50   Input ~ 0
D10
Wire Wire Line
	2750 5350 3000 5350
Text GLabel 3000 5450 2    50   Input ~ 0
D9
Wire Wire Line
	2750 5450 3000 5450
Text GLabel 3000 5750 2    50   Input ~ 0
D6
Text GLabel 3000 5850 2    50   Input ~ 0
D5
Wire Wire Line
	2750 5750 3000 5750
Wire Wire Line
	2750 5850 3000 5850
$Comp
L power:GND #PWR0104
U 1 1 610AD8C8
P 7300 4250
F 0 "#PWR0104" H 7300 4000 50  0001 C CNN
F 1 "GND" H 7305 4077 50  0000 C CNN
F 2 "" H 7300 4250 50  0001 C CNN
F 3 "" H 7300 4250 50  0001 C CNN
	1    7300 4250
	1    0    0    -1  
$EndComp
Wire Wire Line
	7300 4100 7300 4250
Wire Wire Line
	700  6500 700  6450
Wire Wire Line
	700  6450 1500 6450
Wire Wire Line
	3450 6250 3450 6300
Wire Wire Line
	2750 6250 3450 6250
Wire Wire Line
	7200 2750 7600 2750
$Comp
L Device:LED_Small D2
U 1 1 60FB5296
P 5550 1600
F 0 "D2" V 5596 1532 50  0000 R CNN
F 1 "LED" V 5505 1532 50  0000 R CNN
F 2 "LEDs:LED_0805" V 5550 1600 50  0001 C CNN
F 3 "~" V 5550 1600 50  0001 C CNN
	1    5550 1600
	0    -1   -1   0   
$EndComp
$Comp
L Device:R_Small R10
U 1 1 60FB52A0
P 5550 1300
F 0 "R10" V 5650 1300 50  0000 C CNN
F 1 "1K0" V 5550 1300 39  0000 C CNN
F 2 "Resistors_SMD:R_0805" H 5550 1300 50  0001 C CNN
F 3 "~" H 5550 1300 50  0001 C CNN
	1    5550 1300
	-1   0    0    1   
$EndComp
$Comp
L power:GND #PWR0103
U 1 1 60FB52AA
P 5550 1850
F 0 "#PWR0103" H 5550 1600 50  0001 C CNN
F 1 "GND" H 5555 1677 50  0000 C CNN
F 2 "" H 5550 1850 50  0001 C CNN
F 3 "" H 5550 1850 50  0001 C CNN
	1    5550 1850
	1    0    0    -1  
$EndComp
Wire Notes Line
	5200 2100 5200 600 
Text Notes 5600 700  0    39   ~ 0
LED_BUILTIN
Wire Wire Line
	5550 1700 5550 1850
Wire Wire Line
	5550 1400 5550 1500
Text GLabel 5550 1000 1    50   Input ~ 0
D13
Wire Wire Line
	5550 1000 5550 1200
Wire Notes Line
	5200 600  6000 600 
Wire Notes Line
	6000 600  6000 2100
Wire Notes Line
	6000 2100 5200 2100
Wire Notes Line
	600  3000 3050 3000
Wire Notes Line
	3050 3000 3050 4600
Text GLabel 1250 6550 0    50   Input ~ 0
V3.3
Wire Wire Line
	1500 6550 1250 6550
$Comp
L power:PWR_FLAG #FLG0101
U 1 1 6118EC41
P 6450 800
F 0 "#FLG0101" H 6450 875 50  0001 C CNN
F 1 "PWR_FLAG" H 6450 973 50  0000 C CNN
F 2 "" H 6450 800 50  0001 C CNN
F 3 "~" H 6450 800 50  0001 C CNN
	1    6450 800 
	1    0    0    -1  
$EndComp
$Comp
L power:GND #PWR0105
U 1 1 6118F30E
P 6450 900
F 0 "#PWR0105" H 6450 650 50  0001 C CNN
F 1 "GND" H 6455 727 50  0000 C CNN
F 2 "" H 6450 900 50  0001 C CNN
F 3 "" H 6450 900 50  0001 C CNN
	1    6450 900 
	1    0    0    -1  
$EndComp
Wire Wire Line
	6450 800  6450 900 
$Comp
L power:GND #PWR?
U 1 1 611A0C52
P 700 6200
F 0 "#PWR?" H 700 5950 50  0001 C CNN
F 1 "GND" H 705 6027 50  0000 C CNN
F 2 "" H 700 6200 50  0001 C CNN
F 3 "" H 700 6200 50  0001 C CNN
	1    700  6200
	1    0    0    -1  
$EndComp
Wire Wire Line
	1500 6150 700  6150
Wire Wire Line
	700  6150 700  6200
Text GLabel 7950 1650 0    50   Input ~ 0
Vbus
Wire Wire Line
	7950 1650 8100 1650
Wire Wire Line
	8100 1650 8100 1850
$EndSCHEMATC
