EESchema Schematic File Version 4
EELAYER 30 0
EELAYER END
$Descr A4 11693 8268
encoding utf-8
Sheet 1 1
Title "Kappa"
Date ""
Rev ""
Comp ""
Comment1 "An AtMega32U4 3.3volts microcontroller"
Comment2 ""
Comment3 ""
Comment4 ""
$EndDescr
$Comp
L Connector:USB_B_Mini J3
U 1 1 5E5E16EB
P 900 1100
F 0 "J3" H 957 1567 50  0000 C CNN
F 1 "USB_B_Mini" H 957 1476 50  0000 C CNN
F 2 "" H 1050 1050 50  0001 C CNN
F 3 "~" H 1050 1050 50  0001 C CNN
	1    900  1100
	1    0    0    -1  
$EndComp
NoConn ~ 1200 1300
$Comp
L power:GND #PWR?
U 1 1 5E5E1F41
P 900 1650
F 0 "#PWR?" H 900 1400 50  0001 C CNN
F 1 "GND" H 905 1477 50  0000 C CNN
F 2 "" H 900 1650 50  0001 C CNN
F 3 "" H 900 1650 50  0001 C CNN
	1    900  1650
	1    0    0    -1  
$EndComp
Wire Wire Line
	900  1500 900  1550
Wire Wire Line
	800  1500 800  1550
Wire Wire Line
	800  1550 900  1550
Connection ~ 900  1550
Wire Wire Line
	900  1550 900  1650
$Comp
L Device:R_Small R?
U 1 1 5E5E2AE5
P 1500 1100
F 0 "R?" V 1400 1100 50  0000 C CNN
F 1 "22R" V 1500 1100 50  0000 C CNN
F 2 "" H 1500 1100 50  0001 C CNN
F 3 "~" H 1500 1100 50  0001 C CNN
	1    1500 1100
	0    1    1    0   
$EndComp
$Comp
L Device:R_Small R?
U 1 1 5E5E35F4
P 1500 1200
F 0 "R?" V 1600 1200 50  0000 C CNN
F 1 "22R" V 1500 1200 50  0000 C CNN
F 2 "" H 1500 1200 50  0001 C CNN
F 3 "~" H 1500 1200 50  0001 C CNN
	1    1500 1200
	0    1    1    0   
$EndComp
Wire Wire Line
	1200 1100 1400 1100
Wire Wire Line
	1200 1200 1400 1200
Text GLabel 1400 900  2    50   Input ~ 0
Vbus
Wire Wire Line
	1200 900  1400 900 
Text GLabel 1800 1100 2    50   Input ~ 0
D+
Text GLabel 1800 1200 2    50   Input ~ 0
D-
Wire Wire Line
	1600 1100 1800 1100
Wire Wire Line
	1600 1200 1800 1200
Text GLabel 8000 2050 0    50   Input ~ 0
Reset
Wire Wire Line
	8000 2050 8150 2050
Text GLabel 8000 2850 0    50   Input ~ 0
Vbus
Wire Wire Line
	8000 2850 8150 2850
Text GLabel 8000 3050 0    50   Input ~ 0
D+
Text GLabel 8000 3150 0    50   Input ~ 0
D-
Wire Wire Line
	8000 3050 8150 3050
Wire Wire Line
	8000 3150 8150 3150
$Comp
L Device:C_Small C?
U 1 1 5E5EE4CB
P 6950 2500
F 0 "C?" V 6721 2500 50  0000 C CNN
F 1 "22pF" V 6812 2500 50  0000 C CNN
F 2 "" H 6950 2500 50  0001 C CNN
F 3 "~" H 6950 2500 50  0001 C CNN
	1    6950 2500
	0    1    1    0   
$EndComp
$Comp
L Device:C_Small C?
U 1 1 5E5EF206
P 6950 2200
F 0 "C?" V 6721 2200 50  0000 C CNN
F 1 "22pF" V 6812 2200 50  0000 C CNN
F 2 "" H 6950 2200 50  0001 C CNN
F 3 "~" H 6950 2200 50  0001 C CNN
	1    6950 2200
	0    1    1    0   
$EndComp
$Comp
L Device:Crystal Y?
U 1 1 5E5EF7B6
P 7300 2350
F 0 "Y?" V 7254 2481 50  0000 L CNN
F 1 "Crystal" V 7345 2481 50  0000 L CNN
F 2 "" H 7300 2350 50  0001 C CNN
F 3 "~" H 7300 2350 50  0001 C CNN
	1    7300 2350
	0    1    1    0   
$EndComp
Wire Wire Line
	7050 2200 7300 2200
Wire Wire Line
	7300 2200 7750 2200
Wire Wire Line
	7750 2200 7750 2250
Wire Wire Line
	7750 2250 8150 2250
Connection ~ 7300 2200
Wire Wire Line
	7300 2500 7750 2500
Wire Wire Line
	7750 2500 7750 2450
Wire Wire Line
	7750 2450 8150 2450
Wire Wire Line
	7050 2500 7300 2500
Connection ~ 7300 2500
Wire Wire Line
	6850 2200 6700 2200
Wire Wire Line
	6700 2200 6700 2350
Wire Wire Line
	6700 2500 6850 2500
$Comp
L power:GND #PWR?
U 1 1 5E5F2AD7
P 6450 2450
F 0 "#PWR?" H 6450 2200 50  0001 C CNN
F 1 "GND" H 6455 2277 50  0000 C CNN
F 2 "" H 6450 2450 50  0001 C CNN
F 3 "" H 6450 2450 50  0001 C CNN
	1    6450 2450
	1    0    0    -1  
$EndComp
Wire Wire Line
	6450 2450 6450 2350
Wire Wire Line
	6450 2350 6700 2350
Connection ~ 6700 2350
Wire Wire Line
	6700 2350 6700 2500
$Comp
L Device:C_Small C?
U 1 1 5E5F38AD
P 7350 2800
F 0 "C?" H 7258 2754 50  0000 R CNN
F 1 "1uF" H 7258 2845 50  0000 R CNN
F 2 "" H 7350 2800 50  0001 C CNN
F 3 "~" H 7350 2800 50  0001 C CNN
	1    7350 2800
	-1   0    0    1   
$EndComp
$Comp
L power:GND #PWR?
U 1 1 5E5F49BD
P 7350 3000
F 0 "#PWR?" H 7350 2750 50  0001 C CNN
F 1 "GND" H 7355 2827 50  0000 C CNN
F 2 "" H 7350 3000 50  0001 C CNN
F 3 "" H 7350 3000 50  0001 C CNN
	1    7350 3000
	1    0    0    -1  
$EndComp
Wire Wire Line
	8150 2650 7350 2650
Wire Wire Line
	7350 2650 7350 2700
Wire Wire Line
	7350 2900 7350 3000
$Comp
L Device:C_Small C?
U 1 1 5E5F56A2
P 7850 3550
F 0 "C?" H 7758 3504 50  0000 R CNN
F 1 "1uF" H 7758 3595 50  0000 R CNN
F 2 "" H 7850 3550 50  0001 C CNN
F 3 "~" H 7850 3550 50  0001 C CNN
	1    7850 3550
	-1   0    0    1   
$EndComp
Text GLabel 7650 3350 0    50   Input ~ 0
V3.3
Wire Wire Line
	7650 3350 7850 3350
Wire Wire Line
	7850 3450 7850 3350
Connection ~ 7850 3350
Wire Wire Line
	7850 3350 8150 3350
$Comp
L power:GND #PWR?
U 1 1 5E5F6B6B
P 7850 3700
F 0 "#PWR?" H 7850 3450 50  0001 C CNN
F 1 "GND" H 7855 3527 50  0000 C CNN
F 2 "" H 7850 3700 50  0001 C CNN
F 3 "" H 7850 3700 50  0001 C CNN
	1    7850 3700
	1    0    0    -1  
$EndComp
Wire Wire Line
	7850 3700 7850 3650
NoConn ~ 8650 1750
Wire Wire Line
	8750 1750 8750 1650
Wire Wire Line
	8750 1650 8850 1650
Wire Wire Line
	8850 1650 8850 1750
Text GLabel 8750 1400 1    50   Input ~ 0
V3.3
Wire Wire Line
	8750 1400 8750 1650
Connection ~ 8750 1650
$Comp
L MCU_Microchip_ATmega:ATmega32U4-AU U?
U 1 1 5E5F917E
P 8750 3550
F 0 "U?" H 8300 5300 50  0000 C CNN
F 1 "ATmega32U4-AU" V 8750 3550 50  0000 C CNN
F 2 "Package_QFP:TQFP-44_10x10mm_P0.8mm" H 8750 3550 50  0001 C CIN
F 3 "http://ww1.microchip.com/downloads/en/DeviceDoc/Atmel-7766-8-bit-AVR-ATmega16U4-32U4_Datasheet.pdf" H 8750 3550 50  0001 C CNN
	1    8750 3550
	1    0    0    -1  
$EndComp
Wire Wire Line
	8650 5350 8650 5450
Wire Wire Line
	8650 5450 8750 5450
Wire Wire Line
	8750 5450 8750 5350
$Comp
L power:GND #PWR?
U 1 1 5E5FD2B5
P 8750 5550
F 0 "#PWR?" H 8750 5300 50  0001 C CNN
F 1 "GND" H 8755 5377 50  0000 C CNN
F 2 "" H 8750 5550 50  0001 C CNN
F 3 "" H 8750 5550 50  0001 C CNN
	1    8750 5550
	1    0    0    -1  
$EndComp
Wire Wire Line
	8750 5550 8750 5450
Connection ~ 8750 5450
$EndSCHEMATC
