(export (version D)
  (design
    (source /Users/r-w/gitlab/kicad-projects/Lambda/Lambda.sch)
    (date "Saturday, 19 June 2021 at 20:14:15")
    (tool "Eeschema (5.1.9-0-10_14)")
    (sheet (number 1) (name /) (tstamps /)
      (title_block
        (title "Lambda - A minimal STM32F103C8Tx microcontroller")
        (company)
        (rev 1.0)
        (date 2021-06-19)
        (source Lambda.sch)
        (comment (number 1) (value ""))
        (comment (number 2) (value ""))
        (comment (number 3) (value ""))
        (comment (number 4) (value "Based loosely on the \"Blue Pill\" schematic.")))))
  (components
    (comp (ref Y1)
      (value 8MHz)
      (footprint Crystals:Crystal_SMD_3215-2pin_3.2x1.5mm)
      (datasheet ~)
      (libsource (lib Device) (part Crystal) (description "Two pin crystal"))
      (sheetpath (names /) (tstamps /))
      (tstamp 60CDFBE6))
    (comp (ref R1)
      (value 1M0)
      (footprint Resistors_SMD:R_0603)
      (datasheet ~)
      (libsource (lib Device) (part R_Small) (description "Resistor, small symbol"))
      (sheetpath (names /) (tstamps /))
      (tstamp 60CE16E7))
    (comp (ref C1)
      (value 20pF)
      (footprint Capacitors_SMD:C_0603)
      (datasheet ~)
      (libsource (lib Device) (part C_Small) (description "Unpolarized capacitor, small symbol"))
      (sheetpath (names /) (tstamps /))
      (tstamp 60CE33B2))
    (comp (ref C2)
      (value 20pF)
      (footprint Capacitors_SMD:C_0603)
      (datasheet ~)
      (libsource (lib Device) (part C_Small) (description "Unpolarized capacitor, small symbol"))
      (sheetpath (names /) (tstamps /))
      (tstamp 60CE2BC8))
    (comp (ref Y2)
      (value 32.678KHz)
      (footprint Crystals:Crystal_DS26_d2.0mm_l6.0mm_Horizontal)
      (datasheet ~)
      (libsource (lib Device) (part Crystal) (description "Two pin crystal"))
      (sheetpath (names /) (tstamps /))
      (tstamp 60CF0431))
    (comp (ref C3)
      (value 20pF)
      (footprint Capacitors_SMD:C_0603)
      (datasheet ~)
      (libsource (lib Device) (part C_Small) (description "Unpolarized capacitor, small symbol"))
      (sheetpath (names /) (tstamps /))
      (tstamp 60CF043D))
    (comp (ref C4)
      (value 20pF)
      (footprint Capacitors_SMD:C_0603)
      (datasheet ~)
      (libsource (lib Device) (part C_Small) (description "Unpolarized capacitor, small symbol"))
      (sheetpath (names /) (tstamps /))
      (tstamp 60CF045A))
    (comp (ref C5)
      (value 10uF)
      (footprint Capacitors_SMD:C_0603)
      (datasheet ~)
      (libsource (lib Device) (part C_Small) (description "Unpolarized capacitor, small symbol"))
      (sheetpath (names /) (tstamps /))
      (tstamp 60CF628A))
    (comp (ref C6)
      (value 100nF)
      (footprint Capacitors_SMD:C_0603)
      (datasheet ~)
      (libsource (lib Device) (part C_Small) (description "Unpolarized capacitor, small symbol"))
      (sheetpath (names /) (tstamps /))
      (tstamp 60CFCE23))
    (comp (ref U1)
      (value STM32F103C8Tx)
      (footprint Housings_QFP:LQFP-48_7x7mm_Pitch0.5mm)
      (datasheet http://www.st.com/st-web-ui/static/active/en/resource/technical/document/datasheet/CD00161566.pdf)
      (libsource (lib MCU_ST_STM32F1) (part STM32F103C8Tx) (description "ARM Cortex-M3 MCU, 64KB flash, 20KB RAM, 72MHz, 2-3.6V, 37 GPIO, LQFP-48"))
      (sheetpath (names /) (tstamps /))
      (tstamp 60CDA6B8))
    (comp (ref C7)
      (value 100nF)
      (footprint Capacitors_SMD:C_0603)
      (datasheet ~)
      (libsource (lib Device) (part C_Small) (description "Unpolarized capacitor, small symbol"))
      (sheetpath (names /) (tstamps /))
      (tstamp 60D02D0C))
    (comp (ref C8)
      (value 100nF)
      (footprint Capacitors_SMD:C_0603)
      (datasheet ~)
      (libsource (lib Device) (part C_Small) (description "Unpolarized capacitor, small symbol"))
      (sheetpath (names /) (tstamps /))
      (tstamp 60D030D1))
    (comp (ref C9)
      (value 100nF)
      (footprint Capacitors_SMD:C_0603)
      (datasheet ~)
      (libsource (lib Device) (part C_Small) (description "Unpolarized capacitor, small symbol"))
      (sheetpath (names /) (tstamps /))
      (tstamp 60D03576))
    (comp (ref R2)
      (value 10K)
      (footprint Resistors_SMD:R_0603)
      (datasheet ~)
      (libsource (lib Device) (part R_Small) (description "Resistor, small symbol"))
      (sheetpath (names /) (tstamps /))
      (tstamp 60D0E3B4))
    (comp (ref C10)
      (value 100nF)
      (footprint Capacitors_SMD:C_0603)
      (datasheet ~)
      (libsource (lib Device) (part C_Small) (description "Unpolarized capacitor, small symbol"))
      (sheetpath (names /) (tstamps /))
      (tstamp 60D0EB98))
    (comp (ref SW1)
      (value Reset)
      (footprint Lambda:Button)
      (datasheet ~)
      (libsource (lib Switch) (part SW_SPST) (description "Single Pole Single Throw (SPST) switch"))
      (sheetpath (names /) (tstamps /))
      (tstamp 60D13B59))
    (comp (ref J1)
      (value Boot0/1)
      (footprint Socket_Strips:Socket_Strip_Straight_2x03_Pitch2.54mm)
      (datasheet ~)
      (libsource (lib Connector_Generic) (part Conn_02x03_Odd_Even) (description "Generic connector, double row, 02x03, odd/even pin numbering scheme (row 1 odd numbers, row 2 even numbers), script generated (kicad-library-utils/schlib/autogen/connector/)"))
      (sheetpath (names /) (tstamps /))
      (tstamp 60D2039F))
    (comp (ref R4)
      (value 10K)
      (footprint Resistors_SMD:R_0603)
      (datasheet ~)
      (libsource (lib Device) (part R_Small) (description "Resistor, small symbol"))
      (sheetpath (names /) (tstamps /))
      (tstamp 60D27E30))
    (comp (ref R3)
      (value 10K)
      (footprint Resistors_SMD:R_0603)
      (datasheet ~)
      (libsource (lib Device) (part R_Small) (description "Resistor, small symbol"))
      (sheetpath (names /) (tstamps /))
      (tstamp 60D2875A))
    (comp (ref J4)
      (value "Header Pins")
      (footprint Socket_Strips:Socket_Strip_Straight_1x20_Pitch2.54mm)
      (datasheet ~)
      (libsource (lib Connector) (part Conn_01x20_Male) (description "Generic connector, single row, 01x20, script generated (kicad-library-utils/schlib/autogen/connector/)"))
      (sheetpath (names /) (tstamps /))
      (tstamp 60D82E38))
    (comp (ref J3)
      (value "Header Pins")
      (footprint Socket_Strips:Socket_Strip_Straight_1x20_Pitch2.54mm)
      (datasheet ~)
      (libsource (lib Connector) (part Conn_01x20_Male) (description "Generic connector, single row, 01x20, script generated (kicad-library-utils/schlib/autogen/connector/)"))
      (sheetpath (names /) (tstamps /))
      (tstamp 60D871D1))
    (comp (ref R6)
      (value 10K)
      (footprint Resistors_SMD:R_0603)
      (datasheet ~)
      (libsource (lib Device) (part R_Small) (description "Resistor, small symbol"))
      (sheetpath (names /) (tstamps /))
      (tstamp 60D552DF))
    (comp (ref R5)
      (value 10K)
      (footprint Resistors_SMD:R_0603)
      (datasheet ~)
      (libsource (lib Device) (part R_Small) (description "Resistor, small symbol"))
      (sheetpath (names /) (tstamps /))
      (tstamp 60D549FA))
    (comp (ref J2)
      (value DEBUG)
      (footprint Socket_Strips:Socket_Strip_Straight_1x04_Pitch2.54mm)
      (datasheet ~)
      (libsource (lib Connector) (part Conn_01x04_Male) (description "Generic connector, single row, 01x04, script generated (kicad-library-utils/schlib/autogen/connector/)"))
      (sheetpath (names /) (tstamps /))
      (tstamp 60D4AC62))
    (comp (ref R7)
      (value 1K0)
      (footprint Resistors_SMD:R_0603)
      (datasheet ~)
      (libsource (lib Device) (part R_Small) (description "Resistor, small symbol"))
      (sheetpath (names /) (tstamps /))
      (tstamp 60D49588))
    (comp (ref D1)
      (value Power)
      (footprint LEDs:LED_0805)
      (datasheet ~)
      (libsource (lib Device) (part LED) (description "Light emitting diode"))
      (sheetpath (names /) (tstamps /))
      (tstamp 60D4A0AC)))
  (libparts
    (libpart (lib Connector) (part Conn_01x04_Male)
      (description "Generic connector, single row, 01x04, script generated (kicad-library-utils/schlib/autogen/connector/)")
      (docs ~)
      (footprints
        (fp Connector*:*_1x??_*))
      (fields
        (field (name Reference) J)
        (field (name Value) Conn_01x04_Male))
      (pins
        (pin (num 1) (name Pin_1) (type passive))
        (pin (num 2) (name Pin_2) (type passive))
        (pin (num 3) (name Pin_3) (type passive))
        (pin (num 4) (name Pin_4) (type passive))))
    (libpart (lib Connector) (part Conn_01x20_Male)
      (description "Generic connector, single row, 01x20, script generated (kicad-library-utils/schlib/autogen/connector/)")
      (docs ~)
      (footprints
        (fp Connector*:*_1x??_*))
      (fields
        (field (name Reference) J)
        (field (name Value) Conn_01x20_Male))
      (pins
        (pin (num 1) (name Pin_1) (type passive))
        (pin (num 2) (name Pin_2) (type passive))
        (pin (num 3) (name Pin_3) (type passive))
        (pin (num 4) (name Pin_4) (type passive))
        (pin (num 5) (name Pin_5) (type passive))
        (pin (num 6) (name Pin_6) (type passive))
        (pin (num 7) (name Pin_7) (type passive))
        (pin (num 8) (name Pin_8) (type passive))
        (pin (num 9) (name Pin_9) (type passive))
        (pin (num 10) (name Pin_10) (type passive))
        (pin (num 11) (name Pin_11) (type passive))
        (pin (num 12) (name Pin_12) (type passive))
        (pin (num 13) (name Pin_13) (type passive))
        (pin (num 14) (name Pin_14) (type passive))
        (pin (num 15) (name Pin_15) (type passive))
        (pin (num 16) (name Pin_16) (type passive))
        (pin (num 17) (name Pin_17) (type passive))
        (pin (num 18) (name Pin_18) (type passive))
        (pin (num 19) (name Pin_19) (type passive))
        (pin (num 20) (name Pin_20) (type passive))))
    (libpart (lib Connector_Generic) (part Conn_02x03_Odd_Even)
      (description "Generic connector, double row, 02x03, odd/even pin numbering scheme (row 1 odd numbers, row 2 even numbers), script generated (kicad-library-utils/schlib/autogen/connector/)")
      (docs ~)
      (footprints
        (fp Connector*:*_2x??_*))
      (fields
        (field (name Reference) J)
        (field (name Value) Conn_02x03_Odd_Even))
      (pins
        (pin (num 1) (name Pin_1) (type passive))
        (pin (num 2) (name Pin_2) (type passive))
        (pin (num 3) (name Pin_3) (type passive))
        (pin (num 4) (name Pin_4) (type passive))
        (pin (num 5) (name Pin_5) (type passive))
        (pin (num 6) (name Pin_6) (type passive))))
    (libpart (lib Device) (part C_Small)
      (description "Unpolarized capacitor, small symbol")
      (docs ~)
      (footprints
        (fp C_*))
      (fields
        (field (name Reference) C)
        (field (name Value) C_Small))
      (pins
        (pin (num 1) (name ~) (type passive))
        (pin (num 2) (name ~) (type passive))))
    (libpart (lib Device) (part Crystal)
      (description "Two pin crystal")
      (docs ~)
      (footprints
        (fp Crystal*))
      (fields
        (field (name Reference) Y)
        (field (name Value) Crystal))
      (pins
        (pin (num 1) (name 1) (type passive))
        (pin (num 2) (name 2) (type passive))))
    (libpart (lib Device) (part LED)
      (description "Light emitting diode")
      (docs ~)
      (footprints
        (fp LED*)
        (fp LED_SMD:*)
        (fp LED_THT:*))
      (fields
        (field (name Reference) D)
        (field (name Value) LED))
      (pins
        (pin (num 1) (name K) (type passive))
        (pin (num 2) (name A) (type passive))))
    (libpart (lib Device) (part R_Small)
      (description "Resistor, small symbol")
      (docs ~)
      (footprints
        (fp R_*))
      (fields
        (field (name Reference) R)
        (field (name Value) R_Small))
      (pins
        (pin (num 1) (name ~) (type passive))
        (pin (num 2) (name ~) (type passive))))
    (libpart (lib MCU_ST_STM32F1) (part STM32F103C8Tx)
      (aliases
        (alias STM32F103CBTx))
      (description "ARM Cortex-M3 MCU, 64KB flash, 20KB RAM, 72MHz, 2-3.6V, 37 GPIO, LQFP-48")
      (docs http://www.st.com/st-web-ui/static/active/en/resource/technical/document/datasheet/CD00161566.pdf)
      (footprints
        (fp LQFP*7x7mm*P0.5mm*))
      (fields
        (field (name Reference) U)
        (field (name Value) STM32F103C8Tx)
        (field (name Footprint) Package_QFP:LQFP-48_7x7mm_P0.5mm))
      (pins
        (pin (num 1) (name VBAT) (type power_in))
        (pin (num 2) (name PC13) (type BiDi))
        (pin (num 3) (name PC14) (type BiDi))
        (pin (num 4) (name PC15) (type BiDi))
        (pin (num 5) (name PD0) (type input))
        (pin (num 6) (name PD1) (type input))
        (pin (num 7) (name NRST) (type input))
        (pin (num 8) (name VSSA) (type power_in))
        (pin (num 9) (name VDDA) (type power_in))
        (pin (num 10) (name PA0) (type BiDi))
        (pin (num 11) (name PA1) (type BiDi))
        (pin (num 12) (name PA2) (type BiDi))
        (pin (num 13) (name PA3) (type BiDi))
        (pin (num 14) (name PA4) (type BiDi))
        (pin (num 15) (name PA5) (type BiDi))
        (pin (num 16) (name PA6) (type BiDi))
        (pin (num 17) (name PA7) (type BiDi))
        (pin (num 18) (name PB0) (type BiDi))
        (pin (num 19) (name PB1) (type BiDi))
        (pin (num 20) (name PB2) (type BiDi))
        (pin (num 21) (name PB10) (type BiDi))
        (pin (num 22) (name PB11) (type BiDi))
        (pin (num 23) (name VSS) (type power_in))
        (pin (num 24) (name VDD) (type power_in))
        (pin (num 25) (name PB12) (type BiDi))
        (pin (num 26) (name PB13) (type BiDi))
        (pin (num 27) (name PB14) (type BiDi))
        (pin (num 28) (name PB15) (type BiDi))
        (pin (num 29) (name PA8) (type BiDi))
        (pin (num 30) (name PA9) (type BiDi))
        (pin (num 31) (name PA10) (type BiDi))
        (pin (num 32) (name PA11) (type BiDi))
        (pin (num 33) (name PA12) (type BiDi))
        (pin (num 34) (name PA13) (type BiDi))
        (pin (num 35) (name VSS) (type power_in))
        (pin (num 36) (name VDD) (type power_in))
        (pin (num 37) (name PA14) (type BiDi))
        (pin (num 38) (name PA15) (type BiDi))
        (pin (num 39) (name PB3) (type BiDi))
        (pin (num 40) (name PB4) (type BiDi))
        (pin (num 41) (name PB5) (type BiDi))
        (pin (num 42) (name PB6) (type BiDi))
        (pin (num 43) (name PB7) (type BiDi))
        (pin (num 44) (name BOOT0) (type input))
        (pin (num 45) (name PB8) (type BiDi))
        (pin (num 46) (name PB9) (type BiDi))
        (pin (num 47) (name VSS) (type power_in))
        (pin (num 48) (name VDD) (type power_in))))
    (libpart (lib Switch) (part SW_SPST)
      (description "Single Pole Single Throw (SPST) switch")
      (docs ~)
      (fields
        (field (name Reference) SW)
        (field (name Value) SW_SPST))
      (pins
        (pin (num 1) (name A) (type passive))
        (pin (num 2) (name B) (type passive)))))
  (libraries
    (library (logical Connector)
      (uri "/Library/Application Support/kicad/library/Connector.lib"))
    (library (logical Connector_Generic)
      (uri "/Library/Application Support/kicad/library/Connector_Generic.lib"))
    (library (logical Device)
      (uri "/Library/Application Support/kicad/library/Device.lib"))
    (library (logical MCU_ST_STM32F1)
      (uri "/Library/Application Support/kicad/library/MCU_ST_STM32F1.lib"))
    (library (logical Switch)
      (uri "/Library/Application Support/kicad/library/Switch.lib")))
  (nets
    (net (code 1) (name OSCOUT)
      (node (ref U1) (pin 6))
      (node (ref Y1) (pin 2))
      (node (ref R1) (pin 2))
      (node (ref C2) (pin 1)))
    (net (code 2) (name GND)
      (node (ref C2) (pin 2))
      (node (ref R5) (pin 2))
      (node (ref J2) (pin 4))
      (node (ref D1) (pin 1))
      (node (ref C1) (pin 2))
      (node (ref C3) (pin 2))
      (node (ref C4) (pin 2))
      (node (ref J3) (pin 19))
      (node (ref J4) (pin 2))
      (node (ref J1) (pin 6))
      (node (ref J1) (pin 5))
      (node (ref C5) (pin 1))
      (node (ref C6) (pin 1))
      (node (ref SW1) (pin 1))
      (node (ref C10) (pin 1))
      (node (ref C9) (pin 1))
      (node (ref C8) (pin 1))
      (node (ref C7) (pin 1))
      (node (ref U1) (pin 8))
      (node (ref U1) (pin 47))
      (node (ref U1) (pin 35))
      (node (ref U1) (pin 23))
      (node (ref J3) (pin 20)))
    (net (code 3) (name OSCIN)
      (node (ref Y1) (pin 1))
      (node (ref R1) (pin 1))
      (node (ref C1) (pin 1))
      (node (ref U1) (pin 5)))
    (net (code 4) (name OSC32_IN)
      (node (ref U1) (pin 2))
      (node (ref C3) (pin 1))
      (node (ref Y2) (pin 1)))
    (net (code 5) (name OSC32_OUT)
      (node (ref U1) (pin 3))
      (node (ref C4) (pin 1))
      (node (ref Y2) (pin 2)))
    (net (code 6) (name PC15)
      (node (ref U1) (pin 4))
      (node (ref J3) (pin 4)))
    (net (code 7) (name VCC)
      (node (ref R6) (pin 1))
      (node (ref R2) (pin 1))
      (node (ref J3) (pin 18))
      (node (ref C6) (pin 2))
      (node (ref C5) (pin 2))
      (node (ref C9) (pin 2))
      (node (ref J3) (pin 1))
      (node (ref C8) (pin 2))
      (node (ref J1) (pin 1))
      (node (ref J1) (pin 2))
      (node (ref J4) (pin 3))
      (node (ref C7) (pin 2))
      (node (ref J2) (pin 1))
      (node (ref U1) (pin 9))
      (node (ref U1) (pin 48))
      (node (ref J4) (pin 1))
      (node (ref U1) (pin 36))
      (node (ref U1) (pin 24))
      (node (ref U1) (pin 1))
      (node (ref R7) (pin 1)))
    (net (code 8) (name NRST)
      (node (ref J3) (pin 17))
      (node (ref R2) (pin 2))
      (node (ref C10) (pin 2))
      (node (ref U1) (pin 7))
      (node (ref SW1) (pin 2)))
    (net (code 9) (name "Net-(J1-Pad4)")
      (node (ref J1) (pin 4))
      (node (ref R4) (pin 2)))
    (net (code 10) (name "Net-(J1-Pad3)")
      (node (ref R3) (pin 1))
      (node (ref J1) (pin 3)))
    (net (code 11) (name BOOT0)
      (node (ref R3) (pin 2))
      (node (ref U1) (pin 44)))
    (net (code 12) (name BOOT1)
      (node (ref R4) (pin 1))
      (node (ref U1) (pin 20)))
    (net (code 13) (name SWDIO)
      (node (ref J2) (pin 2))
      (node (ref R5) (pin 1))
      (node (ref U1) (pin 34)))
    (net (code 14) (name SWCLK)
      (node (ref J2) (pin 3))
      (node (ref R6) (pin 2))
      (node (ref U1) (pin 37)))
    (net (code 15) (name PB9)
      (node (ref J4) (pin 4))
      (node (ref U1) (pin 46)))
    (net (code 16) (name PB8)
      (node (ref U1) (pin 45))
      (node (ref J4) (pin 5)))
    (net (code 17) (name PB7)
      (node (ref U1) (pin 43))
      (node (ref J4) (pin 6)))
    (net (code 18) (name PB6)
      (node (ref J4) (pin 7))
      (node (ref U1) (pin 42)))
    (net (code 19) (name PB5)
      (node (ref J4) (pin 8))
      (node (ref U1) (pin 41)))
    (net (code 20) (name PB4)
      (node (ref J4) (pin 9))
      (node (ref U1) (pin 40)))
    (net (code 21) (name PB3)
      (node (ref J4) (pin 10))
      (node (ref U1) (pin 39)))
    (net (code 22) (name PA15)
      (node (ref U1) (pin 38))
      (node (ref J4) (pin 11)))
    (net (code 23) (name PA12)
      (node (ref J4) (pin 12))
      (node (ref U1) (pin 33)))
    (net (code 24) (name PA11)
      (node (ref J4) (pin 13))
      (node (ref U1) (pin 32)))
    (net (code 25) (name PA10)
      (node (ref J4) (pin 14))
      (node (ref U1) (pin 31)))
    (net (code 26) (name PA9)
      (node (ref U1) (pin 30))
      (node (ref J4) (pin 15)))
    (net (code 27) (name PA8)
      (node (ref U1) (pin 29))
      (node (ref J4) (pin 16)))
    (net (code 28) (name PC13)
      (node (ref J3) (pin 2)))
    (net (code 29) (name PC14)
      (node (ref J3) (pin 3)))
    (net (code 30) (name PA0)
      (node (ref U1) (pin 10))
      (node (ref J3) (pin 5)))
    (net (code 31) (name PA1)
      (node (ref J3) (pin 6))
      (node (ref U1) (pin 11)))
    (net (code 32) (name PA2)
      (node (ref U1) (pin 12))
      (node (ref J3) (pin 7)))
    (net (code 33) (name PA3)
      (node (ref U1) (pin 13))
      (node (ref J3) (pin 8)))
    (net (code 34) (name PA4)
      (node (ref J3) (pin 9))
      (node (ref U1) (pin 14)))
    (net (code 35) (name PA5)
      (node (ref U1) (pin 15))
      (node (ref J3) (pin 10)))
    (net (code 36) (name PA6)
      (node (ref U1) (pin 16))
      (node (ref J3) (pin 11)))
    (net (code 37) (name PA7)
      (node (ref J3) (pin 12))
      (node (ref U1) (pin 17)))
    (net (code 38) (name PB15)
      (node (ref J4) (pin 17))
      (node (ref U1) (pin 28)))
    (net (code 39) (name PB14)
      (node (ref U1) (pin 27))
      (node (ref J4) (pin 18)))
    (net (code 40) (name PB13)
      (node (ref U1) (pin 26))
      (node (ref J4) (pin 19)))
    (net (code 41) (name PB12)
      (node (ref J4) (pin 20))
      (node (ref U1) (pin 25)))
    (net (code 42) (name PB0)
      (node (ref U1) (pin 18))
      (node (ref J3) (pin 13)))
    (net (code 43) (name PB1)
      (node (ref U1) (pin 19))
      (node (ref J3) (pin 14)))
    (net (code 44) (name PB10)
      (node (ref U1) (pin 21))
      (node (ref J3) (pin 15)))
    (net (code 45) (name PB11)
      (node (ref U1) (pin 22))
      (node (ref J3) (pin 16)))
    (net (code 46) (name "Net-(D1-Pad2)")
      (node (ref R7) (pin 2))
      (node (ref D1) (pin 2)))))