EESchema Schematic File Version 4
EELAYER 30 0
EELAYER END
$Descr A4 11693 8268
encoding utf-8
Sheet 1 1
Title "Lambda - A minimal STM32F103C8Tx microcontroller"
Date "2021-06-19"
Rev "1.0"
Comp ""
Comment1 ""
Comment2 ""
Comment3 ""
Comment4 "Based loosely on the \"Blue Pill\" schematic."
$EndDescr
$Comp
L Device:Crystal Y1
U 1 1 60CDFBE6
P 1450 1100
F 0 "Y1" V 1404 1231 50  0000 L CNN
F 1 "8MHz" V 1495 1231 50  0000 L CNN
F 2 "Crystals:Crystal_SMD_3215-2pin_3.2x1.5mm" H 1450 1100 50  0001 C CNN
F 3 "~" H 1450 1100 50  0001 C CNN
	1    1450 1100
	0    1    1    0   
$EndComp
$Comp
L Device:R_Small R1
U 1 1 60CE16E7
P 1950 1100
F 0 "R1" H 2009 1146 50  0000 L CNN
F 1 "1M0" H 2009 1055 50  0000 L CNN
F 2 "Resistors_SMD:R_0603" H 1950 1100 50  0001 C CNN
F 3 "~" H 1950 1100 50  0001 C CNN
	1    1950 1100
	1    0    0    -1  
$EndComp
$Comp
L Device:C_Small C1
U 1 1 60CE33B2
P 1200 900
F 0 "C1" V 971 900 50  0000 C CNN
F 1 "20pF" V 1062 900 50  0000 C CNN
F 2 "Capacitors_SMD:C_0603" H 1200 900 50  0001 C CNN
F 3 "~" H 1200 900 50  0001 C CNN
	1    1200 900 
	0    1    1    0   
$EndComp
Wire Wire Line
	1300 900  1450 900 
Wire Wire Line
	1450 900  1450 950 
Wire Wire Line
	1300 1300 1450 1300
Wire Wire Line
	1450 1300 1450 1250
$Comp
L power:GND #PWR0101
U 1 1 60CE5A4B
P 750 1150
F 0 "#PWR0101" H 750 900 50  0001 C CNN
F 1 "GND" H 755 977 50  0000 C CNN
F 2 "" H 750 1150 50  0001 C CNN
F 3 "" H 750 1150 50  0001 C CNN
	1    750  1150
	1    0    0    -1  
$EndComp
Wire Wire Line
	1100 900  1000 900 
Wire Wire Line
	1000 900  1000 1100
Wire Wire Line
	1000 1300 1100 1300
Wire Wire Line
	750  1150 750  1100
Wire Wire Line
	750  1100 1000 1100
Connection ~ 1000 1100
Wire Wire Line
	1000 1100 1000 1300
Wire Wire Line
	1450 900  1950 900 
Wire Wire Line
	1950 900  1950 1000
Connection ~ 1450 900 
Wire Wire Line
	1450 1300 1950 1300
Wire Wire Line
	1950 1300 1950 1200
Connection ~ 1450 1300
$Comp
L Device:C_Small C2
U 1 1 60CE2BC8
P 1200 1300
F 0 "C2" V 1050 1300 50  0000 C CNN
F 1 "20pF" V 1350 1300 50  0000 C CNN
F 2 "Capacitors_SMD:C_0603" H 1200 1300 50  0001 C CNN
F 3 "~" H 1200 1300 50  0001 C CNN
	1    1200 1300
	0    1    1    0   
$EndComp
Text GLabel 2150 900  2    50   Input ~ 0
OSCIN
Wire Wire Line
	1950 900  2150 900 
Connection ~ 1950 900 
Wire Wire Line
	1950 1300 2150 1300
Connection ~ 1950 1300
Text GLabel 8050 2550 0    50   Input ~ 0
OSCIN
Text GLabel 2150 1300 2    50   Input ~ 0
OSCOUT
Text GLabel 8050 2650 0    50   Input ~ 0
OSCOUT
Wire Wire Line
	8050 2550 8150 2550
Wire Wire Line
	8050 2650 8150 2650
$Comp
L Device:Crystal Y2
U 1 1 60CF0431
P 1450 2150
F 0 "Y2" V 1404 2281 50  0000 L CNN
F 1 "32.678KHz" V 1495 2281 50  0000 L CNN
F 2 "Crystals:Crystal_DS26_d2.0mm_l6.0mm_Horizontal" H 1450 2150 50  0001 C CNN
F 3 "~" H 1450 2150 50  0001 C CNN
	1    1450 2150
	0    1    1    0   
$EndComp
$Comp
L Device:C_Small C3
U 1 1 60CF043D
P 1200 1950
F 0 "C3" V 971 1950 50  0000 C CNN
F 1 "20pF" V 1062 1950 50  0000 C CNN
F 2 "Capacitors_SMD:C_0603" H 1200 1950 50  0001 C CNN
F 3 "~" H 1200 1950 50  0001 C CNN
	1    1200 1950
	0    1    1    0   
$EndComp
Wire Wire Line
	1300 1950 1450 1950
Wire Wire Line
	1450 1950 1450 2000
Wire Wire Line
	1300 2350 1450 2350
Wire Wire Line
	1450 2350 1450 2300
$Comp
L power:GND #PWR0102
U 1 1 60CF0447
P 750 2200
F 0 "#PWR0102" H 750 1950 50  0001 C CNN
F 1 "GND" H 755 2027 50  0000 C CNN
F 2 "" H 750 2200 50  0001 C CNN
F 3 "" H 750 2200 50  0001 C CNN
	1    750  2200
	1    0    0    -1  
$EndComp
Wire Wire Line
	1100 1950 1000 1950
Wire Wire Line
	1000 1950 1000 2150
Wire Wire Line
	1000 2350 1100 2350
Wire Wire Line
	750  2200 750  2150
Wire Wire Line
	750  2150 1000 2150
Connection ~ 1000 2150
Wire Wire Line
	1000 2150 1000 2350
Connection ~ 1450 1950
Connection ~ 1450 2350
$Comp
L Device:C_Small C4
U 1 1 60CF045A
P 1200 2350
F 0 "C4" V 1050 2350 50  0000 C CNN
F 1 "20pF" V 1350 2350 50  0000 C CNN
F 2 "Capacitors_SMD:C_0603" H 1200 2350 50  0001 C CNN
F 3 "~" H 1200 2350 50  0001 C CNN
	1    1200 2350
	0    1    1    0   
$EndComp
Text GLabel 2150 1950 2    50   Input ~ 0
OSC32_IN
Text GLabel 2150 2350 2    50   Input ~ 0
OSC32_OUT
Wire Wire Line
	1450 1950 2150 1950
Wire Wire Line
	1450 2350 2150 2350
Text GLabel 8050 2950 0    50   Input ~ 0
OSC32_OUT
Text GLabel 8050 3050 0    50   Input ~ 0
PC15
Wire Wire Line
	8050 2950 8150 2950
Wire Wire Line
	8050 3050 8150 3050
Wire Wire Line
	8750 1950 8750 1850
Wire Wire Line
	8750 1850 8850 1850
Wire Wire Line
	9050 1850 9050 1950
Wire Wire Line
	8850 1950 8850 1850
Connection ~ 8850 1850
Wire Wire Line
	8850 1850 8950 1850
Wire Wire Line
	8950 1950 8950 1850
Connection ~ 8950 1850
Wire Wire Line
	8950 1850 9050 1850
Wire Wire Line
	8650 1950 8650 1850
Wire Wire Line
	8650 1850 8750 1850
Connection ~ 8750 1850
$Comp
L power:VCC #PWR0103
U 1 1 60CF45B4
P 8650 1450
F 0 "#PWR0103" H 8650 1300 50  0001 C CNN
F 1 "VCC" H 8665 1623 50  0000 C CNN
F 2 "" H 8650 1450 50  0001 C CNN
F 3 "" H 8650 1450 50  0001 C CNN
	1    8650 1450
	1    0    0    -1  
$EndComp
$Comp
L power:VCC #PWR0104
U 1 1 60CF5755
P 3300 900
F 0 "#PWR0104" H 3300 750 50  0001 C CNN
F 1 "VCC" H 3315 1073 50  0000 C CNN
F 2 "" H 3300 900 50  0001 C CNN
F 3 "" H 3300 900 50  0001 C CNN
	1    3300 900 
	1    0    0    -1  
$EndComp
$Comp
L Device:C_Small C5
U 1 1 60CF628A
P 3300 1150
F 0 "C5" V 3150 1150 50  0000 C CNN
F 1 "10uF" V 3450 1150 50  0000 C CNN
F 2 "Capacitors_SMD:C_0603" H 3300 1150 50  0001 C CNN
F 3 "~" H 3300 1150 50  0001 C CNN
	1    3300 1150
	-1   0    0    1   
$EndComp
$Comp
L power:GND #PWR0105
U 1 1 60CF6F0B
P 3300 1400
F 0 "#PWR0105" H 3300 1150 50  0001 C CNN
F 1 "GND" H 3305 1227 50  0000 C CNN
F 2 "" H 3300 1400 50  0001 C CNN
F 3 "" H 3300 1400 50  0001 C CNN
	1    3300 1400
	1    0    0    -1  
$EndComp
Wire Wire Line
	3300 900  3300 1050
Wire Wire Line
	3300 1250 3300 1400
Wire Wire Line
	8650 1450 8650 1850
Connection ~ 8650 1850
$Comp
L Device:C_Small C6
U 1 1 60CFCE23
P 10050 900
F 0 "C6" V 9900 800 50  0000 C CNN
F 1 "100nF" V 9900 1000 50  0000 C CNN
F 2 "Capacitors_SMD:C_0603" H 10050 900 50  0001 C CNN
F 3 "~" H 10050 900 50  0001 C CNN
	1    10050 900 
	0    1    1    0   
$EndComp
$Comp
L MCU_ST_STM32F1:STM32F103C8Tx U1
U 1 1 60CDA6B8
P 8850 3450
F 0 "U1" H 8300 4950 50  0000 C CNN
F 1 "STM32F103C8Tx" H 8800 3750 50  0000 C CNN
F 2 "Housings_QFP:LQFP-48_7x7mm_Pitch0.5mm" H 8250 2050 50  0001 R CNN
F 3 "http://www.st.com/st-web-ui/static/active/en/resource/technical/document/datasheet/CD00161566.pdf" H 8850 3450 50  0001 C CNN
	1    8850 3450
	1    0    0    -1  
$EndComp
$Comp
L Device:C_Small C7
U 1 1 60D02D0C
P 10050 1200
F 0 "C7" V 9900 1100 50  0000 C CNN
F 1 "100nF" V 9900 1300 50  0000 C CNN
F 2 "Capacitors_SMD:C_0603" H 10050 1200 50  0001 C CNN
F 3 "~" H 10050 1200 50  0001 C CNN
	1    10050 1200
	0    1    1    0   
$EndComp
$Comp
L Device:C_Small C8
U 1 1 60D030D1
P 10050 1500
F 0 "C8" V 9900 1400 50  0000 C CNN
F 1 "100nF" V 9900 1600 50  0000 C CNN
F 2 "Capacitors_SMD:C_0603" H 10050 1500 50  0001 C CNN
F 3 "~" H 10050 1500 50  0001 C CNN
	1    10050 1500
	0    1    1    0   
$EndComp
$Comp
L Device:C_Small C9
U 1 1 60D03576
P 10050 1800
F 0 "C9" V 9900 1700 50  0000 C CNN
F 1 "100nF" V 9900 1900 50  0000 C CNN
F 2 "Capacitors_SMD:C_0603" H 10050 1800 50  0001 C CNN
F 3 "~" H 10050 1800 50  0001 C CNN
	1    10050 1800
	0    1    1    0   
$EndComp
Wire Wire Line
	9950 900  9850 900 
Wire Wire Line
	9850 1800 9950 1800
Wire Wire Line
	9850 1500 9950 1500
Wire Wire Line
	9850 900  9850 1200
Connection ~ 9850 1500
Wire Wire Line
	9850 1500 9850 1800
Wire Wire Line
	9950 1200 9850 1200
Connection ~ 9850 1200
Wire Wire Line
	9850 1200 9850 1500
Wire Wire Line
	10150 900  10250 900 
Wire Wire Line
	10250 900  10250 1200
Wire Wire Line
	10250 1800 10150 1800
Wire Wire Line
	8950 1850 8950 1200
Wire Wire Line
	8950 1200 9850 1200
Wire Wire Line
	10150 1200 10250 1200
Connection ~ 10250 1200
Wire Wire Line
	10250 1200 10250 1500
Wire Wire Line
	10150 1500 10250 1500
Connection ~ 10250 1500
Wire Wire Line
	10250 1500 10250 1800
$Comp
L power:GND #PWR0106
U 1 1 60D0C845
P 10550 1300
F 0 "#PWR0106" H 10550 1050 50  0001 C CNN
F 1 "GND" H 10555 1127 50  0000 C CNN
F 2 "" H 10550 1300 50  0001 C CNN
F 3 "" H 10550 1300 50  0001 C CNN
	1    10550 1300
	1    0    0    -1  
$EndComp
Wire Wire Line
	10250 1200 10550 1200
Wire Wire Line
	10550 1200 10550 1300
$Comp
L power:VCC #PWR0107
U 1 1 60D0DF32
P 1300 3100
F 0 "#PWR0107" H 1300 2950 50  0001 C CNN
F 1 "VCC" H 1315 3273 50  0000 C CNN
F 2 "" H 1300 3100 50  0001 C CNN
F 3 "" H 1300 3100 50  0001 C CNN
	1    1300 3100
	1    0    0    -1  
$EndComp
$Comp
L Device:R_Small R2
U 1 1 60D0E3B4
P 1300 3400
F 0 "R2" H 1359 3446 50  0000 L CNN
F 1 "10K" H 1359 3355 50  0000 L CNN
F 2 "Resistors_SMD:R_0603" H 1300 3400 50  0001 C CNN
F 3 "~" H 1300 3400 50  0001 C CNN
	1    1300 3400
	1    0    0    -1  
$EndComp
$Comp
L Device:C_Small C10
U 1 1 60D0EB98
P 1300 3850
F 0 "C10" H 1200 3750 50  0000 C CNN
F 1 "100nF" H 1150 3950 50  0000 C CNN
F 2 "Capacitors_SMD:C_0603" H 1300 3850 50  0001 C CNN
F 3 "~" H 1300 3850 50  0001 C CNN
	1    1300 3850
	-1   0    0    1   
$EndComp
$Comp
L power:GND #PWR0108
U 1 1 60D0FE83
P 1300 4100
F 0 "#PWR0108" H 1300 3850 50  0001 C CNN
F 1 "GND" H 1305 3927 50  0000 C CNN
F 2 "" H 1300 4100 50  0001 C CNN
F 3 "" H 1300 4100 50  0001 C CNN
	1    1300 4100
	1    0    0    -1  
$EndComp
Wire Wire Line
	1300 3100 1300 3300
Wire Wire Line
	1300 3500 1300 3600
Wire Wire Line
	1300 3950 1300 4050
$Comp
L Switch:SW_SPST SW1
U 1 1 60D13B59
P 850 3800
F 0 "SW1" V 896 3712 50  0000 R CNN
F 1 "Reset" V 805 3712 50  0000 R CNN
F 2 "Lambda:Button" H 850 3800 50  0001 C CNN
F 3 "~" H 850 3800 50  0001 C CNN
	1    850  3800
	0    -1   -1   0   
$EndComp
Wire Wire Line
	850  4000 850  4050
Wire Wire Line
	850  4050 1300 4050
Connection ~ 1300 4050
Wire Wire Line
	1300 4050 1300 4100
Wire Wire Line
	850  3600 1300 3600
Connection ~ 1300 3600
Wire Wire Line
	1300 3600 1300 3750
Text GLabel 1650 3600 2    50   Input ~ 0
NRST
Text GLabel 8050 2150 0    50   Input ~ 0
NRST
Wire Wire Line
	8050 2150 8150 2150
Wire Wire Line
	1300 3600 1650 3600
$Comp
L Connector_Generic:Conn_02x03_Odd_Even J1
U 1 1 60D2039F
P 1750 5250
F 0 "J1" H 1800 5567 50  0000 C CNN
F 1 "Boot0/1" H 1800 5476 50  0000 C CNN
F 2 "Socket_Strips:Socket_Strip_Straight_2x03_Pitch2.54mm" H 1750 5250 50  0001 C CNN
F 3 "~" H 1750 5250 50  0001 C CNN
	1    1750 5250
	1    0    0    -1  
$EndComp
$Comp
L power:VCC #PWR0109
U 1 1 60D21094
P 1800 4800
F 0 "#PWR0109" H 1800 4650 50  0001 C CNN
F 1 "VCC" H 1815 4973 50  0000 C CNN
F 2 "" H 1800 4800 50  0001 C CNN
F 3 "" H 1800 4800 50  0001 C CNN
	1    1800 4800
	1    0    0    -1  
$EndComp
Wire Wire Line
	1800 4800 1550 4800
Wire Wire Line
	1550 4800 1550 5150
Wire Wire Line
	1800 4800 2050 4800
Wire Wire Line
	2050 4800 2050 5150
Connection ~ 1800 4800
$Comp
L power:GND #PWR0110
U 1 1 60D246C5
P 1800 5550
F 0 "#PWR0110" H 1800 5300 50  0001 C CNN
F 1 "GND" H 1805 5377 50  0000 C CNN
F 2 "" H 1800 5550 50  0001 C CNN
F 3 "" H 1800 5550 50  0001 C CNN
	1    1800 5550
	1    0    0    -1  
$EndComp
Wire Wire Line
	1550 5350 1550 5550
Wire Wire Line
	1550 5550 1800 5550
Wire Wire Line
	2050 5350 2050 5550
Wire Wire Line
	2050 5550 1800 5550
Connection ~ 1800 5550
$Comp
L Device:R_Small R4
U 1 1 60D27E30
P 2350 5250
F 0 "R4" V 2154 5250 50  0000 C CNN
F 1 "10K" V 2245 5250 50  0000 C CNN
F 2 "Resistors_SMD:R_0603" H 2350 5250 50  0001 C CNN
F 3 "~" H 2350 5250 50  0001 C CNN
	1    2350 5250
	0    1    1    0   
$EndComp
$Comp
L Device:R_Small R3
U 1 1 60D2875A
P 1250 5250
F 0 "R3" V 1054 5250 50  0000 C CNN
F 1 "10K" V 1150 5250 50  0000 C CNN
F 2 "Resistors_SMD:R_0603" H 1250 5250 50  0001 C CNN
F 3 "~" H 1250 5250 50  0001 C CNN
	1    1250 5250
	0    1    1    0   
$EndComp
Wire Wire Line
	1350 5250 1550 5250
Wire Wire Line
	2050 5250 2250 5250
Text GLabel 1050 5250 0    50   Input ~ 0
BOOT0
Text GLabel 2550 5250 2    50   Input ~ 0
BOOT1
Wire Wire Line
	1050 5250 1150 5250
Wire Wire Line
	2450 5250 2550 5250
Text GLabel 8050 2350 0    50   Input ~ 0
BOOT0
Wire Wire Line
	8050 2350 8150 2350
Text GLabel 8050 3450 0    50   Input ~ 0
BOOT1
Wire Wire Line
	8050 3450 8150 3450
Wire Wire Line
	8650 4950 8650 5050
Wire Wire Line
	8650 5050 8750 5050
Wire Wire Line
	8950 5050 8950 4950
Wire Wire Line
	8850 4950 8850 5050
Connection ~ 8850 5050
Wire Wire Line
	8850 5050 8950 5050
Wire Wire Line
	8750 4950 8750 5050
Connection ~ 8750 5050
Wire Wire Line
	8750 5050 8850 5050
$Comp
L power:GND #PWR0111
U 1 1 60D39E1A
P 8850 5200
F 0 "#PWR0111" H 8850 4950 50  0001 C CNN
F 1 "GND" H 8855 5027 50  0000 C CNN
F 2 "" H 8850 5200 50  0001 C CNN
F 3 "" H 8850 5200 50  0001 C CNN
	1    8850 5200
	1    0    0    -1  
$EndComp
Wire Wire Line
	8850 5200 8850 5050
Text GLabel 9550 4550 2    50   Input ~ 0
SWDIO
Wire Wire Line
	9450 4550 9550 4550
Text GLabel 9550 4650 2    50   Input ~ 0
SWCLK
Wire Wire Line
	9450 4650 9550 4650
$Comp
L power:VCC #PWR0116
U 1 1 60D7DCF0
P 4000 900
F 0 "#PWR0116" H 4000 750 50  0001 C CNN
F 1 "VCC" H 4015 1073 50  0000 C CNN
F 2 "" H 4000 900 50  0001 C CNN
F 3 "" H 4000 900 50  0001 C CNN
	1    4000 900 
	1    0    0    -1  
$EndComp
$Comp
L power:PWR_FLAG #FLG0101
U 1 1 60D7E4A3
P 4300 900
F 0 "#FLG0101" H 4300 975 50  0001 C CNN
F 1 "PWR_FLAG" H 4300 1073 50  0000 C CNN
F 2 "" H 4300 900 50  0001 C CNN
F 3 "~" H 4300 900 50  0001 C CNN
	1    4300 900 
	1    0    0    -1  
$EndComp
Wire Wire Line
	4000 900  4000 950 
Wire Wire Line
	4000 950  4300 950 
Wire Wire Line
	4300 950  4300 900 
$Comp
L Connector:Conn_01x20_Male J4
U 1 1 60D82E38
P 5500 3450
F 0 "J4" H 5650 4600 50  0000 C CNN
F 1 "Header Pins" H 5450 4500 50  0000 C CNN
F 2 "Socket_Strips:Socket_Strip_Straight_1x20_Pitch2.54mm" H 5500 3450 50  0001 C CNN
F 3 "~" H 5500 3450 50  0001 C CNN
	1    5500 3450
	1    0    0    -1  
$EndComp
$Comp
L Connector:Conn_01x20_Male J3
U 1 1 60D871D1
P 4600 3450
F 0 "J3" H 4750 4600 50  0000 R CNN
F 1 "Header Pins" H 4750 4500 50  0000 R CNN
F 2 "Socket_Strips:Socket_Strip_Straight_1x20_Pitch2.54mm" H 4600 3450 50  0001 C CNN
F 3 "~" H 4600 3450 50  0001 C CNN
	1    4600 3450
	-1   0    0    -1  
$EndComp
Wire Notes Line
	4600 2550 5500 2550
Wire Notes Line
	5500 2550 5500 4450
Wire Notes Line
	5500 4450 4600 4450
Wire Notes Line
	4600 4450 4600 2550
$Comp
L power:VCC #PWR0117
U 1 1 60D9A1B1
P 5850 2550
F 0 "#PWR0117" H 5850 2400 50  0001 C CNN
F 1 "VCC" V 5865 2678 50  0000 L CNN
F 2 "" H 5850 2550 50  0001 C CNN
F 3 "" H 5850 2550 50  0001 C CNN
	1    5850 2550
	0    1    1    0   
$EndComp
$Comp
L power:GND #PWR0118
U 1 1 60D9B204
P 5850 2650
F 0 "#PWR0118" H 5850 2400 50  0001 C CNN
F 1 "GND" V 5855 2522 50  0000 R CNN
F 2 "" H 5850 2650 50  0001 C CNN
F 3 "" H 5850 2650 50  0001 C CNN
	1    5850 2650
	0    -1   -1   0   
$EndComp
Wire Wire Line
	5700 2550 5850 2550
Wire Wire Line
	5700 2650 5850 2650
$Comp
L power:VCC #PWR0119
U 1 1 60DA2CEC
P 5850 2750
F 0 "#PWR0119" H 5850 2600 50  0001 C CNN
F 1 "VCC" V 5865 2878 50  0000 L CNN
F 2 "" H 5850 2750 50  0001 C CNN
F 3 "" H 5850 2750 50  0001 C CNN
	1    5850 2750
	0    1    1    0   
$EndComp
Wire Wire Line
	5700 2750 5850 2750
Text GLabel 5900 2850 2    50   Input ~ 0
PB9
Text GLabel 5900 2950 2    50   Input ~ 0
PB8
Text GLabel 5900 3050 2    50   Input ~ 0
PB7
Text GLabel 5900 3150 2    50   Input ~ 0
PB6
Text GLabel 5900 3250 2    50   Input ~ 0
PB5
Text GLabel 5900 3350 2    50   Input ~ 0
PB4
Text GLabel 5900 3450 2    50   Input ~ 0
PB3
Text GLabel 8050 3550 0    50   Input ~ 0
PB3
Text GLabel 8050 3650 0    50   Input ~ 0
PB4
Text GLabel 8050 3750 0    50   Input ~ 0
PB5
Text GLabel 8050 3850 0    50   Input ~ 0
PB6
Text GLabel 8050 3950 0    50   Input ~ 0
PB7
Text GLabel 8050 4050 0    50   Input ~ 0
PB8
Text GLabel 8050 4150 0    50   Input ~ 0
PB9
Wire Wire Line
	5700 2850 5900 2850
Wire Wire Line
	5700 2950 5900 2950
Wire Wire Line
	5700 3050 5900 3050
Wire Wire Line
	5700 3150 5900 3150
Wire Wire Line
	5700 3250 5900 3250
Wire Wire Line
	5700 3350 5900 3350
Wire Wire Line
	5700 3450 5900 3450
Wire Wire Line
	8050 3550 8150 3550
Wire Wire Line
	8050 3650 8150 3650
Wire Wire Line
	8050 3750 8150 3750
Wire Wire Line
	8050 3850 8150 3850
Wire Wire Line
	8050 3950 8150 3950
Wire Wire Line
	8050 4050 8150 4050
Wire Wire Line
	8050 4150 8150 4150
Text GLabel 5900 3550 2    50   Input ~ 0
PA15
Text GLabel 5900 3650 2    50   Input ~ 0
PA12
Text GLabel 5900 3750 2    50   Input ~ 0
PA11
Text GLabel 5900 3850 2    50   Input ~ 0
PA10
Text GLabel 5900 3950 2    50   Input ~ 0
PA9
Text GLabel 5900 4050 2    50   Input ~ 0
PA8
Text GLabel 9550 4750 2    50   Input ~ 0
PA15
Text GLabel 9550 4450 2    50   Input ~ 0
PA12
Text GLabel 9550 4350 2    50   Input ~ 0
PA11
Text GLabel 9550 4250 2    50   Input ~ 0
PA10
Text GLabel 9550 4150 2    50   Input ~ 0
PA9
Text GLabel 9550 4050 2    50   Input ~ 0
PA8
Wire Wire Line
	9550 4050 9450 4050
Wire Wire Line
	9450 4150 9550 4150
Wire Wire Line
	9550 4250 9450 4250
Wire Wire Line
	9450 4350 9550 4350
Wire Wire Line
	9550 4450 9450 4450
Wire Wire Line
	9450 4750 9550 4750
Wire Wire Line
	5700 3550 5900 3550
Wire Wire Line
	5700 3650 5900 3650
Wire Wire Line
	5700 3750 5900 3750
Wire Wire Line
	5700 3850 5900 3850
Wire Wire Line
	5700 3950 5900 3950
Wire Wire Line
	5700 4050 5900 4050
Wire Wire Line
	4400 2550 4200 2550
Text GLabel 4200 2650 0    50   Input ~ 0
PC13
Text GLabel 8050 2850 0    50   Input ~ 0
OSC32_IN
Wire Wire Line
	8050 2850 8150 2850
Wire Wire Line
	4200 2650 4400 2650
Text GLabel 4200 2750 0    50   Input ~ 0
PC14
Text GLabel 4200 2850 0    50   Input ~ 0
PC15
Wire Wire Line
	4200 2750 4400 2750
Wire Wire Line
	4200 2850 4400 2850
Text GLabel 4200 2950 0    50   Input ~ 0
PA0
Text GLabel 4200 3050 0    50   Input ~ 0
PA1
Text GLabel 4200 3150 0    50   Input ~ 0
PA2
Text GLabel 4200 3250 0    50   Input ~ 0
PA3
Text GLabel 4200 3350 0    50   Input ~ 0
PA4
Text GLabel 4200 3450 0    50   Input ~ 0
PA5
Text GLabel 4200 3550 0    50   Input ~ 0
PA6
Text GLabel 4200 3650 0    50   Input ~ 0
PA7
Text GLabel 9550 3250 2    50   Input ~ 0
PA0
Text GLabel 9550 3350 2    50   Input ~ 0
PA1
Text GLabel 9550 3450 2    50   Input ~ 0
PA2
Text GLabel 9550 3550 2    50   Input ~ 0
PA3
Text GLabel 9550 3650 2    50   Input ~ 0
PA4
Text GLabel 9550 3750 2    50   Input ~ 0
PA5
Text GLabel 9550 3850 2    50   Input ~ 0
PA6
Text GLabel 9550 3950 2    50   Input ~ 0
PA7
Wire Wire Line
	4200 2950 4400 2950
Wire Wire Line
	4200 3050 4400 3050
Wire Wire Line
	4200 3150 4400 3150
Wire Wire Line
	4200 3250 4400 3250
Wire Wire Line
	4200 3350 4400 3350
Wire Wire Line
	4200 3450 4400 3450
Wire Wire Line
	4200 3550 4400 3550
Wire Wire Line
	4200 3650 4400 3650
Wire Wire Line
	9450 3250 9550 3250
Wire Wire Line
	9450 3350 9550 3350
Wire Wire Line
	9450 3450 9550 3450
Wire Wire Line
	9450 3550 9550 3550
Wire Wire Line
	9450 3650 9550 3650
Wire Wire Line
	9450 3750 9550 3750
Wire Wire Line
	9450 3850 9550 3850
Wire Wire Line
	9450 3950 9550 3950
Text GLabel 5900 4150 2    50   Input ~ 0
PB15
Text GLabel 5900 4250 2    50   Input ~ 0
PB14
Text GLabel 5900 4350 2    50   Input ~ 0
PB13
Text GLabel 5900 4450 2    50   Input ~ 0
PB12
Text GLabel 8050 4750 0    50   Input ~ 0
PB15
Text GLabel 8050 4650 0    50   Input ~ 0
PB14
Text GLabel 8050 4550 0    50   Input ~ 0
PB13
Text GLabel 8050 4450 0    50   Input ~ 0
PB12
Wire Wire Line
	8050 4450 8150 4450
Wire Wire Line
	8050 4550 8150 4550
Wire Wire Line
	8050 4650 8150 4650
Wire Wire Line
	8050 4750 8150 4750
Wire Wire Line
	5700 4150 5900 4150
Wire Wire Line
	5700 4250 5900 4250
Wire Wire Line
	5700 4350 5900 4350
Wire Wire Line
	5700 4450 5900 4450
$Comp
L power:VCC #PWR0120
U 1 1 60F2A468
P 4200 2550
F 0 "#PWR0120" H 4200 2400 50  0001 C CNN
F 1 "VCC" V 4215 2677 50  0000 L CNN
F 2 "" H 4200 2550 50  0001 C CNN
F 3 "" H 4200 2550 50  0001 C CNN
	1    4200 2550
	0    -1   -1   0   
$EndComp
Text GLabel 4200 3750 0    50   Input ~ 0
PB0
Text GLabel 4200 3850 0    50   Input ~ 0
PB1
Text GLabel 8050 3250 0    50   Input ~ 0
PB0
Text GLabel 8050 3350 0    50   Input ~ 0
PB1
Wire Wire Line
	4200 3750 4400 3750
Wire Wire Line
	4200 3850 4400 3850
Wire Wire Line
	8050 3250 8150 3250
Wire Wire Line
	8050 3350 8150 3350
Text GLabel 4200 3950 0    50   Input ~ 0
PB10
Text GLabel 4200 4050 0    50   Input ~ 0
PB11
Text GLabel 8050 4250 0    50   Input ~ 0
PB10
Text GLabel 8050 4350 0    50   Input ~ 0
PB11
Wire Wire Line
	8050 4250 8150 4250
Wire Wire Line
	8050 4350 8150 4350
Wire Wire Line
	4200 3950 4400 3950
Wire Wire Line
	4200 4050 4400 4050
Text GLabel 4200 4150 0    50   Input ~ 0
NRST
Wire Wire Line
	4200 4150 4400 4150
$Comp
L power:VCC #PWR0121
U 1 1 60F9548C
P 4200 4250
F 0 "#PWR0121" H 4200 4100 50  0001 C CNN
F 1 "VCC" V 4215 4377 50  0000 L CNN
F 2 "" H 4200 4250 50  0001 C CNN
F 3 "" H 4200 4250 50  0001 C CNN
	1    4200 4250
	0    -1   -1   0   
$EndComp
$Comp
L power:GND #PWR0122
U 1 1 60F9593F
P 4200 4350
F 0 "#PWR0122" H 4200 4100 50  0001 C CNN
F 1 "GND" V 4205 4222 50  0000 R CNN
F 2 "" H 4200 4350 50  0001 C CNN
F 3 "" H 4200 4350 50  0001 C CNN
	1    4200 4350
	0    1    1    0   
$EndComp
Wire Wire Line
	4200 4250 4400 4250
Wire Wire Line
	4200 4350 4400 4350
$Comp
L power:GND #PWR0123
U 1 1 60FC67C0
P 4200 4450
F 0 "#PWR0123" H 4200 4200 50  0001 C CNN
F 1 "GND" V 4205 4322 50  0000 R CNN
F 2 "" H 4200 4450 50  0001 C CNN
F 3 "" H 4200 4450 50  0001 C CNN
	1    4200 4450
	0    1    1    0   
$EndComp
Wire Wire Line
	4400 4450 4200 4450
Wire Notes Line
	4850 4400 5250 4400
Wire Notes Line
	5250 4400 5250 4550
Wire Notes Line
	5250 4550 4850 4550
Wire Notes Line
	4850 4550 4850 4400
Text Notes 4950 4550 0    50   ~ 0
USB
Wire Notes Line
	4800 2500 5300 2500
Wire Notes Line
	5300 2500 5300 2600
Wire Notes Line
	5300 2600 4800 2600
Wire Notes Line
	4800 2600 4800 2500
Text Notes 4950 2500 0    50   ~ 0
DEBUG
Wire Notes Line
	5200 3800 5300 3800
Wire Notes Line
	5300 3800 5300 3950
Wire Notes Line
	5300 3950 5200 3950
Wire Notes Line
	5200 3950 5200 3800
Text Notes 5200 3950 0    50   ~ 0
sw
Wire Notes Line
	4850 3700 4850 4050
Wire Notes Line
	4800 4050 4800 3700
Wire Notes Line
	4900 3700 4900 4050
Wire Notes Line
	4800 3700 4900 3700
Wire Notes Line
	4800 4050 4900 4050
Text Notes 4700 3700 0    50   ~ 0
boot0/1
Text Notes 4750 3900 0    50   ~ 0
0
Text Notes 4900 3900 0    50   ~ 0
1
Text Notes 4900 3100 0    50   ~ 0
crystals
Wire Notes Line
	4900 3000 5250 3000
Wire Notes Line
	5250 3000 5250 3150
Wire Notes Line
	5250 3150 4900 3150
Wire Notes Line
	4900 3150 4900 3000
Text Notes 4950 3250 0    50   ~ 0
chip 0
Wire Wire Line
	1450 7250 1450 7050
Wire Wire Line
	1300 7250 1450 7250
$Comp
L power:VCC #PWR0115
U 1 1 60D68BBA
P 1300 7250
F 0 "#PWR0115" H 1300 7100 50  0001 C CNN
F 1 "VCC" V 1315 7377 50  0000 L CNN
F 2 "" H 1300 7250 50  0001 C CNN
F 3 "" H 1300 7250 50  0001 C CNN
	1    1300 7250
	0    -1   -1   0   
$EndComp
Wire Wire Line
	1450 6800 1900 6800
Connection ~ 1450 6800
Wire Wire Line
	1450 6850 1450 6800
Wire Wire Line
	1250 6800 1450 6800
Text GLabel 1250 6800 0    50   Input ~ 0
SWCLK
Wire Wire Line
	1450 6300 1450 6450
Wire Wire Line
	1300 6300 1450 6300
$Comp
L power:GND #PWR0114
U 1 1 60D60148
P 1300 6300
F 0 "#PWR0114" H 1300 6050 50  0001 C CNN
F 1 "GND" V 1305 6172 50  0000 R CNN
F 2 "" H 1300 6300 50  0001 C CNN
F 3 "" H 1300 6300 50  0001 C CNN
	1    1300 6300
	0    1    1    0   
$EndComp
Wire Wire Line
	1450 6700 1900 6700
Connection ~ 1450 6700
Wire Wire Line
	1450 6650 1450 6700
Wire Wire Line
	1250 6700 1450 6700
Text GLabel 1250 6700 0    50   Input ~ 0
SWDIO
$Comp
L Device:R_Small R6
U 1 1 60D552DF
P 1450 6950
F 0 "R6" H 1391 6904 50  0000 R CNN
F 1 "10K" H 1391 6995 50  0000 R CNN
F 2 "Resistors_SMD:R_0603" H 1450 6950 50  0001 C CNN
F 3 "~" H 1450 6950 50  0001 C CNN
	1    1450 6950
	-1   0    0    1   
$EndComp
$Comp
L Device:R_Small R5
U 1 1 60D549FA
P 1450 6550
F 0 "R5" H 1391 6504 50  0000 R CNN
F 1 "10K" H 1391 6595 50  0000 R CNN
F 2 "Resistors_SMD:R_0603" H 1450 6550 50  0001 C CNN
F 3 "~" H 1450 6550 50  0001 C CNN
	1    1450 6550
	-1   0    0    1   
$EndComp
Wire Wire Line
	1750 6600 1900 6600
Wire Wire Line
	1750 6500 1750 6600
$Comp
L power:VCC #PWR0113
U 1 1 60D51B85
P 1750 6500
F 0 "#PWR0113" H 1750 6350 50  0001 C CNN
F 1 "VCC" H 1765 6673 50  0000 C CNN
F 2 "" H 1750 6500 50  0001 C CNN
F 3 "" H 1750 6500 50  0001 C CNN
	1    1750 6500
	1    0    0    -1  
$EndComp
Wire Wire Line
	1750 6900 1750 7000
Wire Wire Line
	1900 6900 1750 6900
$Comp
L power:GND #PWR0112
U 1 1 60D4F104
P 1750 7000
F 0 "#PWR0112" H 1750 6750 50  0001 C CNN
F 1 "GND" H 1755 6827 50  0000 C CNN
F 2 "" H 1750 7000 50  0001 C CNN
F 3 "" H 1750 7000 50  0001 C CNN
	1    1750 7000
	1    0    0    -1  
$EndComp
$Comp
L Connector:Conn_01x04_Male J2
U 1 1 60D4AC62
P 2100 6700
F 0 "J2" H 2072 6674 50  0000 R CNN
F 1 "DEBUG" H 2072 6583 50  0000 R CNN
F 2 "Socket_Strips:Socket_Strip_Straight_1x04_Pitch2.54mm" H 2100 6700 50  0001 C CNN
F 3 "~" H 2100 6700 50  0001 C CNN
	1    2100 6700
	-1   0    0    -1  
$EndComp
$Comp
L power:VCC #PWR?
U 1 1 60D49039
P 5000 900
F 0 "#PWR?" H 5000 750 50  0001 C CNN
F 1 "VCC" H 5015 1073 50  0000 C CNN
F 2 "" H 5000 900 50  0001 C CNN
F 3 "" H 5000 900 50  0001 C CNN
	1    5000 900 
	1    0    0    -1  
$EndComp
$Comp
L Device:R_Small R7
U 1 1 60D49588
P 5000 1100
F 0 "R7" H 5059 1146 50  0000 L CNN
F 1 "1K0" H 5059 1055 50  0000 L CNN
F 2 "Resistors_SMD:R_0603" H 5000 1100 50  0001 C CNN
F 3 "~" H 5000 1100 50  0001 C CNN
	1    5000 1100
	1    0    0    -1  
$EndComp
$Comp
L Device:LED D1
U 1 1 60D4A0AC
P 5000 1450
F 0 "D1" V 5039 1332 50  0000 R CNN
F 1 "Power" V 4948 1332 50  0000 R CNN
F 2 "LEDs:LED_0805" H 5000 1450 50  0001 C CNN
F 3 "~" H 5000 1450 50  0001 C CNN
	1    5000 1450
	0    -1   -1   0   
$EndComp
Wire Wire Line
	5000 900  5000 1000
Wire Wire Line
	5000 1200 5000 1300
$Comp
L power:GND #PWR?
U 1 1 60D61506
P 5000 1700
F 0 "#PWR?" H 5000 1450 50  0001 C CNN
F 1 "GND" H 5005 1527 50  0000 C CNN
F 2 "" H 5000 1700 50  0001 C CNN
F 3 "" H 5000 1700 50  0001 C CNN
	1    5000 1700
	1    0    0    -1  
$EndComp
Wire Wire Line
	5000 1600 5000 1700
$EndSCHEMATC
