(module Button (layer F.Cu) (tedit 5F13D964)
  (fp_text reference REF** (at 1.016 -5.461) (layer F.SilkS)
    (effects (font (size 1 1) (thickness 0.15)))
  )
  (fp_text value Button (at 2.794 1.778) (layer F.Fab)
    (effects (font (size 1 1) (thickness 0.15)))
  )
  (fp_line (start -0.889 -4.572) (end 6.35 -4.572) (layer F.SilkS) (width 0.15))
  (fp_line (start 6.35 -4.572) (end 6.35 0.889) (layer F.SilkS) (width 0.15))
  (fp_line (start 6.35 0.889) (end -0.889 0.889) (layer F.SilkS) (width 0.15))
  (fp_line (start -0.889 0.889) (end -0.889 -4.572) (layer F.SilkS) (width 0.15))
  (pad 1 smd rect (at 0 0) (size 1.524 1.5) (layers F.Cu F.Paste F.Mask))
  (pad 1 smd rect (at 5.4991 0) (size 1.524 1.5) (layers F.Cu F.Paste F.Mask))
  (pad 2 smd rect (at 5.4991 -3.6957) (size 1.524 1.5) (layers F.Cu F.Paste F.Mask))
  (pad 2 smd rect (at 0 -3.6957) (size 1.524 1.5) (layers F.Cu F.Paste F.Mask))
)
