(module Iota:Switch (layer F.Cu) (tedit 5C5AD704)
  (fp_text reference SW** (at -1.2065 -2.667) (layer F.SilkS)
    (effects (font (size 1 1) (thickness 0.15)))
  )
  (fp_text value Switch (at 0 2.921) (layer F.Fab)
    (effects (font (size 1 1) (thickness 0.15)))
  )
  (fp_line (start -1.905 0.0635) (end 1.3335 -0.6985) (layer F.SilkS) (width 0.15))
  (fp_circle (center 1.524 0) (end 1.4605 -0.3175) (layer F.SilkS) (width 0.15))
  (fp_line (start 3.1115 0) (end 1.905 0) (layer F.SilkS) (width 0.15))
  (fp_line (start -3.1115 0.0635) (end -1.905 0.0635) (layer F.SilkS) (width 0.15))
  (fp_line (start -3.1115 1.905) (end -3.1115 -1.8415) (layer F.SilkS) (width 0.15))
  (fp_line (start 3.1115 1.905) (end -3.1115 1.905) (layer F.SilkS) (width 0.15))
  (fp_line (start 3.1115 -1.8415) (end 3.1115 1.905) (layer F.SilkS) (width 0.15))
  (fp_line (start -3.1115 -1.8415) (end 3.1115 -1.8415) (layer F.SilkS) (width 0.15))
  (pad 2 smd rect (at -3.6195 0.0635) (size 1.524 1.524) (layers F.Cu F.Paste F.Mask))
  (pad 1 smd rect (at 3.6195 0.0635) (size 1.524 1.524) (layers F.Cu F.Paste F.Mask))
)
