(module Connector_1x16 (layer F.Cu) (tedit 5EE458A5)
  (fp_text reference REF** (at 1.016 -2.286) (layer F.SilkS)
    (effects (font (size 1 1) (thickness 0.15)))
  )
  (fp_text value Connector_1x16 (at 19.05 1.778) (layer F.Fab)
    (effects (font (size 1 1) (thickness 0.15)))
  )
  (pad 1 thru_hole rect (at 0 0) (size 1.8 1.8) (drill 1.2) (layers *.Cu *.Mask))
  (pad 2 thru_hole circle (at 2.54 0) (size 1.8 1.8) (drill 1.2) (layers *.Cu *.Mask))
  (pad 3 thru_hole circle (at 5.08 0) (size 1.8 1.8) (drill 1.2) (layers *.Cu *.Mask))
  (pad 4 thru_hole circle (at 7.62 0) (size 1.8 1.8) (drill 1.2) (layers *.Cu *.Mask))
  (pad 5 thru_hole circle (at 10.16 0) (size 1.8 1.8) (drill 1.2) (layers *.Cu *.Mask))
  (pad 6 thru_hole circle (at 12.7 0) (size 1.8 1.8) (drill 1.2) (layers *.Cu *.Mask))
  (pad 7 thru_hole circle (at 15.24 0) (size 1.8 1.8) (drill 1.2) (layers *.Cu *.Mask))
  (pad 8 thru_hole circle (at 17.78 0) (size 1.8 1.8) (drill 1.2) (layers *.Cu *.Mask))
  (pad 9 thru_hole circle (at 20.32 0) (size 1.8 1.8) (drill 1.2) (layers *.Cu *.Mask))
  (pad 10 thru_hole circle (at 22.86 0) (size 1.8 1.8) (drill 1.2) (layers *.Cu *.Mask))
  (pad 11 thru_hole circle (at 25.4 0) (size 1.8 1.8) (drill 1.2) (layers *.Cu *.Mask))
  (pad 12 thru_hole circle (at 27.94 0) (size 1.8 1.8) (drill 1.2) (layers *.Cu *.Mask))
  (pad 13 thru_hole circle (at 30.48 0) (size 1.8 1.8) (drill 1.2) (layers *.Cu *.Mask))
  (pad 14 thru_hole circle (at 33.02 0) (size 1.8 1.8) (drill 1.2) (layers *.Cu *.Mask))
  (pad 15 thru_hole circle (at 35.56 0) (size 1.8 1.8) (drill 1.2) (layers *.Cu *.Mask))
  (pad 16 thru_hole circle (at 38.1 0) (size 1.8 1.8) (drill 1.2) (layers *.Cu *.Mask))
)
