(kicad_sch (version 20211123) (generator eeschema)

  (uuid 951bffbb-9267-4046-891e-3a65b2922aca)

  (paper "A4")

  (title_block
    (title "Filament 7 Segment 30mm")
    (date "2022-09-18")
    (rev "1.0")
  )

  (lib_symbols
    (symbol "Connector_Generic:Conn_01x09" (pin_names (offset 1.016) hide) (in_bom yes) (on_board yes)
      (property "Reference" "J" (id 0) (at 0 12.7 0)
        (effects (font (size 1.27 1.27)))
      )
      (property "Value" "Conn_01x09" (id 1) (at 0 -12.7 0)
        (effects (font (size 1.27 1.27)))
      )
      (property "Footprint" "" (id 2) (at 0 0 0)
        (effects (font (size 1.27 1.27)) hide)
      )
      (property "Datasheet" "~" (id 3) (at 0 0 0)
        (effects (font (size 1.27 1.27)) hide)
      )
      (property "ki_keywords" "connector" (id 4) (at 0 0 0)
        (effects (font (size 1.27 1.27)) hide)
      )
      (property "ki_description" "Generic connector, single row, 01x09, script generated (kicad-library-utils/schlib/autogen/connector/)" (id 5) (at 0 0 0)
        (effects (font (size 1.27 1.27)) hide)
      )
      (property "ki_fp_filters" "Connector*:*_1x??_*" (id 6) (at 0 0 0)
        (effects (font (size 1.27 1.27)) hide)
      )
      (symbol "Conn_01x09_1_1"
        (rectangle (start -1.27 -10.033) (end 0 -10.287)
          (stroke (width 0.1524) (type default) (color 0 0 0 0))
          (fill (type none))
        )
        (rectangle (start -1.27 -7.493) (end 0 -7.747)
          (stroke (width 0.1524) (type default) (color 0 0 0 0))
          (fill (type none))
        )
        (rectangle (start -1.27 -4.953) (end 0 -5.207)
          (stroke (width 0.1524) (type default) (color 0 0 0 0))
          (fill (type none))
        )
        (rectangle (start -1.27 -2.413) (end 0 -2.667)
          (stroke (width 0.1524) (type default) (color 0 0 0 0))
          (fill (type none))
        )
        (rectangle (start -1.27 0.127) (end 0 -0.127)
          (stroke (width 0.1524) (type default) (color 0 0 0 0))
          (fill (type none))
        )
        (rectangle (start -1.27 2.667) (end 0 2.413)
          (stroke (width 0.1524) (type default) (color 0 0 0 0))
          (fill (type none))
        )
        (rectangle (start -1.27 5.207) (end 0 4.953)
          (stroke (width 0.1524) (type default) (color 0 0 0 0))
          (fill (type none))
        )
        (rectangle (start -1.27 7.747) (end 0 7.493)
          (stroke (width 0.1524) (type default) (color 0 0 0 0))
          (fill (type none))
        )
        (rectangle (start -1.27 10.287) (end 0 10.033)
          (stroke (width 0.1524) (type default) (color 0 0 0 0))
          (fill (type none))
        )
        (rectangle (start -1.27 11.43) (end 1.27 -11.43)
          (stroke (width 0.254) (type default) (color 0 0 0 0))
          (fill (type background))
        )
        (pin passive line (at -5.08 10.16 0) (length 3.81)
          (name "Pin_1" (effects (font (size 1.27 1.27))))
          (number "1" (effects (font (size 1.27 1.27))))
        )
        (pin passive line (at -5.08 7.62 0) (length 3.81)
          (name "Pin_2" (effects (font (size 1.27 1.27))))
          (number "2" (effects (font (size 1.27 1.27))))
        )
        (pin passive line (at -5.08 5.08 0) (length 3.81)
          (name "Pin_3" (effects (font (size 1.27 1.27))))
          (number "3" (effects (font (size 1.27 1.27))))
        )
        (pin passive line (at -5.08 2.54 0) (length 3.81)
          (name "Pin_4" (effects (font (size 1.27 1.27))))
          (number "4" (effects (font (size 1.27 1.27))))
        )
        (pin passive line (at -5.08 0 0) (length 3.81)
          (name "Pin_5" (effects (font (size 1.27 1.27))))
          (number "5" (effects (font (size 1.27 1.27))))
        )
        (pin passive line (at -5.08 -2.54 0) (length 3.81)
          (name "Pin_6" (effects (font (size 1.27 1.27))))
          (number "6" (effects (font (size 1.27 1.27))))
        )
        (pin passive line (at -5.08 -5.08 0) (length 3.81)
          (name "Pin_7" (effects (font (size 1.27 1.27))))
          (number "7" (effects (font (size 1.27 1.27))))
        )
        (pin passive line (at -5.08 -7.62 0) (length 3.81)
          (name "Pin_8" (effects (font (size 1.27 1.27))))
          (number "8" (effects (font (size 1.27 1.27))))
        )
        (pin passive line (at -5.08 -10.16 0) (length 3.81)
          (name "Pin_9" (effects (font (size 1.27 1.27))))
          (number "9" (effects (font (size 1.27 1.27))))
        )
      )
    )
    (symbol "Device:R_Small" (pin_numbers hide) (pin_names (offset 0.254) hide) (in_bom yes) (on_board yes)
      (property "Reference" "R" (id 0) (at 0.762 0.508 0)
        (effects (font (size 1.27 1.27)) (justify left))
      )
      (property "Value" "R_Small" (id 1) (at 0.762 -1.016 0)
        (effects (font (size 1.27 1.27)) (justify left))
      )
      (property "Footprint" "" (id 2) (at 0 0 0)
        (effects (font (size 1.27 1.27)) hide)
      )
      (property "Datasheet" "~" (id 3) (at 0 0 0)
        (effects (font (size 1.27 1.27)) hide)
      )
      (property "ki_keywords" "R resistor" (id 4) (at 0 0 0)
        (effects (font (size 1.27 1.27)) hide)
      )
      (property "ki_description" "Resistor, small symbol" (id 5) (at 0 0 0)
        (effects (font (size 1.27 1.27)) hide)
      )
      (property "ki_fp_filters" "R_*" (id 6) (at 0 0 0)
        (effects (font (size 1.27 1.27)) hide)
      )
      (symbol "R_Small_0_1"
        (rectangle (start -0.762 1.778) (end 0.762 -1.778)
          (stroke (width 0.2032) (type default) (color 0 0 0 0))
          (fill (type none))
        )
      )
      (symbol "R_Small_1_1"
        (pin passive line (at 0 2.54 270) (length 0.762)
          (name "~" (effects (font (size 1.27 1.27))))
          (number "1" (effects (font (size 1.27 1.27))))
        )
        (pin passive line (at 0 -2.54 90) (length 0.762)
          (name "~" (effects (font (size 1.27 1.27))))
          (number "2" (effects (font (size 1.27 1.27))))
        )
      )
    )
    (symbol "Simulation_SPICE:DIODE" (pin_numbers hide) (pin_names (offset 1.016) hide) (in_bom yes) (on_board yes)
      (property "Reference" "D" (id 0) (at 0 2.54 0)
        (effects (font (size 1.27 1.27)))
      )
      (property "Value" "DIODE" (id 1) (at 0 -2.54 0)
        (effects (font (size 1.27 1.27)))
      )
      (property "Footprint" "" (id 2) (at 0 0 0)
        (effects (font (size 1.27 1.27)) hide)
      )
      (property "Datasheet" "~" (id 3) (at 0 0 0)
        (effects (font (size 1.27 1.27)) hide)
      )
      (property "Spice_Netlist_Enabled" "Y" (id 4) (at 0 0 0)
        (effects (font (size 1.27 1.27)) (justify left) hide)
      )
      (property "Spice_Primitive" "D" (id 5) (at 0 0 0)
        (effects (font (size 1.27 1.27)) (justify left) hide)
      )
      (property "ki_keywords" "simulation" (id 6) (at 0 0 0)
        (effects (font (size 1.27 1.27)) hide)
      )
      (property "ki_description" "Diode, anode on pin 1, for simulation only!" (id 7) (at 0 0 0)
        (effects (font (size 1.27 1.27)) hide)
      )
      (symbol "DIODE_0_1"
        (polyline
          (pts
            (xy 1.27 0)
            (xy -1.27 0)
          )
          (stroke (width 0) (type default) (color 0 0 0 0))
          (fill (type none))
        )
        (polyline
          (pts
            (xy 1.27 1.27)
            (xy 1.27 -1.27)
          )
          (stroke (width 0.254) (type default) (color 0 0 0 0))
          (fill (type none))
        )
        (polyline
          (pts
            (xy -1.27 -1.27)
            (xy -1.27 1.27)
            (xy 1.27 0)
            (xy -1.27 -1.27)
          )
          (stroke (width 0.254) (type default) (color 0 0 0 0))
          (fill (type none))
        )
      )
      (symbol "DIODE_1_1"
        (pin passive line (at -3.81 0 0) (length 2.54)
          (name "A" (effects (font (size 1.27 1.27))))
          (number "1" (effects (font (size 1.27 1.27))))
        )
        (pin passive line (at 3.81 0 180) (length 2.54)
          (name "K" (effects (font (size 1.27 1.27))))
          (number "2" (effects (font (size 1.27 1.27))))
        )
      )
    )
    (symbol "global:led_filament" (in_bom yes) (on_board yes)
      (property "Reference" "LF" (id 0) (at -9.398 -7.62 0)
        (effects (font (size 1.27 1.27)))
      )
      (property "Value" "led_filament" (id 1) (at -3.048 -2.286 0)
        (effects (font (size 1.27 1.27)))
      )
      (property "Footprint" "" (id 2) (at 0 0 0)
        (effects (font (size 1.27 1.27)) hide)
      )
      (property "Datasheet" "" (id 3) (at 0 0 0)
        (effects (font (size 1.27 1.27)) hide)
      )
      (symbol "led_filament_0_1"
        (arc (start -9.652 -3.302) (mid -11.0633 -4.826) (end -9.652 -6.35)
          (stroke (width 0) (type default) (color 0 0 0 0))
          (fill (type none))
        )
        (polyline
          (pts
            (xy -9.652 -6.35)
            (xy 2.54 -6.35)
          )
          (stroke (width 0) (type default) (color 0 0 0 0))
          (fill (type none))
        )
        (polyline
          (pts
            (xy -9.652 -3.302)
            (xy 2.54 -3.302)
          )
          (stroke (width 0) (type default) (color 0 0 0 0))
          (fill (type none))
        )
        (polyline
          (pts
            (xy -5.334 -7.62)
            (xy -4.572 -7.62)
            (xy -4.572 -6.858)
            (xy -4.572 -7.62)
            (xy -4.572 -8.382)
            (xy -3.048 -7.62)
            (xy -4.572 -6.858)
            (xy -3.048 -7.62)
            (xy -3.048 -6.858)
            (xy -3.048 -7.62)
            (xy -3.048 -8.382)
            (xy -3.048 -7.62)
            (xy -2.286 -7.62)
          )
          (stroke (width 0) (type default) (color 0 0 0 0))
          (fill (type none))
        )
        (arc (start 2.6572 -6.35) (mid 4.0685 -4.826) (end 2.6572 -3.302)
          (stroke (width 0) (type default) (color 0 0 0 0))
          (fill (type none))
        )
      )
      (symbol "led_filament_1_1"
        (pin input line (at -13.716 -4.826 0) (length 2.54)
          (name "Anode" (effects (font (size 1.27 1.27))))
          (number "1" (effects (font (size 1.27 1.27))))
        )
        (pin output line (at 6.604 -4.826 180) (length 2.54)
          (name "Cathode" (effects (font (size 1.27 1.27))))
          (number "2" (effects (font (size 1.27 1.27))))
        )
      )
    )
    (symbol "led_filament_1" (in_bom yes) (on_board yes)
      (property "Reference" "LF" (id 0) (at -9.398 -7.62 0)
        (effects (font (size 1.27 1.27)))
      )
      (property "Value" "led_filament_1" (id 1) (at -3.048 -2.286 0)
        (effects (font (size 1.27 1.27)))
      )
      (property "Footprint" "" (id 2) (at 0 0 0)
        (effects (font (size 1.27 1.27)) hide)
      )
      (property "Datasheet" "" (id 3) (at 0 0 0)
        (effects (font (size 1.27 1.27)) hide)
      )
      (symbol "led_filament_1_0_1"
        (arc (start -9.652 -3.302) (mid -11.0633 -4.826) (end -9.652 -6.35)
          (stroke (width 0) (type default) (color 0 0 0 0))
          (fill (type none))
        )
        (polyline
          (pts
            (xy -9.652 -6.35)
            (xy 2.54 -6.35)
          )
          (stroke (width 0) (type default) (color 0 0 0 0))
          (fill (type none))
        )
        (polyline
          (pts
            (xy -9.652 -3.302)
            (xy 2.54 -3.302)
          )
          (stroke (width 0) (type default) (color 0 0 0 0))
          (fill (type none))
        )
        (polyline
          (pts
            (xy -5.334 -7.62)
            (xy -4.572 -7.62)
            (xy -4.572 -6.858)
            (xy -4.572 -7.62)
            (xy -4.572 -8.382)
            (xy -3.048 -7.62)
            (xy -4.572 -6.858)
            (xy -3.048 -7.62)
            (xy -3.048 -6.858)
            (xy -3.048 -7.62)
            (xy -3.048 -8.382)
            (xy -3.048 -7.62)
            (xy -2.286 -7.62)
          )
          (stroke (width 0) (type default) (color 0 0 0 0))
          (fill (type none))
        )
        (arc (start 2.6572 -6.35) (mid 4.0685 -4.826) (end 2.6572 -3.302)
          (stroke (width 0) (type default) (color 0 0 0 0))
          (fill (type none))
        )
      )
      (symbol "led_filament_1_1_1"
        (pin input line (at -13.716 -4.826 0) (length 2.54)
          (name "Anode" (effects (font (size 1.27 1.27))))
          (number "1" (effects (font (size 1.27 1.27))))
        )
        (pin output line (at 6.604 -4.826 180) (length 2.54)
          (name "Cathode" (effects (font (size 1.27 1.27))))
          (number "2" (effects (font (size 1.27 1.27))))
        )
      )
    )
    (symbol "led_filament_2" (in_bom yes) (on_board yes)
      (property "Reference" "LF" (id 0) (at -9.398 -7.62 0)
        (effects (font (size 1.27 1.27)))
      )
      (property "Value" "led_filament_2" (id 1) (at -3.048 -2.286 0)
        (effects (font (size 1.27 1.27)))
      )
      (property "Footprint" "" (id 2) (at 0 0 0)
        (effects (font (size 1.27 1.27)) hide)
      )
      (property "Datasheet" "" (id 3) (at 0 0 0)
        (effects (font (size 1.27 1.27)) hide)
      )
      (symbol "led_filament_2_0_1"
        (arc (start -9.652 -3.302) (mid -11.0633 -4.826) (end -9.652 -6.35)
          (stroke (width 0) (type default) (color 0 0 0 0))
          (fill (type none))
        )
        (polyline
          (pts
            (xy -9.652 -6.35)
            (xy 2.54 -6.35)
          )
          (stroke (width 0) (type default) (color 0 0 0 0))
          (fill (type none))
        )
        (polyline
          (pts
            (xy -9.652 -3.302)
            (xy 2.54 -3.302)
          )
          (stroke (width 0) (type default) (color 0 0 0 0))
          (fill (type none))
        )
        (polyline
          (pts
            (xy -5.334 -7.62)
            (xy -4.572 -7.62)
            (xy -4.572 -6.858)
            (xy -4.572 -7.62)
            (xy -4.572 -8.382)
            (xy -3.048 -7.62)
            (xy -4.572 -6.858)
            (xy -3.048 -7.62)
            (xy -3.048 -6.858)
            (xy -3.048 -7.62)
            (xy -3.048 -8.382)
            (xy -3.048 -7.62)
            (xy -2.286 -7.62)
          )
          (stroke (width 0) (type default) (color 0 0 0 0))
          (fill (type none))
        )
        (arc (start 2.6572 -6.35) (mid 4.0685 -4.826) (end 2.6572 -3.302)
          (stroke (width 0) (type default) (color 0 0 0 0))
          (fill (type none))
        )
      )
      (symbol "led_filament_2_1_1"
        (pin input line (at -13.716 -4.826 0) (length 2.54)
          (name "Anode" (effects (font (size 1.27 1.27))))
          (number "1" (effects (font (size 1.27 1.27))))
        )
        (pin output line (at 6.604 -4.826 180) (length 2.54)
          (name "Cathode" (effects (font (size 1.27 1.27))))
          (number "2" (effects (font (size 1.27 1.27))))
        )
      )
    )
    (symbol "led_filament_3" (in_bom yes) (on_board yes)
      (property "Reference" "LF" (id 0) (at -9.398 -7.62 0)
        (effects (font (size 1.27 1.27)))
      )
      (property "Value" "led_filament_3" (id 1) (at -3.048 -2.286 0)
        (effects (font (size 1.27 1.27)))
      )
      (property "Footprint" "" (id 2) (at 0 0 0)
        (effects (font (size 1.27 1.27)) hide)
      )
      (property "Datasheet" "" (id 3) (at 0 0 0)
        (effects (font (size 1.27 1.27)) hide)
      )
      (symbol "led_filament_3_0_1"
        (arc (start -9.652 -3.302) (mid -11.0633 -4.826) (end -9.652 -6.35)
          (stroke (width 0) (type default) (color 0 0 0 0))
          (fill (type none))
        )
        (polyline
          (pts
            (xy -9.652 -6.35)
            (xy 2.54 -6.35)
          )
          (stroke (width 0) (type default) (color 0 0 0 0))
          (fill (type none))
        )
        (polyline
          (pts
            (xy -9.652 -3.302)
            (xy 2.54 -3.302)
          )
          (stroke (width 0) (type default) (color 0 0 0 0))
          (fill (type none))
        )
        (polyline
          (pts
            (xy -5.334 -7.62)
            (xy -4.572 -7.62)
            (xy -4.572 -6.858)
            (xy -4.572 -7.62)
            (xy -4.572 -8.382)
            (xy -3.048 -7.62)
            (xy -4.572 -6.858)
            (xy -3.048 -7.62)
            (xy -3.048 -6.858)
            (xy -3.048 -7.62)
            (xy -3.048 -8.382)
            (xy -3.048 -7.62)
            (xy -2.286 -7.62)
          )
          (stroke (width 0) (type default) (color 0 0 0 0))
          (fill (type none))
        )
        (arc (start 2.6572 -6.35) (mid 4.0685 -4.826) (end 2.6572 -3.302)
          (stroke (width 0) (type default) (color 0 0 0 0))
          (fill (type none))
        )
      )
      (symbol "led_filament_3_1_1"
        (pin input line (at -13.716 -4.826 0) (length 2.54)
          (name "Anode" (effects (font (size 1.27 1.27))))
          (number "1" (effects (font (size 1.27 1.27))))
        )
        (pin output line (at 6.604 -4.826 180) (length 2.54)
          (name "Cathode" (effects (font (size 1.27 1.27))))
          (number "2" (effects (font (size 1.27 1.27))))
        )
      )
    )
    (symbol "led_filament_4" (in_bom yes) (on_board yes)
      (property "Reference" "LF" (id 0) (at -9.398 -7.62 0)
        (effects (font (size 1.27 1.27)))
      )
      (property "Value" "led_filament_4" (id 1) (at -3.048 -2.286 0)
        (effects (font (size 1.27 1.27)))
      )
      (property "Footprint" "" (id 2) (at 0 0 0)
        (effects (font (size 1.27 1.27)) hide)
      )
      (property "Datasheet" "" (id 3) (at 0 0 0)
        (effects (font (size 1.27 1.27)) hide)
      )
      (symbol "led_filament_4_0_1"
        (arc (start -9.652 -3.302) (mid -11.0633 -4.826) (end -9.652 -6.35)
          (stroke (width 0) (type default) (color 0 0 0 0))
          (fill (type none))
        )
        (polyline
          (pts
            (xy -9.652 -6.35)
            (xy 2.54 -6.35)
          )
          (stroke (width 0) (type default) (color 0 0 0 0))
          (fill (type none))
        )
        (polyline
          (pts
            (xy -9.652 -3.302)
            (xy 2.54 -3.302)
          )
          (stroke (width 0) (type default) (color 0 0 0 0))
          (fill (type none))
        )
        (polyline
          (pts
            (xy -5.334 -7.62)
            (xy -4.572 -7.62)
            (xy -4.572 -6.858)
            (xy -4.572 -7.62)
            (xy -4.572 -8.382)
            (xy -3.048 -7.62)
            (xy -4.572 -6.858)
            (xy -3.048 -7.62)
            (xy -3.048 -6.858)
            (xy -3.048 -7.62)
            (xy -3.048 -8.382)
            (xy -3.048 -7.62)
            (xy -2.286 -7.62)
          )
          (stroke (width 0) (type default) (color 0 0 0 0))
          (fill (type none))
        )
        (arc (start 2.6572 -6.35) (mid 4.0685 -4.826) (end 2.6572 -3.302)
          (stroke (width 0) (type default) (color 0 0 0 0))
          (fill (type none))
        )
      )
      (symbol "led_filament_4_1_1"
        (pin input line (at -13.716 -4.826 0) (length 2.54)
          (name "Anode" (effects (font (size 1.27 1.27))))
          (number "1" (effects (font (size 1.27 1.27))))
        )
        (pin output line (at 6.604 -4.826 180) (length 2.54)
          (name "Cathode" (effects (font (size 1.27 1.27))))
          (number "2" (effects (font (size 1.27 1.27))))
        )
      )
    )
    (symbol "led_filament_5" (in_bom yes) (on_board yes)
      (property "Reference" "LF" (id 0) (at -9.398 -7.62 0)
        (effects (font (size 1.27 1.27)))
      )
      (property "Value" "led_filament_5" (id 1) (at -3.048 -2.286 0)
        (effects (font (size 1.27 1.27)))
      )
      (property "Footprint" "" (id 2) (at 0 0 0)
        (effects (font (size 1.27 1.27)) hide)
      )
      (property "Datasheet" "" (id 3) (at 0 0 0)
        (effects (font (size 1.27 1.27)) hide)
      )
      (symbol "led_filament_5_0_1"
        (arc (start -9.652 -3.302) (mid -11.0633 -4.826) (end -9.652 -6.35)
          (stroke (width 0) (type default) (color 0 0 0 0))
          (fill (type none))
        )
        (polyline
          (pts
            (xy -9.652 -6.35)
            (xy 2.54 -6.35)
          )
          (stroke (width 0) (type default) (color 0 0 0 0))
          (fill (type none))
        )
        (polyline
          (pts
            (xy -9.652 -3.302)
            (xy 2.54 -3.302)
          )
          (stroke (width 0) (type default) (color 0 0 0 0))
          (fill (type none))
        )
        (polyline
          (pts
            (xy -5.334 -7.62)
            (xy -4.572 -7.62)
            (xy -4.572 -6.858)
            (xy -4.572 -7.62)
            (xy -4.572 -8.382)
            (xy -3.048 -7.62)
            (xy -4.572 -6.858)
            (xy -3.048 -7.62)
            (xy -3.048 -6.858)
            (xy -3.048 -7.62)
            (xy -3.048 -8.382)
            (xy -3.048 -7.62)
            (xy -2.286 -7.62)
          )
          (stroke (width 0) (type default) (color 0 0 0 0))
          (fill (type none))
        )
        (arc (start 2.6572 -6.35) (mid 4.0685 -4.826) (end 2.6572 -3.302)
          (stroke (width 0) (type default) (color 0 0 0 0))
          (fill (type none))
        )
      )
      (symbol "led_filament_5_1_1"
        (pin input line (at -13.716 -4.826 0) (length 2.54)
          (name "Anode" (effects (font (size 1.27 1.27))))
          (number "1" (effects (font (size 1.27 1.27))))
        )
        (pin output line (at 6.604 -4.826 180) (length 2.54)
          (name "Cathode" (effects (font (size 1.27 1.27))))
          (number "2" (effects (font (size 1.27 1.27))))
        )
      )
    )
    (symbol "led_filament_6" (in_bom yes) (on_board yes)
      (property "Reference" "LF" (id 0) (at -9.398 -7.62 0)
        (effects (font (size 1.27 1.27)))
      )
      (property "Value" "led_filament_6" (id 1) (at -3.048 -2.286 0)
        (effects (font (size 1.27 1.27)))
      )
      (property "Footprint" "" (id 2) (at 0 0 0)
        (effects (font (size 1.27 1.27)) hide)
      )
      (property "Datasheet" "" (id 3) (at 0 0 0)
        (effects (font (size 1.27 1.27)) hide)
      )
      (symbol "led_filament_6_0_1"
        (arc (start -9.652 -3.302) (mid -11.0633 -4.826) (end -9.652 -6.35)
          (stroke (width 0) (type default) (color 0 0 0 0))
          (fill (type none))
        )
        (polyline
          (pts
            (xy -9.652 -6.35)
            (xy 2.54 -6.35)
          )
          (stroke (width 0) (type default) (color 0 0 0 0))
          (fill (type none))
        )
        (polyline
          (pts
            (xy -9.652 -3.302)
            (xy 2.54 -3.302)
          )
          (stroke (width 0) (type default) (color 0 0 0 0))
          (fill (type none))
        )
        (polyline
          (pts
            (xy -5.334 -7.62)
            (xy -4.572 -7.62)
            (xy -4.572 -6.858)
            (xy -4.572 -7.62)
            (xy -4.572 -8.382)
            (xy -3.048 -7.62)
            (xy -4.572 -6.858)
            (xy -3.048 -7.62)
            (xy -3.048 -6.858)
            (xy -3.048 -7.62)
            (xy -3.048 -8.382)
            (xy -3.048 -7.62)
            (xy -2.286 -7.62)
          )
          (stroke (width 0) (type default) (color 0 0 0 0))
          (fill (type none))
        )
        (arc (start 2.6572 -6.35) (mid 4.0685 -4.826) (end 2.6572 -3.302)
          (stroke (width 0) (type default) (color 0 0 0 0))
          (fill (type none))
        )
      )
      (symbol "led_filament_6_1_1"
        (pin input line (at -13.716 -4.826 0) (length 2.54)
          (name "Anode" (effects (font (size 1.27 1.27))))
          (number "1" (effects (font (size 1.27 1.27))))
        )
        (pin output line (at 6.604 -4.826 180) (length 2.54)
          (name "Cathode" (effects (font (size 1.27 1.27))))
          (number "2" (effects (font (size 1.27 1.27))))
        )
      )
    )
  )

  (junction (at 103.3018 79.8068) (diameter 0) (color 0 0 0 0)
    (uuid 1d999ce2-8026-46b0-935d-7d56e0ac2ddf)
  )
  (junction (at 124.8156 100.965) (diameter 0) (color 0 0 0 0)
    (uuid a2f40e89-0449-4fa4-87da-f99b2b82adc5)
  )
  (junction (at 124.9172 58.4962) (diameter 0) (color 0 0 0 0)
    (uuid a85d1f1c-c4bb-4fc2-88db-7ed902188870)
  )

  (wire (pts (xy 123.4948 102.0064) (xy 124.8156 100.965))
    (stroke (width 0) (type default) (color 0 0 0 0))
    (uuid 072f7e8c-251c-4f6c-80d0-81546ef188ae)
  )
  (wire (pts (xy 216.2048 70.7136) (xy 224.0534 70.7136))
    (stroke (width 0) (type default) (color 0 0 0 0))
    (uuid 2584e65c-29ac-4b80-8500-412103e3de7b)
  )
  (wire (pts (xy 172.7708 94.6912) (xy 166.751 94.6912))
    (stroke (width 0) (type default) (color 0 0 0 0))
    (uuid 26878469-2554-4020-97c0-a92b2df69b35)
  )
  (wire (pts (xy 207.6704 75.7936) (xy 211.1248 75.7936))
    (stroke (width 0) (type default) (color 0 0 0 0))
    (uuid 3b2886e2-eed2-4c74-bf84-92df7fa5fb0e)
  )
  (wire (pts (xy 103.1494 106.0196) (xy 103.1748 102.0064))
    (stroke (width 0) (type default) (color 0 0 0 0))
    (uuid 49052d64-7f7a-44ae-b915-81efc22565c3)
  )
  (wire (pts (xy 216.2048 65.6336) (xy 224.0534 65.6336))
    (stroke (width 0) (type default) (color 0 0 0 0))
    (uuid 49cf6c0e-c910-4d83-bd73-ab407e2f1fca)
  )
  (wire (pts (xy 216.2048 75.7936) (xy 224.0534 75.7936))
    (stroke (width 0) (type default) (color 0 0 0 0))
    (uuid 4c415e1e-2cba-4d11-8c8e-c062824d92dd)
  )
  (wire (pts (xy 103.4034 53.0606) (xy 103.378 57.3024))
    (stroke (width 0) (type default) (color 0 0 0 0))
    (uuid 4d1a8d65-0522-468d-ae57-b5dbaaac8ce9)
  )
  (wire (pts (xy 98.2218 79.756) (xy 103.3018 79.8068))
    (stroke (width 0) (type default) (color 0 0 0 0))
    (uuid 5704947e-c2d7-43fc-be59-44c3fc274bbe)
  )
  (wire (pts (xy 216.1794 68.1736) (xy 224.0534 68.1736))
    (stroke (width 0) (type default) (color 0 0 0 0))
    (uuid 627f3510-ff7a-4186-8dce-b20e8f03c301)
  )
  (wire (pts (xy 207.645 68.1736) (xy 211.0994 68.1736))
    (stroke (width 0) (type default) (color 0 0 0 0))
    (uuid 68375d88-38f9-4233-a69e-636f9a8bf595)
  )
  (wire (pts (xy 216.2048 80.8736) (xy 224.0534 80.8736))
    (stroke (width 0) (type default) (color 0 0 0 0))
    (uuid 6861e50d-c9c7-4aee-a047-e66897e4d914)
  )
  (wire (pts (xy 99.5172 100.9904) (xy 101.9048 100.9904))
    (stroke (width 0) (type default) (color 0 0 0 0))
    (uuid 690f5e66-f7a3-4c49-b070-3012a0f00aeb)
  )
  (wire (pts (xy 100.584 53.0606) (xy 103.4034 53.0606))
    (stroke (width 0) (type default) (color 0 0 0 0))
    (uuid 6a516ac0-7ea6-4478-9414-f944f974237c)
  )
  (wire (pts (xy 207.645 65.6336) (xy 211.1248 65.6336))
    (stroke (width 0) (type default) (color 0 0 0 0))
    (uuid 7156005c-77d0-4997-9c9a-0951af75264e)
  )
  (wire (pts (xy 207.645 85.979) (xy 211.0994 85.979))
    (stroke (width 0) (type default) (color 0 0 0 0))
    (uuid 7301e63b-6a3e-4db0-942a-c06efcd6de80)
  )
  (wire (pts (xy 207.6704 70.7136) (xy 211.1248 70.7136))
    (stroke (width 0) (type default) (color 0 0 0 0))
    (uuid 7ebea0ed-dab7-4ceb-95d6-7a7bd3c2305b)
  )
  (wire (pts (xy 98.933 58.6994) (xy 102.0826 58.5978))
    (stroke (width 0) (type default) (color 0 0 0 0))
    (uuid 85d81989-27cc-4a7e-8ae5-94ff0ea0fa39)
  )
  (wire (pts (xy 124.8156 100.965) (xy 128.5494 100.965))
    (stroke (width 0) (type default) (color 0 0 0 0))
    (uuid 94b1650c-e0f7-46c7-8ba3-a96aff497e94)
  )
  (wire (pts (xy 123.698 57.3024) (xy 124.9172 58.4962))
    (stroke (width 0) (type default) (color 0 0 0 0))
    (uuid 96682715-5339-425f-8577-883dd9b00a63)
  )
  (wire (pts (xy 207.6704 73.2536) (xy 211.1248 73.2536))
    (stroke (width 0) (type default) (color 0 0 0 0))
    (uuid 9940ac54-7028-44a7-88eb-755afb1bbad1)
  )
  (wire (pts (xy 99.3902 105.9688) (xy 103.1494 106.0196))
    (stroke (width 0) (type default) (color 0 0 0 0))
    (uuid 9a9b64df-fb80-4aa7-b510-f3c5a33a809e)
  )
  (wire (pts (xy 124.9172 78.8162) (xy 130.7084 76.9112))
    (stroke (width 0) (type default) (color 0 0 0 0))
    (uuid a0b17f5b-c611-43bb-812f-901e290e34a1)
  )
  (wire (pts (xy 123.6218 79.8068) (xy 130.6576 79.756))
    (stroke (width 0) (type default) (color 0 0 0 0))
    (uuid a2160e5c-5710-4392-a164-cdb953dbc3e5)
  )
  (wire (pts (xy 216.2048 73.2536) (xy 224.0534 73.2536))
    (stroke (width 0) (type default) (color 0 0 0 0))
    (uuid aacbca58-de11-49a9-997a-9cd631cfdad6)
  )
  (wire (pts (xy 207.6704 78.3336) (xy 211.1248 78.3336))
    (stroke (width 0) (type default) (color 0 0 0 0))
    (uuid ae4ecfbe-8514-4e52-8d27-eb804ad56095)
  )
  (wire (pts (xy 172.6438 102.2858) (xy 166.751 102.3112))
    (stroke (width 0) (type default) (color 0 0 0 0))
    (uuid ae72b660-7356-4492-b1b8-d1f585d85cb1)
  )
  (wire (pts (xy 128.6764 58.5978) (xy 124.9172 58.4962))
    (stroke (width 0) (type default) (color 0 0 0 0))
    (uuid bbcb0a90-a3b6-4a94-9fe9-ba3e4acc32d3)
  )
  (wire (pts (xy 102.0826 78.9178) (xy 103.3018 79.8068))
    (stroke (width 0) (type default) (color 0 0 0 0))
    (uuid be011447-fdfa-422a-b270-a7614af771b8)
  )
  (wire (pts (xy 216.2048 83.439) (xy 224.0534 83.4136))
    (stroke (width 0) (type default) (color 0 0 0 0))
    (uuid cc02badb-a245-4c96-bd51-ac259addd6f2)
  )
  (wire (pts (xy 211.0994 85.979) (xy 224.0534 85.9536))
    (stroke (width 0) (type default) (color 0 0 0 0))
    (uuid cee6bbf2-cc39-462f-bf5d-8ec9804c48b0)
  )
  (wire (pts (xy 207.6704 83.439) (xy 211.1248 83.439))
    (stroke (width 0) (type default) (color 0 0 0 0))
    (uuid d4af7037-d870-4728-9cec-26757038d97c)
  )
  (wire (pts (xy 130.6576 82.6262) (xy 124.8156 80.645))
    (stroke (width 0) (type default) (color 0 0 0 0))
    (uuid d52a8341-ac93-4ff0-9ad4-5272626d663e)
  )
  (wire (pts (xy 207.6704 80.8736) (xy 211.1248 80.8736))
    (stroke (width 0) (type default) (color 0 0 0 0))
    (uuid e40e32d0-ebf0-42cb-a0fa-59ba40ca51bb)
  )
  (wire (pts (xy 216.2048 78.3336) (xy 224.0534 78.3336))
    (stroke (width 0) (type default) (color 0 0 0 0))
    (uuid ec178c42-8dac-42f5-afa9-ccb41b03d5f8)
  )
  (wire (pts (xy 103.3018 79.8068) (xy 101.9048 80.6704))
    (stroke (width 0) (type default) (color 0 0 0 0))
    (uuid fae6f6f8-1cb3-44cb-b6b1-90542a057b04)
  )

  (text "B" (at 134.5692 69.1134 0)
    (effects (font (size 3 3) (thickness 0.6) bold) (justify left bottom))
    (uuid 06b4e1a5-af7e-42ce-9c2c-d8d44d171ed8)
  )
  (text "D" (at 115.443 108.8644 0)
    (effects (font (size 3 3) (thickness 0.6) bold) (justify left bottom))
    (uuid 1299138f-2119-4470-89cb-89365536e1b7)
  )
  (text "C" (at 134.0866 90.8558 0)
    (effects (font (size 3 3) (thickness 0.6) bold) (justify left bottom))
    (uuid 490914aa-6941-4525-93aa-548a465544b7)
  )
  (text "G" (at 115.2906 72.8218 0)
    (effects (font (size 3 3) (thickness 0.6) bold) (justify left bottom))
    (uuid 778b24d4-3e83-4d3b-b40d-887d8883cb5d)
  )
  (text "DP" (at 151.511 100.711 0)
    (effects (font (size 3 3) (thickness 0.6) bold) (justify left bottom))
    (uuid 8361134f-f12e-4fe2-a300-87689d88144a)
  )
  (text "F" (at 87.8586 68.8086 0)
    (effects (font (size 3 3) (thickness 0.6) bold) (justify left bottom))
    (uuid 961f3208-72c4-4d7c-8fc5-c60999e9550c)
  )
  (text "E" (at 87.6046 90.0684 0)
    (effects (font (size 3 3) (thickness 0.6) bold) (justify left bottom))
    (uuid be40fe53-ddb9-45d6-bb31-58ba88afaed3)
  )
  (text "A" (at 115.9002 52.4764 0)
    (effects (font (size 3 3) (thickness 0.6) bold) (justify left bottom))
    (uuid d67939a5-7e2d-4423-8abe-b04161ba89b7)
  )

  (global_label "SegA" (shape input) (at 207.645 65.6336 180) (fields_autoplaced)
    (effects (font (size 1.27 1.27)) (justify right))
    (uuid 011c9ecd-f3cf-4232-8c64-2d2bb74f9f3b)
    (property "Intersheet References" "${INTERSHEET_REFS}" (id 0) (at 200.6962 65.713 0)
      (effects (font (size 1.27 1.27)) (justify right) hide)
    )
  )
  (global_label "SegC" (shape input) (at 207.6704 70.7136 180) (fields_autoplaced)
    (effects (font (size 1.27 1.27)) (justify right))
    (uuid 04ae1f4e-d87a-464b-a64a-f63e6b954b22)
    (property "Intersheet References" "${INTERSHEET_REFS}" (id 0) (at 200.5402 70.793 0)
      (effects (font (size 1.27 1.27)) (justify right) hide)
    )
  )
  (global_label "SegD" (shape input) (at 207.6704 73.2536 180) (fields_autoplaced)
    (effects (font (size 1.27 1.27)) (justify right))
    (uuid 09bf87a3-12b2-4a7f-bc96-5f439320a2eb)
    (property "Intersheet References" "${INTERSHEET_REFS}" (id 0) (at 200.5402 73.333 0)
      (effects (font (size 1.27 1.27)) (justify right) hide)
    )
  )
  (global_label "CC" (shape input) (at 128.6764 58.5978 0) (fields_autoplaced)
    (effects (font (size 1.27 1.27)) (justify left))
    (uuid 0f41c1ba-56e8-46c0-b116-a5aeb6c2cd64)
    (property "Intersheet References" "${INTERSHEET_REFS}" (id 0) (at 133.6295 58.5184 0)
      (effects (font (size 1.27 1.27)) (justify left) hide)
    )
  )
  (global_label "CC" (shape input) (at 98.2218 79.756 180) (fields_autoplaced)
    (effects (font (size 1.27 1.27)) (justify right))
    (uuid 1bd91477-4428-4cd7-959f-efb5bcd329bc)
    (property "Intersheet References" "${INTERSHEET_REFS}" (id 0) (at 93.2687 79.8354 0)
      (effects (font (size 1.27 1.27)) (justify right) hide)
    )
  )
  (global_label "SegA" (shape input) (at 100.584 53.0606 180) (fields_autoplaced)
    (effects (font (size 1.27 1.27)) (justify right))
    (uuid 1dfe9b25-a947-45f2-8685-967bc787ccff)
    (property "Intersheet References" "${INTERSHEET_REFS}" (id 0) (at 93.6352 53.14 0)
      (effects (font (size 1.27 1.27)) (justify right) hide)
    )
  )
  (global_label "SegD" (shape input) (at 99.3902 105.9688 180) (fields_autoplaced)
    (effects (font (size 1.27 1.27)) (justify right))
    (uuid 34069787-b4ef-4e42-b71d-70f47607b0b8)
    (property "Intersheet References" "${INTERSHEET_REFS}" (id 0) (at 92.26 106.0482 0)
      (effects (font (size 1.27 1.27)) (justify right) hide)
    )
  )
  (global_label "SegDP" (shape input) (at 172.7708 94.6912 0) (fields_autoplaced)
    (effects (font (size 1.27 1.27)) (justify left))
    (uuid 46389971-ac13-41ce-9600-27311dfcb67b)
    (property "Intersheet References" "${INTERSHEET_REFS}" (id 0) (at 181.171 94.6118 0)
      (effects (font (size 1.27 1.27)) (justify left) hide)
    )
  )
  (global_label "SegC" (shape input) (at 130.6576 82.6262 0) (fields_autoplaced)
    (effects (font (size 1.27 1.27)) (justify left))
    (uuid 49e20705-01d4-4871-bd8e-c57daffebe0c)
    (property "Intersheet References" "${INTERSHEET_REFS}" (id 0) (at 137.7878 82.5468 0)
      (effects (font (size 1.27 1.27)) (justify left) hide)
    )
  )
  (global_label "SegB" (shape input) (at 130.7084 76.9112 0) (fields_autoplaced)
    (effects (font (size 1.27 1.27)) (justify left))
    (uuid 4ef939ef-5e4b-4848-aa4e-edc4e2a0a8df)
    (property "Intersheet References" "${INTERSHEET_REFS}" (id 0) (at 137.8386 76.8318 0)
      (effects (font (size 1.27 1.27)) (justify left) hide)
    )
  )
  (global_label "SegF" (shape input) (at 207.6704 78.3336 180) (fields_autoplaced)
    (effects (font (size 1.27 1.27)) (justify right))
    (uuid 4fdae1e0-75f6-468d-893d-3b5f05876bcc)
    (property "Intersheet References" "${INTERSHEET_REFS}" (id 0) (at 200.7216 78.413 0)
      (effects (font (size 1.27 1.27)) (justify right) hide)
    )
  )
  (global_label "SegF" (shape input) (at 98.933 58.6994 180) (fields_autoplaced)
    (effects (font (size 1.27 1.27)) (justify right))
    (uuid 64f9325d-87c1-4f35-a61e-02598e6c4907)
    (property "Intersheet References" "${INTERSHEET_REFS}" (id 0) (at 91.9842 58.7788 0)
      (effects (font (size 1.27 1.27)) (justify right) hide)
    )
  )
  (global_label "SegB" (shape input) (at 207.645 68.1736 180) (fields_autoplaced)
    (effects (font (size 1.27 1.27)) (justify right))
    (uuid 86bae476-7bff-47e8-91b9-b6da2ee05fb2)
    (property "Intersheet References" "${INTERSHEET_REFS}" (id 0) (at 200.5148 68.253 0)
      (effects (font (size 1.27 1.27)) (justify right) hide)
    )
  )
  (global_label "SegE" (shape input) (at 207.6704 75.7936 180) (fields_autoplaced)
    (effects (font (size 1.27 1.27)) (justify right))
    (uuid 8a6d3e17-9665-4321-b73a-dfd6898ddfe0)
    (property "Intersheet References" "${INTERSHEET_REFS}" (id 0) (at 200.6611 75.873 0)
      (effects (font (size 1.27 1.27)) (justify right) hide)
    )
  )
  (global_label "SegG" (shape input) (at 207.6704 80.8736 180) (fields_autoplaced)
    (effects (font (size 1.27 1.27)) (justify right))
    (uuid 8afb0358-611f-4916-a0db-31397107c463)
    (property "Intersheet References" "${INTERSHEET_REFS}" (id 0) (at 200.5402 80.953 0)
      (effects (font (size 1.27 1.27)) (justify right) hide)
    )
  )
  (global_label "SegDP" (shape input) (at 207.6704 83.439 180) (fields_autoplaced)
    (effects (font (size 1.27 1.27)) (justify right))
    (uuid 9aadb9c7-4937-49c9-b3ec-5bd4e2b56b30)
    (property "Intersheet References" "${INTERSHEET_REFS}" (id 0) (at 199.2702 83.5184 0)
      (effects (font (size 1.27 1.27)) (justify right) hide)
    )
  )
  (global_label "SegE" (shape input) (at 99.5172 100.9904 180) (fields_autoplaced)
    (effects (font (size 1.27 1.27)) (justify right))
    (uuid e40708d7-4a5d-43dd-b107-fa6c9dc39b3c)
    (property "Intersheet References" "${INTERSHEET_REFS}" (id 0) (at 92.5079 101.0698 0)
      (effects (font (size 1.27 1.27)) (justify right) hide)
    )
  )
  (global_label "CC" (shape input) (at 172.6438 102.2858 0) (fields_autoplaced)
    (effects (font (size 1.27 1.27)) (justify left))
    (uuid ef21f8dd-4bd0-491c-b080-8662951c239c)
    (property "Intersheet References" "${INTERSHEET_REFS}" (id 0) (at 177.5969 102.2064 0)
      (effects (font (size 1.27 1.27)) (justify left) hide)
    )
  )
  (global_label "CC" (shape input) (at 207.645 85.979 180) (fields_autoplaced)
    (effects (font (size 1.27 1.27)) (justify right))
    (uuid f11ce64a-f3af-4f81-bd57-66ae912e0dd9)
    (property "Intersheet References" "${INTERSHEET_REFS}" (id 0) (at 202.6919 86.0584 0)
      (effects (font (size 1.27 1.27)) (justify right) hide)
    )
  )
  (global_label "SegG" (shape input) (at 130.6576 79.756 0) (fields_autoplaced)
    (effects (font (size 1.27 1.27)) (justify left))
    (uuid fb3418ef-7bc9-4cde-bd74-3b5cf606e888)
    (property "Intersheet References" "${INTERSHEET_REFS}" (id 0) (at 137.7878 79.6766 0)
      (effects (font (size 1.27 1.27)) (justify left) hide)
    )
  )
  (global_label "CC" (shape input) (at 128.5494 100.965 0) (fields_autoplaced)
    (effects (font (size 1.27 1.27)) (justify left))
    (uuid fd7cd386-f386-4320-a785-4fd7ac3de9c9)
    (property "Intersheet References" "${INTERSHEET_REFS}" (id 0) (at 133.5025 100.8856 0)
      (effects (font (size 1.27 1.27)) (justify left) hide)
    )
  )

  (symbol (lib_id "Connector_Generic:Conn_01x09") (at 229.1334 75.7936 0) (unit 1)
    (in_bom yes) (on_board yes) (fields_autoplaced)
    (uuid 2b2d7b8d-b859-421d-9bf8-7165441106d6)
    (property "Reference" "J1" (id 0) (at 232.41 74.5235 0)
      (effects (font (size 1.27 1.27)) (justify left))
    )
    (property "Value" "Conn_01x09" (id 1) (at 232.41 77.0635 0)
      (effects (font (size 1.27 1.27)) (justify left))
    )
    (property "Footprint" "Connector_PinHeader_2.54mm:PinHeader_1x09_P2.54mm_Vertical" (id 2) (at 229.1334 75.7936 0)
      (effects (font (size 1.27 1.27)) hide)
    )
    (property "Datasheet" "~" (id 3) (at 229.1334 75.7936 0)
      (effects (font (size 1.27 1.27)) hide)
    )
    (pin "1" (uuid ef19b655-cb5d-45ae-90ce-c13438272725))
    (pin "2" (uuid a70e417e-b1ea-4856-b9eb-035e06d1c4fe))
    (pin "3" (uuid 9e90ffab-1972-4572-ac85-d8958c4f2a5d))
    (pin "4" (uuid 13b02ab0-c7ec-4815-b05e-bf36952c286d))
    (pin "5" (uuid e2f2b0e8-9a4b-48ab-a341-fe8256fba28e))
    (pin "6" (uuid 36e9a839-0621-4cdd-b229-ca1085564e8a))
    (pin "7" (uuid e7a3d10f-5012-40ab-91a8-9f35a0c072e3))
    (pin "8" (uuid e616b663-e3bd-43a4-b035-8d7d1667cb97))
    (pin "9" (uuid 14a22677-d0ec-48f7-bc4f-7921412d4de5))
  )

  (symbol (lib_name "led_filament_2") (lib_id "global:led_filament") (at 120.0912 65.1002 90) (unit 1)
    (in_bom yes) (on_board yes) (fields_autoplaced)
    (uuid 38a94cb3-3adf-4193-9ace-ccc15b2ae89a)
    (property "Reference" "LF2" (id 0) (at 129.54 67.3838 90)
      (effects (font (size 1.27 1.27)) (justify right))
    )
    (property "Value" "led_filament" (id 1) (at 129.54 69.9238 90)
      (effects (font (size 1.27 1.27)) (justify right))
    )
    (property "Footprint" "Global:filament_30mm" (id 2) (at 120.0912 65.1002 0)
      (effects (font (size 1.27 1.27)) hide)
    )
    (property "Datasheet" "" (id 3) (at 120.0912 65.1002 0)
      (effects (font (size 1.27 1.27)) hide)
    )
    (pin "1" (uuid 3443c894-61f1-4f17-839e-0eb0f2d9bb7c))
    (pin "2" (uuid ba447e65-0d6b-4963-b3b1-3a1660246cc4))
  )

  (symbol (lib_id "Device:R_Small") (at 213.6648 83.439 90) (unit 1)
    (in_bom yes) (on_board yes)
    (uuid 3ab11bbf-6faa-4241-a577-323294b99ed7)
    (property "Reference" "R8" (id 0) (at 210.6422 82.4992 90))
    (property "Value" "1k" (id 1) (at 213.6648 83.4136 90))
    (property "Footprint" "Resistor_SMD:R_0805_2012Metric" (id 2) (at 213.6648 83.439 0)
      (effects (font (size 1.27 1.27)) hide)
    )
    (property "Datasheet" "~" (id 3) (at 213.6648 83.439 0)
      (effects (font (size 1.27 1.27)) hide)
    )
    (pin "1" (uuid e31f3bca-8b2e-40d3-b63c-b23ce0baaa82))
    (pin "2" (uuid 3ca43809-8d27-4a45-86ee-6d6beecfc252))
  )

  (symbol (lib_name "led_filament_6") (lib_id "global:led_filament") (at 106.9086 72.3138 270) (unit 1)
    (in_bom yes) (on_board yes)
    (uuid 40df91db-5def-402c-b0c5-76d7726b2061)
    (property "Reference" "LF6" (id 0) (at 92.9132 67.2592 90)
      (effects (font (size 1.27 1.27)) (justify left))
    )
    (property "Value" "led_filament" (id 1) (at 84.3534 69.8754 90)
      (effects (font (size 1.27 1.27)) (justify left))
    )
    (property "Footprint" "Global:filament_30mm" (id 2) (at 106.9086 72.3138 0)
      (effects (font (size 1.27 1.27)) hide)
    )
    (property "Datasheet" "" (id 3) (at 106.9086 72.3138 0)
      (effects (font (size 1.27 1.27)) hide)
    )
    (pin "1" (uuid a6bbf6cc-54ca-4a08-baa8-167485fd47fd))
    (pin "2" (uuid b6b11a1b-7451-4e33-80ae-238bf7dbc3a2))
  )

  (symbol (lib_id "Device:R_Small") (at 213.6648 70.7136 90) (unit 1)
    (in_bom yes) (on_board yes)
    (uuid 534ad58d-e1bf-467f-a285-92ad39df818f)
    (property "Reference" "R3" (id 0) (at 210.6422 69.7738 90))
    (property "Value" "1k" (id 1) (at 213.6648 70.6882 90))
    (property "Footprint" "Resistor_SMD:R_0805_2012Metric" (id 2) (at 213.6648 70.7136 0)
      (effects (font (size 1.27 1.27)) hide)
    )
    (property "Datasheet" "~" (id 3) (at 213.6648 70.7136 0)
      (effects (font (size 1.27 1.27)) hide)
    )
    (pin "1" (uuid 78f97989-a5cd-4f0a-b119-0510cc8d87d2))
    (pin "2" (uuid 6d34acfd-8ab0-45ab-acfb-52f951fe05f9))
  )

  (symbol (lib_id "Device:R_Small") (at 213.6648 73.2536 90) (unit 1)
    (in_bom yes) (on_board yes)
    (uuid 54eeae0f-fea7-4968-8002-daaa0660e15a)
    (property "Reference" "R4" (id 0) (at 210.6422 72.3138 90))
    (property "Value" "1k" (id 1) (at 213.6648 73.2282 90))
    (property "Footprint" "Resistor_SMD:R_0805_2012Metric" (id 2) (at 213.6648 73.2536 0)
      (effects (font (size 1.27 1.27)) hide)
    )
    (property "Datasheet" "~" (id 3) (at 213.6648 73.2536 0)
      (effects (font (size 1.27 1.27)) hide)
    )
    (pin "1" (uuid 3341239c-593d-4e1c-81ea-ed734c0fe5c8))
    (pin "2" (uuid efe4c7a2-c553-46fd-8099-5830335b91c4))
  )

  (symbol (lib_id "global:led_filament") (at 109.9058 84.6328 180) (unit 1)
    (in_bom yes) (on_board yes) (fields_autoplaced)
    (uuid 79127134-e4cf-4fe1-b38a-9e7e46fbcaa0)
    (property "Reference" "LF7" (id 0) (at 113.4595 71.12 0))
    (property "Value" "led_filament" (id 1) (at 113.4595 73.66 0))
    (property "Footprint" "Global:filament_30mm" (id 2) (at 109.9058 84.6328 0)
      (effects (font (size 1.27 1.27)) hide)
    )
    (property "Datasheet" "" (id 3) (at 109.9058 84.6328 0)
      (effects (font (size 1.27 1.27)) hide)
    )
    (pin "1" (uuid 45eb3385-3ec8-4ebd-8d69-0e5806158772))
    (pin "2" (uuid 0046b0eb-e0f6-414c-9960-f980c53dc03b))
  )

  (symbol (lib_name "led_filament_3") (lib_id "global:led_filament") (at 129.6416 94.361 270) (unit 1)
    (in_bom yes) (on_board yes)
    (uuid 7a720c1b-d6c4-4370-b067-5671bd430137)
    (property "Reference" "LF3" (id 0) (at 130.1496 89.5371 90)
      (effects (font (size 1.27 1.27)) (justify left))
    )
    (property "Value" "led_filament" (id 1) (at 130.1496 92.0771 90)
      (effects (font (size 1.27 1.27)) (justify left))
    )
    (property "Footprint" "Global:filament_30mm" (id 2) (at 129.6416 94.361 0)
      (effects (font (size 1.27 1.27)) hide)
    )
    (property "Datasheet" "" (id 3) (at 129.6416 94.361 0)
      (effects (font (size 1.27 1.27)) hide)
    )
    (pin "1" (uuid 27a67cac-0969-45f9-b3b9-e4c56e1e1e62))
    (pin "2" (uuid 55ccd5cf-8017-4dfe-8122-1445698614d0))
  )

  (symbol (lib_name "led_filament_5") (lib_id "global:led_filament") (at 97.0788 87.2744 90) (unit 1)
    (in_bom yes) (on_board yes)
    (uuid 8b379f4e-6dd2-42e2-9a7b-09f444362788)
    (property "Reference" "LF5" (id 0) (at 92.329 89.0016 90)
      (effects (font (size 1.27 1.27)) (justify right))
    )
    (property "Value" "led_filament" (id 1) (at 83.4898 91.5162 90)
      (effects (font (size 1.27 1.27)) (justify right))
    )
    (property "Footprint" "Global:filament_30mm" (id 2) (at 97.0788 87.2744 0)
      (effects (font (size 1.27 1.27)) hide)
    )
    (property "Datasheet" "" (id 3) (at 97.0788 87.2744 0)
      (effects (font (size 1.27 1.27)) hide)
    )
    (pin "1" (uuid 94a363d6-b773-4065-8a2c-a4e59487af27))
    (pin "2" (uuid 14579aed-502d-4ebd-a0e4-79258a4eaec1))
  )

  (symbol (lib_id "Simulation_SPICE:DIODE") (at 166.751 98.5012 270) (unit 1)
    (in_bom yes) (on_board yes)
    (uuid 92b3e151-16e3-4f40-ae13-c45ccf89f82e)
    (property "Reference" "D1" (id 0) (at 161.544 96.9264 90))
    (property "Value" "DIODE" (id 1) (at 161.544 99.4664 90))
    (property "Footprint" "Diode_SMD:D_1206_3216Metric" (id 2) (at 166.751 98.5012 0)
      (effects (font (size 1.27 1.27)) hide)
    )
    (property "Datasheet" "~" (id 3) (at 166.751 98.5012 0)
      (effects (font (size 1.27 1.27)) hide)
    )
    (property "Spice_Netlist_Enabled" "Y" (id 4) (at 166.751 98.5012 0)
      (effects (font (size 1.27 1.27)) (justify left) hide)
    )
    (property "Spice_Primitive" "D" (id 5) (at 166.751 98.5012 0)
      (effects (font (size 1.27 1.27)) (justify left) hide)
    )
    (pin "1" (uuid 7e24a597-bc38-4844-80ff-8a92b1993e9b))
    (pin "2" (uuid 5643f276-dcb9-4d0d-8c6c-ca1487c15ca0))
  )

  (symbol (lib_id "Device:R_Small") (at 213.6394 68.1736 90) (unit 1)
    (in_bom yes) (on_board yes)
    (uuid 9638cacb-bfdc-4ac2-9e63-def395fe0f77)
    (property "Reference" "R2" (id 0) (at 210.6168 67.2338 90))
    (property "Value" "1k" (id 1) (at 213.6394 68.1482 90))
    (property "Footprint" "Resistor_SMD:R_0805_2012Metric" (id 2) (at 213.6394 68.1736 0)
      (effects (font (size 1.27 1.27)) hide)
    )
    (property "Datasheet" "~" (id 3) (at 213.6394 68.1736 0)
      (effects (font (size 1.27 1.27)) hide)
    )
    (pin "1" (uuid a49c64e5-e980-427e-8cda-16308a069056))
    (pin "2" (uuid 5f5207f6-f836-4b2c-a245-314222405171))
  )

  (symbol (lib_id "Device:R_Small") (at 213.6648 80.8736 90) (unit 1)
    (in_bom yes) (on_board yes)
    (uuid 98ba0111-eb45-4852-ba18-5c88407e53e4)
    (property "Reference" "R7" (id 0) (at 210.6422 79.9338 90))
    (property "Value" "1k" (id 1) (at 213.6648 80.8482 90))
    (property "Footprint" "Resistor_SMD:R_0805_2012Metric" (id 2) (at 213.6648 80.8736 0)
      (effects (font (size 1.27 1.27)) hide)
    )
    (property "Datasheet" "~" (id 3) (at 213.6648 80.8736 0)
      (effects (font (size 1.27 1.27)) hide)
    )
    (pin "1" (uuid 7b5a1ef7-8c0d-4e09-a90b-c84413a3c102))
    (pin "2" (uuid c847a3a9-e046-479d-b4e1-c54f727d2948))
  )

  (symbol (lib_id "Device:R_Small") (at 213.6648 78.3336 90) (unit 1)
    (in_bom yes) (on_board yes)
    (uuid a3cbb4b2-983f-48bc-8927-bf72106f0c33)
    (property "Reference" "R6" (id 0) (at 210.6422 77.3938 90))
    (property "Value" "1k" (id 1) (at 213.6648 78.3082 90))
    (property "Footprint" "Resistor_SMD:R_0805_2012Metric" (id 2) (at 213.6648 78.3336 0)
      (effects (font (size 1.27 1.27)) hide)
    )
    (property "Datasheet" "~" (id 3) (at 213.6648 78.3336 0)
      (effects (font (size 1.27 1.27)) hide)
    )
    (pin "1" (uuid e1cb23e8-5b33-47ba-951c-cb99dadc0151))
    (pin "2" (uuid c7d3a026-80ee-43c4-8b90-d127afe9d3de))
  )

  (symbol (lib_id "Device:R_Small") (at 213.6648 75.7936 90) (unit 1)
    (in_bom yes) (on_board yes)
    (uuid b909b012-11cb-4edc-bd5e-b096b5bc9ad5)
    (property "Reference" "R5" (id 0) (at 210.6422 74.8538 90))
    (property "Value" "1k" (id 1) (at 213.6648 75.7682 90))
    (property "Footprint" "Resistor_SMD:R_0805_2012Metric" (id 2) (at 213.6648 75.7936 0)
      (effects (font (size 1.27 1.27)) hide)
    )
    (property "Datasheet" "~" (id 3) (at 213.6648 75.7936 0)
      (effects (font (size 1.27 1.27)) hide)
    )
    (pin "1" (uuid d92a22c3-da50-44ac-a7da-66253665842b))
    (pin "2" (uuid 45e84c92-bdb7-4f4b-a11b-9d877c488208))
  )

  (symbol (lib_name "led_filament_4") (lib_id "global:led_filament") (at 116.8908 97.1804 0) (unit 1)
    (in_bom yes) (on_board yes)
    (uuid db199a02-b9cf-49b3-8c00-40bf996bb0ed)
    (property "Reference" "LF4" (id 0) (at 113.1062 107.188 0))
    (property "Value" "led_filament" (id 1) (at 113.1062 109.728 0))
    (property "Footprint" "Global:filament_30mm" (id 2) (at 116.8908 97.1804 0)
      (effects (font (size 1.27 1.27)) hide)
    )
    (property "Datasheet" "" (id 3) (at 116.8908 97.1804 0)
      (effects (font (size 1.27 1.27)) hide)
    )
    (pin "1" (uuid ac8a4a5c-76b3-4106-bdb6-089e11816d28))
    (pin "2" (uuid 6e50a44a-ef59-413a-a0c7-6e36258c1f2a))
  )

  (symbol (lib_name "led_filament_1") (lib_id "global:led_filament") (at 117.094 52.4764 0) (unit 1)
    (in_bom yes) (on_board yes) (fields_autoplaced)
    (uuid de8f50cd-8231-41f6-aa00-77e3db9339f9)
    (property "Reference" "LF1" (id 0) (at 113.5402 50.8 0))
    (property "Value" "led_filament" (id 1) (at 113.5402 53.34 0))
    (property "Footprint" "Global:filament_30mm" (id 2) (at 117.094 52.4764 0)
      (effects (font (size 1.27 1.27)) hide)
    )
    (property "Datasheet" "" (id 3) (at 117.094 52.4764 0)
      (effects (font (size 1.27 1.27)) hide)
    )
    (pin "1" (uuid 6f31d443-e50b-4033-970d-c99d7a0f5a22))
    (pin "2" (uuid bbad4da2-494b-4a84-baad-e0e47e8a2cd6))
  )

  (symbol (lib_id "Device:R_Small") (at 213.6648 65.6336 90) (unit 1)
    (in_bom yes) (on_board yes)
    (uuid f2ccfde5-ca31-4ab6-a0fc-73cd2205d508)
    (property "Reference" "R1" (id 0) (at 210.6422 64.6938 90))
    (property "Value" "1k" (id 1) (at 213.6648 65.6082 90))
    (property "Footprint" "Resistor_SMD:R_0805_2012Metric" (id 2) (at 213.6648 65.6336 0)
      (effects (font (size 1.27 1.27)) hide)
    )
    (property "Datasheet" "~" (id 3) (at 213.6648 65.6336 0)
      (effects (font (size 1.27 1.27)) hide)
    )
    (pin "1" (uuid c4cf19e2-daa1-4854-8d5d-15d9c353dc1f))
    (pin "2" (uuid 320b3152-39bc-41e3-9446-688d9d8f99b6))
  )

  (sheet_instances
    (path "/" (page "1"))
  )

  (symbol_instances
    (path "/92b3e151-16e3-4f40-ae13-c45ccf89f82e"
      (reference "D1") (unit 1) (value "DIODE") (footprint "Diode_SMD:D_1206_3216Metric")
    )
    (path "/2b2d7b8d-b859-421d-9bf8-7165441106d6"
      (reference "J1") (unit 1) (value "Conn_01x09") (footprint "Connector_PinHeader_2.54mm:PinHeader_1x09_P2.54mm_Vertical")
    )
    (path "/de8f50cd-8231-41f6-aa00-77e3db9339f9"
      (reference "LF1") (unit 1) (value "led_filament") (footprint "Global:filament_30mm")
    )
    (path "/38a94cb3-3adf-4193-9ace-ccc15b2ae89a"
      (reference "LF2") (unit 1) (value "led_filament") (footprint "Global:filament_30mm")
    )
    (path "/7a720c1b-d6c4-4370-b067-5671bd430137"
      (reference "LF3") (unit 1) (value "led_filament") (footprint "Global:filament_30mm")
    )
    (path "/db199a02-b9cf-49b3-8c00-40bf996bb0ed"
      (reference "LF4") (unit 1) (value "led_filament") (footprint "Global:filament_30mm")
    )
    (path "/8b379f4e-6dd2-42e2-9a7b-09f444362788"
      (reference "LF5") (unit 1) (value "led_filament") (footprint "Global:filament_30mm")
    )
    (path "/40df91db-5def-402c-b0c5-76d7726b2061"
      (reference "LF6") (unit 1) (value "led_filament") (footprint "Global:filament_30mm")
    )
    (path "/79127134-e4cf-4fe1-b38a-9e7e46fbcaa0"
      (reference "LF7") (unit 1) (value "led_filament") (footprint "Global:filament_30mm")
    )
    (path "/f2ccfde5-ca31-4ab6-a0fc-73cd2205d508"
      (reference "R1") (unit 1) (value "1k") (footprint "Resistor_SMD:R_0805_2012Metric")
    )
    (path "/9638cacb-bfdc-4ac2-9e63-def395fe0f77"
      (reference "R2") (unit 1) (value "1k") (footprint "Resistor_SMD:R_0805_2012Metric")
    )
    (path "/534ad58d-e1bf-467f-a285-92ad39df818f"
      (reference "R3") (unit 1) (value "1k") (footprint "Resistor_SMD:R_0805_2012Metric")
    )
    (path "/54eeae0f-fea7-4968-8002-daaa0660e15a"
      (reference "R4") (unit 1) (value "1k") (footprint "Resistor_SMD:R_0805_2012Metric")
    )
    (path "/b909b012-11cb-4edc-bd5e-b096b5bc9ad5"
      (reference "R5") (unit 1) (value "1k") (footprint "Resistor_SMD:R_0805_2012Metric")
    )
    (path "/a3cbb4b2-983f-48bc-8927-bf72106f0c33"
      (reference "R6") (unit 1) (value "1k") (footprint "Resistor_SMD:R_0805_2012Metric")
    )
    (path "/98ba0111-eb45-4852-ba18-5c88407e53e4"
      (reference "R7") (unit 1) (value "1k") (footprint "Resistor_SMD:R_0805_2012Metric")
    )
    (path "/3ab11bbf-6faa-4241-a577-323294b99ed7"
      (reference "R8") (unit 1) (value "1k") (footprint "Resistor_SMD:R_0805_2012Metric")
    )
  )
)
